(kicad_sch (version 20211123) (generator eeschema)

  (uuid c7d07fdc-aa65-4ebd-af37-07bc9a025f7f)

  (paper "A4")

  (title_block
    (title "Libre Solar BMS C1")
    (date "2022-09-30")
    (rev "0.3.1")
    (company "Libre Solar Technologies GmbH")
    (comment 1 "Website: https://libre.solar")
    (comment 2 "Author: Martin Jäger")
    (comment 3 "License: CERN-OHL-W")
  )

  (lib_symbols
    (symbol "Device:L_Small" (pin_numbers hide) (pin_names (offset 0.254) hide) (in_bom yes) (on_board yes)
      (property "Reference" "L" (id 0) (at 0.762 1.016 0)
        (effects (font (size 1.27 1.27)) (justify left))
      )
      (property "Value" "L_Small" (id 1) (at 0.762 -1.016 0)
        (effects (font (size 1.27 1.27)) (justify left))
      )
      (property "Footprint" "" (id 2) (at 0 0 0)
        (effects (font (size 1.27 1.27)) hide)
      )
      (property "Datasheet" "~" (id 3) (at 0 0 0)
        (effects (font (size 1.27 1.27)) hide)
      )
      (property "ki_keywords" "inductor choke coil reactor magnetic" (id 4) (at 0 0 0)
        (effects (font (size 1.27 1.27)) hide)
      )
      (property "ki_description" "Inductor, small symbol" (id 5) (at 0 0 0)
        (effects (font (size 1.27 1.27)) hide)
      )
      (property "ki_fp_filters" "Choke_* *Coil* Inductor_* L_*" (id 6) (at 0 0 0)
        (effects (font (size 1.27 1.27)) hide)
      )
      (symbol "L_Small_0_1"
        (arc (start 0 -2.032) (mid 0.508 -1.524) (end 0 -1.016)
          (stroke (width 0) (type default) (color 0 0 0 0))
          (fill (type none))
        )
        (arc (start 0 -1.016) (mid 0.508 -0.508) (end 0 0)
          (stroke (width 0) (type default) (color 0 0 0 0))
          (fill (type none))
        )
        (arc (start 0 0) (mid 0.508 0.508) (end 0 1.016)
          (stroke (width 0) (type default) (color 0 0 0 0))
          (fill (type none))
        )
        (arc (start 0 1.016) (mid 0.508 1.524) (end 0 2.032)
          (stroke (width 0) (type default) (color 0 0 0 0))
          (fill (type none))
        )
      )
      (symbol "L_Small_1_1"
        (pin passive line (at 0 2.54 270) (length 0.508)
          (name "~" (effects (font (size 1.27 1.27))))
          (number "1" (effects (font (size 1.27 1.27))))
        )
        (pin passive line (at 0 -2.54 90) (length 0.508)
          (name "~" (effects (font (size 1.27 1.27))))
          (number "2" (effects (font (size 1.27 1.27))))
        )
      )
    )
    (symbol "LibreSolar:C" (pin_numbers hide) (pin_names (offset 0.254) hide) (in_bom yes) (on_board yes)
      (property "Reference" "C" (id 0) (at 0.635 1.905 0)
        (effects (font (size 1.27 1.27)) (justify left))
      )
      (property "Value" "C" (id 1) (at 0.635 -1.905 0)
        (effects (font (size 1.27 1.27)) (justify left))
      )
      (property "Footprint" "" (id 2) (at 0 -5.08 0)
        (effects (font (size 1.27 1.27)) hide)
      )
      (property "Datasheet" "" (id 3) (at 0.635 1.905 0)
        (effects (font (size 1.27 1.27)) hide)
      )
      (property "ki_keywords" "capacitor" (id 4) (at 0 0 0)
        (effects (font (size 1.27 1.27)) hide)
      )
      (property "ki_description" "Unpolarized capacitor" (id 5) (at 0 0 0)
        (effects (font (size 1.27 1.27)) hide)
      )
      (property "ki_fp_filters" "C? C_????_* C_???? SMD*_c Capacitor*" (id 6) (at 0 0 0)
        (effects (font (size 1.27 1.27)) hide)
      )
      (symbol "C_0_1"
        (polyline
          (pts
            (xy -1.524 -0.508)
            (xy 1.524 -0.508)
          )
          (stroke (width 0.3302) (type default) (color 0 0 0 0))
          (fill (type none))
        )
        (polyline
          (pts
            (xy -1.524 0.508)
            (xy 0 0.508)
            (xy 1.524 0.508)
          )
          (stroke (width 0.3048) (type default) (color 0 0 0 0))
          (fill (type none))
        )
      )
      (symbol "C_1_1"
        (pin passive line (at 0 2.54 270) (length 1.905)
          (name "~" (effects (font (size 1.016 1.016))))
          (number "1" (effects (font (size 1.016 1.016))))
        )
        (pin passive line (at 0 -2.54 90) (length 2.032)
          (name "~" (effects (font (size 1.016 1.016))))
          (number "2" (effects (font (size 1.016 1.016))))
        )
      )
    )
    (symbol "LibreSolar:D_Schottky" (pin_numbers hide) (pin_names (offset 0.254) hide) (in_bom yes) (on_board yes)
      (property "Reference" "D" (id 0) (at 0 2.54 0)
        (effects (font (size 1.27 1.27)))
      )
      (property "Value" "D_Schottky" (id 1) (at 0 -2.54 0)
        (effects (font (size 1.27 1.27)))
      )
      (property "Footprint" "" (id 2) (at -2.54 0 0)
        (effects (font (size 1.27 1.27)) hide)
      )
      (property "Datasheet" "" (id 3) (at 0 2.54 0)
        (effects (font (size 1.27 1.27)) hide)
      )
      (property "ki_keywords" "schottky diode" (id 4) (at 0 0 0)
        (effects (font (size 1.27 1.27)) hide)
      )
      (property "ki_description" "Schottky diode" (id 5) (at 0 0 0)
        (effects (font (size 1.27 1.27)) hide)
      )
      (property "ki_fp_filters" "Diode_* D-Pak_TO252AA *SingleDiode *SingleDiode* *_Diode_*" (id 6) (at 0 0 0)
        (effects (font (size 1.27 1.27)) hide)
      )
      (symbol "D_Schottky_0_1"
        (polyline
          (pts
            (xy -1.016 -1.27)
            (xy -1.016 1.27)
          )
          (stroke (width 0.2032) (type default) (color 0 0 0 0))
          (fill (type none))
        )
        (polyline
          (pts
            (xy 1.27 0)
            (xy -1.27 0)
          )
          (stroke (width 0) (type default) (color 0 0 0 0))
          (fill (type none))
        )
        (polyline
          (pts
            (xy -1.016 -1.27)
            (xy -1.524 -1.27)
            (xy -1.524 -0.762)
          )
          (stroke (width 0.2032) (type default) (color 0 0 0 0))
          (fill (type none))
        )
        (polyline
          (pts
            (xy -1.016 1.27)
            (xy -0.508 1.27)
            (xy -0.508 0.762)
          )
          (stroke (width 0.2032) (type default) (color 0 0 0 0))
          (fill (type none))
        )
        (polyline
          (pts
            (xy 1.27 -1.27)
            (xy -1.016 0)
            (xy 1.27 1.27)
            (xy 1.27 -1.27)
          )
          (stroke (width 0.2032) (type default) (color 0 0 0 0))
          (fill (type none))
        )
      )
      (symbol "D_Schottky_1_1"
        (pin passive line (at -2.54 0 0) (length 1.27)
          (name "K" (effects (font (size 1.27 1.27))))
          (number "1" (effects (font (size 1.27 1.27))))
        )
        (pin passive line (at 2.54 0 180) (length 1.27)
          (name "A" (effects (font (size 1.27 1.27))))
          (number "2" (effects (font (size 1.27 1.27))))
        )
      )
    )
    (symbol "LibreSolar:LMR16030" (in_bom yes) (on_board yes)
      (property "Reference" "U" (id 0) (at -10.16 8.89 0)
        (effects (font (size 1.27 1.27)) (justify left))
      )
      (property "Value" "LMR16030" (id 1) (at 10.16 8.89 0)
        (effects (font (size 1.27 1.27)) (justify right))
      )
      (property "Footprint" "Package_SO:SOIC-8-1EP_3.9x4.9mm_P1.27mm_EP2.29x3mm" (id 2) (at 7.62 -12.7 0)
        (effects (font (size 1.27 1.27)) (justify left) hide)
      )
      (property "Datasheet" "https://www.ti.com/lit/ds/symlink/lmr16030.pdf" (id 3) (at 0 12.7 0)
        (effects (font (size 1.27 1.27)) hide)
      )
      (property "ki_keywords" "Step-Down Regulator" (id 4) (at 0 0 0)
        (effects (font (size 1.27 1.27)) hide)
      )
      (property "ki_description" " SIMPLE SWITCHER® 60-V, 3-A Step-Down Converter With 40-µA IQ" (id 5) (at 0 0 0)
        (effects (font (size 1.27 1.27)) hide)
      )
      (property "ki_fp_filters" "SOIC*1EP*3.9x4.9mm*P1.27mm*" (id 6) (at 0 0 0)
        (effects (font (size 1.27 1.27)) hide)
      )
      (symbol "LMR16030_0_1"
        (rectangle (start -10.16 7.62) (end 10.16 -10.16)
          (stroke (width 0.254) (type default) (color 0 0 0 0))
          (fill (type background))
        )
      )
      (symbol "LMR16030_1_1"
        (pin input line (at 12.7 5.08 180) (length 2.54)
          (name "BOOT" (effects (font (size 1.27 1.27))))
          (number "1" (effects (font (size 1.27 1.27))))
        )
        (pin power_in line (at -12.7 5.08 0) (length 2.54)
          (name "VIN" (effects (font (size 1.27 1.27))))
          (number "2" (effects (font (size 1.27 1.27))))
        )
        (pin input line (at -12.7 0 0) (length 2.54)
          (name "EN" (effects (font (size 1.27 1.27))))
          (number "3" (effects (font (size 1.27 1.27))))
        )
        (pin input line (at -12.7 -7.62 0) (length 2.54)
          (name "RT/SYNC" (effects (font (size 1.27 1.27))))
          (number "4" (effects (font (size 1.27 1.27))))
        )
        (pin input line (at 12.7 -7.62 180) (length 2.54)
          (name "FB" (effects (font (size 1.27 1.27))))
          (number "5" (effects (font (size 1.27 1.27))))
        )
        (pin output line (at -12.7 -2.54 0) (length 2.54)
          (name "SS/PGOOD" (effects (font (size 1.27 1.27))))
          (number "6" (effects (font (size 1.27 1.27))))
        )
        (pin power_in line (at 2.54 -12.7 90) (length 2.54)
          (name "GND" (effects (font (size 1.27 1.27))))
          (number "7" (effects (font (size 1.27 1.27))))
        )
        (pin power_out line (at 12.7 0 180) (length 2.54)
          (name "SW" (effects (font (size 1.27 1.27))))
          (number "8" (effects (font (size 1.27 1.27))))
        )
        (pin power_in line (at 5.08 -12.7 90) (length 2.54)
          (name "PADGND" (effects (font (size 1.27 1.27))))
          (number "9" (effects (font (size 1.27 1.27))))
        )
      )
    )
    (symbol "LibreSolar:R" (pin_numbers hide) (pin_names (offset 0.254) hide) (in_bom yes) (on_board yes)
      (property "Reference" "R" (id 0) (at -1.905 0 90)
        (effects (font (size 1.27 1.27)))
      )
      (property "Value" "R" (id 1) (at 1.905 0 90)
        (effects (font (size 1.27 1.27)))
      )
      (property "Footprint" "" (id 2) (at -4.445 -2.54 0)
        (effects (font (size 1.27 1.27)) hide)
      )
      (property "Datasheet" "" (id 3) (at -1.905 0 0)
        (effects (font (size 1.27 1.27)) hide)
      )
      (property "ki_description" "Resistor" (id 4) (at 0 0 0)
        (effects (font (size 1.27 1.27)) hide)
      )
      (property "ki_fp_filters" "Resistor_* R_*" (id 5) (at 0 0 0)
        (effects (font (size 1.27 1.27)) hide)
      )
      (symbol "R_0_1"
        (rectangle (start -0.762 1.778) (end 0.762 -1.778)
          (stroke (width 0.2032) (type default) (color 0 0 0 0))
          (fill (type none))
        )
      )
      (symbol "R_1_1"
        (pin passive line (at 0 2.54 270) (length 0.762)
          (name "~" (effects (font (size 1.016 1.016))))
          (number "1" (effects (font (size 1.016 1.016))))
        )
        (pin passive line (at 0 -2.54 90) (length 0.762)
          (name "~" (effects (font (size 1.016 1.016))))
          (number "2" (effects (font (size 1.016 1.016))))
        )
      )
    )
    (symbol "power:+3.3V" (power) (pin_names (offset 0)) (in_bom yes) (on_board yes)
      (property "Reference" "#PWR" (id 0) (at 0 -3.81 0)
        (effects (font (size 1.27 1.27)) hide)
      )
      (property "Value" "+3.3V" (id 1) (at 0 3.556 0)
        (effects (font (size 1.27 1.27)))
      )
      (property "Footprint" "" (id 2) (at 0 0 0)
        (effects (font (size 1.27 1.27)) hide)
      )
      (property "Datasheet" "" (id 3) (at 0 0 0)
        (effects (font (size 1.27 1.27)) hide)
      )
      (property "ki_keywords" "power-flag" (id 4) (at 0 0 0)
        (effects (font (size 1.27 1.27)) hide)
      )
      (property "ki_description" "Power symbol creates a global label with name \"+3.3V\"" (id 5) (at 0 0 0)
        (effects (font (size 1.27 1.27)) hide)
      )
      (symbol "+3.3V_0_1"
        (polyline
          (pts
            (xy -0.762 1.27)
            (xy 0 2.54)
          )
          (stroke (width 0) (type default) (color 0 0 0 0))
          (fill (type none))
        )
        (polyline
          (pts
            (xy 0 0)
            (xy 0 2.54)
          )
          (stroke (width 0) (type default) (color 0 0 0 0))
          (fill (type none))
        )
        (polyline
          (pts
            (xy 0 2.54)
            (xy 0.762 1.27)
          )
          (stroke (width 0) (type default) (color 0 0 0 0))
          (fill (type none))
        )
      )
      (symbol "+3.3V_1_1"
        (pin power_in line (at 0 0 90) (length 0) hide
          (name "+3V3" (effects (font (size 1.27 1.27))))
          (number "1" (effects (font (size 1.27 1.27))))
        )
      )
    )
    (symbol "power:+5V" (power) (pin_names (offset 0)) (in_bom yes) (on_board yes)
      (property "Reference" "#PWR" (id 0) (at 0 -3.81 0)
        (effects (font (size 1.27 1.27)) hide)
      )
      (property "Value" "+5V" (id 1) (at 0 3.556 0)
        (effects (font (size 1.27 1.27)))
      )
      (property "Footprint" "" (id 2) (at 0 0 0)
        (effects (font (size 1.27 1.27)) hide)
      )
      (property "Datasheet" "" (id 3) (at 0 0 0)
        (effects (font (size 1.27 1.27)) hide)
      )
      (property "ki_keywords" "power-flag" (id 4) (at 0 0 0)
        (effects (font (size 1.27 1.27)) hide)
      )
      (property "ki_description" "Power symbol creates a global label with name \"+5V\"" (id 5) (at 0 0 0)
        (effects (font (size 1.27 1.27)) hide)
      )
      (symbol "+5V_0_1"
        (polyline
          (pts
            (xy -0.762 1.27)
            (xy 0 2.54)
          )
          (stroke (width 0) (type default) (color 0 0 0 0))
          (fill (type none))
        )
        (polyline
          (pts
            (xy 0 0)
            (xy 0 2.54)
          )
          (stroke (width 0) (type default) (color 0 0 0 0))
          (fill (type none))
        )
        (polyline
          (pts
            (xy 0 2.54)
            (xy 0.762 1.27)
          )
          (stroke (width 0) (type default) (color 0 0 0 0))
          (fill (type none))
        )
      )
      (symbol "+5V_1_1"
        (pin power_in line (at 0 0 90) (length 0) hide
          (name "+5V" (effects (font (size 1.27 1.27))))
          (number "1" (effects (font (size 1.27 1.27))))
        )
      )
    )
    (symbol "power:GND" (power) (pin_names (offset 0)) (in_bom yes) (on_board yes)
      (property "Reference" "#PWR" (id 0) (at 0 -6.35 0)
        (effects (font (size 1.27 1.27)) hide)
      )
      (property "Value" "GND" (id 1) (at 0 -3.81 0)
        (effects (font (size 1.27 1.27)))
      )
      (property "Footprint" "" (id 2) (at 0 0 0)
        (effects (font (size 1.27 1.27)) hide)
      )
      (property "Datasheet" "" (id 3) (at 0 0 0)
        (effects (font (size 1.27 1.27)) hide)
      )
      (property "ki_keywords" "power-flag" (id 4) (at 0 0 0)
        (effects (font (size 1.27 1.27)) hide)
      )
      (property "ki_description" "Power symbol creates a global label with name \"GND\" , ground" (id 5) (at 0 0 0)
        (effects (font (size 1.27 1.27)) hide)
      )
      (symbol "GND_0_1"
        (polyline
          (pts
            (xy 0 0)
            (xy 0 -1.27)
            (xy 1.27 -1.27)
            (xy 0 -2.54)
            (xy -1.27 -1.27)
            (xy 0 -1.27)
          )
          (stroke (width 0) (type default) (color 0 0 0 0))
          (fill (type none))
        )
      )
      (symbol "GND_1_1"
        (pin power_in line (at 0 0 270) (length 0) hide
          (name "GND" (effects (font (size 1.27 1.27))))
          (number "1" (effects (font (size 1.27 1.27))))
        )
      )
    )
    (symbol "power:PWR_FLAG" (power) (pin_numbers hide) (pin_names (offset 0) hide) (in_bom yes) (on_board yes)
      (property "Reference" "#FLG" (id 0) (at 0 1.905 0)
        (effects (font (size 1.27 1.27)) hide)
      )
      (property "Value" "PWR_FLAG" (id 1) (at 0 3.81 0)
        (effects (font (size 1.27 1.27)))
      )
      (property "Footprint" "" (id 2) (at 0 0 0)
        (effects (font (size 1.27 1.27)) hide)
      )
      (property "Datasheet" "~" (id 3) (at 0 0 0)
        (effects (font (size 1.27 1.27)) hide)
      )
      (property "ki_keywords" "power-flag" (id 4) (at 0 0 0)
        (effects (font (size 1.27 1.27)) hide)
      )
      (property "ki_description" "Special symbol for telling ERC where power comes from" (id 5) (at 0 0 0)
        (effects (font (size 1.27 1.27)) hide)
      )
      (symbol "PWR_FLAG_0_0"
        (pin power_out line (at 0 0 90) (length 0)
          (name "pwr" (effects (font (size 1.27 1.27))))
          (number "1" (effects (font (size 1.27 1.27))))
        )
      )
      (symbol "PWR_FLAG_0_1"
        (polyline
          (pts
            (xy 0 0)
            (xy 0 1.27)
            (xy -1.016 1.905)
            (xy 0 2.54)
            (xy 1.016 1.905)
            (xy 0 1.27)
          )
          (stroke (width 0) (type default) (color 0 0 0 0))
          (fill (type none))
        )
      )
    )
  )

  (junction (at 149.86 96.52) (diameter 0) (color 0 0 0 0)
    (uuid 0f37e487-b440-4f70-8245-adf0b0469876)
  )
  (junction (at 106.68 76.2) (diameter 0) (color 0 0 0 0)
    (uuid 2adbc8b2-e12c-4c9d-9e7c-8fccc0c8f0eb)
  )
  (junction (at 190.5 81.28) (diameter 0.9144) (color 0 0 0 0)
    (uuid 4e9a87a3-418a-43a4-a902-c2e3103424a6)
  )
  (junction (at 86.36 76.2) (diameter 0.9144) (color 0 0 0 0)
    (uuid 56ff2288-13d4-4098-a5c7-84a24b2613d1)
  )
  (junction (at 195.58 81.28) (diameter 0) (color 0 0 0 0)
    (uuid 7a2471cf-1b2e-4f11-b404-a08667ed5e3f)
  )
  (junction (at 210.82 81.28) (diameter 0.9144) (color 0 0 0 0)
    (uuid 836c1b72-6495-4f81-a125-58f0f7d787c2)
  )
  (junction (at 96.52 76.2) (diameter 0.9144) (color 0 0 0 0)
    (uuid 93ef09ab-58f4-40ee-8d2b-6370d66890c0)
  )
  (junction (at 78.74 76.2) (diameter 0) (color 0 0 0 0)
    (uuid ba1689e2-7ed3-4552-b00c-53c367370453)
  )
  (junction (at 162.56 81.28) (diameter 0) (color 0 0 0 0)
    (uuid cfd770be-9835-4b65-897f-2cdfb4f8c944)
  )
  (junction (at 175.26 81.28) (diameter 0.9144) (color 0 0 0 0)
    (uuid d2f6c7ec-fb14-4c80-b507-e05e76c13bdf)
  )
  (junction (at 190.5 91.44) (diameter 0.9144) (color 0 0 0 0)
    (uuid d51ba27b-8ed7-4eca-b0be-3ba1363dff58)
  )
  (junction (at 200.66 81.28) (diameter 0.9144) (color 0 0 0 0)
    (uuid ea31f51c-3f0e-4e37-9fd4-9e1b1b7d7784)
  )
  (junction (at 114.3 76.2) (diameter 0.9144) (color 0 0 0 0)
    (uuid fb07492c-d4ca-4a78-b92a-c3b14ed44b3f)
  )

  (no_connect (at 134.62 83.82) (uuid ab38d8a4-165f-4ef9-a4af-0a416fb4e33e))

  (wire (pts (xy 162.56 81.28) (xy 175.26 81.28))
    (stroke (width 0) (type default) (color 0 0 0 0))
    (uuid 06c9d7fb-c6c9-4320-a323-b2450ade3de1)
  )
  (wire (pts (xy 184.15 81.28) (xy 190.5 81.28))
    (stroke (width 0) (type solid) (color 0 0 0 0))
    (uuid 0b5b5acb-f95a-4c8b-9d58-7b1f732aa5d4)
  )
  (wire (pts (xy 210.82 81.28) (xy 210.82 91.44))
    (stroke (width 0) (type solid) (color 0 0 0 0))
    (uuid 17560c21-9e22-4106-baac-e08db00fc591)
  )
  (wire (pts (xy 162.56 99.06) (xy 162.56 101.6))
    (stroke (width 0) (type default) (color 0 0 0 0))
    (uuid 1a5a2654-6705-4861-9926-e6373125c40b)
  )
  (wire (pts (xy 170.18 88.9) (xy 170.18 91.44))
    (stroke (width 0) (type solid) (color 0 0 0 0))
    (uuid 1b0cabab-210d-4688-8833-074e5e25c779)
  )
  (wire (pts (xy 86.36 76.2) (xy 86.36 81.28))
    (stroke (width 0) (type solid) (color 0 0 0 0))
    (uuid 1b49ae09-40e9-41a8-bd2a-1caaabb90273)
  )
  (wire (pts (xy 190.5 88.9) (xy 190.5 91.44))
    (stroke (width 0) (type solid) (color 0 0 0 0))
    (uuid 2196c042-88f5-45ac-b3c5-17a86e1016da)
  )
  (wire (pts (xy 200.66 81.28) (xy 210.82 81.28))
    (stroke (width 0) (type solid) (color 0 0 0 0))
    (uuid 21d42c25-4636-464b-9321-47ecbfdcaca1)
  )
  (wire (pts (xy 86.36 88.9) (xy 86.36 86.36))
    (stroke (width 0) (type solid) (color 0 0 0 0))
    (uuid 405a6b3f-2aaf-4f7a-8891-d9c0096dab8d)
  )
  (wire (pts (xy 78.74 73.66) (xy 78.74 76.2))
    (stroke (width 0) (type default) (color 0 0 0 0))
    (uuid 46b85061-abb6-4940-8818-340dd0c65e44)
  )
  (wire (pts (xy 210.82 78.74) (xy 210.82 81.28))
    (stroke (width 0) (type solid) (color 0 0 0 0))
    (uuid 513675c0-dfb3-4eb7-a5b9-e3006032425a)
  )
  (wire (pts (xy 152.4 96.52) (xy 152.4 93.98))
    (stroke (width 0) (type default) (color 0 0 0 0))
    (uuid 5585b8dc-8edb-4e13-ad7c-7651e465231c)
  )
  (wire (pts (xy 210.82 96.52) (xy 210.82 101.6))
    (stroke (width 0) (type solid) (color 0 0 0 0))
    (uuid 59ddbb4a-c60a-44f4-8ca3-19c7ff3b6548)
  )
  (wire (pts (xy 106.68 76.2) (xy 106.68 81.28))
    (stroke (width 0) (type default) (color 0 0 0 0))
    (uuid 5c655dfb-5f42-4213-a969-1e4dfee6d919)
  )
  (wire (pts (xy 132.08 96.52) (xy 132.08 99.06))
    (stroke (width 0) (type default) (color 0 0 0 0))
    (uuid 613b2cc9-82ad-42d6-b759-58d2e44c2f87)
  )
  (wire (pts (xy 132.08 91.44) (xy 132.08 88.9))
    (stroke (width 0) (type default) (color 0 0 0 0))
    (uuid 61e2e74a-9caa-4039-bfbe-423324587474)
  )
  (wire (pts (xy 96.52 76.2) (xy 106.68 76.2))
    (stroke (width 0) (type solid) (color 0 0 0 0))
    (uuid 69b38206-c74e-4b3c-afc4-299f34b4ed2a)
  )
  (wire (pts (xy 106.68 86.36) (xy 106.68 88.9))
    (stroke (width 0) (type default) (color 0 0 0 0))
    (uuid 6aab8f19-57f6-4f9a-9810-2cf8ffa76257)
  )
  (wire (pts (xy 190.5 81.28) (xy 190.5 83.82))
    (stroke (width 0) (type solid) (color 0 0 0 0))
    (uuid 75490c56-0cc6-4f80-814c-48c2c63c8a31)
  )
  (wire (pts (xy 195.58 76.2) (xy 195.58 81.28))
    (stroke (width 0) (type default) (color 0 0 0 0))
    (uuid 777949b0-0a3a-46b3-ab10-037461126755)
  )
  (wire (pts (xy 63.5 76.2) (xy 68.58 76.2))
    (stroke (width 0) (type default) (color 0 0 0 0))
    (uuid 78c256b6-ad0d-4dad-b34a-070003989701)
  )
  (wire (pts (xy 114.3 76.2) (xy 134.62 76.2))
    (stroke (width 0) (type default) (color 0 0 0 0))
    (uuid 7b98bca5-8da6-4948-b5c7-4f5a011121c6)
  )
  (wire (pts (xy 170.18 91.44) (xy 190.5 91.44))
    (stroke (width 0) (type solid) (color 0 0 0 0))
    (uuid 7bb2334b-1976-4643-bb4d-b2bb7c5ea98f)
  )
  (wire (pts (xy 171.45 76.2) (xy 175.26 76.2))
    (stroke (width 0) (type solid) (color 0 0 0 0))
    (uuid 7ca2917b-0c65-4708-bee0-0534dc746242)
  )
  (wire (pts (xy 73.66 76.2) (xy 78.74 76.2))
    (stroke (width 0) (type solid) (color 0 0 0 0))
    (uuid 7d040ffc-9ec0-4a3b-82bd-4306ac4c1505)
  )
  (wire (pts (xy 114.3 73.66) (xy 114.3 76.2))
    (stroke (width 0) (type solid) (color 0 0 0 0))
    (uuid 8acbecf0-626e-4957-b5af-273a5147e33d)
  )
  (wire (pts (xy 96.52 81.28) (xy 96.52 76.2))
    (stroke (width 0) (type solid) (color 0 0 0 0))
    (uuid 916ca824-2532-4504-ae83-a22ee054b5de)
  )
  (wire (pts (xy 149.86 96.52) (xy 149.86 99.06))
    (stroke (width 0) (type default) (color 0 0 0 0))
    (uuid 95232272-c4f3-4d94-87be-be0a40b9b1ac)
  )
  (wire (pts (xy 96.52 88.9) (xy 96.52 86.36))
    (stroke (width 0) (type solid) (color 0 0 0 0))
    (uuid a20b92aa-dec4-46ef-9d68-339e2a5dbad3)
  )
  (wire (pts (xy 106.68 76.2) (xy 114.3 76.2))
    (stroke (width 0) (type solid) (color 0 0 0 0))
    (uuid a65d545d-5b61-4520-a98e-6577807b717e)
  )
  (wire (pts (xy 190.5 81.28) (xy 195.58 81.28))
    (stroke (width 0) (type solid) (color 0 0 0 0))
    (uuid ab3336fb-1279-46dc-9b77-314744751d50)
  )
  (wire (pts (xy 160.02 81.28) (xy 162.56 81.28))
    (stroke (width 0) (type default) (color 0 0 0 0))
    (uuid ac7dbc5c-b4bc-44c0-a190-27514962e87d)
  )
  (wire (pts (xy 149.86 96.52) (xy 152.4 96.52))
    (stroke (width 0) (type default) (color 0 0 0 0))
    (uuid ad4c962a-d426-4fff-9989-94c5ce8549eb)
  )
  (wire (pts (xy 132.08 88.9) (xy 134.62 88.9))
    (stroke (width 0) (type default) (color 0 0 0 0))
    (uuid ae5b6fe0-3db4-4aa8-84fb-cb4cc8813439)
  )
  (wire (pts (xy 175.26 81.28) (xy 179.07 81.28))
    (stroke (width 0) (type solid) (color 0 0 0 0))
    (uuid b25fbade-efe2-4b0f-a897-f300e1e5c481)
  )
  (wire (pts (xy 78.74 76.2) (xy 86.36 76.2))
    (stroke (width 0) (type solid) (color 0 0 0 0))
    (uuid c5a2bebd-6d50-42ad-a93d-896db43bb58b)
  )
  (wire (pts (xy 160.02 88.9) (xy 170.18 88.9))
    (stroke (width 0) (type default) (color 0 0 0 0))
    (uuid c91ce8d1-6e18-46fb-9245-b33f821c3ee3)
  )
  (wire (pts (xy 78.74 66.04) (xy 78.74 68.58))
    (stroke (width 0) (type default) (color 0 0 0 0))
    (uuid cd7aed14-2695-4a10-a089-c18f020e6bd7)
  )
  (wire (pts (xy 175.26 76.2) (xy 175.26 81.28))
    (stroke (width 0) (type solid) (color 0 0 0 0))
    (uuid d2471df4-4b28-409d-95a4-848fb5cc71f0)
  )
  (wire (pts (xy 200.66 81.28) (xy 200.66 91.44))
    (stroke (width 0) (type solid) (color 0 0 0 0))
    (uuid d3a759a8-c50d-4839-af41-b9d78d8f7797)
  )
  (wire (pts (xy 195.58 81.28) (xy 200.66 81.28))
    (stroke (width 0) (type solid) (color 0 0 0 0))
    (uuid d8232cd0-5e06-4bbe-87b2-7844ac15fdc3)
  )
  (wire (pts (xy 190.5 101.6) (xy 190.5 99.06))
    (stroke (width 0) (type solid) (color 0 0 0 0))
    (uuid d8775fc2-6e34-40fb-a29b-01c50fadfe1d)
  )
  (wire (pts (xy 134.62 81.28) (xy 124.46 81.28))
    (stroke (width 0) (type default) (color 0 0 0 0))
    (uuid d8d21944-a11d-4bf5-a07b-38428ac7e58b)
  )
  (wire (pts (xy 190.5 91.44) (xy 190.5 93.98))
    (stroke (width 0) (type solid) (color 0 0 0 0))
    (uuid dff0dfa8-8bfd-4b8b-b7fe-4cea3ff6640f)
  )
  (wire (pts (xy 162.56 81.28) (xy 162.56 93.98))
    (stroke (width 0) (type default) (color 0 0 0 0))
    (uuid e4c34588-b221-4f85-9d8e-74706f33e87f)
  )
  (wire (pts (xy 160.02 76.2) (xy 166.37 76.2))
    (stroke (width 0) (type solid) (color 0 0 0 0))
    (uuid e69ee5fb-3854-4df9-ba5b-0cd3cbba4fa8)
  )
  (wire (pts (xy 86.36 76.2) (xy 96.52 76.2))
    (stroke (width 0) (type default) (color 0 0 0 0))
    (uuid e88a4343-5a7c-42f1-a467-52fe4f8b8acc)
  )
  (wire (pts (xy 200.66 96.52) (xy 200.66 101.6))
    (stroke (width 0) (type solid) (color 0 0 0 0))
    (uuid f60da65e-63c5-4298-a8f8-ae1e1cbe51ff)
  )
  (wire (pts (xy 149.86 93.98) (xy 149.86 96.52))
    (stroke (width 0) (type default) (color 0 0 0 0))
    (uuid f7b493ef-124e-44bf-ad8a-06037d49e4b8)
  )

  (text "ESP32-C3 requires power supply with at least 500 mA"
    (at 129.54 44.45 0)
    (effects (font (size 1.27 1.27)) (justify left bottom))
    (uuid 1b82f4b8-d8c2-477a-8fce-e7454498d593)
  )
  (text "Diode must withstand >60V\nunder normal operation and\n>1A if powered via USB."
    (at 73.66 57.15 0)
    (effects (font (size 1.27 1.27)) (justify left bottom))
    (uuid 407c451f-92ac-4f92-819e-4e45af0de232)
  )
  (text "Remark: LMR38020 is a more suitable alternative for\nthe LMR16030, but it was not available as of 08/2022\ndue to chip crisis."
    (at 121.92 63.5 0)
    (effects (font (size 1.27 1.27)) (justify left bottom))
    (uuid 534f895e-4f5d-45af-b4aa-93b8dc761398)
  )
  (text "Layout for 500 kHz, 2A output\n\nFor a future 500 mA SMPS (after chip\nshortage) the PMEG10010ELRX can be\nre-used for D9 to reduce part variation."
    (at 127 123.19 0)
    (effects (font (size 1.27 1.27)) (justify left bottom))
    (uuid 8d3656dd-e4e5-4ae9-bcf1-4ba73ee68d6f)
  )
  (text "Battery to 3.3V (SMPS)" (at 129.54 38.1 0)
    (effects (font (size 2.54 2.54)) (justify left bottom))
    (uuid d1e49dea-7034-403c-870b-ac67b3edbda7)
  )
  (text "Vref = 0.75V" (at 172.72 93.98 0)
    (effects (font (size 1.27 1.27)) (justify left bottom))
    (uuid eeda4907-58fc-440e-b022-04df9fe0b83b)
  )

  (label "SW" (at 165.1 81.28 0)
    (effects (font (size 1.27 1.27)) (justify left bottom))
    (uuid 6d64121a-9949-4f0a-ba9e-6005d0ce6a95)
  )
  (label "VIN" (at 124.46 76.2 0)
    (effects (font (size 1.27 1.27)) (justify left bottom))
    (uuid 90c78145-a124-41a5-97de-715838fe431d)
  )
  (label "FB" (at 165.1 88.9 0)
    (effects (font (size 1.27 1.27)) (justify left bottom))
    (uuid cbb85cdc-e7d0-4213-93d9-dcc2732e8e16)
  )

  (hierarchical_label "EN" (shape input) (at 124.46 81.28 180)
    (effects (font (size 1.27 1.27)) (justify right))
    (uuid 84aaac67-18df-45ab-9af5-102144b8df79)
  )
  (hierarchical_label "BAT+" (shape input) (at 63.5 76.2 180)
    (effects (font (size 1.27 1.27)) (justify right))
    (uuid 96faa92b-510f-4207-8d6a-b34445d1d56c)
  )

  (symbol (lib_id "power:GND") (at 210.82 101.6 0) (unit 1)
    (in_bom yes) (on_board yes)
    (uuid 00000000-0000-0000-0000-00005c685caa)
    (property "Reference" "#PWR0121" (id 0) (at 210.82 107.95 0)
      (effects (font (size 1.27 1.27)) hide)
    )
    (property "Value" "GND" (id 1) (at 210.82 105.41 0))
    (property "Footprint" "" (id 2) (at 210.82 101.6 0))
    (property "Datasheet" "" (id 3) (at 210.82 101.6 0))
    (pin "1" (uuid 1b44792a-45b2-480e-9a2f-1c5c7ab866cf))
  )

  (symbol (lib_id "power:GND") (at 200.66 101.6 0) (unit 1)
    (in_bom yes) (on_board yes)
    (uuid 00000000-0000-0000-0000-00005c685cb0)
    (property "Reference" "#PWR0122" (id 0) (at 200.66 107.95 0)
      (effects (font (size 1.27 1.27)) hide)
    )
    (property "Value" "GND" (id 1) (at 200.66 105.41 0))
    (property "Footprint" "" (id 2) (at 200.66 101.6 0))
    (property "Datasheet" "" (id 3) (at 200.66 101.6 0))
    (pin "1" (uuid 7e3d44d3-8191-4813-82e7-e721eb1ac62f))
  )

  (symbol (lib_id "power:GND") (at 190.5 101.6 0) (unit 1)
    (in_bom yes) (on_board yes)
    (uuid 00000000-0000-0000-0000-00005c685cb6)
    (property "Reference" "#PWR0123" (id 0) (at 190.5 107.95 0)
      (effects (font (size 1.27 1.27)) hide)
    )
    (property "Value" "GND" (id 1) (at 190.5 105.41 0))
    (property "Footprint" "" (id 2) (at 190.5 101.6 0))
    (property "Datasheet" "" (id 3) (at 190.5 101.6 0))
    (pin "1" (uuid 1caeea4e-ec09-4f5f-b5d9-7e11c519cf99))
  )

  (symbol (lib_id "power:GND") (at 96.52 88.9 0) (unit 1)
    (in_bom yes) (on_board yes)
    (uuid 00000000-0000-0000-0000-00005c685cc2)
    (property "Reference" "#PWR0125" (id 0) (at 96.52 95.25 0)
      (effects (font (size 1.27 1.27)) hide)
    )
    (property "Value" "GND" (id 1) (at 96.52 92.71 0))
    (property "Footprint" "" (id 2) (at 96.52 88.9 0))
    (property "Datasheet" "" (id 3) (at 96.52 88.9 0))
    (pin "1" (uuid d8634cfb-cb76-4284-a430-a3dc7545cad0))
  )

  (symbol (lib_id "power:GND") (at 106.68 88.9 0) (unit 1)
    (in_bom yes) (on_board yes)
    (uuid 00000000-0000-0000-0000-00005c685cc8)
    (property "Reference" "#PWR0126" (id 0) (at 106.68 95.25 0)
      (effects (font (size 1.27 1.27)) hide)
    )
    (property "Value" "GND" (id 1) (at 106.68 92.71 0))
    (property "Footprint" "" (id 2) (at 106.68 88.9 0))
    (property "Datasheet" "" (id 3) (at 106.68 88.9 0))
    (pin "1" (uuid 3490c7f7-f46d-4cce-931a-2abec7559d42))
  )

  (symbol (lib_id "power:GND") (at 86.36 88.9 0) (unit 1)
    (in_bom yes) (on_board yes)
    (uuid 00000000-0000-0000-0000-00005c685cce)
    (property "Reference" "#PWR0127" (id 0) (at 86.36 95.25 0)
      (effects (font (size 1.27 1.27)) hide)
    )
    (property "Value" "GND" (id 1) (at 86.36 92.71 0))
    (property "Footprint" "" (id 2) (at 86.36 88.9 0))
    (property "Datasheet" "" (id 3) (at 86.36 88.9 0))
    (pin "1" (uuid 046634fd-77e6-42aa-b146-5c4d3f90d55f))
  )

  (symbol (lib_id "LibreSolar:R") (at 190.5 96.52 0) (unit 1)
    (in_bom yes) (on_board yes)
    (uuid 00000000-0000-0000-0000-00005c685cd6)
    (property "Reference" "R31" (id 0) (at 188.595 96.52 90))
    (property "Value" "29.4k" (id 1) (at 192.405 96.52 90))
    (property "Footprint" "LibreSolar:R_0603_1608" (id 2) (at 186.055 99.06 90)
      (effects (font (size 1.27 1.27)) hide)
    )
    (property "Datasheet" "" (id 3) (at 190.5 96.52 0))
    (property "Manufacturer" "any" (id 4) (at 45.72 172.72 0)
      (effects (font (size 1.27 1.27)) hide)
    )
    (property "Remarks" "1%" (id 6) (at 190.5 96.52 0)
      (effects (font (size 1.27 1.27)) hide)
    )
    (pin "1" (uuid 95921d0b-aa75-4579-9f59-e8d8b12cfc9e))
    (pin "2" (uuid 967bd6f6-6df5-4100-a694-f337547b9d45))
  )

  (symbol (lib_id "LibreSolar:C") (at 210.82 93.98 0) (unit 1)
    (in_bom yes) (on_board yes)
    (uuid 00000000-0000-0000-0000-00005c685ce0)
    (property "Reference" "C18" (id 0) (at 211.328 92.202 0)
      (effects (font (size 1.27 1.27)) (justify left))
    )
    (property "Value" "47µF" (id 1) (at 211.328 95.758 0)
      (effects (font (size 1.27 1.27)) (justify left))
    )
    (property "Footprint" "LibreSolar:C_1210_3225" (id 2) (at 210.82 93.98 0)
      (effects (font (size 1.27 1.27)) hide)
    )
    (property "Datasheet" "" (id 3) (at 210.82 93.98 0))
    (property "Manufacturer" "Samsung" (id 4) (at 45.72 166.37 0)
      (effects (font (size 1.27 1.27)) hide)
    )
    (property "PartNumber" "CL32B476MPJNNNE" (id 5) (at 45.72 166.37 0)
      (effects (font (size 1.27 1.27)) hide)
    )
    (property "Remarks" "10V, X5R" (id 6) (at 213.36 97.79 0)
      (effects (font (size 1.27 1.27)) hide)
    )
    (pin "1" (uuid dd060452-a051-4b27-a1b3-b3aff0e4a4df))
    (pin "2" (uuid dea61c92-a778-47a5-9bbf-fb97c99064c6))
  )

  (symbol (lib_id "LibreSolar:C") (at 200.66 93.98 0) (unit 1)
    (in_bom yes) (on_board yes)
    (uuid 00000000-0000-0000-0000-00005c685cea)
    (property "Reference" "C17" (id 0) (at 201.168 92.202 0)
      (effects (font (size 1.27 1.27)) (justify left))
    )
    (property "Value" "47µF" (id 1) (at 201.168 95.758 0)
      (effects (font (size 1.27 1.27)) (justify left))
    )
    (property "Footprint" "LibreSolar:C_1210_3225" (id 2) (at 200.66 93.98 0)
      (effects (font (size 1.27 1.27)) hide)
    )
    (property "Datasheet" "" (id 3) (at 200.66 93.98 0))
    (property "Manufacturer" "Samsung" (id 4) (at 45.72 166.37 0)
      (effects (font (size 1.27 1.27)) hide)
    )
    (property "PartNumber" "CL32B476MPJNNNE" (id 5) (at 45.72 166.37 0)
      (effects (font (size 1.27 1.27)) hide)
    )
    (property "Remarks" "10V, X5R" (id 6) (at 203.2 97.79 0)
      (effects (font (size 1.27 1.27)) hide)
    )
    (pin "1" (uuid 0e4122cf-614f-43dc-a7af-fc60111ceb85))
    (pin "2" (uuid 33281227-831a-447e-9c05-bd71923da9ce))
  )

  (symbol (lib_id "LibreSolar:R") (at 190.5 86.36 0) (unit 1)
    (in_bom yes) (on_board yes)
    (uuid 00000000-0000-0000-0000-00005c685cf3)
    (property "Reference" "R28" (id 0) (at 188.595 86.36 90))
    (property "Value" "100k" (id 1) (at 192.405 86.36 90))
    (property "Footprint" "LibreSolar:R_0603_1608" (id 2) (at 186.055 88.9 90)
      (effects (font (size 1.27 1.27)) hide)
    )
    (property "Datasheet" "" (id 3) (at 190.5 86.36 0))
    (property "Manufacturer" "any" (id 4) (at 45.72 152.4 0)
      (effects (font (size 1.27 1.27)) hide)
    )
    (property "PartNumber" "" (id 5) (at 45.72 152.4 0)
      (effects (font (size 1.27 1.27)) hide)
    )
    (property "Remarks" "1%" (id 6) (at 190.5 86.36 0)
      (effects (font (size 1.27 1.27)) hide)
    )
    (pin "1" (uuid 08868570-7cd4-4c40-bafc-515d62bd54c3))
    (pin "2" (uuid 93a464e6-02b8-47f0-ae3c-be534fc75117))
  )

  (symbol (lib_id "LibreSolar:C") (at 168.91 76.2 90) (unit 1)
    (in_bom yes) (on_board yes)
    (uuid 00000000-0000-0000-0000-00005c685d06)
    (property "Reference" "C24" (id 0) (at 167.132 75.692 0)
      (effects (font (size 1.27 1.27)) (justify left))
    )
    (property "Value" "100nF" (id 1) (at 170.688 75.692 0)
      (effects (font (size 1.27 1.27)) (justify left))
    )
    (property "Footprint" "LibreSolar:C_0603_1608" (id 2) (at 168.91 76.2 0)
      (effects (font (size 1.27 1.27)) hide)
    )
    (property "Datasheet" "" (id 3) (at 168.91 76.2 0))
    (property "Manufacturer" "any" (id 4) (at 224.79 194.31 0)
      (effects (font (size 1.27 1.27)) hide)
    )
    (property "PartNumber" "" (id 5) (at 224.79 194.31 0)
      (effects (font (size 1.27 1.27)) hide)
    )
    (property "Remarks" "X7R, 100V" (id 6) (at 168.91 76.2 0)
      (effects (font (size 1.27 1.27)) hide)
    )
    (pin "1" (uuid 58658caf-6345-40bb-b114-078046b83e81))
    (pin "2" (uuid 7d68a3ec-825b-43c9-82e3-720954ab1ab1))
  )

  (symbol (lib_id "LibreSolar:C") (at 96.52 83.82 0) (unit 1)
    (in_bom yes) (on_board yes)
    (uuid 00000000-0000-0000-0000-00005c685d1a)
    (property "Reference" "C23" (id 0) (at 97.155 81.915 0)
      (effects (font (size 1.27 1.27)) (justify left))
    )
    (property "Value" "2.2µF" (id 1) (at 97.155 85.725 0)
      (effects (font (size 1.27 1.27)) (justify left))
    )
    (property "Footprint" "LibreSolar:C_1210_3225" (id 2) (at 96.52 88.9 0)
      (effects (font (size 1.27 1.27)) hide)
    )
    (property "Datasheet" "" (id 3) (at 97.155 81.915 0))
    (property "Remarks" "100V, X7R" (id 6) (at 96.52 83.82 0)
      (effects (font (size 1.27 1.27)) hide)
    )
    (property "Manufacturer" "any" (id 7) (at 96.52 83.82 0)
      (effects (font (size 1.27 1.27)) hide)
    )
    (pin "1" (uuid 2dc9eee4-fcf9-47f3-843e-ff10cbb8048b))
    (pin "2" (uuid 5a9121f8-1b28-46c5-80c6-2d6b3ef36772))
  )

  (symbol (lib_id "Device:L_Small") (at 181.61 81.28 90) (unit 1)
    (in_bom yes) (on_board yes)
    (uuid 00000000-0000-0000-0000-00005c685d2d)
    (property "Reference" "L2" (id 0) (at 181.61 79.502 90))
    (property "Value" "10µH" (id 1) (at 181.61 82.804 90))
    (property "Footprint" "LibreSolar:Bourns_SRN8040TA" (id 2) (at 181.61 81.28 90)
      (effects (font (size 1.27 1.27)) hide)
    )
    (property "Datasheet" "" (id 3) (at 181.61 81.28 90))
    (property "Manufacturer" "Tayo Yuden" (id 4) (at 181.61 81.28 0)
      (effects (font (size 1.524 1.524)) hide)
    )
    (property "PartNumber" "NR8040T100M" (id 5) (at 181.61 81.28 0)
      (effects (font (size 1.524 1.524)) hide)
    )
    (property "Remarks" "Alternative: Bourns SRN8040TA-100M" (id 6) (at 181.61 81.28 0)
      (effects (font (size 1.27 1.27)) hide)
    )
    (pin "1" (uuid f7213ab9-2caf-4ffc-bc8f-3924cc4faa85))
    (pin "2" (uuid 0db83871-1100-4194-9495-e2ceed25f9cc))
  )

  (symbol (lib_id "power:PWR_FLAG") (at 114.3 73.66 0) (unit 1)
    (in_bom yes) (on_board yes)
    (uuid 00000000-0000-0000-0000-00005c685d44)
    (property "Reference" "#FLG0101" (id 0) (at 114.3 71.755 0)
      (effects (font (size 1.27 1.27)) hide)
    )
    (property "Value" "PWR_FLAG" (id 1) (at 114.3 69.85 0))
    (property "Footprint" "" (id 2) (at 114.3 73.66 0)
      (effects (font (size 1.27 1.27)) hide)
    )
    (property "Datasheet" "" (id 3) (at 114.3 73.66 0)
      (effects (font (size 1.27 1.27)) hide)
    )
    (pin "1" (uuid 91a4ecc4-f82d-49a6-9919-92165765e8e6))
  )

  (symbol (lib_id "LibreSolar:C") (at 86.36 83.82 0) (unit 1)
    (in_bom yes) (on_board yes)
    (uuid 219da447-058b-4f90-b082-062913bd0570)
    (property "Reference" "C22" (id 0) (at 86.995 81.915 0)
      (effects (font (size 1.27 1.27)) (justify left))
    )
    (property "Value" "2.2µF" (id 1) (at 86.995 85.725 0)
      (effects (font (size 1.27 1.27)) (justify left))
    )
    (property "Footprint" "LibreSolar:C_1210_3225" (id 2) (at 86.36 88.9 0)
      (effects (font (size 1.27 1.27)) hide)
    )
    (property "Datasheet" "" (id 3) (at 86.995 81.915 0))
    (property "Manufacturer" "any" (id 4) (at 10.16 153.67 0)
      (effects (font (size 1.27 1.27)) hide)
    )
    (property "PartNumber" "" (id 5) (at 10.16 153.67 0)
      (effects (font (size 1.27 1.27)) hide)
    )
    (property "Remarks" "100V, X7R" (id 6) (at 86.36 83.82 0)
      (effects (font (size 1.27 1.27)) hide)
    )
    (pin "1" (uuid 5d1b6a57-a556-4039-96a5-bee236aa0e6c))
    (pin "2" (uuid 15d23ff7-493a-42db-9907-86f190f8cd14))
  )

  (symbol (lib_id "power:+3.3V") (at 210.82 78.74 0) (unit 1)
    (in_bom yes) (on_board yes)
    (uuid 2bba6de3-a46f-4e17-b472-7aa0771687b0)
    (property "Reference" "#PWR0144" (id 0) (at 210.82 82.55 0)
      (effects (font (size 1.27 1.27)) hide)
    )
    (property "Value" "+3.3V" (id 1) (at 210.82 75.184 0))
    (property "Footprint" "" (id 2) (at 210.82 78.74 0))
    (property "Datasheet" "" (id 3) (at 210.82 78.74 0))
    (pin "1" (uuid 36eaf298-42a1-4422-b86a-f00052452d5d))
  )

  (symbol (lib_id "LibreSolar:D_Schottky") (at 78.74 71.12 90) (unit 1)
    (in_bom yes) (on_board yes) (fields_autoplaced)
    (uuid 3f1f1a1a-911a-4fe2-b892-4b10806f2c07)
    (property "Reference" "D6" (id 0) (at 81.28 69.9769 90)
      (effects (font (size 1.27 1.27)) (justify right))
    )
    (property "Value" "PMEG10010ELRX" (id 1) (at 81.28 72.5169 90)
      (effects (font (size 1.27 1.27)) (justify right))
    )
    (property "Footprint" "LibreSolar:D_SOD-123F" (id 2) (at 78.74 73.66 0)
      (effects (font (size 1.27 1.27)) hide)
    )
    (property "Datasheet" "" (id 3) (at 76.2 71.12 0)
      (effects (font (size 1.27 1.27)) hide)
    )
    (property "Manufacturer" "Nexperia" (id 4) (at 78.74 71.12 0)
      (effects (font (size 1.27 1.27)) hide)
    )
    (property "PartNumber" "PMEG10010ELRX" (id 5) (at 78.74 71.12 0)
      (effects (font (size 1.27 1.27)) hide)
    )
    (property "Remarks" "Alternative: Nexperia PMEG10030ELPX" (id 6) (at 78.74 71.12 0)
      (effects (font (size 1.27 1.27)) hide)
    )
    (pin "1" (uuid 421f0f74-b5e1-418e-8073-54450b414440))
    (pin "2" (uuid 172a4f84-fb55-4b22-860d-6319f4b44bd3))
  )

  (symbol (lib_id "power:GND") (at 149.86 99.06 0) (unit 1)
    (in_bom yes) (on_board yes)
    (uuid 5706763f-8b67-4aa1-bb4e-0d4eff12a1ed)
    (property "Reference" "#PWR0128" (id 0) (at 149.86 105.41 0)
      (effects (font (size 1.27 1.27)) hide)
    )
    (property "Value" "GND" (id 1) (at 149.86 102.87 0))
    (property "Footprint" "" (id 2) (at 149.86 99.06 0))
    (property "Datasheet" "" (id 3) (at 149.86 99.06 0))
    (pin "1" (uuid d7c8b8fa-3c0d-4948-8afc-7a095adf865e))
  )

  (symbol (lib_id "power:PWR_FLAG") (at 195.58 76.2 0) (unit 1)
    (in_bom yes) (on_board yes)
    (uuid 67dc8e46-3fa1-4134-ad6d-6e68f2ca8030)
    (property "Reference" "#FLG0102" (id 0) (at 195.58 74.295 0)
      (effects (font (size 1.27 1.27)) hide)
    )
    (property "Value" "PWR_FLAG" (id 1) (at 195.58 72.39 0))
    (property "Footprint" "" (id 2) (at 195.58 76.2 0)
      (effects (font (size 1.27 1.27)) hide)
    )
    (property "Datasheet" "" (id 3) (at 195.58 76.2 0)
      (effects (font (size 1.27 1.27)) hide)
    )
    (pin "1" (uuid 3bd3017c-8863-41a0-aada-b902fb1bc4dd))
  )

  (symbol (lib_id "LibreSolar:C") (at 106.68 83.82 0) (unit 1)
    (in_bom yes) (on_board yes)
    (uuid 7ecc776a-db49-4d0a-9fa5-15a1063f7c9d)
    (property "Reference" "C40" (id 0) (at 107.188 82.042 0)
      (effects (font (size 1.27 1.27)) (justify left))
    )
    (property "Value" "100nF" (id 1) (at 107.188 85.598 0)
      (effects (font (size 1.27 1.27)) (justify left))
    )
    (property "Footprint" "LibreSolar:C_0603_1608" (id 2) (at 106.68 83.82 0)
      (effects (font (size 1.27 1.27)) hide)
    )
    (property "Datasheet" "" (id 3) (at 106.68 83.82 0))
    (property "Remarks" "X7R, 100V" (id 4) (at 106.68 83.82 0)
      (effects (font (size 1.27 1.27)) hide)
    )
    (property "Manufacturer" "any" (id 5) (at 106.68 83.82 0)
      (effects (font (size 1.27 1.27)) hide)
    )
    (pin "1" (uuid 1f9e9c51-acd8-44f4-841f-6ea8a6147ce9))
    (pin "2" (uuid f729f585-2df8-4add-ab71-371431402c7b))
  )

  (symbol (lib_id "LibreSolar:D_Schottky") (at 162.56 96.52 270) (unit 1)
    (in_bom yes) (on_board yes) (fields_autoplaced)
    (uuid 831d146a-2f0d-4b92-aee6-f6aa1001a7f9)
    (property "Reference" "D9" (id 0) (at 165.1 95.1229 90)
      (effects (font (size 1.27 1.27)) (justify left))
    )
    (property "Value" "VSS8D3M10-M3/I" (id 1) (at 165.1 97.6629 90)
      (effects (font (size 1.27 1.27)) (justify left))
    )
    (property "Footprint" "Diode_SMD:D_SOD-128" (id 2) (at 162.56 93.98 0)
      (effects (font (size 1.27 1.27)) hide)
    )
    (property "Datasheet" "" (id 3) (at 165.1 96.52 0)
      (effects (font (size 1.27 1.27)) hide)
    )
    (property "Manufacturer" "Vishay" (id 4) (at 162.56 96.52 0)
      (effects (font (size 1.27 1.27)) hide)
    )
    (property "PartNumber" "VSS8D3M10-M3/I" (id 5) (at 162.56 96.52 0)
      (effects (font (size 1.27 1.27)) hide)
    )
    (property "Remarks" "Alternative: Nexperia PMEG10030ELPX" (id 6) (at 162.56 96.52 0)
      (effects (font (size 1.27 1.27)) hide)
    )
    (pin "1" (uuid 65ca5973-f0ba-492d-ba0c-29098cd4af01))
    (pin "2" (uuid 560729cd-60fd-4d68-b18a-46c46896a5c4))
  )

  (symbol (lib_id "power:GND") (at 132.08 99.06 0) (unit 1)
    (in_bom yes) (on_board yes)
    (uuid 88261a9c-873a-4f06-965f-d9cfdf1ac6f5)
    (property "Reference" "#PWR0133" (id 0) (at 132.08 105.41 0)
      (effects (font (size 1.27 1.27)) hide)
    )
    (property "Value" "GND" (id 1) (at 132.08 102.87 0))
    (property "Footprint" "" (id 2) (at 132.08 99.06 0))
    (property "Datasheet" "" (id 3) (at 132.08 99.06 0))
    (pin "1" (uuid ad4b24df-7017-4220-a360-faa761c713ee))
  )

  (symbol (lib_id "power:GND") (at 162.56 101.6 0) (unit 1)
    (in_bom yes) (on_board yes)
    (uuid a627caff-f2ff-477c-bad9-48a6e61ef95c)
    (property "Reference" "#PWR05" (id 0) (at 162.56 107.95 0)
      (effects (font (size 1.27 1.27)) hide)
    )
    (property "Value" "GND" (id 1) (at 162.56 105.41 0))
    (property "Footprint" "" (id 2) (at 162.56 101.6 0))
    (property "Datasheet" "" (id 3) (at 162.56 101.6 0))
    (pin "1" (uuid 3ad97b7e-bc80-44ac-8bff-065fc0dc0cfd))
  )

  (symbol (lib_id "LibreSolar:LMR16030") (at 147.32 81.28 0) (unit 1)
    (in_bom yes) (on_board yes) (fields_autoplaced)
    (uuid ac2c1a36-b29d-40a7-8d66-91d22a3d0678)
    (property "Reference" "U2" (id 0) (at 147.32 68.58 0))
    (property "Value" "LMR16030" (id 1) (at 147.32 71.12 0))
    (property "Footprint" "Package_SO:SOIC-8-1EP_3.9x4.9mm_P1.27mm_EP2.29x3mm" (id 2) (at 154.94 93.98 0)
      (effects (font (size 1.27 1.27)) (justify left) hide)
    )
    (property "Datasheet" "https://www.ti.com/lit/ds/symlink/lmr16030.pdf" (id 3) (at 147.32 68.58 0)
      (effects (font (size 1.27 1.27)) hide)
    )
    (property "Manufacturer" "Texas Instruments" (id 4) (at 147.32 81.28 0)
      (effects (font (size 1.27 1.27)) hide)
    )
    (property "PartNumber" "LMR16030PDDAR" (id 5) (at 147.32 81.28 0)
      (effects (font (size 1.27 1.27)) hide)
    )
    (property "Remarks" "Better alternative: LMR38020 (NOT pin-compatible!)" (id 6) (at 147.32 81.28 0)
      (effects (font (size 1.27 1.27)) hide)
    )
    (pin "1" (uuid 8a67355e-4280-4729-b997-3e2853967280))
    (pin "2" (uuid cf754542-7b12-4710-8858-d4414f19ff87))
    (pin "3" (uuid 25d1aa4d-842d-4deb-b1ea-2ab5bd186e09))
    (pin "4" (uuid a83c90fa-9e4c-4d7e-9768-4452ce74222b))
    (pin "5" (uuid 2398904a-1a3c-4d64-84b1-92584d60093b))
    (pin "6" (uuid 187d0819-3bb5-411b-8280-631f668b1383))
    (pin "7" (uuid deac0134-cec4-4b8a-8377-3bf4290e8cf6))
    (pin "8" (uuid 1da2e029-e3c3-4cfc-9348-5cdabaf08c16))
    (pin "9" (uuid 60952aaa-cb5f-4afa-9dbd-24e8aa83238b))
  )

  (symbol (lib_id "LibreSolar:R") (at 132.08 93.98 0) (unit 1)
    (in_bom yes) (on_board yes)
    (uuid c4a9aa1d-b051-456e-8247-fe9c20b9bb68)
    (property "Reference" "R34" (id 0) (at 130.175 93.98 90))
    (property "Value" "49.9k" (id 1) (at 133.985 93.98 90))
    (property "Footprint" "LibreSolar:R_0603_1608" (id 2) (at 127.635 96.52 90)
      (effects (font (size 1.27 1.27)) hide)
    )
    (property "Datasheet" "" (id 3) (at 132.08 93.98 0))
    (property "Manufacturer" "any" (id 4) (at -12.7 170.18 0)
      (effects (font (size 1.27 1.27)) hide)
    )
    (property "PartNumber" "" (id 5) (at -12.7 170.18 0)
      (effects (font (size 1.27 1.27)) hide)
    )
    (property "Remarks" "1%" (id 6) (at 132.08 93.98 0)
      (effects (font (size 1.27 1.27)) hide)
    )
    (pin "1" (uuid b6579d66-97f8-4b47-9547-fb9a17854d61))
    (pin "2" (uuid 1c2b866d-84b7-45cf-89ba-c6f89f39d4fc))
  )

  (symbol (lib_id "power:+5V") (at 78.74 66.04 0) (unit 1)
    (in_bom yes) (on_board yes) (fields_autoplaced)
    (uuid ccebc212-9f81-4645-9465-3ad083c3b7d2)
    (property "Reference" "#PWR0143" (id 0) (at 78.74 69.85 0)
      (effects (font (size 1.27 1.27)) hide)
    )
    (property "Value" "+5V" (id 1) (at 78.74 60.96 0))
    (property "Footprint" "" (id 2) (at 78.74 66.04 0)
      (effects (font (size 1.27 1.27)) hide)
    )
    (property "Datasheet" "" (id 3) (at 78.74 66.04 0)
      (effects (font (size 1.27 1.27)) hide)
    )
    (pin "1" (uuid 8aadeffe-edf3-4055-9e62-5b0ba1568e03))
  )

  (symbol (lib_id "LibreSolar:D_Schottky") (at 71.12 76.2 180) (unit 1)
    (in_bom yes) (on_board yes)
    (uuid ee07420a-a8b0-40ee-a8b5-e6d3bac50b75)
    (property "Reference" "D1" (id 0) (at 71.12 80.01 0))
    (property "Value" "PMEG10010ELRX" (id 1) (at 71.12 82.55 0))
    (property "Footprint" "LibreSolar:D_SOD-123F" (id 2) (at 73.66 76.2 0)
      (effects (font (size 1.27 1.27)) hide)
    )
    (property "Datasheet" "" (id 3) (at 71.12 78.74 0)
      (effects (font (size 1.27 1.27)) hide)
    )
    (property "Manufacturer" "Nexperia" (id 4) (at 71.12 76.2 0)
      (effects (font (size 1.27 1.27)) hide)
    )
    (property "PartNumber" "PMEG10010ELRX" (id 5) (at 71.12 76.2 0)
      (effects (font (size 1.27 1.27)) hide)
    )
    (property "Remarks" "Alternative: Nexperia PMEG10030ELPX" (id 6) (at 71.12 76.2 0)
      (effects (font (size 1.27 1.27)) hide)
    )
    (pin "1" (uuid 78e0c802-543a-40f4-8884-d479c6c98341))
    (pin "2" (uuid 3855c94e-649d-4919-a075-de3debbf1739))
  )
)
