(export (version "E")
  (design
    (source "C:\\Users\\HPz420\\Documents\\GitHub\\land-boards\\lb-boards\\BeagleBoneBlack Cards\\BBB-GVS-4\\BBB-GVS-4.kicad_sch")
    (date "5/20/2022 5:43:50 PM")
    (tool "Eeschema (6.0.1)")
    (sheet (number "1") (name "/") (tstamps "/")
      (title_block
        (title "BeagleBone Cape Baseline")
        (company "Doug Gilliland <doug@douglasgilliland.com>")
        (rev "X4")
        (date "24 feb 2015")
        (source "BBB-GVS-4.kicad_sch")
        (comment (number "1") (value "https://github.com/douggilliland/"))
        (comment (number "2") (value ""))
        (comment (number "3") (value ""))
        (comment (number "4") (value ""))
        (comment (number "5") (value ""))
        (comment (number "6") (value ""))
        (comment (number "7") (value ""))
        (comment (number "8") (value ""))
        (comment (number "9") (value ""))))
    (sheet (number "2") (name "/BBB EEPROM Power Etc/") (tstamps "/00000000-0000-0000-0000-00004eb0f8e9/")
      (title_block
        (title "BeagleBone Cape Baseline")
        (company "Doug Gilliland <doug@douglasgilliland.com>")
        (rev "X4")
        (date "24 feb 2015")
        (source "BBB-Conn.kicad_sch")
        (comment (number "1") (value "https://github.com/douggilliland/"))
        (comment (number "2") (value ""))
        (comment (number "3") (value ""))
        (comment (number "4") (value ""))
        (comment (number "5") (value ""))
        (comment (number "6") (value ""))
        (comment (number "7") (value ""))
        (comment (number "8") (value ""))
        (comment (number "9") (value ""))))
    (sheet (number "3") (name "/P8 Connector/") (tstamps "/00000000-0000-0000-0000-000054e536e2/")
      (title_block
        (title "BeagleBone Cape Baseline")
        (company "Doug Gilliland <doug@douglasgilliland.com>")
        (rev "X4")
        (date "24 feb 2015")
        (source "BBB-P8-Conn.kicad_sch")
        (comment (number "1") (value "https://github.com/douggilliland/"))
        (comment (number "2") (value ""))
        (comment (number "3") (value ""))
        (comment (number "4") (value ""))
        (comment (number "5") (value ""))
        (comment (number "6") (value ""))
        (comment (number "7") (value ""))
        (comment (number "8") (value ""))
        (comment (number "9") (value ""))))
    (sheet (number "4") (name "/16-bit Translator/") (tstamps "/00000000-0000-0000-0000-00004eb0f8c5/")
      (title_block
        (title "BeagleBone Cape Baseline")
        (company "Doug Gilliland <doug@douglasgilliland.com>")
        (rev "X4")
        (date "24 feb 2015")
        (source "trans16.kicad_sch")
        (comment (number "1") (value "https://github.com/douggilliland/"))
        (comment (number "2") (value ""))
        (comment (number "3") (value ""))
        (comment (number "4") (value ""))
        (comment (number "5") (value ""))
        (comment (number "6") (value ""))
        (comment (number "7") (value ""))
        (comment (number "8") (value ""))
        (comment (number "9") (value ""))))
    (sheet (number "5") (name "/P9 Connector/") (tstamps "/00000000-0000-0000-0000-000054e536e4/")
      (title_block
        (title "BeagleBone Cape Baseline")
        (company "Doug Gilliland <doug@douglasgilliland.com>")
        (rev "X4")
        (date "24 feb 2015")
        (source "BBB-P9-Conn.kicad_sch")
        (comment (number "1") (value "https://github.com/douggilliland/"))
        (comment (number "2") (value ""))
        (comment (number "3") (value ""))
        (comment (number "4") (value ""))
        (comment (number "5") (value ""))
        (comment (number "6") (value ""))
        (comment (number "7") (value ""))
        (comment (number "8") (value ""))
        (comment (number "9") (value ""))))
    (sheet (number "6") (name "/Analog Inputs/") (tstamps "/00000000-0000-0000-0000-000054e2626d/")
      (title_block
        (title)
        (company)
        (rev)
        (date "24 feb 2015")
        (source "Analog-Inputs.kicad_sch")
        (comment (number "1") (value ""))
        (comment (number "2") (value ""))
        (comment (number "3") (value ""))
        (comment (number "4") (value ""))
        (comment (number "5") (value ""))
        (comment (number "6") (value ""))
        (comment (number "7") (value ""))
        (comment (number "8") (value ""))
        (comment (number "9") (value "")))))
  (components
    (comp (ref "FID1")
      (value "CONN_1")
      (footprint "FIDUCIAL")
      (libsource (lib "BBB-GVS-4-rescue") (part "CONN_1") (description ""))
      (property (name "Sheetname") (value ""))
      (property (name "Sheetfile") (value "C:/Users/HPz420/Documents/GitHub/land-boards/lb-boards/BeagleBoneBlack Cards/BBB-GVS-4/BBB-GVS-4.sch"))
      (sheetpath (names "/") (tstamps "/"))
      (tstamps "00000000-0000-0000-0000-000054e5394d"))
    (comp (ref "FID2")
      (value "CONN_1")
      (footprint "FIDUCIAL")
      (libsource (lib "BBB-GVS-4-rescue") (part "CONN_1") (description ""))
      (property (name "Sheetname") (value ""))
      (property (name "Sheetfile") (value "C:/Users/HPz420/Documents/GitHub/land-boards/lb-boards/BeagleBoneBlack Cards/BBB-GVS-4/BBB-GVS-4.sch"))
      (sheetpath (names "/") (tstamps "/"))
      (tstamps "00000000-0000-0000-0000-000054e53947"))
    (comp (ref "TESTED1")
      (value "COUPON")
      (footprint "REV_BLOCK")
      (datasheet "~")
      (libsource (lib "BBB-GVS-4-rescue") (part "COUPON") (description ""))
      (property (name "Sheetname") (value ""))
      (property (name "Sheetfile") (value "C:/Users/HPz420/Documents/GitHub/land-boards/lb-boards/BeagleBoneBlack Cards/BBB-GVS-4/BBB-GVS-4.sch"))
      (sheetpath (names "/") (tstamps "/"))
      (tstamps "00000000-0000-0000-0000-000054e53953"))
    (comp (ref "C1")
      (value "1uF")
      (footprint "Capacitors_SMD:C_0805_HandSoldering")
      (libsource (lib "BBB-GVS-4-rescue") (part "C-RESCUE-BBB-GVS-3") (description ""))
      (property (name "Sheetname") (value "BBB EEPROM Power Etc"))
      (property (name "Sheetfile") (value "BBB-Conn.kicad_sch"))
      (sheetpath (names "/BBB EEPROM Power Etc/") (tstamps "/00000000-0000-0000-0000-00004eb0f8e9/"))
      (tstamps "00000000-0000-0000-0000-00004eb9cbcb"))
    (comp (ref "C2")
      (value "104")
      (footprint "Capacitors_SMD:C_0805_HandSoldering")
      (datasheet "~")
      (libsource (lib "BBB-GVS-4-rescue") (part "C-RESCUE-BBB-GVS-3") (description ""))
      (property (name "Sheetname") (value "BBB EEPROM Power Etc"))
      (property (name "Sheetfile") (value "BBB-Conn.kicad_sch"))
      (sheetpath (names "/BBB EEPROM Power Etc/") (tstamps "/00000000-0000-0000-0000-00004eb0f8e9/"))
      (tstamps "00000000-0000-0000-0000-000053adae3e"))
    (comp (ref "C3")
      (value "104")
      (footprint "Capacitors_SMD:C_0805_HandSoldering")
      (datasheet "~")
      (libsource (lib "BBB-GVS-4-rescue") (part "C-RESCUE-BBB-GVS-3") (description ""))
      (property (name "Sheetname") (value "BBB EEPROM Power Etc"))
      (property (name "Sheetfile") (value "BBB-Conn.kicad_sch"))
      (sheetpath (names "/BBB EEPROM Power Etc/") (tstamps "/00000000-0000-0000-0000-00004eb0f8e9/"))
      (tstamps "00000000-0000-0000-0000-000053adae4d"))
    (comp (ref "C4")
      (value "104")
      (footprint "Capacitors_SMD:C_0805_HandSoldering")
      (datasheet "~")
      (libsource (lib "BBB-GVS-4-rescue") (part "C-RESCUE-BBB-GVS-3") (description ""))
      (property (name "Sheetname") (value "BBB EEPROM Power Etc"))
      (property (name "Sheetfile") (value "BBB-Conn.kicad_sch"))
      (sheetpath (names "/BBB EEPROM Power Etc/") (tstamps "/00000000-0000-0000-0000-00004eb0f8e9/"))
      (tstamps "00000000-0000-0000-0000-000053adae5c"))
    (comp (ref "D1")
      (value "LED")
      (footprint "Resistors_SMD:R_0805_HandSoldering")
      (datasheet "~")
      (libsource (lib "BBB-GVS-4-rescue") (part "LED-RESCUE-BBB-GVS-3") (description ""))
      (property (name "Sheetname") (value "BBB EEPROM Power Etc"))
      (property (name "Sheetfile") (value "BBB-Conn.kicad_sch"))
      (sheetpath (names "/BBB EEPROM Power Etc/") (tstamps "/00000000-0000-0000-0000-00004eb0f8e9/"))
      (tstamps "00000000-0000-0000-0000-000053c05879"))
    (comp (ref "D2")
      (value "LED")
      (footprint "Resistors_SMD:R_0805_HandSoldering")
      (datasheet "~")
      (libsource (lib "BBB-GVS-4-rescue") (part "LED-RESCUE-BBB-GVS-3") (description ""))
      (property (name "Sheetname") (value "BBB EEPROM Power Etc"))
      (property (name "Sheetfile") (value "BBB-Conn.kicad_sch"))
      (sheetpath (names "/BBB EEPROM Power Etc/") (tstamps "/00000000-0000-0000-0000-00004eb0f8e9/"))
      (tstamps "00000000-0000-0000-0000-000053adff8d"))
    (comp (ref "F1")
      (value "FUSE")
      (footprint "Capacitors_SMD:C_1206_HandSoldering")
      (datasheet "~")
      (libsource (lib "BBB-GVS-4-rescue") (part "FUSE") (description ""))
      (property (name "Sheetname") (value "BBB EEPROM Power Etc"))
      (property (name "Sheetfile") (value "BBB-Conn.kicad_sch"))
      (sheetpath (names "/BBB EEPROM Power Etc/") (tstamps "/00000000-0000-0000-0000-00004eb0f8e9/"))
      (tstamps "00000000-0000-0000-0000-000053aad570"))
    (comp (ref "F2")
      (value "FUSE")
      (footprint "Capacitors_SMD:C_1206_HandSoldering")
      (datasheet "~")
      (libsource (lib "BBB-GVS-4-rescue") (part "FUSE") (description ""))
      (property (name "Sheetname") (value "BBB EEPROM Power Etc"))
      (property (name "Sheetfile") (value "BBB-Conn.kicad_sch"))
      (sheetpath (names "/BBB EEPROM Power Etc/") (tstamps "/00000000-0000-0000-0000-00004eb0f8e9/"))
      (tstamps "00000000-0000-0000-0000-000053c053d8"))
    (comp (ref "J11")
      (value "CONN_2")
      (footprint "Pin_Headers:Pin_Header_Straight_1x02")
      (libsource (lib "BBB-GVS-4-rescue") (part "CONN_2") (description ""))
      (property (name "Sheetname") (value "BBB EEPROM Power Etc"))
      (property (name "Sheetfile") (value "BBB-Conn.kicad_sch"))
      (sheetpath (names "/BBB EEPROM Power Etc/") (tstamps "/00000000-0000-0000-0000-00004eb0f8e9/"))
      (tstamps "00000000-0000-0000-0000-000053f107e0"))
    (comp (ref "J25")
      (value "CONN_3")
      (footprint "PIN_ARRAY_3X1")
      (libsource (lib "BBB-GVS-4-rescue") (part "CONN_3") (description ""))
      (property (name "Sheetname") (value "BBB EEPROM Power Etc"))
      (property (name "Sheetfile") (value "BBB-Conn.kicad_sch"))
      (sheetpath (names "/BBB EEPROM Power Etc/") (tstamps "/00000000-0000-0000-0000-00004eb0f8e9/"))
      (tstamps "00000000-0000-0000-0000-000053c03d1e"))
    (comp (ref "R1")
      (value "120")
      (footprint "Resistor_SMD:R_0805_2012Metric_Pad1.20x1.40mm_HandSolder")
      (datasheet "~")
      (libsource (lib "BBB-GVS-4-rescue") (part "R-RESCUE-BBB-GVS-3") (description ""))
      (property (name "Sheetname") (value "BBB EEPROM Power Etc"))
      (property (name "Sheetfile") (value "BBB-Conn.kicad_sch"))
      (sheetpath (names "/BBB EEPROM Power Etc/") (tstamps "/00000000-0000-0000-0000-00004eb0f8e9/"))
      (tstamps "00000000-0000-0000-0000-000053c0587f"))
    (comp (ref "R2")
      (value "330")
      (footprint "Resistor_SMD:R_0805_2012Metric_Pad1.20x1.40mm_HandSolder")
      (datasheet "~")
      (libsource (lib "BBB-GVS-4-rescue") (part "R-RESCUE-BBB-GVS-3") (description ""))
      (property (name "Sheetname") (value "BBB EEPROM Power Etc"))
      (property (name "Sheetfile") (value "BBB-Conn.kicad_sch"))
      (sheetpath (names "/BBB EEPROM Power Etc/") (tstamps "/00000000-0000-0000-0000-00004eb0f8e9/"))
      (tstamps "00000000-0000-0000-0000-000053adff9c"))
    (comp (ref "R3")
      (value "5.6K")
      (footprint "Resistor_SMD:R_0805_2012Metric_Pad1.20x1.40mm_HandSolder")
      (libsource (lib "BBB-GVS-4-rescue") (part "R-RESCUE-BBB-GVS-3") (description ""))
      (property (name "Sheetname") (value "BBB EEPROM Power Etc"))
      (property (name "Sheetfile") (value "BBB-Conn.kicad_sch"))
      (sheetpath (names "/BBB EEPROM Power Etc/") (tstamps "/00000000-0000-0000-0000-00004eb0f8e9/"))
      (tstamps "00000000-0000-0000-0000-000053f103c2"))
    (comp (ref "R4")
      (value "5.6K")
      (footprint "Resistor_SMD:R_0805_2012Metric_Pad1.20x1.40mm_HandSolder")
      (libsource (lib "BBB-GVS-4-rescue") (part "R-RESCUE-BBB-GVS-3") (description ""))
      (property (name "Sheetname") (value "BBB EEPROM Power Etc"))
      (property (name "Sheetfile") (value "BBB-Conn.kicad_sch"))
      (sheetpath (names "/BBB EEPROM Power Etc/") (tstamps "/00000000-0000-0000-0000-00004eb0f8e9/"))
      (tstamps "00000000-0000-0000-0000-00004eb9cac9"))
    (comp (ref "R5")
      (value "5.6K")
      (footprint "Resistor_SMD:R_0805_2012Metric_Pad1.20x1.40mm_HandSolder")
      (libsource (lib "BBB-GVS-4-rescue") (part "R-RESCUE-BBB-GVS-3") (description ""))
      (property (name "Sheetname") (value "BBB EEPROM Power Etc"))
      (property (name "Sheetfile") (value "BBB-Conn.kicad_sch"))
      (sheetpath (names "/BBB EEPROM Power Etc/") (tstamps "/00000000-0000-0000-0000-00004eb0f8e9/"))
      (tstamps "00000000-0000-0000-0000-00004eb9cace"))
    (comp (ref "U1")
      (value "I2C-EEPROM")
      (footprint "dougsLib:SO8E-wider")
      (libsource (lib "BBB-GVS-4-rescue") (part "I2C-EEPROM") (description ""))
      (property (name "Sheetname") (value "BBB EEPROM Power Etc"))
      (property (name "Sheetfile") (value "BBB-Conn.kicad_sch"))
      (sheetpath (names "/BBB EEPROM Power Etc/") (tstamps "/00000000-0000-0000-0000-00004eb0f8e9/"))
      (tstamps "00000000-0000-0000-0000-00005633d704"))
    (comp (ref "BRD1")
      (value "BEAGLEBONE")
      (footprint "dougsLib:BEAGLEBONE")
      (datasheet "~")
      (libsource (lib "BBB-GVS-4-rescue") (part "BEAGLEBONE") (description ""))
      (property (name "Sheetname") (value "P8 Connector"))
      (property (name "Sheetfile") (value "BBB-P8-Conn.kicad_sch"))
      (sheetpath (names "/P8 Connector/") (tstamps "/00000000-0000-0000-0000-000054e536e2/"))
      (tstamps "00000000-0000-0000-0000-000054e25e07" "00000000-0000-0000-0000-000054e25df8"))
    (comp (ref "J12")
      (value "CONN_3")
      (footprint "Pin_Headers:Pin_Header_Straight_1x03")
      (libsource (lib "BBB-GVS-4-rescue") (part "CONN_3") (description ""))
      (property (name "Sheetname") (value "P8 Connector"))
      (property (name "Sheetfile") (value "BBB-P8-Conn.kicad_sch"))
      (sheetpath (names "/P8 Connector/") (tstamps "/00000000-0000-0000-0000-000054e536e2/"))
      (tstamps "00000000-0000-0000-0000-000056490ff2"))
    (comp (ref "J16")
      (value "GVS-4X3")
      (footprint "DougsNewMods:Pin_Header_Straight_3x04")
      (libsource (lib "BBB-GVS-4-rescue") (part "GVS-4X3") (description ""))
      (property (name "Sheetname") (value "P8 Connector"))
      (property (name "Sheetfile") (value "BBB-P8-Conn.kicad_sch"))
      (sheetpath (names "/P8 Connector/") (tstamps "/00000000-0000-0000-0000-000054e536e2/"))
      (tstamps "00000000-0000-0000-0000-000056883a5b"))
    (comp (ref "J24")
      (value "GVS-8X3")
      (footprint "DougsNewMods:Pin_Header_Straight_3x08")
      (libsource (lib "BBB-GVS-4-rescue") (part "GVS-8X3") (description ""))
      (property (name "Sheetname") (value "P8 Connector"))
      (property (name "Sheetfile") (value "BBB-P8-Conn.kicad_sch"))
      (sheetpath (names "/P8 Connector/") (tstamps "/00000000-0000-0000-0000-000054e536e2/"))
      (tstamps "00000000-0000-0000-0000-0000568818b6"))
    (comp (ref "J26")
      (value "GVS-8X3")
      (footprint "DougsNewMods:Pin_Header_Straight_3x08")
      (libsource (lib "BBB-GVS-4-rescue") (part "GVS-8X3") (description ""))
      (property (name "Sheetname") (value "16-bit Translator"))
      (property (name "Sheetfile") (value "trans16.kicad_sch"))
      (sheetpath (names "/16-bit Translator/") (tstamps "/00000000-0000-0000-0000-00004eb0f8c5/"))
      (tstamps "00000000-0000-0000-0000-0000568802ec"))
    (comp (ref "P1")
      (value "CONN_8")
      (footprint "Pin_Headers:Pin_Header_Straight_1x08")
      (datasheet "~")
      (libsource (lib "BBB-GVS-4-rescue") (part "CONN_8") (description ""))
      (property (name "Sheetname") (value "16-bit Translator"))
      (property (name "Sheetfile") (value "trans16.kicad_sch"))
      (sheetpath (names "/16-bit Translator/") (tstamps "/00000000-0000-0000-0000-00004eb0f8c5/"))
      (tstamps "00000000-0000-0000-0000-000054e261b0"))
    (comp (ref "U4")
      (value "TXS0104")
      (footprint "Package_SO:SO-14_5.3x10.2mm_P1.27mm")
      (datasheet "DOCUMENTATION")
      (libsource (lib "LandBoards_Semis") (part "TXS0104") (description ""))
      (property (name "Sheetname") (value "16-bit Translator"))
      (property (name "Sheetfile") (value "trans16.kicad_sch"))
      (sheetpath (names "/16-bit Translator/") (tstamps "/00000000-0000-0000-0000-00004eb0f8c5/"))
      (tstamps "ec2e0d5a-2ed9-46c3-91e8-921d6f55a2ac"))
    (comp (ref "U5")
      (value "TXS0104")
      (footprint "Package_SO:SO-14_5.3x10.2mm_P1.27mm")
      (datasheet "DOCUMENTATION")
      (libsource (lib "LandBoards_Semis") (part "TXS0104") (description ""))
      (property (name "Sheetname") (value "16-bit Translator"))
      (property (name "Sheetfile") (value "trans16.kicad_sch"))
      (sheetpath (names "/16-bit Translator/") (tstamps "/00000000-0000-0000-0000-00004eb0f8c5/"))
      (tstamps "d5765701-87de-4b69-9a3c-eaf69dbc75db"))
    (comp (ref "J1")
      (value "CONN_3")
      (footprint "Pin_Headers:Pin_Header_Straight_1x03")
      (libsource (lib "BBB-GVS-4-rescue") (part "CONN_3") (description ""))
      (property (name "Sheetname") (value "P9 Connector"))
      (property (name "Sheetfile") (value "BBB-P9-Conn.kicad_sch"))
      (sheetpath (names "/P9 Connector/") (tstamps "/00000000-0000-0000-0000-000054e536e4/"))
      (tstamps "00000000-0000-0000-0000-00005649e81d"))
    (comp (ref "J2")
      (value "CONN_3")
      (footprint "Pin_Headers:Pin_Header_Straight_1x03")
      (libsource (lib "BBB-GVS-4-rescue") (part "CONN_3") (description ""))
      (property (name "Sheetname") (value "P9 Connector"))
      (property (name "Sheetfile") (value "BBB-P9-Conn.kicad_sch"))
      (sheetpath (names "/P9 Connector/") (tstamps "/00000000-0000-0000-0000-000054e536e4/"))
      (tstamps "00000000-0000-0000-0000-00005649daf0"))
    (comp (ref "J3")
      (value "CONN_3")
      (footprint "Pin_Headers:Pin_Header_Straight_1x03")
      (libsource (lib "BBB-GVS-4-rescue") (part "CONN_3") (description ""))
      (property (name "Sheetname") (value "P9 Connector"))
      (property (name "Sheetfile") (value "BBB-P9-Conn.kicad_sch"))
      (sheetpath (names "/P9 Connector/") (tstamps "/00000000-0000-0000-0000-000054e536e4/"))
      (tstamps "00000000-0000-0000-0000-00005649c7af"))
    (comp (ref "J4")
      (value "CONN_4")
      (footprint "Pin_Headers:Pin_Header_Straight_1x04")
      (libsource (lib "BBB-GVS-4-rescue") (part "CONN_4") (description ""))
      (property (name "Sheetname") (value "P9 Connector"))
      (property (name "Sheetfile") (value "BBB-P9-Conn.kicad_sch"))
      (sheetpath (names "/P9 Connector/") (tstamps "/00000000-0000-0000-0000-000054e536e4/"))
      (tstamps "00000000-0000-0000-0000-00005649e2e2"))
    (comp (ref "J5")
      (value "CONN_4")
      (footprint "Pin_Headers:Pin_Header_Straight_1x04")
      (libsource (lib "BBB-GVS-4-rescue") (part "CONN_4") (description ""))
      (property (name "Sheetname") (value "P9 Connector"))
      (property (name "Sheetfile") (value "BBB-P9-Conn.kicad_sch"))
      (sheetpath (names "/P9 Connector/") (tstamps "/00000000-0000-0000-0000-000054e536e4/"))
      (tstamps "00000000-0000-0000-0000-00005649d864"))
    (comp (ref "J6")
      (value "CONN_4")
      (footprint "Pin_Headers:Pin_Header_Straight_1x04")
      (libsource (lib "BBB-GVS-4-rescue") (part "CONN_4") (description ""))
      (property (name "Sheetname") (value "P9 Connector"))
      (property (name "Sheetfile") (value "BBB-P9-Conn.kicad_sch"))
      (sheetpath (names "/P9 Connector/") (tstamps "/00000000-0000-0000-0000-000054e536e4/"))
      (tstamps "00000000-0000-0000-0000-00005649d0cb"))
    (comp (ref "J7")
      (value "CONN_4")
      (footprint "Pin_Headers:Pin_Header_Straight_1x04")
      (libsource (lib "BBB-GVS-4-rescue") (part "CONN_4") (description ""))
      (property (name "Sheetname") (value "P9 Connector"))
      (property (name "Sheetfile") (value "BBB-P9-Conn.kicad_sch"))
      (sheetpath (names "/P9 Connector/") (tstamps "/00000000-0000-0000-0000-000054e536e4/"))
      (tstamps "00000000-0000-0000-0000-00005649c8ab"))
    (comp (ref "J8")
      (value "CONN_3")
      (footprint "Pin_Headers:Pin_Header_Straight_1x03")
      (libsource (lib "BBB-GVS-4-rescue") (part "CONN_3") (description ""))
      (property (name "Sheetname") (value "P9 Connector"))
      (property (name "Sheetfile") (value "BBB-P9-Conn.kicad_sch"))
      (sheetpath (names "/P9 Connector/") (tstamps "/00000000-0000-0000-0000-000054e536e4/"))
      (tstamps "00000000-0000-0000-0000-00005649c787"))
    (comp (ref "J9")
      (value "CONN_3")
      (footprint "Pin_Headers:Pin_Header_Straight_1x03")
      (libsource (lib "BBB-GVS-4-rescue") (part "CONN_3") (description ""))
      (property (name "Sheetname") (value "P9 Connector"))
      (property (name "Sheetfile") (value "BBB-P9-Conn.kicad_sch"))
      (sheetpath (names "/P9 Connector/") (tstamps "/00000000-0000-0000-0000-000054e536e4/"))
      (tstamps "00000000-0000-0000-0000-00005649de55"))
    (comp (ref "J10")
      (value "CONN_3")
      (footprint "Pin_Headers:Pin_Header_Straight_1x03")
      (libsource (lib "BBB-GVS-4-rescue") (part "CONN_3") (description ""))
      (property (name "Sheetname") (value "P9 Connector"))
      (property (name "Sheetfile") (value "BBB-P9-Conn.kicad_sch"))
      (sheetpath (names "/P9 Connector/") (tstamps "/00000000-0000-0000-0000-000054e536e4/"))
      (tstamps "00000000-0000-0000-0000-00005649dd9e"))
    (comp (ref "A0")
      (value "CONN_3")
      (footprint "PIN_ARRAY_3X1")
      (libsource (lib "BBB-GVS-4-rescue") (part "CONN_3") (description ""))
      (property (name "Sheetname") (value "Analog Inputs"))
      (property (name "Sheetfile") (value "Analog-Inputs.kicad_sch"))
      (sheetpath (names "/Analog Inputs/") (tstamps "/00000000-0000-0000-0000-000054e2626d/"))
      (tstamps "00000000-0000-0000-0000-000054e53e4e"))
    (comp (ref "A1")
      (value "CONN_3")
      (footprint "PIN_ARRAY_3X1")
      (libsource (lib "BBB-GVS-4-rescue") (part "CONN_3") (description ""))
      (property (name "Sheetname") (value "Analog Inputs"))
      (property (name "Sheetfile") (value "Analog-Inputs.kicad_sch"))
      (sheetpath (names "/Analog Inputs/") (tstamps "/00000000-0000-0000-0000-000054e2626d/"))
      (tstamps "00000000-0000-0000-0000-000054e53e32"))
    (comp (ref "A2")
      (value "CONN_3")
      (footprint "PIN_ARRAY_3X1")
      (libsource (lib "BBB-GVS-4-rescue") (part "CONN_3") (description ""))
      (property (name "Sheetname") (value "Analog Inputs"))
      (property (name "Sheetfile") (value "Analog-Inputs.kicad_sch"))
      (sheetpath (names "/Analog Inputs/") (tstamps "/00000000-0000-0000-0000-000054e2626d/"))
      (tstamps "00000000-0000-0000-0000-000054e53e14"))
    (comp (ref "A3")
      (value "CONN_3")
      (footprint "PIN_ARRAY_3X1")
      (libsource (lib "BBB-GVS-4-rescue") (part "CONN_3") (description ""))
      (property (name "Sheetname") (value "Analog Inputs"))
      (property (name "Sheetfile") (value "Analog-Inputs.kicad_sch"))
      (sheetpath (names "/Analog Inputs/") (tstamps "/00000000-0000-0000-0000-000054e2626d/"))
      (tstamps "00000000-0000-0000-0000-000054e53dee"))
    (comp (ref "A4")
      (value "CONN_3")
      (footprint "PIN_ARRAY_3X1")
      (libsource (lib "BBB-GVS-4-rescue") (part "CONN_3") (description ""))
      (property (name "Sheetname") (value "Analog Inputs"))
      (property (name "Sheetfile") (value "Analog-Inputs.kicad_sch"))
      (sheetpath (names "/Analog Inputs/") (tstamps "/00000000-0000-0000-0000-000054e2626d/"))
      (tstamps "00000000-0000-0000-0000-000054e53dd2"))
    (comp (ref "A5")
      (value "CONN_3")
      (footprint "PIN_ARRAY_3X1")
      (libsource (lib "BBB-GVS-4-rescue") (part "CONN_3") (description ""))
      (property (name "Sheetname") (value "Analog Inputs"))
      (property (name "Sheetfile") (value "Analog-Inputs.kicad_sch"))
      (sheetpath (names "/Analog Inputs/") (tstamps "/00000000-0000-0000-0000-000054e2626d/"))
      (tstamps "00000000-0000-0000-0000-000054e53db6"))
    (comp (ref "A6")
      (value "CONN_3")
      (footprint "PIN_ARRAY_3X1")
      (libsource (lib "BBB-GVS-4-rescue") (part "CONN_3") (description ""))
      (property (name "Sheetname") (value "Analog Inputs"))
      (property (name "Sheetfile") (value "Analog-Inputs.kicad_sch"))
      (sheetpath (names "/Analog Inputs/") (tstamps "/00000000-0000-0000-0000-000054e2626d/"))
      (tstamps "00000000-0000-0000-0000-000054e262e1")))
  (libparts
    (libpart (lib "BBB-GVS-4-rescue") (part "BEAGLEBONE")
      (fields
        (field (name "Reference") "U")
        (field (name "Value") "BEAGLEBONE"))
      (pins
        (pin (num "A1") (name "BAT") (type "passive"))
        (pin (num "A2") (name "BAT") (type "passive"))
        (pin (num "A3") (name "BAT_S") (type "passive"))
        (pin (num "A4") (name "BAT_TEMP") (type "passive"))
        (pin (num "A5") (name "BL_ISET2") (type "passive"))
        (pin (num "A6") (name "BL_ISET1") (type "passive"))
        (pin (num "A7") (name "BL_OUT") (type "passive"))
        (pin (num "A8") (name "BL_IN") (type "passive"))
        (pin (num "A9") (name "BL_SINK") (type "passive"))
        (pin (num "A10") (name "BL_SINK2") (type "passive"))
        (pin (num "B1") (name "DGND") (type "power_out"))
        (pin (num "B2") (name "DGND") (type "power_out"))
        (pin (num "B3") (name "GPIO1_6") (type "bidirectional"))
        (pin (num "B4") (name "GPIO1_7") (type "power_out"))
        (pin (num "B5") (name "GPIO1_2") (type "bidirectional"))
        (pin (num "B6") (name "GPIO1_3") (type "power_out"))
        (pin (num "B7") (name "TIMER4") (type "bidirectional"))
        (pin (num "B8") (name "TIMER7") (type "bidirectional"))
        (pin (num "B9") (name "TIMER5") (type "bidirectional"))
        (pin (num "B10") (name "TIMER6") (type "bidirectional"))
        (pin (num "B11") (name "GPIO1_13") (type "bidirectional"))
        (pin (num "B12") (name "GPIO1_12") (type "bidirectional"))
        (pin (num "B13") (name "EHRPWM2B") (type "bidirectional"))
        (pin (num "B14") (name "GPIO0_26") (type "bidirectional"))
        (pin (num "B15") (name "GPIO1_15") (type "bidirectional"))
        (pin (num "B16") (name "GPIO1_14") (type "bidirectional"))
        (pin (num "B17") (name "GPIO0_27") (type "bidirectional"))
        (pin (num "B18") (name "GPIO2_1") (type "bidirectional"))
        (pin (num "B19") (name "EHRPWM2A") (type "bidirectional"))
        (pin (num "B20") (name "GPIO1_31") (type "bidirectional"))
        (pin (num "B21") (name "GPIO1_30") (type "bidirectional"))
        (pin (num "B22") (name "GPIO1_5") (type "bidirectional"))
        (pin (num "B23") (name "GPIO1_4") (type "bidirectional"))
        (pin (num "B24") (name "GPIO1_1") (type "bidirectional"))
        (pin (num "B25") (name "GPIO1_0") (type "bidirectional"))
        (pin (num "B26") (name "GPIO1_29") (type "bidirectional"))
        (pin (num "B27") (name "GPIO2_22") (type "bidirectional"))
        (pin (num "B28") (name "GPIO2_24") (type "bidirectional"))
        (pin (num "B29") (name "GPIO2_23") (type "bidirectional"))
        (pin (num "B30") (name "GPIO2_25") (type "bidirectional"))
        (pin (num "B31") (name "UART5_CTSN") (type "bidirectional"))
        (pin (num "B32") (name "UART5_RTSN") (type "bidirectional"))
        (pin (num "B33") (name "UART4_RTSN") (type "bidirectional"))
        (pin (num "B34") (name "UART3_RTSN") (type "bidirectional"))
        (pin (num "B35") (name "UART4_CTSN") (type "bidirectional"))
        (pin (num "B36") (name "UART3_CTSN") (type "bidirectional"))
        (pin (num "B37") (name "UART5_TXD") (type "bidirectional"))
        (pin (num "B38") (name "UART5_RXD") (type "bidirectional"))
        (pin (num "B39") (name "GPIO2_12") (type "bidirectional"))
        (pin (num "B40") (name "GPIO2_13") (type "bidirectional"))
        (pin (num "B41") (name "GPIO2_10") (type "bidirectional"))
        (pin (num "B42") (name "GPIO2_11") (type "bidirectional"))
        (pin (num "B43") (name "GPIO2_8") (type "bidirectional"))
        (pin (num "B44") (name "GPIO2_9") (type "bidirectional"))
        (pin (num "B45") (name "GPIO2_6") (type "bidirectional"))
        (pin (num "B46") (name "GPIO2_7") (type "bidirectional"))
        (pin (num "C1") (name "DGND") (type "power_in"))
        (pin (num "C2") (name "DGND") (type "power_in"))
        (pin (num "C3") (name "VDD_3V3EXP") (type "power_out"))
        (pin (num "C4") (name "VDD_3V3EXP") (type "power_out"))
        (pin (num "C5") (name "VDD_5V") (type "power_out"))
        (pin (num "C6") (name "VDD_5V") (type "power_out"))
        (pin (num "C7") (name "SYS_5V") (type "bidirectional"))
        (pin (num "C8") (name "SYS_5V") (type "bidirectional"))
        (pin (num "C9") (name "PWR_BUT") (type "bidirectional"))
        (pin (num "C10") (name "SYS_RESETn") (type "bidirectional"))
        (pin (num "C11") (name "UART4_RXD") (type "bidirectional"))
        (pin (num "C12") (name "GPIO1_28") (type "bidirectional"))
        (pin (num "C13") (name "UART4_TXD") (type "bidirectional"))
        (pin (num "C14") (name "EHRPWM1A") (type "bidirectional"))
        (pin (num "C15") (name "GPIO1_16") (type "bidirectional"))
        (pin (num "C16") (name "EHRPWM1B") (type "bidirectional"))
        (pin (num "C17") (name "I2C1_SCL") (type "bidirectional"))
        (pin (num "C18") (name "I2C1_SDA") (type "bidirectional"))
        (pin (num "C19") (name "I2C2_SCL") (type "bidirectional"))
        (pin (num "C20") (name "I2C2_SDA") (type "bidirectional"))
        (pin (num "C21") (name "UART2_TXD") (type "bidirectional"))
        (pin (num "C22") (name "UART2_RXD") (type "bidirectional"))
        (pin (num "C23") (name "GPIO1_17") (type "bidirectional"))
        (pin (num "C24") (name "UART1_TXD") (type "bidirectional"))
        (pin (num "C25") (name "GPIO3_21") (type "bidirectional"))
        (pin (num "C26") (name "UART1_RXD") (type "bidirectional"))
        (pin (num "C27") (name "GPIO3_19") (type "bidirectional"))
        (pin (num "C28") (name "SPI1_CS0") (type "bidirectional"))
        (pin (num "C29") (name "SPI1_D0") (type "bidirectional"))
        (pin (num "C30") (name "SPI1_D1") (type "bidirectional"))
        (pin (num "C31") (name "SPI1_SCLK") (type "bidirectional"))
        (pin (num "C32") (name "VDD_ADC") (type "power_out"))
        (pin (num "C33") (name "AIN4") (type "bidirectional"))
        (pin (num "C34") (name "GNDA_ADC") (type "power_out"))
        (pin (num "C35") (name "AIN6") (type "bidirectional"))
        (pin (num "C36") (name "AIN5") (type "bidirectional"))
        (pin (num "C37") (name "AIN2") (type "bidirectional"))
        (pin (num "C38") (name "AIN3") (type "bidirectional"))
        (pin (num "C39") (name "AIN0") (type "bidirectional"))
        (pin (num "C40") (name "AIN1") (type "bidirectional"))
        (pin (num "C41") (name "CLKOUT2") (type "bidirectional"))
        (pin (num "C42") (name "GPIO0_7") (type "power_out"))
        (pin (num "C43") (name "DGND") (type "bidirectional"))
        (pin (num "C44") (name "DGND") (type "bidirectional"))
        (pin (num "C45") (name "DGND") (type "bidirectional"))
        (pin (num "C46") (name "DGND") (type "bidirectional"))))
    (libpart (lib "BBB-GVS-4-rescue") (part "C-RESCUE-BBB-GVS-3")
      (footprints
        (fp "SM*")
        (fp "C?")
        (fp "C1-1"))
      (fields
        (field (name "Reference") "C")
        (field (name "Value") "C-RESCUE-BBB-GVS-3"))
      (pins
        (pin (num "1") (name "") (type "passive"))
        (pin (num "2") (name "") (type "passive"))))
    (libpart (lib "BBB-GVS-4-rescue") (part "CONN_1")
      (fields
        (field (name "Reference") "P")
        (field (name "Value") "CONN_1"))
      (pins
        (pin (num "1") (name "1") (type "passive"))))
    (libpart (lib "BBB-GVS-4-rescue") (part "CONN_2")
      (fields
        (field (name "Reference") "P")
        (field (name "Value") "CONN_2"))
      (pins
        (pin (num "1") (name "P1") (type "passive"))
        (pin (num "2") (name "PM") (type "passive"))))
    (libpart (lib "BBB-GVS-4-rescue") (part "CONN_3")
      (fields
        (field (name "Reference") "K")
        (field (name "Value") "CONN_3"))
      (pins
        (pin (num "1") (name "P1") (type "passive"))
        (pin (num "2") (name "PM") (type "passive"))
        (pin (num "3") (name "P3") (type "passive"))))
    (libpart (lib "BBB-GVS-4-rescue") (part "CONN_4")
      (fields
        (field (name "Reference") "P")
        (field (name "Value") "CONN_4"))
      (pins
        (pin (num "1") (name "P1") (type "passive"))
        (pin (num "2") (name "P2") (type "passive"))
        (pin (num "3") (name "P3") (type "passive"))
        (pin (num "4") (name "P4") (type "passive"))))
    (libpart (lib "BBB-GVS-4-rescue") (part "CONN_8")
      (fields
        (field (name "Reference") "P")
        (field (name "Value") "CONN_8"))
      (pins
        (pin (num "1") (name "P1") (type "passive"))
        (pin (num "2") (name "P2") (type "passive"))
        (pin (num "3") (name "P3") (type "passive"))
        (pin (num "4") (name "P4") (type "passive"))
        (pin (num "5") (name "P5") (type "passive"))
        (pin (num "6") (name "P6") (type "passive"))
        (pin (num "7") (name "P7") (type "passive"))
        (pin (num "8") (name "P8") (type "passive"))))
    (libpart (lib "BBB-GVS-4-rescue") (part "COUPON")
      (fields
        (field (name "Reference") "COUP?")
        (field (name "Value") "COUPON")))
    (libpart (lib "BBB-GVS-4-rescue") (part "FUSE")
      (fields
        (field (name "Reference") "F")
        (field (name "Value") "FUSE"))
      (pins
        (pin (num "1") (name "") (type "input"))
        (pin (num "2") (name "") (type "input"))))
    (libpart (lib "BBB-GVS-4-rescue") (part "GVS-4X3")
      (fields
        (field (name "Reference") "J")
        (field (name "Value") "GVS-4X3"))
      (pins
        (pin (num "1") (name "G") (type "passive"))
        (pin (num "2") (name "V") (type "passive"))
        (pin (num "3") (name "3") (type "passive"))
        (pin (num "4") (name "4") (type "passive"))
        (pin (num "5") (name "5") (type "passive"))
        (pin (num "6") (name "6") (type "passive"))
        (pin (num "7") (name "7") (type "passive"))
        (pin (num "8") (name "8") (type "passive"))
        (pin (num "9") (name "9") (type "passive"))
        (pin (num "10") (name "10") (type "passive"))
        (pin (num "11") (name "11") (type "passive"))
        (pin (num "12") (name "12") (type "passive"))))
    (libpart (lib "BBB-GVS-4-rescue") (part "GVS-8X3")
      (fields
        (field (name "Reference") "U")
        (field (name "Value") "GVS-8X3"))
      (pins
        (pin (num "1") (name "G") (type "passive"))
        (pin (num "2") (name "V") (type "passive"))
        (pin (num "3") (name "3") (type "passive"))
        (pin (num "4") (name "4") (type "passive"))
        (pin (num "5") (name "5") (type "passive"))
        (pin (num "6") (name "6") (type "passive"))
        (pin (num "7") (name "7") (type "passive"))
        (pin (num "8") (name "8") (type "passive"))
        (pin (num "9") (name "9") (type "passive"))
        (pin (num "10") (name "10") (type "passive"))
        (pin (num "11") (name "11") (type "passive"))
        (pin (num "12") (name "12") (type "passive"))
        (pin (num "13") (name "13") (type "passive"))
        (pin (num "14") (name "14") (type "passive"))
        (pin (num "15") (name "15") (type "passive"))
        (pin (num "16") (name "16") (type "passive"))
        (pin (num "17") (name "17") (type "passive"))
        (pin (num "18") (name "18") (type "passive"))
        (pin (num "19") (name "19") (type "passive"))
        (pin (num "20") (name "20") (type "passive"))
        (pin (num "21") (name "21") (type "passive"))
        (pin (num "22") (name "22") (type "passive"))
        (pin (num "23") (name "23") (type "passive"))
        (pin (num "24") (name "24") (type "passive"))))
    (libpart (lib "BBB-GVS-4-rescue") (part "I2C-EEPROM")
      (fields
        (field (name "Reference") "U")
        (field (name "Value") "I2C-EEPROM"))
      (pins
        (pin (num "1") (name "A0") (type "input"))
        (pin (num "2") (name "A1") (type "input"))
        (pin (num "3") (name "A2") (type "input"))
        (pin (num "4") (name "GND") (type "power_in"))
        (pin (num "5") (name "SDA") (type "bidirectional"))
        (pin (num "6") (name "SCL") (type "input"))
        (pin (num "7") (name "WP") (type "input"))
        (pin (num "8") (name "VCC") (type "power_in"))))
    (libpart (lib "BBB-GVS-4-rescue") (part "LED-RESCUE-BBB-GVS-3")
      (footprints
        (fp "LED-3MM")
        (fp "LED-5MM")
        (fp "LED-10MM")
        (fp "LED-0603")
        (fp "LED-0805")
        (fp "LED-1206")
        (fp "LEDV"))
      (fields
        (field (name "Reference") "D")
        (field (name "Value") "LED-RESCUE-BBB-GVS-3"))
      (pins
        (pin (num "1") (name "A") (type "passive"))
        (pin (num "2") (name "K") (type "passive"))))
    (libpart (lib "BBB-GVS-4-rescue") (part "R-RESCUE-BBB-GVS-3")
      (footprints
        (fp "R?")
        (fp "SM0603")
        (fp "SM0805")
        (fp "R?-*")
        (fp "SM1206"))
      (fields
        (field (name "Reference") "R")
        (field (name "Value") "R-RESCUE-BBB-GVS-3"))
      (pins
        (pin (num "1") (name "") (type "passive"))
        (pin (num "2") (name "") (type "passive"))))
    (libpart (lib "LandBoards_Semis") (part "TXS0104")
      (docs "DOCUMENTATION")
      (fields
        (field (name "Reference") "U")
        (field (name "Value") "TXS0104")
        (field (name "Footprint") "SO14")
        (field (name "Datasheet") "DOCUMENTATION"))
      (pins
        (pin (num "1") (name "VCCA(LV)") (type "passive"))
        (pin (num "2") (name "A1") (type "bidirectional"))
        (pin (num "3") (name "A2") (type "bidirectional"))
        (pin (num "4") (name "A3") (type "bidirectional"))
        (pin (num "5") (name "A4") (type "bidirectional"))
        (pin (num "7") (name "GND") (type "passive"))
        (pin (num "8") (name "OE") (type "input"))
        (pin (num "10") (name "B4") (type "bidirectional"))
        (pin (num "11") (name "B3") (type "bidirectional"))
        (pin (num "12") (name "B2") (type "bidirectional"))
        (pin (num "13") (name "B1") (type "bidirectional"))
        (pin (num "14") (name "VCCB(HV)") (type "passive")))))
  (libraries
    (library (logical "BBB-GVS-4-rescue")
      (uri "C:\\Users\\HPz420\\Documents\\GitHub\\land-boards\\lb-boards\\BeagleBoneBlack Cards\\BBB-GVS-4/BBB-GVS-4-rescue.lib"))
    (library (logical "LandBoards_Semis")
      (uri "C:/Users/HPz420/Documents/GitHub/land-boards/lb-boards/KiCAD/library/LandBoards_Semis.lib")))
  (nets
    (net (code "1") (name "/P8 Connector/EHRPWM2A")
      (node (ref "BRD1") (pin "B19") (pinfunction "EHRPWM2A") (pintype "bidirectional"))
      (node (ref "J16") (pin "3") (pinfunction "3") (pintype "passive")))
    (net (code "2") (name "/P8 Connector/EHRPWM2B")
      (node (ref "BRD1") (pin "B13") (pinfunction "EHRPWM2B") (pintype "bidirectional"))
      (node (ref "J24") (pin "6") (pinfunction "6") (pintype "passive")))
    (net (code "3") (name "/P8 Connector/GPIO0_26")
      (node (ref "BRD1") (pin "B14") (pinfunction "GPIO0_26") (pintype "bidirectional")))
    (net (code "4") (name "/P8 Connector/GPIO0_27")
      (node (ref "BRD1") (pin "B17") (pinfunction "GPIO0_27") (pintype "bidirectional"))
      (node (ref "J16") (pin "9") (pinfunction "9") (pintype "passive")))
    (net (code "5") (name "/P8 Connector/GPIO1_12")
      (node (ref "BRD1") (pin "B12") (pinfunction "GPIO1_12") (pintype "bidirectional"))
      (node (ref "J24") (pin "9") (pinfunction "9") (pintype "passive")))
    (net (code "6") (name "/P8 Connector/GPIO1_13")
      (node (ref "BRD1") (pin "B11") (pinfunction "GPIO1_13") (pintype "bidirectional"))
      (node (ref "J24") (pin "12") (pinfunction "12") (pintype "passive")))
    (net (code "7") (name "/P8 Connector/GPIO1_14")
      (node (ref "BRD1") (pin "B16") (pinfunction "GPIO1_14") (pintype "bidirectional"))
      (node (ref "J16") (pin "12") (pinfunction "12") (pintype "passive")))
    (net (code "8") (name "/P8 Connector/GPIO1_15")
      (node (ref "BRD1") (pin "B15") (pinfunction "GPIO1_15") (pintype "bidirectional"))
      (node (ref "J24") (pin "3") (pinfunction "3") (pintype "passive")))
    (net (code "9") (name "/P8 Connector/GPIO1_29")
      (node (ref "BRD1") (pin "B26") (pinfunction "GPIO1_29") (pintype "bidirectional"))
      (node (ref "J12") (pin "3") (pinfunction "P3") (pintype "passive")))
    (net (code "10") (name "/P8 Connector/GPIO2_1")
      (node (ref "BRD1") (pin "B18") (pinfunction "GPIO2_1") (pintype "bidirectional"))
      (node (ref "J16") (pin "6") (pinfunction "6") (pintype "passive")))
    (net (code "11") (name "/P8 Connector/TIMER4")
      (node (ref "BRD1") (pin "B7") (pinfunction "TIMER4") (pintype "bidirectional"))
      (node (ref "J24") (pin "21") (pinfunction "21") (pintype "passive")))
    (net (code "12") (name "/P8 Connector/TIMER5")
      (node (ref "BRD1") (pin "B9") (pinfunction "TIMER5") (pintype "bidirectional"))
      (node (ref "J24") (pin "15") (pinfunction "15") (pintype "passive")))
    (net (code "13") (name "/P8 Connector/TIMER6")
      (node (ref "BRD1") (pin "B10") (pinfunction "TIMER6") (pintype "bidirectional"))
      (node (ref "J24") (pin "18") (pinfunction "18") (pintype "passive")))
    (net (code "14") (name "/P8 Connector/TIMER7")
      (node (ref "BRD1") (pin "B8") (pinfunction "TIMER7") (pintype "bidirectional"))
      (node (ref "J24") (pin "24") (pinfunction "24") (pintype "passive")))
    (net (code "15") (name "/P9 Connector/CLKOUT2")
      (node (ref "BRD1") (pin "C41") (pinfunction "CLKOUT2") (pintype "bidirectional")))
    (net (code "16") (name "/P9 Connector/EHRPWM1A")
      (node (ref "BRD1") (pin "C14") (pinfunction "EHRPWM1A") (pintype "bidirectional"))
      (node (ref "J9") (pin "3") (pinfunction "P3") (pintype "passive")))
    (net (code "17") (name "/P9 Connector/EHRPWM1B")
      (node (ref "BRD1") (pin "C16") (pinfunction "EHRPWM1B") (pintype "bidirectional")))
    (net (code "18") (name "/P9 Connector/GPIO0_7")
      (node (ref "BRD1") (pin "C42") (pinfunction "GPIO0_7") (pintype "power_out")))
    (net (code "19") (name "/P9 Connector/GPIO1_16")
      (node (ref "BRD1") (pin "C15") (pinfunction "GPIO1_16") (pintype "bidirectional"))
      (node (ref "J8") (pin "3") (pinfunction "P3") (pintype "passive")))
    (net (code "20") (name "/P9 Connector/GPIO1_17")
      (node (ref "BRD1") (pin "C23") (pinfunction "GPIO1_17") (pintype "bidirectional"))
      (node (ref "J3") (pin "3") (pinfunction "P3") (pintype "passive")))
    (net (code "21") (name "/P9 Connector/GPIO1_28")
      (node (ref "BRD1") (pin "C12") (pinfunction "GPIO1_28") (pintype "bidirectional"))
      (node (ref "J10") (pin "3") (pinfunction "P3") (pintype "passive")))
    (net (code "22") (name "/P9 Connector/GPIO3_19")
      (node (ref "BRD1") (pin "C27") (pinfunction "GPIO3_19") (pintype "bidirectional"))
      (node (ref "J2") (pin "3") (pinfunction "P3") (pintype "passive")))
    (net (code "23") (name "/P9 Connector/I2C1_SCL")
      (node (ref "BRD1") (pin "C17") (pinfunction "I2C1_SCL") (pintype "bidirectional"))
      (node (ref "J6") (pin "4") (pinfunction "P4") (pintype "passive")))
    (net (code "24") (name "/P9 Connector/I2C1_SDA")
      (node (ref "BRD1") (pin "C18") (pinfunction "I2C1_SDA") (pintype "bidirectional"))
      (node (ref "J6") (pin "3") (pinfunction "P3") (pintype "passive")))
    (net (code "25") (name "/P9 Connector/PWR_BUT")
      (node (ref "BRD1") (pin "C9") (pinfunction "PWR_BUT") (pintype "bidirectional")))
    (net (code "26") (name "/P9 Connector/SPI1_D1")
      (node (ref "BRD1") (pin "C30") (pinfunction "SPI1_D1") (pintype "bidirectional"))
      (node (ref "J1") (pin "3") (pinfunction "P3") (pintype "passive")))
    (net (code "27") (name "/P9 Connector/SYS_RESETn")
      (node (ref "BRD1") (pin "C10") (pinfunction "SYS_RESETn") (pintype "bidirectional")))
    (net (code "28") (name "/P9 Connector/UART1_RXD")
      (node (ref "BRD1") (pin "C26") (pinfunction "UART1_RXD") (pintype "bidirectional"))
      (node (ref "J4") (pin "3") (pinfunction "P3") (pintype "passive")))
    (net (code "29") (name "/P9 Connector/UART1_TXD")
      (node (ref "BRD1") (pin "C24") (pinfunction "UART1_TXD") (pintype "bidirectional"))
      (node (ref "J4") (pin "4") (pinfunction "P4") (pintype "passive")))
    (net (code "30") (name "/P9 Connector/UART2_RXD")
      (node (ref "BRD1") (pin "C22") (pinfunction "UART2_RXD") (pintype "bidirectional"))
      (node (ref "J5") (pin "4") (pinfunction "P4") (pintype "passive")))
    (net (code "31") (name "/P9 Connector/UART2_TXD")
      (node (ref "BRD1") (pin "C21") (pinfunction "UART2_TXD") (pintype "bidirectional"))
      (node (ref "J5") (pin "3") (pinfunction "P3") (pintype "passive")))
    (net (code "32") (name "/P9 Connector/UART4_RXD")
      (node (ref "BRD1") (pin "C11") (pinfunction "UART4_RXD") (pintype "bidirectional"))
      (node (ref "J7") (pin "4") (pinfunction "P4") (pintype "passive")))
    (net (code "33") (name "/P9 Connector/UART4_TXD")
      (node (ref "BRD1") (pin "C13") (pinfunction "UART4_TXD") (pintype "bidirectional"))
      (node (ref "J7") (pin "3") (pinfunction "P3") (pintype "passive")))
    (net (code "34") (name "AIN0")
      (node (ref "A0") (pin "3") (pinfunction "P3") (pintype "passive"))
      (node (ref "BRD1") (pin "C39") (pinfunction "AIN0") (pintype "bidirectional")))
    (net (code "35") (name "AIN1")
      (node (ref "A1") (pin "3") (pinfunction "P3") (pintype "passive"))
      (node (ref "BRD1") (pin "C40") (pinfunction "AIN1") (pintype "bidirectional")))
    (net (code "36") (name "AIN2")
      (node (ref "A2") (pin "3") (pinfunction "P3") (pintype "passive"))
      (node (ref "BRD1") (pin "C37") (pinfunction "AIN2") (pintype "bidirectional")))
    (net (code "37") (name "AIN3")
      (node (ref "A3") (pin "3") (pinfunction "P3") (pintype "passive"))
      (node (ref "BRD1") (pin "C38") (pinfunction "AIN3") (pintype "bidirectional")))
    (net (code "38") (name "AIN4")
      (node (ref "A4") (pin "3") (pinfunction "P3") (pintype "passive"))
      (node (ref "BRD1") (pin "C33") (pinfunction "AIN4") (pintype "bidirectional")))
    (net (code "39") (name "AIN5")
      (node (ref "A5") (pin "3") (pinfunction "P3") (pintype "passive"))
      (node (ref "BRD1") (pin "C36") (pinfunction "AIN5") (pintype "bidirectional")))
    (net (code "40") (name "AIN6")
      (node (ref "A6") (pin "3") (pinfunction "P3") (pintype "passive"))
      (node (ref "BRD1") (pin "C35") (pinfunction "AIN6") (pintype "bidirectional")))
    (net (code "41") (name "GND")
      (node (ref "BRD1") (pin "B1") (pinfunction "DGND") (pintype "power_out"))
      (node (ref "BRD1") (pin "B2") (pinfunction "DGND") (pintype "power_out"))
      (node (ref "BRD1") (pin "C1") (pinfunction "DGND") (pintype "power_in"))
      (node (ref "BRD1") (pin "C2") (pinfunction "DGND") (pintype "power_in"))
      (node (ref "BRD1") (pin "C43") (pinfunction "DGND") (pintype "bidirectional"))
      (node (ref "BRD1") (pin "C44") (pinfunction "DGND") (pintype "bidirectional"))
      (node (ref "BRD1") (pin "C45") (pinfunction "DGND") (pintype "bidirectional"))
      (node (ref "BRD1") (pin "C46") (pinfunction "DGND") (pintype "bidirectional"))
      (node (ref "C1") (pin "2") (pintype "passive"))
      (node (ref "C2") (pin "2") (pintype "passive"))
      (node (ref "C3") (pin "2") (pintype "passive"))
      (node (ref "C4") (pin "2") (pintype "passive"))
      (node (ref "D1") (pin "2") (pinfunction "K") (pintype "passive"))
      (node (ref "D2") (pin "2") (pinfunction "K") (pintype "passive"))
      (node (ref "J1") (pin "1") (pinfunction "P1") (pintype "passive"))
      (node (ref "J10") (pin "1") (pinfunction "P1") (pintype "passive"))
      (node (ref "J11") (pin "2") (pinfunction "PM") (pintype "passive"))
      (node (ref "J12") (pin "1") (pinfunction "P1") (pintype "passive"))
      (node (ref "J16") (pin "1") (pinfunction "G") (pintype "passive"))
      (node (ref "J16") (pin "10") (pinfunction "10") (pintype "passive"))
      (node (ref "J16") (pin "4") (pinfunction "4") (pintype "passive"))
      (node (ref "J16") (pin "7") (pinfunction "7") (pintype "passive"))
      (node (ref "J2") (pin "1") (pinfunction "P1") (pintype "passive"))
      (node (ref "J24") (pin "1") (pinfunction "G") (pintype "passive"))
      (node (ref "J24") (pin "10") (pinfunction "10") (pintype "passive"))
      (node (ref "J24") (pin "13") (pinfunction "13") (pintype "passive"))
      (node (ref "J24") (pin "16") (pinfunction "16") (pintype "passive"))
      (node (ref "J24") (pin "19") (pinfunction "19") (pintype "passive"))
      (node (ref "J24") (pin "22") (pinfunction "22") (pintype "passive"))
      (node (ref "J24") (pin "4") (pinfunction "4") (pintype "passive"))
      (node (ref "J24") (pin "7") (pinfunction "7") (pintype "passive"))
      (node (ref "J26") (pin "1") (pinfunction "G") (pintype "passive"))
      (node (ref "J26") (pin "10") (pinfunction "10") (pintype "passive"))
      (node (ref "J26") (pin "13") (pinfunction "13") (pintype "passive"))
      (node (ref "J26") (pin "16") (pinfunction "16") (pintype "passive"))
      (node (ref "J26") (pin "19") (pinfunction "19") (pintype "passive"))
      (node (ref "J26") (pin "22") (pinfunction "22") (pintype "passive"))
      (node (ref "J26") (pin "4") (pinfunction "4") (pintype "passive"))
      (node (ref "J26") (pin "7") (pinfunction "7") (pintype "passive"))
      (node (ref "J3") (pin "1") (pinfunction "P1") (pintype "passive"))
      (node (ref "J4") (pin "1") (pinfunction "P1") (pintype "passive"))
      (node (ref "J5") (pin "1") (pinfunction "P1") (pintype "passive"))
      (node (ref "J6") (pin "1") (pinfunction "P1") (pintype "passive"))
      (node (ref "J7") (pin "1") (pinfunction "P1") (pintype "passive"))
      (node (ref "J8") (pin "1") (pinfunction "P1") (pintype "passive"))
      (node (ref "J9") (pin "1") (pinfunction "P1") (pintype "passive"))
      (node (ref "U1") (pin "1") (pinfunction "A0") (pintype "input"))
      (node (ref "U1") (pin "2") (pinfunction "A1") (pintype "input"))
      (node (ref "U1") (pin "4") (pinfunction "GND") (pintype "power_in"))
      (node (ref "U4") (pin "7") (pinfunction "GND") (pintype "passive"))
      (node (ref "U5") (pin "7") (pinfunction "GND") (pintype "passive")))
    (net (code "42") (name "GNDA_ADC")
      (node (ref "A0") (pin "1") (pinfunction "P1") (pintype "passive"))
      (node (ref "A1") (pin "1") (pinfunction "P1") (pintype "passive"))
      (node (ref "A2") (pin "1") (pinfunction "P1") (pintype "passive"))
      (node (ref "A3") (pin "1") (pinfunction "P1") (pintype "passive"))
      (node (ref "A4") (pin "1") (pinfunction "P1") (pintype "passive"))
      (node (ref "A5") (pin "1") (pinfunction "P1") (pintype "passive"))
      (node (ref "A6") (pin "1") (pinfunction "P1") (pintype "passive"))
      (node (ref "BRD1") (pin "C34") (pinfunction "GNDA_ADC") (pintype "power_out")))
    (net (code "43") (name "I2C2_SCL")
      (node (ref "BRD1") (pin "C19") (pinfunction "I2C2_SCL") (pintype "bidirectional"))
      (node (ref "R4") (pin "2") (pintype "passive"))
      (node (ref "U1") (pin "6") (pinfunction "SCL") (pintype "input")))
    (net (code "44") (name "I2C2_SDA")
      (node (ref "BRD1") (pin "C20") (pinfunction "I2C2_SDA") (pintype "bidirectional"))
      (node (ref "R5") (pin "2") (pintype "passive"))
      (node (ref "U1") (pin "5") (pinfunction "SDA") (pintype "bidirectional")))
    (net (code "45") (name "Net-(D1-Pad1)")
      (node (ref "D1") (pin "1") (pinfunction "A") (pintype "passive"))
      (node (ref "R1") (pin "2") (pintype "passive")))
    (net (code "46") (name "Net-(D2-Pad1)")
      (node (ref "D2") (pin "1") (pinfunction "A") (pintype "passive"))
      (node (ref "R2") (pin "2") (pintype "passive")))
    (net (code "47") (name "Net-(F1-Pad2)")
      (node (ref "F1") (pin "2") (pintype "input"))
      (node (ref "J25") (pin "2") (pinfunction "PM") (pintype "passive")))
    (net (code "48") (name "Net-(J11-Pad1)")
      (node (ref "J11") (pin "1") (pinfunction "P1") (pintype "passive"))
      (node (ref "R3") (pin "2") (pintype "passive"))
      (node (ref "U1") (pin "7") (pinfunction "WP") (pintype "input")))
    (net (code "49") (name "Net-(J26-Pad3)")
      (node (ref "J26") (pin "3") (pinfunction "3") (pintype "passive"))
      (node (ref "U5") (pin "10") (pinfunction "B4") (pintype "bidirectional")))
    (net (code "50") (name "Net-(J26-Pad6)")
      (node (ref "J26") (pin "6") (pinfunction "6") (pintype "passive"))
      (node (ref "U5") (pin "11") (pinfunction "B3") (pintype "bidirectional")))
    (net (code "51") (name "Net-(J26-Pad9)")
      (node (ref "J26") (pin "9") (pinfunction "9") (pintype "passive"))
      (node (ref "U5") (pin "12") (pinfunction "B2") (pintype "bidirectional")))
    (net (code "52") (name "Net-(J26-Pad12)")
      (node (ref "J26") (pin "12") (pinfunction "12") (pintype "passive"))
      (node (ref "U5") (pin "13") (pinfunction "B1") (pintype "bidirectional")))
    (net (code "53") (name "Net-(J26-Pad15)")
      (node (ref "J26") (pin "15") (pinfunction "15") (pintype "passive"))
      (node (ref "U4") (pin "10") (pinfunction "B4") (pintype "bidirectional")))
    (net (code "54") (name "Net-(J26-Pad18)")
      (node (ref "J26") (pin "18") (pinfunction "18") (pintype "passive"))
      (node (ref "U4") (pin "11") (pinfunction "B3") (pintype "bidirectional")))
    (net (code "55") (name "Net-(J26-Pad21)")
      (node (ref "J26") (pin "21") (pinfunction "21") (pintype "passive"))
      (node (ref "U4") (pin "12") (pinfunction "B2") (pintype "bidirectional")))
    (net (code "56") (name "Net-(J26-Pad24)")
      (node (ref "J26") (pin "24") (pinfunction "24") (pintype "passive"))
      (node (ref "U4") (pin "13") (pinfunction "B1") (pintype "bidirectional")))
    (net (code "57") (name "Net-(P1-Pad1)")
      (node (ref "P1") (pin "1") (pinfunction "P1") (pintype "passive"))
      (node (ref "U4") (pin "2") (pinfunction "A1") (pintype "bidirectional")))
    (net (code "58") (name "Net-(P1-Pad2)")
      (node (ref "P1") (pin "2") (pinfunction "P2") (pintype "passive"))
      (node (ref "U4") (pin "3") (pinfunction "A2") (pintype "bidirectional")))
    (net (code "59") (name "Net-(P1-Pad3)")
      (node (ref "P1") (pin "3") (pinfunction "P3") (pintype "passive"))
      (node (ref "U4") (pin "4") (pinfunction "A3") (pintype "bidirectional")))
    (net (code "60") (name "Net-(P1-Pad4)")
      (node (ref "P1") (pin "4") (pinfunction "P4") (pintype "passive"))
      (node (ref "U4") (pin "5") (pinfunction "A4") (pintype "bidirectional")))
    (net (code "61") (name "Net-(P1-Pad5)")
      (node (ref "P1") (pin "5") (pinfunction "P5") (pintype "passive"))
      (node (ref "U5") (pin "2") (pinfunction "A1") (pintype "bidirectional")))
    (net (code "62") (name "Net-(P1-Pad6)")
      (node (ref "P1") (pin "6") (pinfunction "P6") (pintype "passive"))
      (node (ref "U5") (pin "3") (pinfunction "A2") (pintype "bidirectional")))
    (net (code "63") (name "Net-(P1-Pad7)")
      (node (ref "P1") (pin "7") (pinfunction "P7") (pintype "passive"))
      (node (ref "U5") (pin "4") (pinfunction "A3") (pintype "bidirectional")))
    (net (code "64") (name "Net-(P1-Pad8)")
      (node (ref "P1") (pin "8") (pinfunction "P8") (pintype "passive"))
      (node (ref "U5") (pin "5") (pinfunction "A4") (pintype "bidirectional")))
    (net (code "65") (name "SYS_5V")
      (node (ref "BRD1") (pin "C7") (pinfunction "SYS_5V") (pintype "bidirectional"))
      (node (ref "BRD1") (pin "C8") (pinfunction "SYS_5V") (pintype "bidirectional"))
      (node (ref "J25") (pin "1") (pinfunction "P1") (pintype "passive")))
    (net (code "66") (name "VCC_3V3EXP")
      (node (ref "C1") (pin "1") (pintype "passive"))
      (node (ref "C3") (pin "1") (pintype "passive"))
      (node (ref "C4") (pin "1") (pintype "passive"))
      (node (ref "F2") (pin "1") (pintype "input"))
      (node (ref "J1") (pin "2") (pinfunction "PM") (pintype "passive"))
      (node (ref "J10") (pin "2") (pinfunction "PM") (pintype "passive"))
      (node (ref "J12") (pin "2") (pinfunction "PM") (pintype "passive"))
      (node (ref "J16") (pin "11") (pinfunction "11") (pintype "passive"))
      (node (ref "J16") (pin "2") (pinfunction "V") (pintype "passive"))
      (node (ref "J16") (pin "5") (pinfunction "5") (pintype "passive"))
      (node (ref "J16") (pin "8") (pinfunction "8") (pintype "passive"))
      (node (ref "J2") (pin "2") (pinfunction "PM") (pintype "passive"))
      (node (ref "J24") (pin "11") (pinfunction "11") (pintype "passive"))
      (node (ref "J24") (pin "14") (pinfunction "14") (pintype "passive"))
      (node (ref "J24") (pin "17") (pinfunction "17") (pintype "passive"))
      (node (ref "J24") (pin "2") (pinfunction "V") (pintype "passive"))
      (node (ref "J24") (pin "20") (pinfunction "20") (pintype "passive"))
      (node (ref "J24") (pin "23") (pinfunction "23") (pintype "passive"))
      (node (ref "J24") (pin "5") (pinfunction "5") (pintype "passive"))
      (node (ref "J24") (pin "8") (pinfunction "8") (pintype "passive"))
      (node (ref "J3") (pin "2") (pinfunction "PM") (pintype "passive"))
      (node (ref "J4") (pin "2") (pinfunction "P2") (pintype "passive"))
      (node (ref "J5") (pin "2") (pinfunction "P2") (pintype "passive"))
      (node (ref "J6") (pin "2") (pinfunction "P2") (pintype "passive"))
      (node (ref "J7") (pin "2") (pinfunction "P2") (pintype "passive"))
      (node (ref "J8") (pin "2") (pinfunction "PM") (pintype "passive"))
      (node (ref "J9") (pin "2") (pinfunction "PM") (pintype "passive"))
      (node (ref "R1") (pin "1") (pintype "passive"))
      (node (ref "R3") (pin "1") (pintype "passive"))
      (node (ref "R4") (pin "1") (pintype "passive"))
      (node (ref "R5") (pin "1") (pintype "passive"))
      (node (ref "U1") (pin "3") (pinfunction "A2") (pintype "input"))
      (node (ref "U1") (pin "8") (pinfunction "VCC") (pintype "power_in"))
      (node (ref "U4") (pin "1") (pinfunction "VCCA(LV)") (pintype "passive"))
      (node (ref "U4") (pin "8") (pinfunction "OE") (pintype "input"))
      (node (ref "U5") (pin "1") (pinfunction "VCCA(LV)") (pintype "passive"))
      (node (ref "U5") (pin "8") (pinfunction "OE") (pintype "input")))
    (net (code "67") (name "VDD_3V3-UF")
      (node (ref "BRD1") (pin "C3") (pinfunction "VDD_3V3EXP") (pintype "power_out"))
      (node (ref "BRD1") (pin "C4") (pinfunction "VDD_3V3EXP") (pintype "power_out"))
      (node (ref "F2") (pin "2") (pintype "input")))
    (net (code "68") (name "VDD_5V")
      (node (ref "C2") (pin "1") (pintype "passive"))
      (node (ref "F1") (pin "1") (pintype "input"))
      (node (ref "J26") (pin "11") (pinfunction "11") (pintype "passive"))
      (node (ref "J26") (pin "14") (pinfunction "14") (pintype "passive"))
      (node (ref "J26") (pin "17") (pinfunction "17") (pintype "passive"))
      (node (ref "J26") (pin "2") (pinfunction "V") (pintype "passive"))
      (node (ref "J26") (pin "20") (pinfunction "20") (pintype "passive"))
      (node (ref "J26") (pin "23") (pinfunction "23") (pintype "passive"))
      (node (ref "J26") (pin "5") (pinfunction "5") (pintype "passive"))
      (node (ref "J26") (pin "8") (pinfunction "8") (pintype "passive"))
      (node (ref "R2") (pin "1") (pintype "passive"))
      (node (ref "U4") (pin "14") (pinfunction "VCCB(HV)") (pintype "passive"))
      (node (ref "U5") (pin "14") (pinfunction "VCCB(HV)") (pintype "passive")))
    (net (code "69") (name "VDD_5V-UF")
      (node (ref "BRD1") (pin "C5") (pinfunction "VDD_5V") (pintype "power_out"))
      (node (ref "BRD1") (pin "C6") (pinfunction "VDD_5V") (pintype "power_out"))
      (node (ref "J25") (pin "3") (pinfunction "P3") (pintype "passive")))
    (net (code "70") (name "VDD_ADC")
      (node (ref "A0") (pin "2") (pinfunction "PM") (pintype "passive"))
      (node (ref "A1") (pin "2") (pinfunction "PM") (pintype "passive"))
      (node (ref "A2") (pin "2") (pinfunction "PM") (pintype "passive"))
      (node (ref "A3") (pin "2") (pinfunction "PM") (pintype "passive"))
      (node (ref "A4") (pin "2") (pinfunction "PM") (pintype "passive"))
      (node (ref "A5") (pin "2") (pinfunction "PM") (pintype "passive"))
      (node (ref "A6") (pin "2") (pinfunction "PM") (pintype "passive"))
      (node (ref "BRD1") (pin "C32") (pinfunction "VDD_ADC") (pintype "power_out")))
    (net (code "71") (name "unconnected-(BRD1-PadB3)")
      (node (ref "BRD1") (pin "B3") (pinfunction "GPIO1_6") (pintype "bidirectional+no_connect")))
    (net (code "72") (name "unconnected-(BRD1-PadB4)")
      (node (ref "BRD1") (pin "B4") (pinfunction "GPIO1_7") (pintype "power_out+no_connect")))
    (net (code "73") (name "unconnected-(BRD1-PadB5)")
      (node (ref "BRD1") (pin "B5") (pinfunction "GPIO1_2") (pintype "bidirectional+no_connect")))
    (net (code "74") (name "unconnected-(BRD1-PadB6)")
      (node (ref "BRD1") (pin "B6") (pinfunction "GPIO1_3") (pintype "power_out+no_connect")))
    (net (code "75") (name "unconnected-(BRD1-PadB20)")
      (node (ref "BRD1") (pin "B20") (pinfunction "GPIO1_31") (pintype "bidirectional+no_connect")))
    (net (code "76") (name "unconnected-(BRD1-PadB21)")
      (node (ref "BRD1") (pin "B21") (pinfunction "GPIO1_30") (pintype "bidirectional+no_connect")))
    (net (code "77") (name "unconnected-(BRD1-PadB22)")
      (node (ref "BRD1") (pin "B22") (pinfunction "GPIO1_5") (pintype "bidirectional+no_connect")))
    (net (code "78") (name "unconnected-(BRD1-PadB23)")
      (node (ref "BRD1") (pin "B23") (pinfunction "GPIO1_4") (pintype "bidirectional+no_connect")))
    (net (code "79") (name "unconnected-(BRD1-PadB24)")
      (node (ref "BRD1") (pin "B24") (pinfunction "GPIO1_1") (pintype "bidirectional+no_connect")))
    (net (code "80") (name "unconnected-(BRD1-PadB25)")
      (node (ref "BRD1") (pin "B25") (pinfunction "GPIO1_0") (pintype "bidirectional+no_connect")))
    (net (code "81") (name "unconnected-(BRD1-PadB27)")
      (node (ref "BRD1") (pin "B27") (pinfunction "GPIO2_22") (pintype "bidirectional+no_connect")))
    (net (code "82") (name "unconnected-(BRD1-PadB28)")
      (node (ref "BRD1") (pin "B28") (pinfunction "GPIO2_24") (pintype "bidirectional+no_connect")))
    (net (code "83") (name "unconnected-(BRD1-PadB29)")
      (node (ref "BRD1") (pin "B29") (pinfunction "GPIO2_23") (pintype "bidirectional+no_connect")))
    (net (code "84") (name "unconnected-(BRD1-PadB30)")
      (node (ref "BRD1") (pin "B30") (pinfunction "GPIO2_25") (pintype "bidirectional+no_connect")))
    (net (code "85") (name "unconnected-(BRD1-PadB31)")
      (node (ref "BRD1") (pin "B31") (pinfunction "UART5_CTSN") (pintype "bidirectional+no_connect")))
    (net (code "86") (name "unconnected-(BRD1-PadB32)")
      (node (ref "BRD1") (pin "B32") (pinfunction "UART5_RTSN") (pintype "bidirectional+no_connect")))
    (net (code "87") (name "unconnected-(BRD1-PadB33)")
      (node (ref "BRD1") (pin "B33") (pinfunction "UART4_RTSN") (pintype "bidirectional+no_connect")))
    (net (code "88") (name "unconnected-(BRD1-PadB34)")
      (node (ref "BRD1") (pin "B34") (pinfunction "UART3_RTSN") (pintype "bidirectional+no_connect")))
    (net (code "89") (name "unconnected-(BRD1-PadB35)")
      (node (ref "BRD1") (pin "B35") (pinfunction "UART4_CTSN") (pintype "bidirectional+no_connect")))
    (net (code "90") (name "unconnected-(BRD1-PadB36)")
      (node (ref "BRD1") (pin "B36") (pinfunction "UART3_CTSN") (pintype "bidirectional+no_connect")))
    (net (code "91") (name "unconnected-(BRD1-PadB37)")
      (node (ref "BRD1") (pin "B37") (pinfunction "UART5_TXD") (pintype "bidirectional+no_connect")))
    (net (code "92") (name "unconnected-(BRD1-PadB38)")
      (node (ref "BRD1") (pin "B38") (pinfunction "UART5_RXD") (pintype "bidirectional+no_connect")))
    (net (code "93") (name "unconnected-(BRD1-PadB39)")
      (node (ref "BRD1") (pin "B39") (pinfunction "GPIO2_12") (pintype "bidirectional+no_connect")))
    (net (code "94") (name "unconnected-(BRD1-PadB40)")
      (node (ref "BRD1") (pin "B40") (pinfunction "GPIO2_13") (pintype "bidirectional+no_connect")))
    (net (code "95") (name "unconnected-(BRD1-PadB41)")
      (node (ref "BRD1") (pin "B41") (pinfunction "GPIO2_10") (pintype "bidirectional+no_connect")))
    (net (code "96") (name "unconnected-(BRD1-PadB42)")
      (node (ref "BRD1") (pin "B42") (pinfunction "GPIO2_11") (pintype "bidirectional+no_connect")))
    (net (code "97") (name "unconnected-(BRD1-PadB43)")
      (node (ref "BRD1") (pin "B43") (pinfunction "GPIO2_8") (pintype "bidirectional+no_connect")))
    (net (code "98") (name "unconnected-(BRD1-PadB44)")
      (node (ref "BRD1") (pin "B44") (pinfunction "GPIO2_9") (pintype "bidirectional+no_connect")))
    (net (code "99") (name "unconnected-(BRD1-PadB45)")
      (node (ref "BRD1") (pin "B45") (pinfunction "GPIO2_6") (pintype "bidirectional+no_connect")))
    (net (code "100") (name "unconnected-(BRD1-PadB46)")
      (node (ref "BRD1") (pin "B46") (pinfunction "GPIO2_7") (pintype "bidirectional+no_connect")))
    (net (code "101") (name "unconnected-(BRD1-PadC25)")
      (node (ref "BRD1") (pin "C25") (pinfunction "GPIO3_21") (pintype "bidirectional+no_connect")))
    (net (code "102") (name "unconnected-(BRD1-PadC28)")
      (node (ref "BRD1") (pin "C28") (pinfunction "SPI1_CS0") (pintype "bidirectional+no_connect")))
    (net (code "103") (name "unconnected-(BRD1-PadC29)")
      (node (ref "BRD1") (pin "C29") (pinfunction "SPI1_D0") (pintype "bidirectional+no_connect")))
    (net (code "104") (name "unconnected-(BRD1-PadC31)")
      (node (ref "BRD1") (pin "C31") (pinfunction "SPI1_SCLK") (pintype "bidirectional+no_connect")))
    (net (code "105") (name "unconnected-(FID1-Pad1)")
      (node (ref "FID1") (pin "1") (pinfunction "1") (pintype "passive")))
    (net (code "106") (name "unconnected-(FID2-Pad1)")
      (node (ref "FID2") (pin "1") (pinfunction "1") (pintype "passive")))))