(kicad_sch (version 20210621) (generator eeschema)

  (uuid 4c8cef7a-5b03-497b-8933-65c4d3aa691a)

  (paper "A4")

  (lib_symbols
    (symbol "Connector_Generic:Conn_01x02" (pin_names (offset 1.016) hide) (in_bom yes) (on_board yes)
      (property "Reference" "J" (id 0) (at 0 2.54 0)
        (effects (font (size 1.27 1.27)))
      )
      (property "Value" "Conn_01x02" (id 1) (at 0 -5.08 0)
        (effects (font (size 1.27 1.27)))
      )
      (property "Footprint" "" (id 2) (at 0 0 0)
        (effects (font (size 1.27 1.27)) hide)
      )
      (property "Datasheet" "~" (id 3) (at 0 0 0)
        (effects (font (size 1.27 1.27)) hide)
      )
      (property "ki_keywords" "connector" (id 4) (at 0 0 0)
        (effects (font (size 1.27 1.27)) hide)
      )
      (property "ki_description" "Generic connector, single row, 01x02, script generated (kicad-library-utils/schlib/autogen/connector/)" (id 5) (at 0 0 0)
        (effects (font (size 1.27 1.27)) hide)
      )
      (property "ki_fp_filters" "Connector*:*_1x??_*" (id 6) (at 0 0 0)
        (effects (font (size 1.27 1.27)) hide)
      )
      (symbol "Conn_01x02_1_1"
        (rectangle (start -1.27 -2.413) (end 0 -2.667)
          (stroke (width 0.1524) (type default) (color 0 0 0 0))
          (fill (type none))
        )
        (rectangle (start -1.27 0.127) (end 0 -0.127)
          (stroke (width 0.1524) (type default) (color 0 0 0 0))
          (fill (type none))
        )
        (rectangle (start -1.27 1.27) (end 1.27 -3.81)
          (stroke (width 0.254) (type default) (color 0 0 0 0))
          (fill (type background))
        )
        (pin passive line (at -5.08 0 0) (length 3.81)
          (name "Pin_1" (effects (font (size 1.27 1.27))))
          (number "1" (effects (font (size 1.27 1.27))))
        )
        (pin passive line (at -5.08 -2.54 0) (length 3.81)
          (name "Pin_2" (effects (font (size 1.27 1.27))))
          (number "2" (effects (font (size 1.27 1.27))))
        )
      )
    )
    (symbol "Device:C_Small" (pin_numbers hide) (pin_names (offset 0.254) hide) (in_bom yes) (on_board yes)
      (property "Reference" "C" (id 0) (at 0.254 1.778 0)
        (effects (font (size 1.27 1.27)) (justify left))
      )
      (property "Value" "C_Small" (id 1) (at 0.254 -2.032 0)
        (effects (font (size 1.27 1.27)) (justify left))
      )
      (property "Footprint" "" (id 2) (at 0 0 0)
        (effects (font (size 1.27 1.27)) hide)
      )
      (property "Datasheet" "~" (id 3) (at 0 0 0)
        (effects (font (size 1.27 1.27)) hide)
      )
      (property "ki_keywords" "capacitor cap" (id 4) (at 0 0 0)
        (effects (font (size 1.27 1.27)) hide)
      )
      (property "ki_description" "Unpolarized capacitor, small symbol" (id 5) (at 0 0 0)
        (effects (font (size 1.27 1.27)) hide)
      )
      (property "ki_fp_filters" "C_*" (id 6) (at 0 0 0)
        (effects (font (size 1.27 1.27)) hide)
      )
      (symbol "C_Small_0_1"
        (polyline
          (pts
            (xy -1.524 -0.508)
            (xy 1.524 -0.508)
          )
          (stroke (width 0.3302) (type default) (color 0 0 0 0))
          (fill (type none))
        )
        (polyline
          (pts
            (xy -1.524 0.508)
            (xy 1.524 0.508)
          )
          (stroke (width 0.3048) (type default) (color 0 0 0 0))
          (fill (type none))
        )
      )
      (symbol "C_Small_1_1"
        (pin passive line (at 0 2.54 270) (length 2.032)
          (name "~" (effects (font (size 1.27 1.27))))
          (number "1" (effects (font (size 1.27 1.27))))
        )
        (pin passive line (at 0 -2.54 90) (length 2.032)
          (name "~" (effects (font (size 1.27 1.27))))
          (number "2" (effects (font (size 1.27 1.27))))
        )
      )
    )
    (symbol "Device:D_Small" (pin_numbers hide) (pin_names (offset 0.254) hide) (in_bom yes) (on_board yes)
      (property "Reference" "D" (id 0) (at -1.27 2.032 0)
        (effects (font (size 1.27 1.27)) (justify left))
      )
      (property "Value" "D_Small" (id 1) (at -3.81 -2.032 0)
        (effects (font (size 1.27 1.27)) (justify left))
      )
      (property "Footprint" "" (id 2) (at 0 0 90)
        (effects (font (size 1.27 1.27)) hide)
      )
      (property "Datasheet" "~" (id 3) (at 0 0 90)
        (effects (font (size 1.27 1.27)) hide)
      )
      (property "ki_keywords" "diode" (id 4) (at 0 0 0)
        (effects (font (size 1.27 1.27)) hide)
      )
      (property "ki_description" "Diode, small symbol" (id 5) (at 0 0 0)
        (effects (font (size 1.27 1.27)) hide)
      )
      (property "ki_fp_filters" "TO-???* *_Diode_* *SingleDiode* D_*" (id 6) (at 0 0 0)
        (effects (font (size 1.27 1.27)) hide)
      )
      (symbol "D_Small_0_1"
        (polyline
          (pts
            (xy -0.762 -1.016)
            (xy -0.762 1.016)
          )
          (stroke (width 0.254) (type default) (color 0 0 0 0))
          (fill (type none))
        )
        (polyline
          (pts
            (xy -0.762 0)
            (xy 0.762 0)
          )
          (stroke (width 0) (type default) (color 0 0 0 0))
          (fill (type none))
        )
        (polyline
          (pts
            (xy 0.762 -1.016)
            (xy -0.762 0)
            (xy 0.762 1.016)
            (xy 0.762 -1.016)
          )
          (stroke (width 0.254) (type default) (color 0 0 0 0))
          (fill (type none))
        )
      )
      (symbol "D_Small_1_1"
        (pin passive line (at -2.54 0 0) (length 1.778)
          (name "K" (effects (font (size 1.27 1.27))))
          (number "1" (effects (font (size 1.27 1.27))))
        )
        (pin passive line (at 2.54 0 180) (length 1.778)
          (name "A" (effects (font (size 1.27 1.27))))
          (number "2" (effects (font (size 1.27 1.27))))
        )
      )
    )
    (symbol "Device:LED_Small" (pin_numbers hide) (pin_names (offset 0.254) hide) (in_bom yes) (on_board yes)
      (property "Reference" "D" (id 0) (at -1.27 3.175 0)
        (effects (font (size 1.27 1.27)) (justify left))
      )
      (property "Value" "LED_Small" (id 1) (at -4.445 -2.54 0)
        (effects (font (size 1.27 1.27)) (justify left))
      )
      (property "Footprint" "" (id 2) (at 0 0 90)
        (effects (font (size 1.27 1.27)) hide)
      )
      (property "Datasheet" "~" (id 3) (at 0 0 90)
        (effects (font (size 1.27 1.27)) hide)
      )
      (property "ki_keywords" "LED diode light-emitting-diode" (id 4) (at 0 0 0)
        (effects (font (size 1.27 1.27)) hide)
      )
      (property "ki_description" "Light emitting diode, small symbol" (id 5) (at 0 0 0)
        (effects (font (size 1.27 1.27)) hide)
      )
      (property "ki_fp_filters" "LED* LED_SMD:* LED_THT:*" (id 6) (at 0 0 0)
        (effects (font (size 1.27 1.27)) hide)
      )
      (symbol "LED_Small_0_1"
        (polyline
          (pts
            (xy -0.762 -1.016)
            (xy -0.762 1.016)
          )
          (stroke (width 0.254) (type default) (color 0 0 0 0))
          (fill (type none))
        )
        (polyline
          (pts
            (xy 1.016 0)
            (xy -0.762 0)
          )
          (stroke (width 0) (type default) (color 0 0 0 0))
          (fill (type none))
        )
        (polyline
          (pts
            (xy 0.762 -1.016)
            (xy -0.762 0)
            (xy 0.762 1.016)
            (xy 0.762 -1.016)
          )
          (stroke (width 0.254) (type default) (color 0 0 0 0))
          (fill (type none))
        )
        (polyline
          (pts
            (xy 0 0.762)
            (xy -0.508 1.27)
            (xy -0.254 1.27)
            (xy -0.508 1.27)
            (xy -0.508 1.016)
          )
          (stroke (width 0) (type default) (color 0 0 0 0))
          (fill (type none))
        )
        (polyline
          (pts
            (xy 0.508 1.27)
            (xy 0 1.778)
            (xy 0.254 1.778)
            (xy 0 1.778)
            (xy 0 1.524)
          )
          (stroke (width 0) (type default) (color 0 0 0 0))
          (fill (type none))
        )
      )
      (symbol "LED_Small_1_1"
        (pin passive line (at -2.54 0 0) (length 1.778)
          (name "K" (effects (font (size 1.27 1.27))))
          (number "1" (effects (font (size 1.27 1.27))))
        )
        (pin passive line (at 2.54 0 180) (length 1.778)
          (name "A" (effects (font (size 1.27 1.27))))
          (number "2" (effects (font (size 1.27 1.27))))
        )
      )
    )
    (symbol "Device:R_Small" (pin_numbers hide) (pin_names (offset 0.254) hide) (in_bom yes) (on_board yes)
      (property "Reference" "R" (id 0) (at 0.762 0.508 0)
        (effects (font (size 1.27 1.27)) (justify left))
      )
      (property "Value" "R_Small" (id 1) (at 0.762 -1.016 0)
        (effects (font (size 1.27 1.27)) (justify left))
      )
      (property "Footprint" "" (id 2) (at 0 0 0)
        (effects (font (size 1.27 1.27)) hide)
      )
      (property "Datasheet" "~" (id 3) (at 0 0 0)
        (effects (font (size 1.27 1.27)) hide)
      )
      (property "ki_keywords" "R resistor" (id 4) (at 0 0 0)
        (effects (font (size 1.27 1.27)) hide)
      )
      (property "ki_description" "Resistor, small symbol" (id 5) (at 0 0 0)
        (effects (font (size 1.27 1.27)) hide)
      )
      (property "ki_fp_filters" "R_*" (id 6) (at 0 0 0)
        (effects (font (size 1.27 1.27)) hide)
      )
      (symbol "R_Small_0_1"
        (rectangle (start -0.762 1.778) (end 0.762 -1.778)
          (stroke (width 0.2032) (type default) (color 0 0 0 0))
          (fill (type none))
        )
      )
      (symbol "R_Small_1_1"
        (pin passive line (at 0 2.54 270) (length 0.762)
          (name "~" (effects (font (size 1.27 1.27))))
          (number "1" (effects (font (size 1.27 1.27))))
        )
        (pin passive line (at 0 -2.54 90) (length 0.762)
          (name "~" (effects (font (size 1.27 1.27))))
          (number "2" (effects (font (size 1.27 1.27))))
        )
      )
    )
    (symbol "MCU_Microchip_ATtiny:ATtiny412-SS" (in_bom yes) (on_board yes)
      (property "Reference" "U" (id 0) (at -12.7 13.97 0)
        (effects (font (size 1.27 1.27)) (justify left bottom))
      )
      (property "Value" "ATtiny412-SS" (id 1) (at 2.54 -13.97 0)
        (effects (font (size 1.27 1.27)) (justify left top))
      )
      (property "Footprint" "Package_SO:SOIC-8_3.9x4.9mm_P1.27mm" (id 2) (at 0 0 0)
        (effects (font (size 1.27 1.27) italic) hide)
      )
      (property "Datasheet" "http://ww1.microchip.com/downloads/en/DeviceDoc/40001911A.pdf" (id 3) (at 0 0 0)
        (effects (font (size 1.27 1.27)) hide)
      )
      (property "ki_keywords" "AVR 8bit Microcontroller tinyAVR" (id 4) (at 0 0 0)
        (effects (font (size 1.27 1.27)) hide)
      )
      (property "ki_description" "20MHz, 4kB Flash, 256B SRAM, 128B EEPROM, SOIC-8" (id 5) (at 0 0 0)
        (effects (font (size 1.27 1.27)) hide)
      )
      (property "ki_fp_filters" "SOIC*3.9x4.9mm*P1.27mm*" (id 6) (at 0 0 0)
        (effects (font (size 1.27 1.27)) hide)
      )
      (symbol "ATtiny412-SS_0_1"
        (rectangle (start -12.7 -12.7) (end 12.7 12.7)
          (stroke (width 0.254) (type default) (color 0 0 0 0))
          (fill (type background))
        )
      )
      (symbol "ATtiny412-SS_1_1"
        (pin power_in line (at 0 15.24 270) (length 2.54)
          (name "VCC" (effects (font (size 1.27 1.27))))
          (number "1" (effects (font (size 1.27 1.27))))
        )
        (pin bidirectional line (at 15.24 -2.54 180) (length 2.54)
          (name "PA6" (effects (font (size 1.27 1.27))))
          (number "2" (effects (font (size 1.27 1.27))))
        )
        (pin bidirectional line (at 15.24 -5.08 180) (length 2.54)
          (name "PA7" (effects (font (size 1.27 1.27))))
          (number "3" (effects (font (size 1.27 1.27))))
        )
        (pin bidirectional line (at 15.24 5.08 180) (length 2.54)
          (name "PA1" (effects (font (size 1.27 1.27))))
          (number "4" (effects (font (size 1.27 1.27))))
        )
        (pin bidirectional line (at 15.24 2.54 180) (length 2.54)
          (name "PA2" (effects (font (size 1.27 1.27))))
          (number "5" (effects (font (size 1.27 1.27))))
        )
        (pin bidirectional line (at 15.24 7.62 180) (length 2.54)
          (name "~{RESET}/PA0" (effects (font (size 1.27 1.27))))
          (number "6" (effects (font (size 1.27 1.27))))
        )
        (pin bidirectional line (at 15.24 0 180) (length 2.54)
          (name "PA3" (effects (font (size 1.27 1.27))))
          (number "7" (effects (font (size 1.27 1.27))))
        )
        (pin power_in line (at 0 -15.24 90) (length 2.54)
          (name "GND" (effects (font (size 1.27 1.27))))
          (number "8" (effects (font (size 1.27 1.27))))
        )
      )
    )
    (symbol "Transistor_FET:AO3400A" (pin_names hide) (in_bom yes) (on_board yes)
      (property "Reference" "Q" (id 0) (at 5.08 1.905 0)
        (effects (font (size 1.27 1.27)) (justify left))
      )
      (property "Value" "AO3400A" (id 1) (at 5.08 0 0)
        (effects (font (size 1.27 1.27)) (justify left))
      )
      (property "Footprint" "Package_TO_SOT_SMD:SOT-23" (id 2) (at 5.08 -1.905 0)
        (effects (font (size 1.27 1.27) italic) (justify left) hide)
      )
      (property "Datasheet" "http://www.aosmd.com/pdfs/datasheet/AO3400A.pdf" (id 3) (at 0 0 0)
        (effects (font (size 1.27 1.27)) (justify left) hide)
      )
      (property "ki_keywords" "N-Channel MOSFET" (id 4) (at 0 0 0)
        (effects (font (size 1.27 1.27)) hide)
      )
      (property "ki_description" "30V Vds, 5.7A Id, N-Channel MOSFET, SOT-23" (id 5) (at 0 0 0)
        (effects (font (size 1.27 1.27)) hide)
      )
      (property "ki_fp_filters" "SOT?23*" (id 6) (at 0 0 0)
        (effects (font (size 1.27 1.27)) hide)
      )
      (symbol "AO3400A_0_1"
        (polyline
          (pts
            (xy 0.254 0)
            (xy -2.54 0)
          )
          (stroke (width 0) (type default) (color 0 0 0 0))
          (fill (type none))
        )
        (polyline
          (pts
            (xy 0.254 1.905)
            (xy 0.254 -1.905)
          )
          (stroke (width 0.254) (type default) (color 0 0 0 0))
          (fill (type none))
        )
        (polyline
          (pts
            (xy 0.762 -1.27)
            (xy 0.762 -2.286)
          )
          (stroke (width 0.254) (type default) (color 0 0 0 0))
          (fill (type none))
        )
        (polyline
          (pts
            (xy 0.762 0.508)
            (xy 0.762 -0.508)
          )
          (stroke (width 0.254) (type default) (color 0 0 0 0))
          (fill (type none))
        )
        (polyline
          (pts
            (xy 0.762 2.286)
            (xy 0.762 1.27)
          )
          (stroke (width 0.254) (type default) (color 0 0 0 0))
          (fill (type none))
        )
        (polyline
          (pts
            (xy 2.54 2.54)
            (xy 2.54 1.778)
          )
          (stroke (width 0) (type default) (color 0 0 0 0))
          (fill (type none))
        )
        (polyline
          (pts
            (xy 2.54 -2.54)
            (xy 2.54 0)
            (xy 0.762 0)
          )
          (stroke (width 0) (type default) (color 0 0 0 0))
          (fill (type none))
        )
        (polyline
          (pts
            (xy 0.762 -1.778)
            (xy 3.302 -1.778)
            (xy 3.302 1.778)
            (xy 0.762 1.778)
          )
          (stroke (width 0) (type default) (color 0 0 0 0))
          (fill (type none))
        )
        (polyline
          (pts
            (xy 1.016 0)
            (xy 2.032 0.381)
            (xy 2.032 -0.381)
            (xy 1.016 0)
          )
          (stroke (width 0) (type default) (color 0 0 0 0))
          (fill (type outline))
        )
        (polyline
          (pts
            (xy 2.794 0.508)
            (xy 2.921 0.381)
            (xy 3.683 0.381)
            (xy 3.81 0.254)
          )
          (stroke (width 0) (type default) (color 0 0 0 0))
          (fill (type none))
        )
        (polyline
          (pts
            (xy 3.302 0.381)
            (xy 2.921 -0.254)
            (xy 3.683 -0.254)
            (xy 3.302 0.381)
          )
          (stroke (width 0) (type default) (color 0 0 0 0))
          (fill (type none))
        )
        (circle (center 1.651 0) (radius 2.794)
          (stroke (width 0.254) (type default) (color 0 0 0 0))
          (fill (type none))
        )
        (circle (center 2.54 -1.778) (radius 0.254)
          (stroke (width 0) (type default) (color 0 0 0 0))
          (fill (type outline))
        )
        (circle (center 2.54 1.778) (radius 0.254)
          (stroke (width 0) (type default) (color 0 0 0 0))
          (fill (type outline))
        )
      )
      (symbol "AO3400A_1_1"
        (pin input line (at -5.08 0 0) (length 2.54)
          (name "G" (effects (font (size 1.27 1.27))))
          (number "1" (effects (font (size 1.27 1.27))))
        )
        (pin passive line (at 2.54 -5.08 90) (length 2.54)
          (name "S" (effects (font (size 1.27 1.27))))
          (number "2" (effects (font (size 1.27 1.27))))
        )
        (pin passive line (at 2.54 5.08 270) (length 2.54)
          (name "D" (effects (font (size 1.27 1.27))))
          (number "3" (effects (font (size 1.27 1.27))))
        )
      )
    )
    (symbol "power:+3.3V" (power) (pin_names (offset 0)) (in_bom yes) (on_board yes)
      (property "Reference" "#PWR" (id 0) (at 0 -3.81 0)
        (effects (font (size 1.27 1.27)) hide)
      )
      (property "Value" "+3.3V" (id 1) (at 0 3.556 0)
        (effects (font (size 1.27 1.27)))
      )
      (property "Footprint" "" (id 2) (at 0 0 0)
        (effects (font (size 1.27 1.27)) hide)
      )
      (property "Datasheet" "" (id 3) (at 0 0 0)
        (effects (font (size 1.27 1.27)) hide)
      )
      (property "ki_keywords" "power-flag" (id 4) (at 0 0 0)
        (effects (font (size 1.27 1.27)) hide)
      )
      (property "ki_description" "Power symbol creates a global label with name \"+3.3V\"" (id 5) (at 0 0 0)
        (effects (font (size 1.27 1.27)) hide)
      )
      (symbol "+3.3V_0_1"
        (polyline
          (pts
            (xy -0.762 1.27)
            (xy 0 2.54)
          )
          (stroke (width 0) (type default) (color 0 0 0 0))
          (fill (type none))
        )
        (polyline
          (pts
            (xy 0 0)
            (xy 0 2.54)
          )
          (stroke (width 0) (type default) (color 0 0 0 0))
          (fill (type none))
        )
        (polyline
          (pts
            (xy 0 2.54)
            (xy 0.762 1.27)
          )
          (stroke (width 0) (type default) (color 0 0 0 0))
          (fill (type none))
        )
      )
      (symbol "+3.3V_1_1"
        (pin power_in line (at 0 0 90) (length 0) hide
          (name "+3V3" (effects (font (size 1.27 1.27))))
          (number "1" (effects (font (size 1.27 1.27))))
        )
      )
    )
    (symbol "power:GND" (power) (pin_names (offset 0)) (in_bom yes) (on_board yes)
      (property "Reference" "#PWR" (id 0) (at 0 -6.35 0)
        (effects (font (size 1.27 1.27)) hide)
      )
      (property "Value" "GND" (id 1) (at 0 -3.81 0)
        (effects (font (size 1.27 1.27)))
      )
      (property "Footprint" "" (id 2) (at 0 0 0)
        (effects (font (size 1.27 1.27)) hide)
      )
      (property "Datasheet" "" (id 3) (at 0 0 0)
        (effects (font (size 1.27 1.27)) hide)
      )
      (property "ki_keywords" "power-flag" (id 4) (at 0 0 0)
        (effects (font (size 1.27 1.27)) hide)
      )
      (property "ki_description" "Power symbol creates a global label with name \"GND\" , ground" (id 5) (at 0 0 0)
        (effects (font (size 1.27 1.27)) hide)
      )
      (symbol "GND_0_1"
        (polyline
          (pts
            (xy 0 0)
            (xy 0 -1.27)
            (xy 1.27 -1.27)
            (xy 0 -2.54)
            (xy -1.27 -1.27)
            (xy 0 -1.27)
          )
          (stroke (width 0) (type default) (color 0 0 0 0))
          (fill (type none))
        )
      )
      (symbol "GND_1_1"
        (pin power_in line (at 0 0 270) (length 0) hide
          (name "GND" (effects (font (size 1.27 1.27))))
          (number "1" (effects (font (size 1.27 1.27))))
        )
      )
    )
  )

  (junction (at 152.4 68.58) (diameter 0) (color 0 0 0 0))
  (junction (at 152.4 83.82) (diameter 0) (color 0 0 0 0))
  (junction (at 138.43 95.25) (diameter 0) (color 0 0 0 0))
  (junction (at 152.4 54.61) (diameter 0) (color 0 0 0 0))
  (junction (at 152.4 49.53) (diameter 0) (color 0 0 0 0))
  (junction (at 152.4 102.87) (diameter 0) (color 0 0 0 0))
  (junction (at 152.4 88.9) (diameter 0) (color 0 0 0 0))
  (junction (at 138.43 60.96) (diameter 0) (color 0 0 0 0))

  (wire (pts (xy 152.4 88.9) (xy 152.4 90.17))
    (stroke (width 0) (type default) (color 0 0 0 0))
    (uuid 00e0e4f2-39b8-4d70-8c0b-43dd75022015)
  )
  (wire (pts (xy 152.4 83.82) (xy 156.21 83.82))
    (stroke (width 0) (type default) (color 0 0 0 0))
    (uuid 0f59eef5-72bf-4ad6-8cde-93f905dfe59c)
  )
  (wire (pts (xy 138.43 95.25) (xy 139.7 95.25))
    (stroke (width 0) (type default) (color 0 0 0 0))
    (uuid 16882753-4186-48e8-af49-9d2c77fb389f)
  )
  (wire (pts (xy 137.16 60.96) (xy 138.43 60.96))
    (stroke (width 0) (type default) (color 0 0 0 0))
    (uuid 18486f0c-9063-4f50-95dd-fbb55e6f7c60)
  )
  (wire (pts (xy 138.43 60.96) (xy 139.7 60.96))
    (stroke (width 0) (type default) (color 0 0 0 0))
    (uuid 18486f0c-9063-4f50-95dd-fbb55e6f7c60)
  )
  (wire (pts (xy 156.21 88.9) (xy 152.4 88.9))
    (stroke (width 0) (type default) (color 0 0 0 0))
    (uuid 2283a35b-cf70-44cb-bac8-1272878335c2)
  )
  (wire (pts (xy 152.4 46.99) (xy 152.4 49.53))
    (stroke (width 0) (type default) (color 0 0 0 0))
    (uuid 2acfcdd3-5f2e-4195-9234-8990aaaedd2a)
  )
  (wire (pts (xy 152.4 102.87) (xy 152.4 104.14))
    (stroke (width 0) (type default) (color 0 0 0 0))
    (uuid 30c41d39-6965-4297-8286-fe359450daf4)
  )
  (wire (pts (xy 156.21 87.63) (xy 156.21 88.9))
    (stroke (width 0) (type default) (color 0 0 0 0))
    (uuid 33bac5ff-e0a5-446d-8a76-93b581fe802e)
  )
  (wire (pts (xy 138.43 60.96) (xy 138.43 62.23))
    (stroke (width 0) (type default) (color 0 0 0 0))
    (uuid 389d4aa5-98ae-4856-825f-572e64637dc4)
  )
  (wire (pts (xy 156.21 53.34) (xy 156.21 54.61))
    (stroke (width 0) (type default) (color 0 0 0 0))
    (uuid 42982eff-8103-4e11-be53-f47e0e6cf0ce)
  )
  (wire (pts (xy 156.21 54.61) (xy 152.4 54.61))
    (stroke (width 0) (type default) (color 0 0 0 0))
    (uuid 42982eff-8103-4e11-be53-f47e0e6cf0ce)
  )
  (wire (pts (xy 152.4 68.58) (xy 152.4 69.85))
    (stroke (width 0) (type default) (color 0 0 0 0))
    (uuid 47aa6b51-99e6-4886-8f81-c996b275bc3c)
  )
  (wire (pts (xy 152.4 66.04) (xy 152.4 68.58))
    (stroke (width 0) (type default) (color 0 0 0 0))
    (uuid 47aa6b51-99e6-4886-8f81-c996b275bc3c)
  )
  (wire (pts (xy 85.09 60.96) (xy 85.09 58.42))
    (stroke (width 0) (type default) (color 0 0 0 0))
    (uuid 4c8ac5ed-176e-4314-9e9c-2aaf952ebdbc)
  )
  (wire (pts (xy 156.21 85.09) (xy 156.21 83.82))
    (stroke (width 0) (type default) (color 0 0 0 0))
    (uuid 4e38c6ba-8601-4f7a-acf5-f2aa8823d1b6)
  )
  (wire (pts (xy 138.43 102.87) (xy 152.4 102.87))
    (stroke (width 0) (type default) (color 0 0 0 0))
    (uuid 51ff577f-77bb-4cc2-94eb-d06b53ac3a6e)
  )
  (wire (pts (xy 152.4 100.33) (xy 152.4 102.87))
    (stroke (width 0) (type default) (color 0 0 0 0))
    (uuid 554f7090-7330-4216-9db9-a9182ba56545)
  )
  (wire (pts (xy 138.43 95.25) (xy 138.43 96.52))
    (stroke (width 0) (type default) (color 0 0 0 0))
    (uuid 5bf644ac-87ea-40e2-b953-a3c4820bbd63)
  )
  (wire (pts (xy 152.4 81.28) (xy 152.4 83.82))
    (stroke (width 0) (type default) (color 0 0 0 0))
    (uuid 6431588c-f86f-4743-b54e-8a08416e58cc)
  )
  (wire (pts (xy 138.43 68.58) (xy 152.4 68.58))
    (stroke (width 0) (type default) (color 0 0 0 0))
    (uuid 8151e56d-78dc-41d2-972e-1c3043588ee2)
  )
  (wire (pts (xy 138.43 67.31) (xy 138.43 68.58))
    (stroke (width 0) (type default) (color 0 0 0 0))
    (uuid 8151e56d-78dc-41d2-972e-1c3043588ee2)
  )
  (wire (pts (xy 137.16 95.25) (xy 138.43 95.25))
    (stroke (width 0) (type default) (color 0 0 0 0))
    (uuid 915d4ed7-4343-40aa-8d90-336336906893)
  )
  (wire (pts (xy 152.4 54.61) (xy 152.4 55.88))
    (stroke (width 0) (type default) (color 0 0 0 0))
    (uuid a77230be-9cc7-4c6c-92ba-80405cd96844)
  )
  (wire (pts (xy 107.95 52.07) (xy 106.68 52.07))
    (stroke (width 0) (type default) (color 0 0 0 0))
    (uuid b185dc79-674f-4a89-a8d8-262bed64d357)
  )
  (wire (pts (xy 106.68 52.07) (xy 106.68 50.8))
    (stroke (width 0) (type default) (color 0 0 0 0))
    (uuid b185dc79-674f-4a89-a8d8-262bed64d357)
  )
  (wire (pts (xy 152.4 49.53) (xy 156.21 49.53))
    (stroke (width 0) (type default) (color 0 0 0 0))
    (uuid c26e1491-1aeb-4cd2-b572-8ab2519e10c0)
  )
  (wire (pts (xy 156.21 50.8) (xy 156.21 49.53))
    (stroke (width 0) (type default) (color 0 0 0 0))
    (uuid c26e1491-1aeb-4cd2-b572-8ab2519e10c0)
  )
  (wire (pts (xy 85.09 53.34) (xy 85.09 50.8))
    (stroke (width 0) (type default) (color 0 0 0 0))
    (uuid e65c2a98-da8a-42ec-8826-1d146b350f23)
  )
  (wire (pts (xy 107.95 54.61) (xy 106.68 54.61))
    (stroke (width 0) (type default) (color 0 0 0 0))
    (uuid e711f9ce-281a-4584-89cb-8c3605a20116)
  )
  (wire (pts (xy 106.68 54.61) (xy 106.68 55.88))
    (stroke (width 0) (type default) (color 0 0 0 0))
    (uuid e711f9ce-281a-4584-89cb-8c3605a20116)
  )
  (wire (pts (xy 138.43 101.6) (xy 138.43 102.87))
    (stroke (width 0) (type default) (color 0 0 0 0))
    (uuid f68677ce-9291-4fc8-bafa-43b278a2ea0c)
  )

  (global_label "motorR" (shape input) (at 137.16 95.25 180) (fields_autoplaced)
    (effects (font (size 1.27 1.27)) (justify right))
    (uuid 0e0cc433-3aad-4e6d-8b47-169d7eddbcd1)
    (property "Intersheet References" "${INTERSHEET_REFS}" (id 0) (at 127.9736 95.1706 0)
      (effects (font (size 1.27 1.27)) (justify right) hide)
    )
  )
  (global_label "UPDI" (shape input) (at 121.92 71.12 0) (fields_autoplaced)
    (effects (font (size 1.27 1.27)) (justify left))
    (uuid 3644dc51-8a7f-435d-8ec3-959a74b7457a)
    (property "Intersheet References" "${INTERSHEET_REFS}" (id 0) (at 128.8083 71.0406 0)
      (effects (font (size 1.27 1.27)) (justify left) hide)
    )
  )
  (global_label "motorR" (shape input) (at 116.84 76.2 0) (fields_autoplaced)
    (effects (font (size 1.27 1.27)) (justify left))
    (uuid 9f5c4baf-7b58-4e2e-be60-84925d1a8d56)
    (property "Intersheet References" "${INTERSHEET_REFS}" (id 0) (at 126.0264 76.2794 0)
      (effects (font (size 1.27 1.27)) (justify left) hide)
    )
  )
  (global_label "motorL" (shape input) (at 116.84 83.82 0) (fields_autoplaced)
    (effects (font (size 1.27 1.27)) (justify left))
    (uuid be10c514-37b8-4854-9f99-3e047d4b07ce)
    (property "Intersheet References" "${INTERSHEET_REFS}" (id 0) (at 125.7845 83.8994 0)
      (effects (font (size 1.27 1.27)) (justify left) hide)
    )
  )
  (global_label "motorL" (shape input) (at 137.16 60.96 180) (fields_autoplaced)
    (effects (font (size 1.27 1.27)) (justify right))
    (uuid ef7fbf61-8c76-49f5-9deb-f8b4a0a99b56)
    (property "Intersheet References" "${INTERSHEET_REFS}" (id 0) (at 128.2155 60.8806 0)
      (effects (font (size 1.27 1.27)) (justify right) hide)
    )
  )

  (symbol (lib_id "Transistor_FET:AO3400A") (at 149.86 95.25 0) (unit 1)
    (in_bom yes) (on_board yes) (fields_autoplaced)
    (uuid 0263f4a2-37fd-4431-ba41-cc6fbed0161b)
    (property "Reference" "Q2" (id 0) (at 155.067 94.3415 0)
      (effects (font (size 1.27 1.27)) (justify left))
    )
    (property "Value" "AO3400A" (id 1) (at 155.067 97.1166 0)
      (effects (font (size 1.27 1.27)) (justify left))
    )
    (property "Footprint" "Package_TO_SOT_SMD:SOT-23" (id 2) (at 154.94 97.155 0)
      (effects (font (size 1.27 1.27) italic) (justify left) hide)
    )
    (property "Datasheet" "http://www.aosmd.com/pdfs/datasheet/AO3400A.pdf" (id 3) (at 149.86 95.25 0)
      (effects (font (size 1.27 1.27)) (justify left) hide)
    )
    (pin "1" (uuid bf291e84-d329-4473-a032-1d2204015cc3))
    (pin "2" (uuid 217741ef-900c-4cd0-a5d1-e8e4b285c822))
    (pin "3" (uuid 8f633014-284e-4ae6-8c73-7be6f47d488c))
  )

  (symbol (lib_id "MCU_Microchip_ATtiny:ATtiny412-SS") (at 101.6 78.74 0) (unit 1)
    (in_bom yes) (on_board yes) (fields_autoplaced)
    (uuid 094f6753-e701-447d-a274-ec0fe6294e92)
    (property "Reference" "U1" (id 0) (at 88.1381 77.8315 0)
      (effects (font (size 1.27 1.27)) (justify right))
    )
    (property "Value" "ATtiny412-SS" (id 1) (at 88.1381 80.6066 0)
      (effects (font (size 1.27 1.27)) (justify right))
    )
    (property "Footprint" "Package_SO:SOIC-8_3.9x4.9mm_P1.27mm" (id 2) (at 101.6 78.74 0)
      (effects (font (size 1.27 1.27) italic) hide)
    )
    (property "Datasheet" "http://ww1.microchip.com/downloads/en/DeviceDoc/40001911A.pdf" (id 3) (at 101.6 78.74 0)
      (effects (font (size 1.27 1.27)) hide)
    )
    (pin "1" (uuid 265c4c2b-7f46-4901-8fb7-2c05d5c159ec))
    (pin "2" (uuid 72237e2d-c929-48bf-bdad-33b8df5e3651))
    (pin "3" (uuid 9500ce6a-0e2f-41ef-9de0-436c9f56e267))
    (pin "4" (uuid 60e400db-f780-4325-848f-0baf6227025b))
    (pin "5" (uuid 03bc6f50-3a96-4bfe-ae04-419e77fb1fc7))
    (pin "6" (uuid dd25c963-c4d3-4b88-a05a-0084350ef58c))
    (pin "7" (uuid fbbc2e98-9f42-451d-aa17-269c877f3d15))
    (pin "8" (uuid 67a9aaee-cb93-4300-9e32-cd0a86e6f5e8))
  )

  (symbol (lib_id "power:GND") (at 101.6 93.98 0) (unit 1)
    (in_bom yes) (on_board yes) (fields_autoplaced)
    (uuid 0da7332b-a4e0-4a80-888f-648c0cf9901b)
    (property "Reference" "#PWR0102" (id 0) (at 101.6 100.33 0)
      (effects (font (size 1.27 1.27)) hide)
    )
    (property "Value" "GND" (id 1) (at 101.6 98.5425 0))
    (property "Footprint" "" (id 2) (at 101.6 93.98 0)
      (effects (font (size 1.27 1.27)) hide)
    )
    (property "Datasheet" "" (id 3) (at 101.6 93.98 0)
      (effects (font (size 1.27 1.27)) hide)
    )
    (pin "1" (uuid b778f3eb-664a-4483-bab9-ffe7513b08a6))
  )

  (symbol (lib_id "Device:C_Small") (at 85.09 55.88 0) (unit 1)
    (in_bom yes) (on_board yes) (fields_autoplaced)
    (uuid 113151ff-f6cd-4d24-a2f2-075bd20184cb)
    (property "Reference" "C1" (id 0) (at 87.4141 54.9778 0)
      (effects (font (size 1.27 1.27)) (justify left))
    )
    (property "Value" "C_Small" (id 1) (at 87.4141 57.7529 0)
      (effects (font (size 1.27 1.27)) (justify left) hide)
    )
    (property "Footprint" "Capacitor_SMD:C_1206_3216Metric_Pad1.33x1.80mm_HandSolder" (id 2) (at 85.09 55.88 0)
      (effects (font (size 1.27 1.27)) hide)
    )
    (property "Datasheet" "~" (id 3) (at 85.09 55.88 0)
      (effects (font (size 1.27 1.27)) hide)
    )
    (pin "1" (uuid 37d72ffc-d39f-40bc-9a9f-90fe7817db54))
    (pin "2" (uuid 00385bfc-bd92-45ee-bfdd-a0f289608cf0))
  )

  (symbol (lib_id "power:+3.3V") (at 77.47 50.8 0) (unit 1)
    (in_bom yes) (on_board yes) (fields_autoplaced)
    (uuid 1830ca87-ba43-4b8b-8937-003c00ddaac1)
    (property "Reference" "#PWR0109" (id 0) (at 77.47 54.61 0)
      (effects (font (size 1.27 1.27)) hide)
    )
    (property "Value" "+3.3V" (id 1) (at 77.47 47.1955 0))
    (property "Footprint" "" (id 2) (at 77.47 50.8 0)
      (effects (font (size 1.27 1.27)) hide)
    )
    (property "Datasheet" "" (id 3) (at 77.47 50.8 0)
      (effects (font (size 1.27 1.27)) hide)
    )
    (pin "1" (uuid 36d83527-aa7e-487e-972d-5ef0360b17e1))
  )

  (symbol (lib_id "Device:R_Small") (at 77.47 53.34 180) (unit 1)
    (in_bom yes) (on_board yes) (fields_autoplaced)
    (uuid 1e2f9da9-250a-454e-9c6c-c66ef0ee73ca)
    (property "Reference" "R1" (id 0) (at 78.9686 53.819 0)
      (effects (font (size 1.27 1.27)) (justify right))
    )
    (property "Value" "R_Small" (id 1) (at 75.9714 51.4734 0)
      (effects (font (size 1.27 1.27)) (justify left) hide)
    )
    (property "Footprint" "Resistor_SMD:R_1206_3216Metric_Pad1.30x1.75mm_HandSolder" (id 2) (at 77.47 53.34 0)
      (effects (font (size 1.27 1.27)) hide)
    )
    (property "Datasheet" "~" (id 3) (at 77.47 53.34 0)
      (effects (font (size 1.27 1.27)) hide)
    )
    (pin "1" (uuid e1577339-e111-43b6-93d9-a4c3c48dea0d))
    (pin "2" (uuid 3a87e7b6-8bd2-4d61-b069-1ed58d5632bf))
  )

  (symbol (lib_id "Connector_Generic:Conn_01x02") (at 161.29 85.09 0) (unit 1)
    (in_bom yes) (on_board yes) (fields_autoplaced)
    (uuid 21c73383-718f-4ca2-bc0f-ff01daf0c823)
    (property "Reference" "J3" (id 0) (at 163.322 85.4515 0)
      (effects (font (size 1.27 1.27)) (justify left))
    )
    (property "Value" "MotorR" (id 1) (at 163.322 88.2266 0)
      (effects (font (size 1.27 1.27)) (justify left))
    )
    (property "Footprint" "BarbaLib:PinHeader_1x02_2.54mm_Horizontal_SMD_Line" (id 2) (at 161.29 85.09 0)
      (effects (font (size 1.27 1.27)) hide)
    )
    (property "Datasheet" "~" (id 3) (at 161.29 85.09 0)
      (effects (font (size 1.27 1.27)) hide)
    )
    (pin "1" (uuid e1980251-17c6-4eb2-9d29-45608cefaacc))
    (pin "2" (uuid d9605582-464e-44c2-8253-db66d88bae35))
  )

  (symbol (lib_id "Device:LED_Small") (at 77.47 58.42 90) (unit 1)
    (in_bom yes) (on_board yes) (fields_autoplaced)
    (uuid 29b53dcb-6392-4cc4-b2e6-19450a01e9ec)
    (property "Reference" "D1" (id 0) (at 79.248 58.8355 90)
      (effects (font (size 1.27 1.27)) (justify right))
    )
    (property "Value" "LED_Small" (id 1) (at 74.6276 58.3565 0)
      (effects (font (size 1.27 1.27)) hide)
    )
    (property "Footprint" "LED_SMD:LED_1206_3216Metric_Pad1.42x1.75mm_HandSolder" (id 2) (at 77.47 58.42 90)
      (effects (font (size 1.27 1.27)) hide)
    )
    (property "Datasheet" "~" (id 3) (at 77.47 58.42 90)
      (effects (font (size 1.27 1.27)) hide)
    )
    (pin "1" (uuid 2adc32af-4b56-4c11-8952-22b00ba380d7))
    (pin "2" (uuid 8c0b1f32-a8f7-45d3-9927-7e22072f5160))
  )

  (symbol (lib_id "Device:R_Small") (at 138.43 99.06 0) (unit 1)
    (in_bom yes) (on_board yes) (fields_autoplaced)
    (uuid 2b294e0b-7cc2-4e61-b387-5d1a2149fa2e)
    (property "Reference" "R4" (id 0) (at 139.9286 98.1515 0)
      (effects (font (size 1.27 1.27)) (justify left))
    )
    (property "Value" "R_Small" (id 1) (at 139.9286 100.9266 0)
      (effects (font (size 1.27 1.27)) (justify left) hide)
    )
    (property "Footprint" "Resistor_SMD:R_1206_3216Metric_Pad1.30x1.75mm_HandSolder" (id 2) (at 138.43 99.06 0)
      (effects (font (size 1.27 1.27)) hide)
    )
    (property "Datasheet" "~" (id 3) (at 138.43 99.06 0)
      (effects (font (size 1.27 1.27)) hide)
    )
    (pin "1" (uuid 61e76502-e0f3-42f1-b37d-121be8941242))
    (pin "2" (uuid 40156751-a2e5-4dd3-9c7f-7bcd8b99fb62))
  )

  (symbol (lib_id "Device:R_Small") (at 142.24 60.96 90) (unit 1)
    (in_bom yes) (on_board yes) (fields_autoplaced)
    (uuid 2b423960-c4cf-4b01-a666-a6a1ab1729e5)
    (property "Reference" "R5" (id 0) (at 142.24 59.0319 90))
    (property "Value" "R_Small" (id 1) (at 144.1066 59.4614 0)
      (effects (font (size 1.27 1.27)) (justify left) hide)
    )
    (property "Footprint" "Resistor_SMD:R_1206_3216Metric_Pad1.30x1.75mm_HandSolder" (id 2) (at 142.24 60.96 0)
      (effects (font (size 1.27 1.27)) hide)
    )
    (property "Datasheet" "~" (id 3) (at 142.24 60.96 0)
      (effects (font (size 1.27 1.27)) hide)
    )
    (pin "1" (uuid dc8fe917-c645-4a40-b082-9aa1c5a6f208))
    (pin "2" (uuid cd3f3f02-7b88-44b7-a293-c8660669030f))
  )

  (symbol (lib_id "power:+3.3V") (at 101.6 63.5 0) (unit 1)
    (in_bom yes) (on_board yes) (fields_autoplaced)
    (uuid 2c0c9534-faf2-4a34-9832-ded545a313d0)
    (property "Reference" "#PWR0103" (id 0) (at 101.6 67.31 0)
      (effects (font (size 1.27 1.27)) hide)
    )
    (property "Value" "+3.3V" (id 1) (at 101.6 59.8955 0))
    (property "Footprint" "" (id 2) (at 101.6 63.5 0)
      (effects (font (size 1.27 1.27)) hide)
    )
    (property "Datasheet" "" (id 3) (at 101.6 63.5 0)
      (effects (font (size 1.27 1.27)) hide)
    )
    (pin "1" (uuid b87d55dd-ab24-4cc1-b5ea-f419ab1aea48))
  )

  (symbol (lib_id "power:GND") (at 85.09 60.96 0) (unit 1)
    (in_bom yes) (on_board yes) (fields_autoplaced)
    (uuid 307ee02e-07c9-4562-ae42-15722155802a)
    (property "Reference" "#PWR0101" (id 0) (at 85.09 67.31 0)
      (effects (font (size 1.27 1.27)) hide)
    )
    (property "Value" "GND" (id 1) (at 85.09 65.5225 0))
    (property "Footprint" "" (id 2) (at 85.09 60.96 0)
      (effects (font (size 1.27 1.27)) hide)
    )
    (property "Datasheet" "" (id 3) (at 85.09 60.96 0)
      (effects (font (size 1.27 1.27)) hide)
    )
    (pin "1" (uuid b1b29b2e-63e7-4127-965a-ceaa6b08e52e))
  )

  (symbol (lib_id "Device:R_Small") (at 138.43 64.77 0) (unit 1)
    (in_bom yes) (on_board yes) (fields_autoplaced)
    (uuid 3244f086-180e-4e1d-938b-fbf7e76f7de3)
    (property "Reference" "R3" (id 0) (at 139.9286 63.8615 0)
      (effects (font (size 1.27 1.27)) (justify left))
    )
    (property "Value" "R_Small" (id 1) (at 139.9286 66.6366 0)
      (effects (font (size 1.27 1.27)) (justify left) hide)
    )
    (property "Footprint" "Resistor_SMD:R_1206_3216Metric_Pad1.30x1.75mm_HandSolder" (id 2) (at 138.43 64.77 0)
      (effects (font (size 1.27 1.27)) hide)
    )
    (property "Datasheet" "~" (id 3) (at 138.43 64.77 0)
      (effects (font (size 1.27 1.27)) hide)
    )
    (pin "1" (uuid 6b475c81-2edb-4169-859e-06a5dbb8ca23))
    (pin "2" (uuid 60df4c60-383f-460d-ab59-d115e43ba231))
  )

  (symbol (lib_id "Connector_Generic:Conn_01x02") (at 113.03 52.07 0) (unit 1)
    (in_bom yes) (on_board yes) (fields_autoplaced)
    (uuid 4c2f8b3d-4ed3-4a61-ac87-1b3062d927fd)
    (property "Reference" "J1" (id 0) (at 115.062 52.4315 0)
      (effects (font (size 1.27 1.27)) (justify left))
    )
    (property "Value" "Alim" (id 1) (at 115.062 55.2066 0)
      (effects (font (size 1.27 1.27)) (justify left))
    )
    (property "Footprint" "BarbaLib:PinHeader_1x02_2.54mm_Horizontal_SMD_Line" (id 2) (at 113.03 52.07 0)
      (effects (font (size 1.27 1.27)) hide)
    )
    (property "Datasheet" "~" (id 3) (at 113.03 52.07 0)
      (effects (font (size 1.27 1.27)) hide)
    )
    (pin "1" (uuid 78b4ca6e-fff6-40fd-9d9b-a491df3eb36e))
    (pin "2" (uuid 1da78c51-cca1-4501-8266-2c8c3d81c35b))
  )

  (symbol (lib_id "Transistor_FET:AO3400A") (at 149.86 60.96 0) (unit 1)
    (in_bom yes) (on_board yes) (fields_autoplaced)
    (uuid 76f9c959-5213-4d7c-b1fe-3e27ca0a1cbc)
    (property "Reference" "Q1" (id 0) (at 155.067 60.0515 0)
      (effects (font (size 1.27 1.27)) (justify left))
    )
    (property "Value" "AO3400A" (id 1) (at 155.067 62.8266 0)
      (effects (font (size 1.27 1.27)) (justify left))
    )
    (property "Footprint" "Package_TO_SOT_SMD:SOT-23" (id 2) (at 154.94 62.865 0)
      (effects (font (size 1.27 1.27) italic) (justify left) hide)
    )
    (property "Datasheet" "http://www.aosmd.com/pdfs/datasheet/AO3400A.pdf" (id 3) (at 149.86 60.96 0)
      (effects (font (size 1.27 1.27)) (justify left) hide)
    )
    (pin "1" (uuid 3100640f-9076-40dc-a199-4181150c3440))
    (pin "2" (uuid 440a2c8c-ae19-4d99-b213-d275a56e75bb))
    (pin "3" (uuid 63175e86-7e0f-441d-b5e7-d20c21a8c272))
  )

  (symbol (lib_id "Device:R_Small") (at 142.24 95.25 90) (unit 1)
    (in_bom yes) (on_board yes) (fields_autoplaced)
    (uuid 7e350723-0736-47da-8647-5e677c97df38)
    (property "Reference" "R6" (id 0) (at 142.24 93.3219 90))
    (property "Value" "R_Small" (id 1) (at 144.1066 93.7514 0)
      (effects (font (size 1.27 1.27)) (justify left) hide)
    )
    (property "Footprint" "Resistor_SMD:R_1206_3216Metric_Pad1.30x1.75mm_HandSolder" (id 2) (at 142.24 95.25 0)
      (effects (font (size 1.27 1.27)) hide)
    )
    (property "Datasheet" "~" (id 3) (at 142.24 95.25 0)
      (effects (font (size 1.27 1.27)) hide)
    )
    (pin "1" (uuid 8d6f3643-99d0-4334-a96d-bcba6da29f92))
    (pin "2" (uuid c653f240-4f01-420f-a36d-f2a8de5d5d5e))
  )

  (symbol (lib_id "Device:D_Small") (at 152.4 86.36 270) (unit 1)
    (in_bom yes) (on_board yes) (fields_autoplaced)
    (uuid 8e5ad61a-40d4-4df9-8fe1-afec9783d37e)
    (property "Reference" "D3" (id 0) (at 154.178 85.4515 90)
      (effects (font (size 1.27 1.27)) (justify left))
    )
    (property "Value" "D_Small" (id 1) (at 154.178 88.2266 90)
      (effects (font (size 1.27 1.27)) (justify left) hide)
    )
    (property "Footprint" "Diode_SMD:D_SMB_Handsoldering" (id 2) (at 152.4 86.36 90)
      (effects (font (size 1.27 1.27)) hide)
    )
    (property "Datasheet" "~" (id 3) (at 152.4 86.36 90)
      (effects (font (size 1.27 1.27)) hide)
    )
    (pin "1" (uuid 722acd22-7032-45e5-a36d-6ccc930eb302))
    (pin "2" (uuid 37b1a7d6-9986-4dbc-af1a-31d42a0bbecb))
  )

  (symbol (lib_id "Device:D_Small") (at 152.4 52.07 270) (unit 1)
    (in_bom yes) (on_board yes) (fields_autoplaced)
    (uuid 8eecf9ab-9195-4d8b-af70-a013b455d057)
    (property "Reference" "D2" (id 0) (at 154.178 51.1615 90)
      (effects (font (size 1.27 1.27)) (justify left))
    )
    (property "Value" "D_Small" (id 1) (at 154.178 53.9366 90)
      (effects (font (size 1.27 1.27)) (justify left) hide)
    )
    (property "Footprint" "Diode_SMD:D_SMB_Handsoldering" (id 2) (at 152.4 52.07 90)
      (effects (font (size 1.27 1.27)) hide)
    )
    (property "Datasheet" "~" (id 3) (at 152.4 52.07 90)
      (effects (font (size 1.27 1.27)) hide)
    )
    (pin "1" (uuid 15aa9316-e260-43ea-86df-24e6c6a007d8))
    (pin "2" (uuid 51b7a415-796c-4161-9e82-016013eea1e6))
  )

  (symbol (lib_id "Connector_Generic:Conn_01x02") (at 161.29 53.34 0) (mirror x) (unit 1)
    (in_bom yes) (on_board yes) (fields_autoplaced)
    (uuid a163b821-8315-46d0-afd5-575354def870)
    (property "Reference" "J2" (id 0) (at 161.29 45.5635 0))
    (property "Value" "MotorL" (id 1) (at 161.29 48.3386 0))
    (property "Footprint" "BarbaLib:PinHeader_1x02_2.54mm_Horizontal_SMD_Line" (id 2) (at 161.29 53.34 0)
      (effects (font (size 1.27 1.27)) hide)
    )
    (property "Datasheet" "~" (id 3) (at 161.29 53.34 0)
      (effects (font (size 1.27 1.27)) hide)
    )
    (pin "1" (uuid 4b4e78a6-db65-4005-b734-239eaa18d1de))
    (pin "2" (uuid 47afa824-8feb-461a-91bf-176e83c28f18))
  )

  (symbol (lib_id "power:GND") (at 152.4 69.85 0) (unit 1)
    (in_bom yes) (on_board yes) (fields_autoplaced)
    (uuid ac058703-34ef-4298-8647-3c5a272e48c1)
    (property "Reference" "#PWR0111" (id 0) (at 152.4 76.2 0)
      (effects (font (size 1.27 1.27)) hide)
    )
    (property "Value" "GND" (id 1) (at 152.4 74.4125 0))
    (property "Footprint" "" (id 2) (at 152.4 69.85 0)
      (effects (font (size 1.27 1.27)) hide)
    )
    (property "Datasheet" "" (id 3) (at 152.4 69.85 0)
      (effects (font (size 1.27 1.27)) hide)
    )
    (pin "1" (uuid f0994007-2b70-4c21-bf52-f4f90911f715))
  )

  (symbol (lib_id "Device:R_Small") (at 119.38 71.12 270) (unit 1)
    (in_bom yes) (on_board yes) (fields_autoplaced)
    (uuid b0b12a8b-6772-4b57-a2d8-d09cc75eb9d8)
    (property "Reference" "R2" (id 0) (at 119.38 69.1919 90))
    (property "Value" "R_Small" (id 1) (at 117.5134 72.6186 0)
      (effects (font (size 1.27 1.27)) (justify left) hide)
    )
    (property "Footprint" "Resistor_SMD:R_1206_3216Metric_Pad1.30x1.75mm_HandSolder" (id 2) (at 119.38 71.12 0)
      (effects (font (size 1.27 1.27)) hide)
    )
    (property "Datasheet" "~" (id 3) (at 119.38 71.12 0)
      (effects (font (size 1.27 1.27)) hide)
    )
    (pin "1" (uuid 3834778e-438c-48d6-94ec-74e76198c430))
    (pin "2" (uuid 7be6d814-52e0-4f8f-879d-0c6d4f43479c))
  )

  (symbol (lib_id "power:+3.3V") (at 85.09 50.8 0) (unit 1)
    (in_bom yes) (on_board yes) (fields_autoplaced)
    (uuid ba388233-a10b-4271-9b65-51bba76a2bfe)
    (property "Reference" "#PWR0108" (id 0) (at 85.09 54.61 0)
      (effects (font (size 1.27 1.27)) hide)
    )
    (property "Value" "+3.3V" (id 1) (at 85.09 47.1955 0))
    (property "Footprint" "" (id 2) (at 85.09 50.8 0)
      (effects (font (size 1.27 1.27)) hide)
    )
    (property "Datasheet" "" (id 3) (at 85.09 50.8 0)
      (effects (font (size 1.27 1.27)) hide)
    )
    (pin "1" (uuid b0151255-3540-47c6-bbff-dc109ea004b2))
  )

  (symbol (lib_id "power:GND") (at 106.68 55.88 0) (unit 1)
    (in_bom yes) (on_board yes) (fields_autoplaced)
    (uuid c07c371b-4852-4505-a07c-f4e6a3d7c70f)
    (property "Reference" "#PWR0106" (id 0) (at 106.68 62.23 0)
      (effects (font (size 1.27 1.27)) hide)
    )
    (property "Value" "GND" (id 1) (at 106.68 60.4425 0))
    (property "Footprint" "" (id 2) (at 106.68 55.88 0)
      (effects (font (size 1.27 1.27)) hide)
    )
    (property "Datasheet" "" (id 3) (at 106.68 55.88 0)
      (effects (font (size 1.27 1.27)) hide)
    )
    (pin "1" (uuid 529ae863-364e-4661-8cf6-4f83cb44583b))
  )

  (symbol (lib_id "power:GND") (at 77.47 60.96 0) (unit 1)
    (in_bom yes) (on_board yes) (fields_autoplaced)
    (uuid ca8daeb8-4b1f-4e00-9bd3-46e6aeb0bd0f)
    (property "Reference" "#PWR0104" (id 0) (at 77.47 67.31 0)
      (effects (font (size 1.27 1.27)) hide)
    )
    (property "Value" "GND" (id 1) (at 77.47 65.5225 0))
    (property "Footprint" "" (id 2) (at 77.47 60.96 0)
      (effects (font (size 1.27 1.27)) hide)
    )
    (property "Datasheet" "" (id 3) (at 77.47 60.96 0)
      (effects (font (size 1.27 1.27)) hide)
    )
    (pin "1" (uuid f0e3a9eb-070b-4403-b04e-41e3ecc7d6d4))
  )

  (symbol (lib_id "power:GND") (at 152.4 104.14 0) (unit 1)
    (in_bom yes) (on_board yes) (fields_autoplaced)
    (uuid d3ce6685-c58f-4a3e-8cdc-93b1028d31d2)
    (property "Reference" "#PWR0105" (id 0) (at 152.4 110.49 0)
      (effects (font (size 1.27 1.27)) hide)
    )
    (property "Value" "GND" (id 1) (at 152.4 108.7025 0))
    (property "Footprint" "" (id 2) (at 152.4 104.14 0)
      (effects (font (size 1.27 1.27)) hide)
    )
    (property "Datasheet" "" (id 3) (at 152.4 104.14 0)
      (effects (font (size 1.27 1.27)) hide)
    )
    (pin "1" (uuid a2091a77-a8f2-45e5-a28a-8de25926ec99))
  )

  (symbol (lib_id "power:+3.3V") (at 106.68 50.8 0) (unit 1)
    (in_bom yes) (on_board yes) (fields_autoplaced)
    (uuid ef68a7fd-f3ba-46c8-9eb0-aabcb2a1b3fd)
    (property "Reference" "#PWR0107" (id 0) (at 106.68 54.61 0)
      (effects (font (size 1.27 1.27)) hide)
    )
    (property "Value" "+3.3V" (id 1) (at 106.68 47.1955 0))
    (property "Footprint" "" (id 2) (at 106.68 50.8 0)
      (effects (font (size 1.27 1.27)) hide)
    )
    (property "Datasheet" "" (id 3) (at 106.68 50.8 0)
      (effects (font (size 1.27 1.27)) hide)
    )
    (pin "1" (uuid b9116ee3-e5f0-407e-9ade-d06870e5713d))
  )

  (symbol (lib_id "power:+3.3V") (at 152.4 46.99 0) (unit 1)
    (in_bom yes) (on_board yes) (fields_autoplaced)
    (uuid f909d25e-8132-43e7-9984-807da81e04c8)
    (property "Reference" "#PWR0110" (id 0) (at 152.4 50.8 0)
      (effects (font (size 1.27 1.27)) hide)
    )
    (property "Value" "+3.3V" (id 1) (at 152.4 43.3855 0))
    (property "Footprint" "" (id 2) (at 152.4 46.99 0)
      (effects (font (size 1.27 1.27)) hide)
    )
    (property "Datasheet" "" (id 3) (at 152.4 46.99 0)
      (effects (font (size 1.27 1.27)) hide)
    )
    (pin "1" (uuid 11588bb6-b5d4-4b75-b5f6-e3ef8128b455))
  )

  (symbol (lib_id "power:+3.3V") (at 152.4 81.28 0) (unit 1)
    (in_bom yes) (on_board yes) (fields_autoplaced)
    (uuid fa51eb37-7f12-40ba-87fb-bc00adef33d5)
    (property "Reference" "#PWR0112" (id 0) (at 152.4 85.09 0)
      (effects (font (size 1.27 1.27)) hide)
    )
    (property "Value" "+3.3V" (id 1) (at 152.4 77.6755 0))
    (property "Footprint" "" (id 2) (at 152.4 81.28 0)
      (effects (font (size 1.27 1.27)) hide)
    )
    (property "Datasheet" "" (id 3) (at 152.4 81.28 0)
      (effects (font (size 1.27 1.27)) hide)
    )
    (pin "1" (uuid 50f995b1-266e-47de-99ed-0e95b37edcad))
  )

  (sheet_instances
    (path "/" (page "1"))
  )

  (symbol_instances
    (path "/307ee02e-07c9-4562-ae42-15722155802a"
      (reference "#PWR0101") (unit 1) (value "GND") (footprint "")
    )
    (path "/0da7332b-a4e0-4a80-888f-648c0cf9901b"
      (reference "#PWR0102") (unit 1) (value "GND") (footprint "")
    )
    (path "/2c0c9534-faf2-4a34-9832-ded545a313d0"
      (reference "#PWR0103") (unit 1) (value "+3.3V") (footprint "")
    )
    (path "/ca8daeb8-4b1f-4e00-9bd3-46e6aeb0bd0f"
      (reference "#PWR0104") (unit 1) (value "GND") (footprint "")
    )
    (path "/d3ce6685-c58f-4a3e-8cdc-93b1028d31d2"
      (reference "#PWR0105") (unit 1) (value "GND") (footprint "")
    )
    (path "/c07c371b-4852-4505-a07c-f4e6a3d7c70f"
      (reference "#PWR0106") (unit 1) (value "GND") (footprint "")
    )
    (path "/ef68a7fd-f3ba-46c8-9eb0-aabcb2a1b3fd"
      (reference "#PWR0107") (unit 1) (value "+3.3V") (footprint "")
    )
    (path "/ba388233-a10b-4271-9b65-51bba76a2bfe"
      (reference "#PWR0108") (unit 1) (value "+3.3V") (footprint "")
    )
    (path "/1830ca87-ba43-4b8b-8937-003c00ddaac1"
      (reference "#PWR0109") (unit 1) (value "+3.3V") (footprint "")
    )
    (path "/f909d25e-8132-43e7-9984-807da81e04c8"
      (reference "#PWR0110") (unit 1) (value "+3.3V") (footprint "")
    )
    (path "/ac058703-34ef-4298-8647-3c5a272e48c1"
      (reference "#PWR0111") (unit 1) (value "GND") (footprint "")
    )
    (path "/fa51eb37-7f12-40ba-87fb-bc00adef33d5"
      (reference "#PWR0112") (unit 1) (value "+3.3V") (footprint "")
    )
    (path "/113151ff-f6cd-4d24-a2f2-075bd20184cb"
      (reference "C1") (unit 1) (value "C_Small") (footprint "Capacitor_SMD:C_1206_3216Metric_Pad1.33x1.80mm_HandSolder")
    )
    (path "/29b53dcb-6392-4cc4-b2e6-19450a01e9ec"
      (reference "D1") (unit 1) (value "LED_Small") (footprint "LED_SMD:LED_1206_3216Metric_Pad1.42x1.75mm_HandSolder")
    )
    (path "/8eecf9ab-9195-4d8b-af70-a013b455d057"
      (reference "D2") (unit 1) (value "D_Small") (footprint "Diode_SMD:D_SMB_Handsoldering")
    )
    (path "/8e5ad61a-40d4-4df9-8fe1-afec9783d37e"
      (reference "D3") (unit 1) (value "D_Small") (footprint "Diode_SMD:D_SMB_Handsoldering")
    )
    (path "/4c2f8b3d-4ed3-4a61-ac87-1b3062d927fd"
      (reference "J1") (unit 1) (value "Alim") (footprint "BarbaLib:PinHeader_1x02_2.54mm_Horizontal_SMD_Line")
    )
    (path "/a163b821-8315-46d0-afd5-575354def870"
      (reference "J2") (unit 1) (value "MotorL") (footprint "BarbaLib:PinHeader_1x02_2.54mm_Horizontal_SMD_Line")
    )
    (path "/21c73383-718f-4ca2-bc0f-ff01daf0c823"
      (reference "J3") (unit 1) (value "MotorR") (footprint "BarbaLib:PinHeader_1x02_2.54mm_Horizontal_SMD_Line")
    )
    (path "/76f9c959-5213-4d7c-b1fe-3e27ca0a1cbc"
      (reference "Q1") (unit 1) (value "AO3400A") (footprint "Package_TO_SOT_SMD:SOT-23")
    )
    (path "/0263f4a2-37fd-4431-ba41-cc6fbed0161b"
      (reference "Q2") (unit 1) (value "AO3400A") (footprint "Package_TO_SOT_SMD:SOT-23")
    )
    (path "/1e2f9da9-250a-454e-9c6c-c66ef0ee73ca"
      (reference "R1") (unit 1) (value "R_Small") (footprint "Resistor_SMD:R_1206_3216Metric_Pad1.30x1.75mm_HandSolder")
    )
    (path "/b0b12a8b-6772-4b57-a2d8-d09cc75eb9d8"
      (reference "R2") (unit 1) (value "R_Small") (footprint "Resistor_SMD:R_1206_3216Metric_Pad1.30x1.75mm_HandSolder")
    )
    (path "/3244f086-180e-4e1d-938b-fbf7e76f7de3"
      (reference "R3") (unit 1) (value "R_Small") (footprint "Resistor_SMD:R_1206_3216Metric_Pad1.30x1.75mm_HandSolder")
    )
    (path "/2b294e0b-7cc2-4e61-b387-5d1a2149fa2e"
      (reference "R4") (unit 1) (value "R_Small") (footprint "Resistor_SMD:R_1206_3216Metric_Pad1.30x1.75mm_HandSolder")
    )
    (path "/2b423960-c4cf-4b01-a666-a6a1ab1729e5"
      (reference "R5") (unit 1) (value "R_Small") (footprint "Resistor_SMD:R_1206_3216Metric_Pad1.30x1.75mm_HandSolder")
    )
    (path "/7e350723-0736-47da-8647-5e677c97df38"
      (reference "R6") (unit 1) (value "R_Small") (footprint "Resistor_SMD:R_1206_3216Metric_Pad1.30x1.75mm_HandSolder")
    )
    (path "/094f6753-e701-447d-a274-ec0fe6294e92"
      (reference "U1") (unit 1) (value "ATtiny412-SS") (footprint "Package_SO:SOIC-8_3.9x4.9mm_P1.27mm")
    )
  )
)
