(export (version D)
  (design
    (source "C:\\Users\\HPz420\\Documents\\GitHub\\land-boards\\lb-boards\\FPGA Cards\\RETRO-EP4CE15\\RETRO-EP4CE15.sch")
    (date "7/12/2020 2:53:28 PM")
    (tool "Eeschema (5.1.5)-3")
    (sheet (number 1) (name /) (tstamps /)
      (title_block
        (title RETRO-EP4CE15)
        (company land-boards.com)
        (rev 3)
        (date 2020-03-07)
        (source RETRO-EP4CE15.sch)
        (comment (number 1) (value "FPGA CARD"))
        (comment (number 2) (value ""))
        (comment (number 3) (value ""))
        (comment (number 4) (value "")))))
  (components
    (comp (ref MTG?1)
      (value MTG_HOLE)
      (footprint LandBoards_MountHoles:MTG-6-32)
      (libsource (lib RETRO-EP4CE15-rescue) (part MTG_HOLE-LandBoards) (description ""))
      (sheetpath (names /) (tstamps /))
      (tstamp 586AD5E2))
    (comp (ref MTG2)
      (value MTG_HOLE)
      (footprint LandBoards_MountHoles:MTG-6-32)
      (libsource (lib RETRO-EP4CE15-rescue) (part MTG_HOLE-LandBoards) (description ""))
      (sheetpath (names /) (tstamps /))
      (tstamp 586AD65D))
    (comp (ref MTG3)
      (value MTG_HOLE)
      (footprint LandBoards_MountHoles:MTG-6-32)
      (libsource (lib RETRO-EP4CE15-rescue) (part MTG_HOLE-LandBoards) (description ""))
      (sheetpath (names /) (tstamps /))
      (tstamp 586AD691))
    (comp (ref MTG1)
      (value MTG_HOLE)
      (footprint LandBoards_MountHoles:MTG-6-32)
      (libsource (lib RETRO-EP4CE15-rescue) (part MTG_HOLE-LandBoards) (description ""))
      (sheetpath (names /) (tstamps /))
      (tstamp 586AD6D2))
    (comp (ref C7)
      (value 0.1uF)
      (footprint Capacitor_SMD:C_0805_2012Metric_Pad1.15x1.40mm_HandSolder)
      (libsource (lib Device) (part C_Small) (description "Unpolarized capacitor, small symbol"))
      (sheetpath (names /) (tstamps /))
      (tstamp 58C5E9EC))
    (comp (ref C6)
      (value 10uF)
      (footprint Capacitor_SMD:C_1210_3225Metric_Pad1.42x2.65mm_HandSolder)
      (libsource (lib Device) (part C_Small) (description "Unpolarized capacitor, small symbol"))
      (sheetpath (names /) (tstamps /))
      (tstamp 58C5EB45))
    (comp (ref U1)
      (value AP1117)
      (footprint TO_SOT_Packages_SMD:SOT-223)
      (libsource (lib RETRO-EP4CE15-rescue) (part AP1117-LandBoards_Semis) (description ""))
      (sheetpath (names /) (tstamps /))
      (tstamp 58C5EBB9))
    (comp (ref C4)
      (value 0.1uF)
      (footprint Capacitor_SMD:C_0805_2012Metric_Pad1.15x1.40mm_HandSolder)
      (libsource (lib Device) (part C_Small) (description "Unpolarized capacitor, small symbol"))
      (sheetpath (names /) (tstamps /))
      (tstamp 58C622A2))
    (comp (ref P4)
      (value SD_Card-conn)
      (footprint LandBoards_Conns:SD_CARD)
      (libsource (lib Connector) (part SD_Card) (description "SD Card Reader"))
      (sheetpath (names /) (tstamps /))
      (tstamp 5CA7166A))
    (comp (ref R9)
      (value 845)
      (footprint Resistor_SMD:R_0805_2012Metric_Pad1.15x1.40mm_HandSolder)
      (libsource (lib Device) (part R) (description Resistor))
      (sheetpath (names /) (tstamps /))
      (tstamp 5CF0DA75))
    (comp (ref R10)
      (value 422)
      (footprint Resistor_SMD:R_0805_2012Metric_Pad1.15x1.40mm_HandSolder)
      (libsource (lib Device) (part R) (description Resistor))
      (sheetpath (names /) (tstamps /))
      (tstamp 5D00C55A))
    (comp (ref R11)
      (value 845)
      (footprint Resistor_SMD:R_0805_2012Metric_Pad1.15x1.40mm_HandSolder)
      (libsource (lib Device) (part R) (description Resistor))
      (sheetpath (names /) (tstamps /))
      (tstamp 5D00C5AC))
    (comp (ref R12)
      (value 422)
      (footprint Resistor_SMD:R_0805_2012Metric_Pad1.15x1.40mm_HandSolder)
      (libsource (lib Device) (part R) (description Resistor))
      (sheetpath (names /) (tstamps /))
      (tstamp 5D00C5FE))
    (comp (ref R13)
      (value 845)
      (footprint Resistor_SMD:R_0805_2012Metric_Pad1.15x1.40mm_HandSolder)
      (libsource (lib Device) (part R) (description Resistor))
      (sheetpath (names /) (tstamps /))
      (tstamp 5D00C652))
    (comp (ref R14)
      (value 422)
      (footprint Resistor_SMD:R_0805_2012Metric_Pad1.15x1.40mm_HandSolder)
      (libsource (lib Device) (part R) (description Resistor))
      (sheetpath (names /) (tstamps /))
      (tstamp 5D00C6A8))
    (comp (ref P2)
      (value CONN_6)
      (footprint LandBoards_Conns:Connector_Mini-DIN_Female_6Pin_2rows)
      (libsource (lib Connector_Generic) (part Conn_01x06) (description "Generic connector, single row, 01x06, script generated (kicad-library-utils/schlib/autogen/connector/)"))
      (sheetpath (names /) (tstamps /))
      (tstamp 5D3BC5A3))
    (comp (ref R1)
      (value 10K)
      (footprint Resistor_SMD:R_0805_2012Metric_Pad1.15x1.40mm_HandSolder)
      (libsource (lib Device) (part R) (description Resistor))
      (sheetpath (names /) (tstamps /))
      (tstamp 5D544263))
    (comp (ref R2)
      (value 10K)
      (footprint Resistor_SMD:R_0805_2012Metric_Pad1.15x1.40mm_HandSolder)
      (libsource (lib Device) (part R) (description Resistor))
      (sheetpath (names /) (tstamps /))
      (tstamp 5D544549))
    (comp (ref H1)
      (value Conn_01x02)
      (footprint Pin_Headers:Pin_Header_Straight_1x02_Pitch2.54mm)
      (datasheet ~)
      (libsource (lib Connector_Generic) (part Conn_01x02) (description "Generic connector, single row, 01x02, script generated (kicad-library-utils/schlib/autogen/connector/)"))
      (sheetpath (names /) (tstamps /))
      (tstamp 5CF16ADC))
    (comp (ref J2)
      (value Conn_01x04)
      (footprint Pin_Headers:Pin_Header_Straight_1x04_Pitch2.54mm)
      (datasheet ~)
      (libsource (lib Connector_Generic) (part Conn_01x04) (description "Generic connector, single row, 01x04, script generated (kicad-library-utils/schlib/autogen/connector/)"))
      (sheetpath (names /) (tstamps /))
      (tstamp 5CA89AE4))
    (comp (ref J8)
      (value Conn_02x32_Odd_Even)
      (footprint Connector_PinHeader_2.54mm:PinHeader_2x32_P2.54mm_Vertical)
      (datasheet ~)
      (libsource (lib Connector_Generic) (part Conn_02x32_Odd_Even) (description "Generic connector, double row, 02x32, odd/even pin numbering scheme (row 1 odd numbers, row 2 even numbers), script generated (kicad-library-utils/schlib/autogen/connector/)"))
      (sheetpath (names /) (tstamps /))
      (tstamp 5DDD42FC))
    (comp (ref J7)
      (value Conn_02x32_Odd_Even)
      (footprint Connector_PinHeader_2.54mm:PinHeader_2x32_P2.54mm_Vertical)
      (datasheet ~)
      (libsource (lib Connector_Generic) (part Conn_02x32_Odd_Even) (description "Generic connector, double row, 02x32, odd/even pin numbering scheme (row 1 odd numbers, row 2 even numbers), script generated (kicad-library-utils/schlib/autogen/connector/)"))
      (sheetpath (names /) (tstamps /))
      (tstamp 5DE20FC8))
    (comp (ref R5)
      (value 22)
      (footprint Resistor_SMD:R_0805_2012Metric_Pad1.15x1.40mm_HandSolder)
      (datasheet ~)
      (libsource (lib Device) (part R_Small) (description "Resistor, small symbol"))
      (sheetpath (names /) (tstamps /))
      (tstamp 5DF60577))
    (comp (ref R6)
      (value 22)
      (footprint Resistor_SMD:R_0805_2012Metric_Pad1.15x1.40mm_HandSolder)
      (datasheet ~)
      (libsource (lib Device) (part R_Small) (description "Resistor, small symbol"))
      (sheetpath (names /) (tstamps /))
      (tstamp 5DF98B57))
    (comp (ref U2)
      (value FT230XS)
      (footprint Package_SO:SSOP-16_3.9x4.9mm_P0.635mm)
      (libsource (lib RETRO-EP4CE15-rescue) (part FT230XS-LandBoards_Semis) (description ""))
      (sheetpath (names /) (tstamps /))
      (tstamp 5E156BE7))
    (comp (ref R7)
      (value 330)
      (footprint Resistor_SMD:R_0805_2012Metric_Pad1.15x1.40mm_HandSolder)
      (datasheet ~)
      (libsource (lib Device) (part R_Small) (description "Resistor, small symbol"))
      (sheetpath (names /) (tstamps /))
      (tstamp 5E217CDB))
    (comp (ref R8)
      (value 330)
      (footprint Resistor_SMD:R_0805_2012Metric_Pad1.15x1.40mm_HandSolder)
      (datasheet ~)
      (libsource (lib Device) (part R_Small) (description "Resistor, small symbol"))
      (sheetpath (names /) (tstamps /))
      (tstamp 5E217D51))
    (comp (ref D1)
      (value "3MM LED")
      (footprint LED_THT:LED_D3.0mm)
      (libsource (lib RETRO-EP4CE15-rescue) (part LED-fixed-LandBoards_Semis) (description ""))
      (sheetpath (names /) (tstamps /))
      (tstamp 5E2438C1))
    (comp (ref D2)
      (value "3MM LED")
      (footprint LED_THT:LED_D3.0mm)
      (libsource (lib RETRO-EP4CE15-rescue) (part LED-fixed-LandBoards_Semis) (description ""))
      (sheetpath (names /) (tstamps /))
      (tstamp 5E259C7A))
    (comp (ref P1)
      (value DB-15HD)
      (footprint LandBoards_Conns:DB_15F-VGA-fixed)
      (libsource (lib RETRO-EP4CE15-rescue) (part VGA-LandBoards_Conns) (description ""))
      (sheetpath (names /) (tstamps /))
      (tstamp 5E310CD7))
    (comp (ref J1)
      (value Conn_02x25_Odd_Even)
      (footprint Connector_PinHeader_2.54mm:PinHeader_2x25_P2.54mm_Vertical)
      (datasheet ~)
      (libsource (lib Connector_Generic) (part Conn_02x25_Odd_Even) (description "Generic connector, double row, 02x25, odd/even pin numbering scheme (row 1 odd numbers, row 2 even numbers), script generated (kicad-library-utils/schlib/autogen/connector/)"))
      (sheetpath (names /) (tstamps /))
      (tstamp 5E4E19CD))
    (comp (ref C2)
      (value 0.1uF)
      (footprint Capacitor_SMD:C_0805_2012Metric_Pad1.15x1.40mm_HandSolder)
      (libsource (lib Device) (part C_Small) (description "Unpolarized capacitor, small symbol"))
      (sheetpath (names /) (tstamps /))
      (tstamp 5EC031AD))
    (comp (ref C3)
      (value 0.1uF)
      (footprint Capacitor_SMD:C_0805_2012Metric_Pad1.15x1.40mm_HandSolder)
      (libsource (lib Device) (part C_Small) (description "Unpolarized capacitor, small symbol"))
      (sheetpath (names /) (tstamps /))
      (tstamp 5ECADB85))
    (comp (ref C1)
      (value 0.1uF)
      (footprint Capacitor_SMD:C_0805_2012Metric_Pad1.15x1.40mm_HandSolder)
      (libsource (lib Device) (part C_Small) (description "Unpolarized capacitor, small symbol"))
      (sheetpath (names /) (tstamps /))
      (tstamp 5ECF3F03))
    (comp (ref L1)
      (value " MI0805K601R-10")
      (footprint Inductor_SMD:L_0805_2012Metric_Pad1.15x1.40mm_HandSolder)
      (datasheet ~)
      (libsource (lib pspice) (part INDUCTOR) (description "Inductor symbol for simulation only"))
      (sheetpath (names /) (tstamps /))
      (tstamp 5EF1421B))
    (comp (ref H2)
      (value Conn_01x03)
      (footprint Connector_PinHeader_2.54mm:PinHeader_1x03_P2.54mm_Horizontal)
      (datasheet ~)
      (libsource (lib Connector_Generic) (part Conn_01x03) (description "Generic connector, single row, 01x03, script generated (kicad-library-utils/schlib/autogen/connector/)"))
      (sheetpath (names /) (tstamps /))
      (tstamp 5DE24117))
    (comp (ref U3)
      (value IS62WV10248EBLL-45TLI)
      (footprint Package_SO:TSOP-II-44_10.16x18.41mm_P0.8mm)
      (libsource (lib RETRO-EP4CE15-rescue) (part IS62WV10248EBLL-45TLI-LandBoards_Semis) (description ""))
      (sheetpath (names /) (tstamps /))
      (tstamp 5E275B6B))
    (comp (ref C5)
      (value 10uF)
      (footprint Capacitor_SMD:C_1210_3225Metric_Pad1.42x2.65mm_HandSolder)
      (libsource (lib Device) (part C_Small) (description "Unpolarized capacitor, small symbol"))
      (sheetpath (names /) (tstamps /))
      (tstamp 5E60212B))
    (comp (ref C8)
      (value 0.1uF)
      (footprint Capacitor_SMD:C_0805_2012Metric_Pad1.15x1.40mm_HandSolder)
      (libsource (lib Device) (part C_Small) (description "Unpolarized capacitor, small symbol"))
      (sheetpath (names /) (tstamps /))
      (tstamp 5E79F8D7))
    (comp (ref J3)
      (value Conn_02x06_Odd_Even)
      (footprint Connector_PinHeader_2.54mm:PinHeader_2x06_P2.54mm_Horizontal)
      (datasheet ~)
      (libsource (lib Connector_Generic) (part Conn_02x06_Odd_Even) (description "Generic connector, double row, 02x06, odd/even pin numbering scheme (row 1 odd numbers, row 2 even numbers), script generated (kicad-library-utils/schlib/autogen/connector/)"))
      (sheetpath (names /) (tstamps /))
      (tstamp 5EE55317))
    (comp (ref R15)
      (value 10K)
      (footprint Resistor_SMD:R_0805_2012Metric_Pad1.15x1.40mm_HandSolder)
      (libsource (lib Device) (part R) (description Resistor))
      (sheetpath (names /) (tstamps /))
      (tstamp 5DEB0483))
    (comp (ref J5)
      (value Conn_02x03_Odd_Even)
      (footprint Connector_PinHeader_2.54mm:PinHeader_2x03_P2.54mm_Horizontal)
      (datasheet ~)
      (libsource (lib Connector_Generic) (part Conn_02x03_Odd_Even) (description "Generic connector, double row, 02x03, odd/even pin numbering scheme (row 1 odd numbers, row 2 even numbers), script generated (kicad-library-utils/schlib/autogen/connector/)"))
      (sheetpath (names /) (tstamps /))
      (tstamp 5E41994B))
    (comp (ref C9)
      (value 10uF)
      (footprint Capacitor_SMD:C_1210_3225Metric_Pad1.42x2.65mm_HandSolder)
      (libsource (lib Device) (part C_Small) (description "Unpolarized capacitor, small symbol"))
      (sheetpath (names /) (tstamps /))
      (tstamp 5E68699A))
    (comp (ref J4)
      (value USB_B)
      (footprint Connector_USB:USB_B_OST_USB-B1HSxx_Horizontal)
      (datasheet " ~")
      (libsource (lib Connector) (part USB_B) (description "USB Type B connector"))
      (sheetpath (names /) (tstamps /))
      (tstamp 5F57D027)))
  (libparts
    (libpart (lib Connector) (part SD_Card)
      (description "SD Card Reader")
      (docs http://portal.fciconnect.com/Comergent//fci/drawing/10067847.pdf)
      (footprints
        (fp SD*))
      (fields
        (field (name Reference) J)
        (field (name Value) SD_Card))
      (pins
        (pin (num 1) (name CD/DAT3) (type input))
        (pin (num 2) (name CMD) (type input))
        (pin (num 3) (name VSS) (type power_in))
        (pin (num 4) (name VDD) (type power_in))
        (pin (num 5) (name CLK) (type input))
        (pin (num 6) (name VSS) (type power_in))
        (pin (num 7) (name DAT0) (type input))
        (pin (num 8) (name DAT1) (type input))
        (pin (num 9) (name DAT2) (type input))
        (pin (num 10) (name CARD_DETECT) (type input))
        (pin (num 11) (name WRITE_PROTECT) (type input))
        (pin (num 12) (name SHELL1) (type input))
        (pin (num 13) (name SHELL2) (type input))))
    (libpart (lib Connector) (part USB_B)
      (description "USB Type B connector")
      (docs " ~")
      (footprints
        (fp USB*))
      (fields
        (field (name Reference) J)
        (field (name Value) USB_B))
      (pins
        (pin (num 1) (name VBUS) (type power_out))
        (pin (num 2) (name D-) (type passive))
        (pin (num 3) (name D+) (type passive))
        (pin (num 4) (name GND) (type power_out))
        (pin (num 5) (name Shield) (type passive))))
    (libpart (lib Connector_Generic) (part Conn_01x02)
      (description "Generic connector, single row, 01x02, script generated (kicad-library-utils/schlib/autogen/connector/)")
      (docs ~)
      (footprints
        (fp Connector*:*_1x??_*))
      (fields
        (field (name Reference) J)
        (field (name Value) Conn_01x02))
      (pins
        (pin (num 1) (name Pin_1) (type passive))
        (pin (num 2) (name Pin_2) (type passive))))
    (libpart (lib Connector_Generic) (part Conn_01x03)
      (description "Generic connector, single row, 01x03, script generated (kicad-library-utils/schlib/autogen/connector/)")
      (docs ~)
      (footprints
        (fp Connector*:*_1x??_*))
      (fields
        (field (name Reference) J)
        (field (name Value) Conn_01x03))
      (pins
        (pin (num 1) (name Pin_1) (type passive))
        (pin (num 2) (name Pin_2) (type passive))
        (pin (num 3) (name Pin_3) (type passive))))
    (libpart (lib Connector_Generic) (part Conn_01x04)
      (description "Generic connector, single row, 01x04, script generated (kicad-library-utils/schlib/autogen/connector/)")
      (docs ~)
      (footprints
        (fp Connector*:*_1x??_*))
      (fields
        (field (name Reference) J)
        (field (name Value) Conn_01x04))
      (pins
        (pin (num 1) (name Pin_1) (type passive))
        (pin (num 2) (name Pin_2) (type passive))
        (pin (num 3) (name Pin_3) (type passive))
        (pin (num 4) (name Pin_4) (type passive))))
    (libpart (lib Connector_Generic) (part Conn_01x06)
      (description "Generic connector, single row, 01x06, script generated (kicad-library-utils/schlib/autogen/connector/)")
      (docs ~)
      (footprints
        (fp Connector*:*_1x??_*))
      (fields
        (field (name Reference) J)
        (field (name Value) Conn_01x06))
      (pins
        (pin (num 1) (name Pin_1) (type passive))
        (pin (num 2) (name Pin_2) (type passive))
        (pin (num 3) (name Pin_3) (type passive))
        (pin (num 4) (name Pin_4) (type passive))
        (pin (num 5) (name Pin_5) (type passive))
        (pin (num 6) (name Pin_6) (type passive))))
    (libpart (lib Connector_Generic) (part Conn_02x03_Odd_Even)
      (description "Generic connector, double row, 02x03, odd/even pin numbering scheme (row 1 odd numbers, row 2 even numbers), script generated (kicad-library-utils/schlib/autogen/connector/)")
      (docs ~)
      (footprints
        (fp Connector*:*_2x??_*))
      (fields
        (field (name Reference) J)
        (field (name Value) Conn_02x03_Odd_Even))
      (pins
        (pin (num 1) (name Pin_1) (type passive))
        (pin (num 2) (name Pin_2) (type passive))
        (pin (num 3) (name Pin_3) (type passive))
        (pin (num 4) (name Pin_4) (type passive))
        (pin (num 5) (name Pin_5) (type passive))
        (pin (num 6) (name Pin_6) (type passive))))
    (libpart (lib Connector_Generic) (part Conn_02x06_Odd_Even)
      (description "Generic connector, double row, 02x06, odd/even pin numbering scheme (row 1 odd numbers, row 2 even numbers), script generated (kicad-library-utils/schlib/autogen/connector/)")
      (docs ~)
      (footprints
        (fp Connector*:*_2x??_*))
      (fields
        (field (name Reference) J)
        (field (name Value) Conn_02x06_Odd_Even))
      (pins
        (pin (num 1) (name Pin_1) (type passive))
        (pin (num 2) (name Pin_2) (type passive))
        (pin (num 3) (name Pin_3) (type passive))
        (pin (num 4) (name Pin_4) (type passive))
        (pin (num 5) (name Pin_5) (type passive))
        (pin (num 6) (name Pin_6) (type passive))
        (pin (num 7) (name Pin_7) (type passive))
        (pin (num 8) (name Pin_8) (type passive))
        (pin (num 9) (name Pin_9) (type passive))
        (pin (num 10) (name Pin_10) (type passive))
        (pin (num 11) (name Pin_11) (type passive))
        (pin (num 12) (name Pin_12) (type passive))))
    (libpart (lib Connector_Generic) (part Conn_02x25_Odd_Even)
      (description "Generic connector, double row, 02x25, odd/even pin numbering scheme (row 1 odd numbers, row 2 even numbers), script generated (kicad-library-utils/schlib/autogen/connector/)")
      (docs ~)
      (footprints
        (fp Connector*:*_2x??_*))
      (fields
        (field (name Reference) J)
        (field (name Value) Conn_02x25_Odd_Even))
      (pins
        (pin (num 1) (name Pin_1) (type passive))
        (pin (num 2) (name Pin_2) (type passive))
        (pin (num 3) (name Pin_3) (type passive))
        (pin (num 4) (name Pin_4) (type passive))
        (pin (num 5) (name Pin_5) (type passive))
        (pin (num 6) (name Pin_6) (type passive))
        (pin (num 7) (name Pin_7) (type passive))
        (pin (num 8) (name Pin_8) (type passive))
        (pin (num 9) (name Pin_9) (type passive))
        (pin (num 10) (name Pin_10) (type passive))
        (pin (num 11) (name Pin_11) (type passive))
        (pin (num 12) (name Pin_12) (type passive))
        (pin (num 13) (name Pin_13) (type passive))
        (pin (num 14) (name Pin_14) (type passive))
        (pin (num 15) (name Pin_15) (type passive))
        (pin (num 16) (name Pin_16) (type passive))
        (pin (num 17) (name Pin_17) (type passive))
        (pin (num 18) (name Pin_18) (type passive))
        (pin (num 19) (name Pin_19) (type passive))
        (pin (num 20) (name Pin_20) (type passive))
        (pin (num 21) (name Pin_21) (type passive))
        (pin (num 22) (name Pin_22) (type passive))
        (pin (num 23) (name Pin_23) (type passive))
        (pin (num 24) (name Pin_24) (type passive))
        (pin (num 25) (name Pin_25) (type passive))
        (pin (num 26) (name Pin_26) (type passive))
        (pin (num 27) (name Pin_27) (type passive))
        (pin (num 28) (name Pin_28) (type passive))
        (pin (num 29) (name Pin_29) (type passive))
        (pin (num 30) (name Pin_30) (type passive))
        (pin (num 31) (name Pin_31) (type passive))
        (pin (num 32) (name Pin_32) (type passive))
        (pin (num 33) (name Pin_33) (type passive))
        (pin (num 34) (name Pin_34) (type passive))
        (pin (num 35) (name Pin_35) (type passive))
        (pin (num 36) (name Pin_36) (type passive))
        (pin (num 37) (name Pin_37) (type passive))
        (pin (num 38) (name Pin_38) (type passive))
        (pin (num 39) (name Pin_39) (type passive))
        (pin (num 40) (name Pin_40) (type passive))
        (pin (num 41) (name Pin_41) (type passive))
        (pin (num 42) (name Pin_42) (type passive))
        (pin (num 43) (name Pin_43) (type passive))
        (pin (num 44) (name Pin_44) (type passive))
        (pin (num 45) (name Pin_45) (type passive))
        (pin (num 46) (name Pin_46) (type passive))
        (pin (num 47) (name Pin_47) (type passive))
        (pin (num 48) (name Pin_48) (type passive))
        (pin (num 49) (name Pin_49) (type passive))
        (pin (num 50) (name Pin_50) (type passive))))
    (libpart (lib Connector_Generic) (part Conn_02x32_Odd_Even)
      (description "Generic connector, double row, 02x32, odd/even pin numbering scheme (row 1 odd numbers, row 2 even numbers), script generated (kicad-library-utils/schlib/autogen/connector/)")
      (docs ~)
      (footprints
        (fp Connector*:*_2x??_*))
      (fields
        (field (name Reference) J)
        (field (name Value) Conn_02x32_Odd_Even))
      (pins
        (pin (num 1) (name Pin_1) (type passive))
        (pin (num 2) (name Pin_2) (type passive))
        (pin (num 3) (name Pin_3) (type passive))
        (pin (num 4) (name Pin_4) (type passive))
        (pin (num 5) (name Pin_5) (type passive))
        (pin (num 6) (name Pin_6) (type passive))
        (pin (num 7) (name Pin_7) (type passive))
        (pin (num 8) (name Pin_8) (type passive))
        (pin (num 9) (name Pin_9) (type passive))
        (pin (num 10) (name Pin_10) (type passive))
        (pin (num 11) (name Pin_11) (type passive))
        (pin (num 12) (name Pin_12) (type passive))
        (pin (num 13) (name Pin_13) (type passive))
        (pin (num 14) (name Pin_14) (type passive))
        (pin (num 15) (name Pin_15) (type passive))
        (pin (num 16) (name Pin_16) (type passive))
        (pin (num 17) (name Pin_17) (type passive))
        (pin (num 18) (name Pin_18) (type passive))
        (pin (num 19) (name Pin_19) (type passive))
        (pin (num 20) (name Pin_20) (type passive))
        (pin (num 21) (name Pin_21) (type passive))
        (pin (num 22) (name Pin_22) (type passive))
        (pin (num 23) (name Pin_23) (type passive))
        (pin (num 24) (name Pin_24) (type passive))
        (pin (num 25) (name Pin_25) (type passive))
        (pin (num 26) (name Pin_26) (type passive))
        (pin (num 27) (name Pin_27) (type passive))
        (pin (num 28) (name Pin_28) (type passive))
        (pin (num 29) (name Pin_29) (type passive))
        (pin (num 30) (name Pin_30) (type passive))
        (pin (num 31) (name Pin_31) (type passive))
        (pin (num 32) (name Pin_32) (type passive))
        (pin (num 33) (name Pin_33) (type passive))
        (pin (num 34) (name Pin_34) (type passive))
        (pin (num 35) (name Pin_35) (type passive))
        (pin (num 36) (name Pin_36) (type passive))
        (pin (num 37) (name Pin_37) (type passive))
        (pin (num 38) (name Pin_38) (type passive))
        (pin (num 39) (name Pin_39) (type passive))
        (pin (num 40) (name Pin_40) (type passive))
        (pin (num 41) (name Pin_41) (type passive))
        (pin (num 42) (name Pin_42) (type passive))
        (pin (num 43) (name Pin_43) (type passive))
        (pin (num 44) (name Pin_44) (type passive))
        (pin (num 45) (name Pin_45) (type passive))
        (pin (num 46) (name Pin_46) (type passive))
        (pin (num 47) (name Pin_47) (type passive))
        (pin (num 48) (name Pin_48) (type passive))
        (pin (num 49) (name Pin_49) (type passive))
        (pin (num 50) (name Pin_50) (type passive))
        (pin (num 51) (name Pin_51) (type passive))
        (pin (num 52) (name Pin_52) (type passive))
        (pin (num 53) (name Pin_53) (type passive))
        (pin (num 54) (name Pin_54) (type passive))
        (pin (num 55) (name Pin_55) (type passive))
        (pin (num 56) (name Pin_56) (type passive))
        (pin (num 57) (name Pin_57) (type passive))
        (pin (num 58) (name Pin_58) (type passive))
        (pin (num 59) (name Pin_59) (type passive))
        (pin (num 60) (name Pin_60) (type passive))
        (pin (num 61) (name Pin_61) (type passive))
        (pin (num 62) (name Pin_62) (type passive))
        (pin (num 63) (name Pin_63) (type passive))
        (pin (num 64) (name Pin_64) (type passive))))
    (libpart (lib Device) (part C_Small)
      (description "Unpolarized capacitor, small symbol")
      (docs ~)
      (footprints
        (fp C_*))
      (fields
        (field (name Reference) C)
        (field (name Value) C_Small))
      (pins
        (pin (num 1) (name ~) (type passive))
        (pin (num 2) (name ~) (type passive))))
    (libpart (lib Device) (part R)
      (description Resistor)
      (docs ~)
      (footprints
        (fp R_*))
      (fields
        (field (name Reference) R)
        (field (name Value) R))
      (pins
        (pin (num 1) (name ~) (type passive))
        (pin (num 2) (name ~) (type passive))))
    (libpart (lib Device) (part R_Small)
      (description "Resistor, small symbol")
      (docs ~)
      (footprints
        (fp R_*))
      (fields
        (field (name Reference) R)
        (field (name Value) R_Small))
      (pins
        (pin (num 1) (name ~) (type passive))
        (pin (num 2) (name ~) (type passive))))
    (libpart (lib RETRO-EP4CE15-rescue) (part AP1117-LandBoards_Semis)
      (fields
        (field (name Reference) U)
        (field (name Value) AP1117-LandBoards_Semis))
      (pins
        (pin (num 1) (name GND) (type power_in))
        (pin (num 2) (name VO) (type passive))
        (pin (num 3) (name VIN) (type power_in))
        (pin (num 4) (name VO) (type power_out))))
    (libpart (lib RETRO-EP4CE15-rescue) (part FT230XS-LandBoards_Semis)
      (fields
        (field (name Reference) IC)
        (field (name Value) FT230XS-LandBoards_Semis)
        (field (name Footprint) ssop-16))
      (pins
        (pin (num 1) (name TXD) (type output))
        (pin (num 2) (name RTS*) (type output))
        (pin (num 3) (name VCCIO) (type power_in))
        (pin (num 4) (name RXD) (type input))
        (pin (num 5) (name GND) (type power_in))
        (pin (num 6) (name CTS*) (type input))
        (pin (num 7) (name CBUS2) (type BiDi))
        (pin (num 8) (name USBDP) (type BiDi))
        (pin (num 9) (name USBDM) (type BiDi))
        (pin (num 10) (name 3V3OUT) (type output))
        (pin (num 11) (name RES*) (type input))
        (pin (num 12) (name VCC) (type power_in))
        (pin (num 13) (name GND) (type power_in))
        (pin (num 14) (name CBUS1) (type BiDi))
        (pin (num 15) (name CBUS0) (type BiDi))
        (pin (num 16) (name CBUS3) (type BiDi))))
    (libpart (lib RETRO-EP4CE15-rescue) (part IS62WV10248EBLL-45TLI-LandBoards_Semis)
      (footprints
        (fp IC_DIP32_600*)
        (fp IC_SOIC32))
      (fields
        (field (name Reference) U)
        (field (name Value) IS62WV10248EBLL-45TLI-LandBoards_Semis))
      (pins
        (pin (num 1) (name A4) (type input))
        (pin (num 2) (name A3) (type input))
        (pin (num 3) (name A2) (type input))
        (pin (num 4) (name A1) (type input))
        (pin (num 5) (name A0) (type input))
        (pin (num 6) (name ~CS1) (type input))
        (pin (num 9) (name DQ0) (type BiDi))
        (pin (num 10) (name DQ1) (type BiDi))
        (pin (num 11) (name VDD) (type power_in))
        (pin (num 12) (name VSS) (type power_in))
        (pin (num 13) (name DQ2) (type BiDi))
        (pin (num 14) (name DQ3) (type BiDi))
        (pin (num 17) (name ~WE) (type input))
        (pin (num 18) (name A19) (type input))
        (pin (num 19) (name A18) (type input))
        (pin (num 20) (name A17) (type input))
        (pin (num 21) (name A16) (type input))
        (pin (num 22) (name A15) (type input))
        (pin (num 23) (name A14) (type input))
        (pin (num 24) (name A13) (type input))
        (pin (num 25) (name A12) (type input))
        (pin (num 26) (name A11) (type input))
        (pin (num 27) (name A10) (type input))
        (pin (num 28) (name A9) (type input))
        (pin (num 31) (name DQ4) (type BiDi))
        (pin (num 32) (name DQ5) (type BiDi))
        (pin (num 33) (name VDD) (type power_in))
        (pin (num 34) (name VSS) (type power_in))
        (pin (num 35) (name DQ6) (type BiDi))
        (pin (num 36) (name DQ7) (type BiDi))
        (pin (num 39) (name A8) (type input))
        (pin (num 40) (name CS2) (type input))
        (pin (num 41) (name ~OE) (type input))
        (pin (num 42) (name A7) (type input))
        (pin (num 43) (name A6) (type input))
        (pin (num 44) (name A5) (type input))))
    (libpart (lib RETRO-EP4CE15-rescue) (part LED-fixed-LandBoards_Semis)
      (footprints
        (fp LED-3MM)
        (fp LED-5MM)
        (fp LED-10MM)
        (fp LED-0603)
        (fp LED-0805)
        (fp LED-1206)
        (fp LEDV))
      (fields
        (field (name Reference) D)
        (field (name Value) LED-fixed-LandBoards_Semis))
      (pins
        (pin (num 1) (name K) (type passive))
        (pin (num 2) (name A) (type passive))))
    (libpart (lib RETRO-EP4CE15-rescue) (part MTG_HOLE-LandBoards)
      (fields
        (field (name Reference) MTG?)
        (field (name Value) MTG_HOLE-LandBoards)))
    (libpart (lib RETRO-EP4CE15-rescue) (part VGA-LandBoards_Conns)
      (footprints
        (fp Pin_Header_Straight_1X15)
        (fp Pin_Header_Angled_1X15)
        (fp Socket_Strip_Straight_1X15)
        (fp Socket_Strip_Angled_1X15))
      (fields
        (field (name Reference) P)
        (field (name Value) VGA-LandBoards_Conns))
      (pins
        (pin (num 1) (name P1) (type passive))
        (pin (num 2) (name P2) (type passive))
        (pin (num 3) (name P3) (type passive))
        (pin (num 4) (name P4) (type passive))
        (pin (num 5) (name P5) (type passive))
        (pin (num 6) (name P6) (type passive))
        (pin (num 7) (name P7) (type passive))
        (pin (num 8) (name P8) (type passive))
        (pin (num 9) (name P9) (type passive))
        (pin (num 10) (name P10) (type passive))
        (pin (num 11) (name P11) (type passive))
        (pin (num 12) (name P12) (type passive))
        (pin (num 13) (name P13) (type passive))
        (pin (num 14) (name P14) (type passive))
        (pin (num 15) (name P15) (type passive))))
    (libpart (lib pspice) (part INDUCTOR)
      (description "Inductor symbol for simulation only")
      (docs ~)
      (fields
        (field (name Reference) L)
        (field (name Value) INDUCTOR))
      (pins
        (pin (num 1) (name 1) (type input))
        (pin (num 2) (name 2) (type input)))))
  (libraries
    (library (logical Connector)
      (uri "C:\\Program Files\\KiCad\\share\\kicad\\library/Connector.lib"))
    (library (logical Connector_Generic)
      (uri "C:\\Program Files\\KiCad\\share\\kicad\\library/Connector_Generic.lib"))
    (library (logical Device)
      (uri "C:\\Program Files\\KiCad\\share\\kicad\\library/Device.lib"))
    (library (logical RETRO-EP4CE15-rescue)
      (uri "C:\\Users\\HPz420\\Documents\\GitHub\\land-boards\\lb-boards\\FPGA Cards\\RETRO-EP4CE15/RETRO-EP4CE15-rescue.lib"))
    (library (logical pspice)
      (uri "C:\\Program Files\\KiCad\\share\\kicad\\library/pspice.lib")))
  (nets
    (net (code 1) (name /IO_R22)
      (node (ref J1) (pin 26))
      (node (ref J8) (pin 31)))
    (net (code 2) (name /IO_F22)
      (node (ref J8) (pin 47))
      (node (ref J1) (pin 42)))
    (net (code 3) (name /IO_H22)
      (node (ref J1) (pin 40))
      (node (ref J8) (pin 45)))
    (net (code 4) (name /IO_J22)
      (node (ref J1) (pin 38))
      (node (ref J8) (pin 43)))
    (net (code 5) (name /IO_K22)
      (node (ref J8) (pin 41))
      (node (ref J1) (pin 36)))
    (net (code 6) (name /IO_L22)
      (node (ref J1) (pin 34))
      (node (ref J8) (pin 39)))
    (net (code 7) (name /IO_M22)
      (node (ref J1) (pin 32))
      (node (ref J8) (pin 37)))
    (net (code 8) (name /IO_N22)
      (node (ref J8) (pin 35))
      (node (ref J1) (pin 30)))
    (net (code 9) (name /IO_P22)
      (node (ref J8) (pin 33))
      (node (ref J1) (pin 28)))
    (net (code 10) (name /IO_E22)
      (node (ref J1) (pin 44))
      (node (ref J8) (pin 49)))
    (net (code 11) (name /IO_U22)
      (node (ref J1) (pin 24))
      (node (ref J8) (pin 29)))
    (net (code 12) (name /IO_V22)
      (node (ref J8) (pin 27))
      (node (ref J1) (pin 22)))
    (net (code 13) (name /IO_W22)
      (node (ref J1) (pin 20))
      (node (ref J8) (pin 25)))
    (net (code 14) (name /IO_Y22)
      (node (ref J1) (pin 18))
      (node (ref J8) (pin 23)))
    (net (code 15) (name /IO_AA20)
      (node (ref J1) (pin 16))
      (node (ref J8) (pin 21)))
    (net (code 16) (name /IO_AA19)
      (node (ref J8) (pin 19))
      (node (ref J1) (pin 14)))
    (net (code 17) (name /IO_AA18)
      (node (ref J1) (pin 12))
      (node (ref J8) (pin 17)))
    (net (code 18) (name /IO_AA17)
      (node (ref J8) (pin 15))
      (node (ref J1) (pin 10)))
    (net (code 19) (name GND)
      (node (ref U3) (pin 34))
      (node (ref J3) (pin 4))
      (node (ref J7) (pin 1))
      (node (ref U3) (pin 12))
      (node (ref J3) (pin 6))
      (node (ref J7) (pin 62))
      (node (ref J3) (pin 8))
      (node (ref J4) (pin 5))
      (node (ref J5) (pin 2))
      (node (ref J4) (pin 4))
      (node (ref J5) (pin 4))
      (node (ref J7) (pin 2))
      (node (ref C9) (pin 2))
      (node (ref J3) (pin 10))
      (node (ref C8) (pin 2))
      (node (ref C5) (pin 2))
      (node (ref J3) (pin 2))
      (node (ref J3) (pin 12))
      (node (ref J7) (pin 6))
      (node (ref J7) (pin 61))
      (node (ref J5) (pin 6))
      (node (ref J7) (pin 5))
      (node (ref P4) (pin 3))
      (node (ref C4) (pin 2))
      (node (ref J8) (pin 2))
      (node (ref P1) (pin 8))
      (node (ref J8) (pin 5))
      (node (ref P1) (pin 7))
      (node (ref P1) (pin 6))
      (node (ref P4) (pin 6))
      (node (ref J8) (pin 6))
      (node (ref P2) (pin 3))
      (node (ref C7) (pin 2))
      (node (ref C6) (pin 2))
      (node (ref U1) (pin 1))
      (node (ref U2) (pin 13))
      (node (ref J8) (pin 1))
      (node (ref U2) (pin 5))
      (node (ref P1) (pin 5))
      (node (ref J8) (pin 61))
      (node (ref J8) (pin 62))
      (node (ref P1) (pin 10))
      (node (ref J2) (pin 4))
      (node (ref J1) (pin 49))
      (node (ref J1) (pin 50))
      (node (ref C2) (pin 2))
      (node (ref C3) (pin 2))
      (node (ref C1) (pin 2)))
    (net (code 20) (name /IO_C21)
      (node (ref J1) (pin 47))
      (node (ref J8) (pin 54)))
    (net (code 21) (name /IO_C22)
      (node (ref J8) (pin 53))
      (node (ref J1) (pin 48)))
    (net (code 22) (name VDD)
      (node (ref J1) (pin 2))
      (node (ref J1) (pin 1))
      (node (ref H2) (pin 2))
      (node (ref C3) (pin 1)))
    (net (code 23) (name /IO_AA16)
      (node (ref J1) (pin 8))
      (node (ref J8) (pin 13)))
    (net (code 24) (name /IO_D22)
      (node (ref J1) (pin 46))
      (node (ref J8) (pin 51)))
    (net (code 25) (name /IO_AA15)
      (node (ref J1) (pin 6))
      (node (ref J8) (pin 11)))
    (net (code 26) (name /IO_AA14)
      (node (ref J8) (pin 9))
      (node (ref J1) (pin 4)))
    (net (code 27) (name "Net-(J4-Pad1)")
      (node (ref L1) (pin 1))
      (node (ref J4) (pin 1)))
    (net (code 28) (name /UTX)
      (node (ref J7) (pin 45))
      (node (ref U2) (pin 1)))
    (net (code 29) (name /URX)
      (node (ref J7) (pin 43))
      (node (ref U2) (pin 4)))
    (net (code 30) (name /URTS)
      (node (ref J7) (pin 46))
      (node (ref U2) (pin 2)))
    (net (code 31) (name /UCTS)
      (node (ref J7) (pin 44))
      (node (ref U2) (pin 6)))
    (net (code 32) (name "Net-(U2-Pad15)")
      (node (ref U2) (pin 15)))
    (net (code 33) (name "Net-(U2-Pad16)")
      (node (ref U2) (pin 16)))
    (net (code 34) (name "Net-(U2-Pad11)")
      (node (ref U2) (pin 11)))
    (net (code 35) (name /TX)
      (node (ref D1) (pin 1))
      (node (ref R7) (pin 2)))
    (net (code 36) (name /RX)
      (node (ref D2) (pin 1))
      (node (ref R8) (pin 2)))
    (net (code 37) (name /T1)
      (node (ref R7) (pin 1))
      (node (ref U2) (pin 7)))
    (net (code 38) (name +3.3VP)
      (node (ref H2) (pin 3))
      (node (ref U1) (pin 2))
      (node (ref U1) (pin 4))
      (node (ref C6) (pin 1))
      (node (ref C4) (pin 1)))
    (net (code 39) (name +3V3)
      (node (ref H2) (pin 1))
      (node (ref U3) (pin 33))
      (node (ref R2) (pin 2))
      (node (ref J7) (pin 4))
      (node (ref P4) (pin 4))
      (node (ref C2) (pin 1))
      (node (ref R1) (pin 2))
      (node (ref U3) (pin 40))
      (node (ref C5) (pin 1))
      (node (ref J8) (pin 3))
      (node (ref J2) (pin 3))
      (node (ref C1) (pin 1))
      (node (ref R15) (pin 2))
      (node (ref P2) (pin 4))
      (node (ref J8) (pin 4))
      (node (ref U3) (pin 11))
      (node (ref J7) (pin 3)))
    (net (code 40) (name /VBUS)
      (node (ref U2) (pin 12))
      (node (ref L1) (pin 2))
      (node (ref H1) (pin 1)))
    (net (code 41) (name /R1)
      (node (ref R8) (pin 1))
      (node (ref U2) (pin 14)))
    (net (code 42) (name /IO_D21)
      (node (ref J8) (pin 52))
      (node (ref J1) (pin 45)))
    (net (code 43) (name /IO_E21)
      (node (ref J1) (pin 43))
      (node (ref J8) (pin 50)))
    (net (code 44) (name /IO_F21)
      (node (ref J1) (pin 41))
      (node (ref J8) (pin 48)))
    (net (code 45) (name /IO_H21)
      (node (ref J8) (pin 46))
      (node (ref J1) (pin 39)))
    (net (code 46) (name /IO_AA13)
      (node (ref J8) (pin 7)))
    (net (code 47) (name /IO_J21)
      (node (ref J8) (pin 44))
      (node (ref J1) (pin 37)))
    (net (code 48) (name /IO_K21)
      (node (ref J1) (pin 35))
      (node (ref J8) (pin 42)))
    (net (code 49) (name /IO_L21)
      (node (ref J1) (pin 33))
      (node (ref J8) (pin 40)))
    (net (code 50) (name /IO_M21)
      (node (ref J1) (pin 31))
      (node (ref J8) (pin 38)))
    (net (code 51) (name /IO_N21)
      (node (ref J8) (pin 36))
      (node (ref J1) (pin 29)))
    (net (code 52) (name /IO_P21)
      (node (ref J8) (pin 34))
      (node (ref J1) (pin 27)))
    (net (code 53) (name /IO_R21)
      (node (ref J8) (pin 32))
      (node (ref J1) (pin 25)))
    (net (code 54) (name /IO_AB16)
      (node (ref J1) (pin 7))
      (node (ref J8) (pin 14)))
    (net (code 55) (name /IO_U21)
      (node (ref J1) (pin 23))
      (node (ref J8) (pin 30)))
    (net (code 56) (name /IO_V21)
      (node (ref J1) (pin 21))
      (node (ref J8) (pin 28)))
    (net (code 57) (name /IO_W21)
      (node (ref J8) (pin 26))
      (node (ref J1) (pin 19)))
    (net (code 58) (name /IO_Y21)
      (node (ref J1) (pin 17))
      (node (ref J8) (pin 24)))
    (net (code 59) (name /IO_AB20)
      (node (ref J8) (pin 22))
      (node (ref J1) (pin 15)))
    (net (code 60) (name /IO_AB19)
      (node (ref J8) (pin 20))
      (node (ref J1) (pin 13)))
    (net (code 61) (name /IO_AB18)
      (node (ref J8) (pin 18))
      (node (ref J1) (pin 11)))
    (net (code 62) (name /IO_AB17)
      (node (ref J1) (pin 9))
      (node (ref J8) (pin 16)))
    (net (code 63) (name /J8P56)
      (node (ref J8) (pin 56))
      (node (ref J3) (pin 3)))
    (net (code 64) (name /IO_AB15)
      (node (ref J8) (pin 12))
      (node (ref J1) (pin 5)))
    (net (code 65) (name /IO_AB14)
      (node (ref J1) (pin 3))
      (node (ref J8) (pin 10)))
    (net (code 66) (name /J8P58)
      (node (ref J3) (pin 7))
      (node (ref J8) (pin 58)))
    (net (code 67) (name /SRAMA15)
      (node (ref J7) (pin 40))
      (node (ref U3) (pin 22)))
    (net (code 68) (name /SRAMA16)
      (node (ref J7) (pin 37))
      (node (ref U3) (pin 21)))
    (net (code 69) (name /SRAMA17)
      (node (ref J7) (pin 35))
      (node (ref U3) (pin 20)))
    (net (code 70) (name /SRAMA18)
      (node (ref J7) (pin 33))
      (node (ref U3) (pin 19)))
    (net (code 71) (name /SRAMA19)
      (node (ref J7) (pin 31))
      (node (ref U3) (pin 18)))
    (net (code 72) (name /SRAMA14)
      (node (ref U3) (pin 23))
      (node (ref J7) (pin 38)))
    (net (code 73) (name /SRAMA13)
      (node (ref J7) (pin 36))
      (node (ref U3) (pin 24)))
    (net (code 74) (name /SRAMA12)
      (node (ref U3) (pin 25))
      (node (ref J7) (pin 34)))
    (net (code 75) (name /SRAMA11)
      (node (ref J7) (pin 32))
      (node (ref U3) (pin 26)))
    (net (code 76) (name /SRAMA9)
      (node (ref J7) (pin 28))
      (node (ref U3) (pin 28)))
    (net (code 77) (name /~SRAMWE)
      (node (ref U3) (pin 17))
      (node (ref J7) (pin 29)))
    (net (code 78) (name /MOSI)
      (node (ref J7) (pin 58))
      (node (ref P4) (pin 2)))
    (net (code 79) (name /MISO)
      (node (ref P4) (pin 7))
      (node (ref J7) (pin 60)))
    (net (code 80) (name /SCLK)
      (node (ref P4) (pin 5))
      (node (ref J7) (pin 59)))
    (net (code 81) (name /SDCS)
      (node (ref P4) (pin 1))
      (node (ref J7) (pin 57)))
    (net (code 82) (name +5V)
      (node (ref C8) (pin 1))
      (node (ref J5) (pin 5))
      (node (ref J5) (pin 1))
      (node (ref J5) (pin 3))
      (node (ref J7) (pin 63))
      (node (ref J7) (pin 64))
      (node (ref J8) (pin 64))
      (node (ref H1) (pin 2))
      (node (ref J8) (pin 63))
      (node (ref C7) (pin 1))
      (node (ref U1) (pin 3)))
    (net (code 83) (name /CARDET)
      (node (ref R15) (pin 1))
      (node (ref J7) (pin 47))
      (node (ref P4) (pin 10)))
    (net (code 84) (name /SRAMA10)
      (node (ref J7) (pin 30))
      (node (ref U3) (pin 27)))
    (net (code 85) (name /HSYNC)
      (node (ref J7) (pin 55))
      (node (ref P1) (pin 13)))
    (net (code 86) (name /VSYNC)
      (node (ref P1) (pin 14))
      (node (ref J7) (pin 56)))
    (net (code 87) (name /VCCIO)
      (node (ref U2) (pin 3))
      (node (ref C9) (pin 1))
      (node (ref U2) (pin 10))
      (node (ref D1) (pin 2))
      (node (ref D2) (pin 2)))
    (net (code 88) (name /SRAMD1)
      (node (ref U3) (pin 10))
      (node (ref J7) (pin 23)))
    (net (code 89) (name /SRAMA5)
      (node (ref U3) (pin 44))
      (node (ref J7) (pin 10)))
    (net (code 90) (name /SRAMA4)
      (node (ref U3) (pin 1))
      (node (ref J7) (pin 9)))
    (net (code 91) (name /SRAMD7)
      (node (ref J7) (pin 20))
      (node (ref U3) (pin 36)))
    (net (code 92) (name /SRAMD6)
      (node (ref J7) (pin 22))
      (node (ref U3) (pin 35)))
    (net (code 93) (name /SRAMD5)
      (node (ref U3) (pin 32))
      (node (ref J7) (pin 24)))
    (net (code 94) (name /SRAMD4)
      (node (ref J7) (pin 26))
      (node (ref U3) (pin 31)))
    (net (code 95) (name /SRAMD3)
      (node (ref J7) (pin 27))
      (node (ref U3) (pin 14)))
    (net (code 96) (name /SRAMD2)
      (node (ref J7) (pin 25))
      (node (ref U3) (pin 13)))
    (net (code 97) (name /SRAMA3)
      (node (ref J7) (pin 11))
      (node (ref U3) (pin 2)))
    (net (code 98) (name /SRAMD0)
      (node (ref U3) (pin 9))
      (node (ref J7) (pin 21)))
    (net (code 99) (name /~SRAMOE)
      (node (ref U3) (pin 41))
      (node (ref J7) (pin 16)))
    (net (code 100) (name /~SRAMCS)
      (node (ref U3) (pin 6))
      (node (ref J7) (pin 19)))
    (net (code 101) (name /SRAMA8)
      (node (ref U3) (pin 39))
      (node (ref J7) (pin 18)))
    (net (code 102) (name /SRAMA7)
      (node (ref J7) (pin 14))
      (node (ref U3) (pin 42)))
    (net (code 103) (name /SRAMA6)
      (node (ref U3) (pin 43))
      (node (ref J7) (pin 12)))
    (net (code 104) (name /SRAMA0)
      (node (ref J7) (pin 17))
      (node (ref U3) (pin 5)))
    (net (code 105) (name /SRAMA1)
      (node (ref J7) (pin 15))
      (node (ref U3) (pin 4)))
    (net (code 106) (name /SRAMA2)
      (node (ref U3) (pin 3))
      (node (ref J7) (pin 13)))
    (net (code 107) (name /J8P55)
      (node (ref J8) (pin 55))
      (node (ref J3) (pin 1)))
    (net (code 108) (name /J8P60)
      (node (ref J8) (pin 60))
      (node (ref J3) (pin 11)))
    (net (code 109) (name /J8P59)
      (node (ref J3) (pin 9))
      (node (ref J8) (pin 59)))
    (net (code 110) (name /J8P57)
      (node (ref J3) (pin 5))
      (node (ref J8) (pin 57)))
    (net (code 111) (name /IO_AB13)
      (node (ref J8) (pin 8)))
    (net (code 112) (name "Net-(P4-Pad13)")
      (node (ref P4) (pin 13)))
    (net (code 113) (name "Net-(P4-Pad12)")
      (node (ref P4) (pin 12)))
    (net (code 114) (name "Net-(P4-Pad11)")
      (node (ref P4) (pin 11)))
    (net (code 115) (name /BLUHI)
      (node (ref R14) (pin 2))
      (node (ref J7) (pin 54)))
    (net (code 116) (name /BLULO)
      (node (ref J7) (pin 53))
      (node (ref R13) (pin 2)))
    (net (code 117) (name /GRNLO)
      (node (ref R11) (pin 2))
      (node (ref J7) (pin 51)))
    (net (code 118) (name /REDLO)
      (node (ref J7) (pin 49))
      (node (ref R9) (pin 2)))
    (net (code 119) (name /PS2DAT)
      (node (ref J7) (pin 8))
      (node (ref P2) (pin 1))
      (node (ref R2) (pin 1))
      (node (ref J2) (pin 2)))
    (net (code 120) (name /GRNHI)
      (node (ref J7) (pin 52))
      (node (ref R12) (pin 2)))
    (net (code 121) (name /REDHI)
      (node (ref J7) (pin 50))
      (node (ref R10) (pin 2)))
    (net (code 122) (name /PS2CLK)
      (node (ref J2) (pin 1))
      (node (ref J7) (pin 7))
      (node (ref P2) (pin 5))
      (node (ref R1) (pin 1)))
    (net (code 123) (name "Net-(P2-Pad6)")
      (node (ref P2) (pin 6)))
    (net (code 124) (name "Net-(P2-Pad2)")
      (node (ref P2) (pin 2)))
    (net (code 125) (name "Net-(P1-Pad3)")
      (node (ref R14) (pin 1))
      (node (ref P1) (pin 3))
      (node (ref R13) (pin 1)))
    (net (code 126) (name "Net-(P1-Pad2)")
      (node (ref R12) (pin 1))
      (node (ref R11) (pin 1))
      (node (ref P1) (pin 2)))
    (net (code 127) (name "Net-(P4-Pad9)")
      (node (ref P4) (pin 9)))
    (net (code 128) (name "Net-(P4-Pad8)")
      (node (ref P4) (pin 8)))
    (net (code 129) (name "Net-(P1-Pad1)")
      (node (ref R10) (pin 1))
      (node (ref R9) (pin 1))
      (node (ref P1) (pin 1)))
    (net (code 130) (name "Net-(J7-Pad48)")
      (node (ref J7) (pin 48)))
    (net (code 131) (name "Net-(J7-Pad42)")
      (node (ref J7) (pin 42)))
    (net (code 132) (name "Net-(J7-Pad41)")
      (node (ref J7) (pin 41)))
    (net (code 133) (name "Net-(J7-Pad39)")
      (node (ref J7) (pin 39)))
    (net (code 134) (name "Net-(P1-Pad15)")
      (node (ref P1) (pin 15)))
    (net (code 135) (name "Net-(P1-Pad9)")
      (node (ref P1) (pin 9)))
    (net (code 136) (name "Net-(P1-Pad4)")
      (node (ref P1) (pin 4)))
    (net (code 137) (name "Net-(P1-Pad12)")
      (node (ref P1) (pin 12)))
    (net (code 138) (name "Net-(P1-Pad11)")
      (node (ref P1) (pin 11)))
    (net (code 139) (name /UP)
      (node (ref U2) (pin 8))
      (node (ref R6) (pin 2)))
    (net (code 140) (name /UM)
      (node (ref R5) (pin 2))
      (node (ref U2) (pin 9)))
    (net (code 141) (name /DM)
      (node (ref J4) (pin 2))
      (node (ref R5) (pin 1)))
    (net (code 142) (name /DP)
      (node (ref J4) (pin 3))
      (node (ref R6) (pin 1)))))