(export (version D)
  (design
    (source "C:\\Users\\dgilliland\\Documents\\GitHub\\lb-boards\\LEDs Cards\\LEDS-SWITCHES _2\\LEDS-SWITCHES _2.sch")
    (date "6/23/2021 11:02:01 AM")
    (tool "Eeschema (5.0.2)-1")
    (sheet (number 1) (name /) (tstamps /)
      (title_block
        (title ESP32-VGA)
        (company land-boards.com)
        (rev 2)
        (date 2020-02-22)
        (source "LEDS-SWITCHES _2.sch")
        (comment (number 1) (value ""))
        (comment (number 2) (value ""))
        (comment (number 3) (value ""))
        (comment (number 4) (value "")))))
  (components
    (comp (ref MTG?1)
      (value MTG_HOLE)
      (footprint LandBoards_MountHoles:MTG-6-32)
      (libsource (lib LandBoards) (part MTG_HOLE) (description ""))
      (sheetpath (names /) (tstamps /))
      (tstamp 586AD5E2))
    (comp (ref MTG2)
      (value MTG_HOLE)
      (footprint LandBoards_MountHoles:MTG-6-32)
      (libsource (lib LandBoards) (part MTG_HOLE) (description ""))
      (sheetpath (names /) (tstamps /))
      (tstamp 586AD65D))
    (comp (ref MTG3)
      (value MTG_HOLE)
      (footprint LandBoards_MountHoles:MTG-6-32)
      (libsource (lib LandBoards) (part MTG_HOLE) (description ""))
      (sheetpath (names /) (tstamps /))
      (tstamp 586AD691))
    (comp (ref MTG1)
      (value MTG_HOLE)
      (footprint LandBoards_MountHoles:MTG-6-32)
      (libsource (lib LandBoards) (part MTG_HOLE) (description ""))
      (sheetpath (names /) (tstamps /))
      (tstamp 586AD6D2))
    (comp (ref TEST1)
      (value COUPON)
      (footprint LandBoards_Marking:TEST_BLK-REAR)
      (libsource (lib LandBoards) (part COUPON) (description ""))
      (sheetpath (names /) (tstamps /))
      (tstamp 59399B7A))
    (comp (ref SS8)
      (value SW_SPDT)
      (footprint Connector_PinHeader_2.54mm:PinHeader_1x03_P2.54mm_Vertical)
      (datasheet ~)
      (libsource (lib Switch) (part SW_SPDT) (description "Switch, single pole double throw"))
      (sheetpath (names /) (tstamps /))
      (tstamp 5EE2100A))
    (comp (ref R1)
      (value 10K)
      (footprint Resistor_THT:R_Axial_DIN0207_L6.3mm_D2.5mm_P10.16mm_Horizontal)
      (datasheet ~)
      (libsource (lib Device) (part R_Small) (description "Resistor, small symbol"))
      (sheetpath (names /) (tstamps /))
      (tstamp 5EE2B34C))
    (comp (ref SS7)
      (value SW_SPDT)
      (footprint Connector_PinHeader_2.54mm:PinHeader_1x03_P2.54mm_Vertical)
      (datasheet ~)
      (libsource (lib Switch) (part SW_SPDT) (description "Switch, single pole double throw"))
      (sheetpath (names /) (tstamps /))
      (tstamp 5EE3D9C3))
    (comp (ref SS6)
      (value SW_SPDT)
      (footprint Connector_PinHeader_2.54mm:PinHeader_1x03_P2.54mm_Vertical)
      (datasheet ~)
      (libsource (lib Switch) (part SW_SPDT) (description "Switch, single pole double throw"))
      (sheetpath (names /) (tstamps /))
      (tstamp 5EE3E377))
    (comp (ref SS5)
      (value SW_SPDT)
      (footprint Connector_PinHeader_2.54mm:PinHeader_1x03_P2.54mm_Vertical)
      (datasheet ~)
      (libsource (lib Switch) (part SW_SPDT) (description "Switch, single pole double throw"))
      (sheetpath (names /) (tstamps /))
      (tstamp 5EE3EDAF))
    (comp (ref SS4)
      (value SW_SPDT)
      (footprint Connector_PinHeader_2.54mm:PinHeader_1x03_P2.54mm_Vertical)
      (datasheet ~)
      (libsource (lib Switch) (part SW_SPDT) (description "Switch, single pole double throw"))
      (sheetpath (names /) (tstamps /))
      (tstamp 5EE3F755))
    (comp (ref SS3)
      (value SW_SPDT)
      (footprint Connector_PinHeader_2.54mm:PinHeader_1x03_P2.54mm_Vertical)
      (datasheet ~)
      (libsource (lib Switch) (part SW_SPDT) (description "Switch, single pole double throw"))
      (sheetpath (names /) (tstamps /))
      (tstamp 5EE3FC95))
    (comp (ref SS2)
      (value SW_SPDT)
      (footprint Connector_PinHeader_2.54mm:PinHeader_1x03_P2.54mm_Vertical)
      (datasheet ~)
      (libsource (lib Switch) (part SW_SPDT) (description "Switch, single pole double throw"))
      (sheetpath (names /) (tstamps /))
      (tstamp 5EE40342))
    (comp (ref SS1)
      (value SW_SPDT)
      (footprint Connector_PinHeader_2.54mm:PinHeader_1x03_P2.54mm_Vertical)
      (datasheet ~)
      (libsource (lib Switch) (part SW_SPDT) (description "Switch, single pole double throw"))
      (sheetpath (names /) (tstamps /))
      (tstamp 5EE40D42))
    (comp (ref R2)
      (value 10K)
      (footprint Resistor_THT:R_Axial_DIN0207_L6.3mm_D2.5mm_P10.16mm_Horizontal)
      (datasheet ~)
      (libsource (lib Device) (part R_Small) (description "Resistor, small symbol"))
      (sheetpath (names /) (tstamps /))
      (tstamp 5EE67941))
    (comp (ref R3)
      (value 10K)
      (footprint Resistor_THT:R_Axial_DIN0207_L6.3mm_D2.5mm_P10.16mm_Horizontal)
      (datasheet ~)
      (libsource (lib Device) (part R_Small) (description "Resistor, small symbol"))
      (sheetpath (names /) (tstamps /))
      (tstamp 5EE67F64))
    (comp (ref R4)
      (value 10K)
      (footprint Resistor_THT:R_Axial_DIN0207_L6.3mm_D2.5mm_P10.16mm_Horizontal)
      (datasheet ~)
      (libsource (lib Device) (part R_Small) (description "Resistor, small symbol"))
      (sheetpath (names /) (tstamps /))
      (tstamp 5EE68241))
    (comp (ref R5)
      (value 10K)
      (footprint Resistor_THT:R_Axial_DIN0207_L6.3mm_D2.5mm_P10.16mm_Horizontal)
      (datasheet ~)
      (libsource (lib Device) (part R_Small) (description "Resistor, small symbol"))
      (sheetpath (names /) (tstamps /))
      (tstamp 5EE686F6))
    (comp (ref R6)
      (value 10K)
      (footprint Resistor_THT:R_Axial_DIN0207_L6.3mm_D2.5mm_P10.16mm_Horizontal)
      (datasheet ~)
      (libsource (lib Device) (part R_Small) (description "Resistor, small symbol"))
      (sheetpath (names /) (tstamps /))
      (tstamp 5EE68D0F))
    (comp (ref R7)
      (value 10K)
      (footprint Resistor_THT:R_Axial_DIN0207_L6.3mm_D2.5mm_P10.16mm_Horizontal)
      (datasheet ~)
      (libsource (lib Device) (part R_Small) (description "Resistor, small symbol"))
      (sheetpath (names /) (tstamps /))
      (tstamp 5EE697DD))
    (comp (ref R8)
      (value 10K)
      (footprint Resistor_THT:R_Axial_DIN0207_L6.3mm_D2.5mm_P10.16mm_Horizontal)
      (datasheet ~)
      (libsource (lib Device) (part R_Small) (description "Resistor, small symbol"))
      (sheetpath (names /) (tstamps /))
      (tstamp 5EE69DCC))
    (comp (ref R9)
      (value 10K)
      (footprint Resistor_THT:R_Axial_DIN0207_L6.3mm_D2.5mm_P10.16mm_Horizontal)
      (datasheet ~)
      (libsource (lib Device) (part R_Small) (description "Resistor, small symbol"))
      (sheetpath (names /) (tstamps /))
      (tstamp 5EE6AC81))
    (comp (ref R10)
      (value 10K)
      (footprint Resistor_THT:R_Axial_DIN0207_L6.3mm_D2.5mm_P10.16mm_Horizontal)
      (datasheet ~)
      (libsource (lib Device) (part R_Small) (description "Resistor, small symbol"))
      (sheetpath (names /) (tstamps /))
      (tstamp 5EE6AD09))
    (comp (ref R11)
      (value 10K)
      (footprint Resistor_THT:R_Axial_DIN0207_L6.3mm_D2.5mm_P10.16mm_Horizontal)
      (datasheet ~)
      (libsource (lib Device) (part R_Small) (description "Resistor, small symbol"))
      (sheetpath (names /) (tstamps /))
      (tstamp 5EE6AD13))
    (comp (ref R12)
      (value 10K)
      (footprint Resistor_THT:R_Axial_DIN0207_L6.3mm_D2.5mm_P10.16mm_Horizontal)
      (datasheet ~)
      (libsource (lib Device) (part R_Small) (description "Resistor, small symbol"))
      (sheetpath (names /) (tstamps /))
      (tstamp 5EE6AD1D))
    (comp (ref R13)
      (value 10K)
      (footprint Resistor_THT:R_Axial_DIN0207_L6.3mm_D2.5mm_P10.16mm_Horizontal)
      (datasheet ~)
      (libsource (lib Device) (part R_Small) (description "Resistor, small symbol"))
      (sheetpath (names /) (tstamps /))
      (tstamp 5EE6AD27))
    (comp (ref R14)
      (value 10K)
      (footprint Resistor_THT:R_Axial_DIN0207_L6.3mm_D2.5mm_P10.16mm_Horizontal)
      (datasheet ~)
      (libsource (lib Device) (part R_Small) (description "Resistor, small symbol"))
      (sheetpath (names /) (tstamps /))
      (tstamp 5EE6AD31))
    (comp (ref R15)
      (value 10K)
      (footprint Resistor_THT:R_Axial_DIN0207_L6.3mm_D2.5mm_P10.16mm_Horizontal)
      (datasheet ~)
      (libsource (lib Device) (part R_Small) (description "Resistor, small symbol"))
      (sheetpath (names /) (tstamps /))
      (tstamp 5EE6AD3B))
    (comp (ref R16)
      (value 10K)
      (footprint Resistor_THT:R_Axial_DIN0207_L6.3mm_D2.5mm_P10.16mm_Horizontal)
      (datasheet ~)
      (libsource (lib Device) (part R_Small) (description "Resistor, small symbol"))
      (sheetpath (names /) (tstamps /))
      (tstamp 5EE6AD45))
    (comp (ref R17)
      (value 560)
      (footprint Resistor_THT:R_Axial_DIN0207_L6.3mm_D2.5mm_P10.16mm_Horizontal)
      (datasheet ~)
      (libsource (lib Device) (part R_Small) (description "Resistor, small symbol"))
      (sheetpath (names /) (tstamps /))
      (tstamp 5EE23177))
    (comp (ref R18)
      (value 560)
      (footprint Resistor_THT:R_Axial_DIN0207_L6.3mm_D2.5mm_P10.16mm_Horizontal)
      (datasheet ~)
      (libsource (lib Device) (part R_Small) (description "Resistor, small symbol"))
      (sheetpath (names /) (tstamps /))
      (tstamp 5EE2322C))
    (comp (ref R19)
      (value 560)
      (footprint Resistor_THT:R_Axial_DIN0207_L6.3mm_D2.5mm_P10.16mm_Horizontal)
      (datasheet ~)
      (libsource (lib Device) (part R_Small) (description "Resistor, small symbol"))
      (sheetpath (names /) (tstamps /))
      (tstamp 5EE23236))
    (comp (ref R20)
      (value 560)
      (footprint Resistor_THT:R_Axial_DIN0207_L6.3mm_D2.5mm_P10.16mm_Horizontal)
      (datasheet ~)
      (libsource (lib Device) (part R_Small) (description "Resistor, small symbol"))
      (sheetpath (names /) (tstamps /))
      (tstamp 5EE23240))
    (comp (ref R21)
      (value 560)
      (footprint Resistor_THT:R_Axial_DIN0207_L6.3mm_D2.5mm_P10.16mm_Horizontal)
      (datasheet ~)
      (libsource (lib Device) (part R_Small) (description "Resistor, small symbol"))
      (sheetpath (names /) (tstamps /))
      (tstamp 5EE2324A))
    (comp (ref R22)
      (value 560)
      (footprint Resistor_THT:R_Axial_DIN0207_L6.3mm_D2.5mm_P10.16mm_Horizontal)
      (datasheet ~)
      (libsource (lib Device) (part R_Small) (description "Resistor, small symbol"))
      (sheetpath (names /) (tstamps /))
      (tstamp 5EE23254))
    (comp (ref R23)
      (value 560)
      (footprint Resistor_THT:R_Axial_DIN0207_L6.3mm_D2.5mm_P10.16mm_Horizontal)
      (datasheet ~)
      (libsource (lib Device) (part R_Small) (description "Resistor, small symbol"))
      (sheetpath (names /) (tstamps /))
      (tstamp 5EE2325E))
    (comp (ref R24)
      (value 560)
      (footprint Resistor_THT:R_Axial_DIN0207_L6.3mm_D2.5mm_P10.16mm_Horizontal)
      (datasheet ~)
      (libsource (lib Device) (part R_Small) (description "Resistor, small symbol"))
      (sheetpath (names /) (tstamps /))
      (tstamp 5EE23268))
    (comp (ref D1)
      (value LED-fixed)
      (footprint LED_THT:LED_D5.0mm)
      (libsource (lib LandBoards_Semis) (part LED-fixed) (description ""))
      (sheetpath (names /) (tstamps /))
      (tstamp 5EE9120C))
    (comp (ref D2)
      (value LED-fixed)
      (footprint LED_THT:LED_D5.0mm)
      (libsource (lib LandBoards_Semis) (part LED-fixed) (description ""))
      (sheetpath (names /) (tstamps /))
      (tstamp 5EE91E4B))
    (comp (ref D3)
      (value LED-fixed)
      (footprint LED_THT:LED_D5.0mm)
      (libsource (lib LandBoards_Semis) (part LED-fixed) (description ""))
      (sheetpath (names /) (tstamps /))
      (tstamp 5EE92B21))
    (comp (ref D4)
      (value LED-fixed)
      (footprint LED_THT:LED_D5.0mm)
      (libsource (lib LandBoards_Semis) (part LED-fixed) (description ""))
      (sheetpath (names /) (tstamps /))
      (tstamp 5EE931AB))
    (comp (ref D5)
      (value LED-fixed)
      (footprint LED_THT:LED_D5.0mm)
      (libsource (lib LandBoards_Semis) (part LED-fixed) (description ""))
      (sheetpath (names /) (tstamps /))
      (tstamp 5EE93A39))
    (comp (ref D6)
      (value LED-fixed)
      (footprint LED_THT:LED_D5.0mm)
      (libsource (lib LandBoards_Semis) (part LED-fixed) (description ""))
      (sheetpath (names /) (tstamps /))
      (tstamp 5EE93FFE))
    (comp (ref D7)
      (value LED-fixed)
      (footprint LED_THT:LED_D5.0mm)
      (libsource (lib LandBoards_Semis) (part LED-fixed) (description ""))
      (sheetpath (names /) (tstamps /))
      (tstamp 5EE94B79))
    (comp (ref D8)
      (value LED-fixed)
      (footprint LED_THT:LED_D5.0mm)
      (libsource (lib LandBoards_Semis) (part LED-fixed) (description ""))
      (sheetpath (names /) (tstamps /))
      (tstamp 5EE95084))
    (comp (ref PB8)
      (value SW_Push)
      (footprint Button_Switch_THT:SW_PUSH_6mm_H8.5mm)
      (datasheet ~)
      (libsource (lib Switch) (part SW_Push) (description "Push button switch, generic, two pins"))
      (sheetpath (names /) (tstamps /))
      (tstamp 5F2C9C36))
    (comp (ref PB7)
      (value SW_Push)
      (footprint Button_Switch_THT:SW_PUSH_6mm_H8.5mm)
      (datasheet ~)
      (libsource (lib Switch) (part SW_Push) (description "Push button switch, generic, two pins"))
      (sheetpath (names /) (tstamps /))
      (tstamp 5F33929A))
    (comp (ref PB6)
      (value SW_Push)
      (footprint Button_Switch_THT:SW_PUSH_6mm_H8.5mm)
      (datasheet ~)
      (libsource (lib Switch) (part SW_Push) (description "Push button switch, generic, two pins"))
      (sheetpath (names /) (tstamps /))
      (tstamp 5F34146E))
    (comp (ref PB5)
      (value SW_Push)
      (footprint Button_Switch_THT:SW_PUSH_6mm_H8.5mm)
      (datasheet ~)
      (libsource (lib Switch) (part SW_Push) (description "Push button switch, generic, two pins"))
      (sheetpath (names /) (tstamps /))
      (tstamp 5F341478))
    (comp (ref PB4)
      (value SW_Push)
      (footprint Button_Switch_THT:SW_PUSH_6mm_H8.5mm)
      (datasheet ~)
      (libsource (lib Switch) (part SW_Push) (description "Push button switch, generic, two pins"))
      (sheetpath (names /) (tstamps /))
      (tstamp 5F34A264))
    (comp (ref PB3)
      (value SW_Push)
      (footprint Button_Switch_THT:SW_PUSH_6mm_H8.5mm)
      (datasheet ~)
      (libsource (lib Switch) (part SW_Push) (description "Push button switch, generic, two pins"))
      (sheetpath (names /) (tstamps /))
      (tstamp 5F34A26E))
    (comp (ref PB2)
      (value SW_Push)
      (footprint Button_Switch_THT:SW_PUSH_6mm_H8.5mm)
      (datasheet ~)
      (libsource (lib Switch) (part SW_Push) (description "Push button switch, generic, two pins"))
      (sheetpath (names /) (tstamps /))
      (tstamp 5F34A278))
    (comp (ref PB1)
      (value SW_Push)
      (footprint Button_Switch_THT:SW_PUSH_6mm_H8.5mm)
      (datasheet ~)
      (libsource (lib Switch) (part SW_Push) (description "Push button switch, generic, two pins"))
      (sheetpath (names /) (tstamps /))
      (tstamp 5F34A282))
    (comp (ref J1)
      (value Conn_02x16_Odd_Even)
      (footprint Connector_PinHeader_2.54mm:PinHeader_2x16_P2.54mm_Horizontal)
      (datasheet ~)
      (libsource (lib Connector_Generic) (part Conn_02x16_Odd_Even) (description "Generic connector, double row, 02x16, odd/even pin numbering scheme (row 1 odd numbers, row 2 even numbers), script generated (kicad-library-utils/schlib/autogen/connector/)"))
      (sheetpath (names /) (tstamps /))
      (tstamp 60E5E3B0)))
  (libparts
    (libpart (lib Connector_Generic) (part Conn_02x16_Odd_Even)
      (description "Generic connector, double row, 02x16, odd/even pin numbering scheme (row 1 odd numbers, row 2 even numbers), script generated (kicad-library-utils/schlib/autogen/connector/)")
      (docs ~)
      (footprints
        (fp Connector*:*_2x??_*))
      (fields
        (field (name Reference) J)
        (field (name Value) Conn_02x16_Odd_Even))
      (pins
        (pin (num 1) (name Pin_1) (type passive))
        (pin (num 2) (name Pin_2) (type passive))
        (pin (num 3) (name Pin_3) (type passive))
        (pin (num 4) (name Pin_4) (type passive))
        (pin (num 5) (name Pin_5) (type passive))
        (pin (num 6) (name Pin_6) (type passive))
        (pin (num 7) (name Pin_7) (type passive))
        (pin (num 8) (name Pin_8) (type passive))
        (pin (num 9) (name Pin_9) (type passive))
        (pin (num 10) (name Pin_10) (type passive))
        (pin (num 11) (name Pin_11) (type passive))
        (pin (num 12) (name Pin_12) (type passive))
        (pin (num 13) (name Pin_13) (type passive))
        (pin (num 14) (name Pin_14) (type passive))
        (pin (num 15) (name Pin_15) (type passive))
        (pin (num 16) (name Pin_16) (type passive))
        (pin (num 17) (name Pin_17) (type passive))
        (pin (num 18) (name Pin_18) (type passive))
        (pin (num 19) (name Pin_19) (type passive))
        (pin (num 20) (name Pin_20) (type passive))
        (pin (num 21) (name Pin_21) (type passive))
        (pin (num 22) (name Pin_22) (type passive))
        (pin (num 23) (name Pin_23) (type passive))
        (pin (num 24) (name Pin_24) (type passive))
        (pin (num 25) (name Pin_25) (type passive))
        (pin (num 26) (name Pin_26) (type passive))
        (pin (num 27) (name Pin_27) (type passive))
        (pin (num 28) (name Pin_28) (type passive))
        (pin (num 29) (name Pin_29) (type passive))
        (pin (num 30) (name Pin_30) (type passive))
        (pin (num 31) (name Pin_31) (type passive))
        (pin (num 32) (name Pin_32) (type passive))))
    (libpart (lib Device) (part R_Small)
      (description "Resistor, small symbol")
      (docs ~)
      (footprints
        (fp R_*))
      (fields
        (field (name Reference) R)
        (field (name Value) R_Small))
      (pins
        (pin (num 1) (name ~) (type passive))
        (pin (num 2) (name ~) (type passive))))
    (libpart (lib LandBoards) (part COUPON)
      (fields
        (field (name Reference) COUP?)
        (field (name Value) COUPON)))
    (libpart (lib LandBoards) (part MTG_HOLE)
      (fields
        (field (name Reference) MTG?)
        (field (name Value) MTG_HOLE)))
    (libpart (lib LandBoards_Semis) (part LED-fixed)
      (footprints
        (fp LED-3MM)
        (fp LED-5MM)
        (fp LED-10MM)
        (fp LED-0603)
        (fp LED-0805)
        (fp LED-1206)
        (fp LEDV))
      (fields
        (field (name Reference) D)
        (field (name Value) LED-fixed))
      (pins
        (pin (num 1) (name K) (type passive))
        (pin (num 2) (name A) (type passive))))
    (libpart (lib Switch) (part SW_Push)
      (description "Push button switch, generic, two pins")
      (fields
        (field (name Reference) SW)
        (field (name Value) SW_Push))
      (pins
        (pin (num 1) (name 1) (type passive))
        (pin (num 2) (name 2) (type passive))))
    (libpart (lib Switch) (part SW_SPDT)
      (description "Switch, single pole double throw")
      (fields
        (field (name Reference) SW)
        (field (name Value) SW_SPDT))
      (pins
        (pin (num 1) (name A) (type passive))
        (pin (num 2) (name B) (type passive))
        (pin (num 3) (name C) (type passive)))))
  (libraries
    (library (logical Connector_Generic)
      (uri "C:\\Program Files\\KiCad\\share\\kicad\\library/Connector_Generic.lib"))
    (library (logical Device)
      (uri "C:\\Program Files\\KiCad\\share\\kicad\\library/Device.lib"))
    (library (logical LandBoards)
      (uri C:/Users/dgilliland/Documents/GitHub/lb-boards/KiCAD/library/LandBoards.lib))
    (library (logical LandBoards_Semis)
      (uri C:/Users/dgilliland/Documents/GitHub/lb-boards/KiCAD/library/LandBoards_Semis.lib))
    (library (logical Switch)
      (uri "C:\\Program Files\\KiCad\\share\\kicad\\library/Switch.lib")))
  (nets
    (net (code 1) (name /SS7)
      (node (ref SS7) (pin 2))
      (node (ref J1) (pin 23)))
    (net (code 2) (name /SS6)
      (node (ref SS6) (pin 2))
      (node (ref J1) (pin 20)))
    (net (code 3) (name /SS5)
      (node (ref SS5) (pin 2))
      (node (ref J1) (pin 17)))
    (net (code 4) (name /SS4)
      (node (ref J1) (pin 14))
      (node (ref SS4) (pin 2)))
    (net (code 5) (name /SS3)
      (node (ref J1) (pin 11))
      (node (ref SS3) (pin 2)))
    (net (code 6) (name /SS2)
      (node (ref SS2) (pin 2))
      (node (ref J1) (pin 8)))
    (net (code 7) (name /SS8)
      (node (ref J1) (pin 26))
      (node (ref SS8) (pin 2)))
    (net (code 8) (name /LED1)
      (node (ref R17) (pin 2))
      (node (ref J1) (pin 6)))
    (net (code 9) (name /PB7)
      (node (ref J1) (pin 25))
      (node (ref PB7) (pin 2))
      (node (ref R10) (pin 2)))
    (net (code 10) (name /PB4)
      (node (ref PB4) (pin 2))
      (node (ref J1) (pin 16))
      (node (ref R13) (pin 2)))
    (net (code 11) (name /PB1)
      (node (ref R16) (pin 2))
      (node (ref PB1) (pin 2))
      (node (ref J1) (pin 7)))
    (net (code 12) (name GND)
      (node (ref SS7) (pin 3))
      (node (ref SS5) (pin 3))
      (node (ref SS6) (pin 3))
      (node (ref J1) (pin 32))
      (node (ref SS2) (pin 3))
      (node (ref SS1) (pin 3))
      (node (ref J1) (pin 31))
      (node (ref SS3) (pin 3))
      (node (ref SS8) (pin 3))
      (node (ref SS4) (pin 3))
      (node (ref J1) (pin 30))
      (node (ref J1) (pin 29))
      (node (ref D3) (pin 1))
      (node (ref PB1) (pin 1))
      (node (ref PB2) (pin 1))
      (node (ref D4) (pin 1))
      (node (ref PB3) (pin 1))
      (node (ref PB4) (pin 1))
      (node (ref D2) (pin 1))
      (node (ref D1) (pin 1))
      (node (ref D7) (pin 1))
      (node (ref D5) (pin 1))
      (node (ref PB5) (pin 1))
      (node (ref D6) (pin 1))
      (node (ref PB6) (pin 1))
      (node (ref PB7) (pin 1))
      (node (ref D8) (pin 1))
      (node (ref PB8) (pin 1)))
    (net (code 13) (name /PB2)
      (node (ref R15) (pin 2))
      (node (ref J1) (pin 10))
      (node (ref PB2) (pin 2)))
    (net (code 14) (name /PB3)
      (node (ref R14) (pin 2))
      (node (ref J1) (pin 13))
      (node (ref PB3) (pin 2)))
    (net (code 15) (name /PB5)
      (node (ref PB5) (pin 2))
      (node (ref R12) (pin 2))
      (node (ref J1) (pin 19)))
    (net (code 16) (name /PB6)
      (node (ref J1) (pin 22))
      (node (ref R11) (pin 2))
      (node (ref PB6) (pin 2)))
    (net (code 17) (name /PB8)
      (node (ref J1) (pin 28))
      (node (ref R9) (pin 2))
      (node (ref PB8) (pin 2)))
    (net (code 18) (name /SS1)
      (node (ref J1) (pin 5))
      (node (ref SS1) (pin 2)))
    (net (code 19) (name "Net-(R8-Pad2)")
      (node (ref SS1) (pin 1))
      (node (ref R8) (pin 2)))
    (net (code 20) (name "Net-(R7-Pad2)")
      (node (ref SS2) (pin 1))
      (node (ref R7) (pin 2)))
    (net (code 21) (name "Net-(R6-Pad2)")
      (node (ref SS3) (pin 1))
      (node (ref R6) (pin 2)))
    (net (code 22) (name "Net-(R5-Pad2)")
      (node (ref R5) (pin 2))
      (node (ref SS4) (pin 1)))
    (net (code 23) (name "Net-(R4-Pad2)")
      (node (ref R4) (pin 2))
      (node (ref SS5) (pin 1)))
    (net (code 24) (name "Net-(R3-Pad2)")
      (node (ref SS6) (pin 1))
      (node (ref R3) (pin 2)))
    (net (code 25) (name "Net-(R2-Pad2)")
      (node (ref R2) (pin 2))
      (node (ref SS7) (pin 1)))
    (net (code 27) (name "Net-(R1-Pad2)")
      (node (ref R1) (pin 2))
      (node (ref SS8) (pin 1)))
    (net (code 28) (name /LED3)
      (node (ref R19) (pin 2))
      (node (ref J1) (pin 12)))
    (net (code 29) (name "Net-(D1-Pad2)")
      (node (ref R17) (pin 1))
      (node (ref D1) (pin 2)))
    (net (code 30) (name /LED8)
      (node (ref J1) (pin 27))
      (node (ref R24) (pin 2)))
    (net (code 31) (name "Net-(D8-Pad2)")
      (node (ref R24) (pin 1))
      (node (ref D8) (pin 2)))
    (net (code 32) (name /LED7)
      (node (ref R23) (pin 2))
      (node (ref J1) (pin 24)))
    (net (code 33) (name "Net-(D7-Pad2)")
      (node (ref R23) (pin 1))
      (node (ref D7) (pin 2)))
    (net (code 34) (name /LED6)
      (node (ref R22) (pin 2))
      (node (ref J1) (pin 21)))
    (net (code 35) (name "Net-(D6-Pad2)")
      (node (ref D6) (pin 2))
      (node (ref R22) (pin 1)))
    (net (code 36) (name /LED5)
      (node (ref R21) (pin 2))
      (node (ref J1) (pin 18)))
    (net (code 37) (name "Net-(D5-Pad2)")
      (node (ref R21) (pin 1))
      (node (ref D5) (pin 2)))
    (net (code 38) (name /LED4)
      (node (ref R20) (pin 2))
      (node (ref J1) (pin 15)))
    (net (code 39) (name "Net-(D4-Pad2)")
      (node (ref R20) (pin 1))
      (node (ref D4) (pin 2)))
    (net (code 40) (name "Net-(D3-Pad2)")
      (node (ref R19) (pin 1))
      (node (ref D3) (pin 2)))
    (net (code 41) (name /LED2)
      (node (ref R18) (pin 2))
      (node (ref J1) (pin 9)))
    (net (code 42) (name "Net-(D2-Pad2)")
      (node (ref R18) (pin 1))
      (node (ref D2) (pin 2)))
    (net (code 43) (name VCC)
      (node (ref R16) (pin 1))
      (node (ref R10) (pin 1))
      (node (ref R15) (pin 1))
      (node (ref R14) (pin 1))
      (node (ref J1) (pin 1))
      (node (ref R9) (pin 1))
      (node (ref R5) (pin 1))
      (node (ref R1) (pin 1))
      (node (ref J1) (pin 4))
      (node (ref J1) (pin 3))
      (node (ref R8) (pin 1))
      (node (ref J1) (pin 2))
      (node (ref R7) (pin 1))
      (node (ref R6) (pin 1))
      (node (ref R2) (pin 1))
      (node (ref R3) (pin 1))
      (node (ref R4) (pin 1))
      (node (ref R12) (pin 1))
      (node (ref R13) (pin 1))
      (node (ref R11) (pin 1)))))