(export (version D)
  (design
    (source C:/Users/Doug/Documents/GitHub/lb-boards/RasPi-GVS-Plus-CFG/RasPi-GVS-Plus-CFG.sch)
    (date "9/30/2014 6:46:27 PM")
    (tool "eeschema (2013-05-31 BZR 4019)-stable"))
  (components
    (comp (ref J2)
      (value CONN_4)
      (footprint PIN_ARRAY_4x1)
      (libsource (lib conn) (part CONN_4))
      (sheetpath (names /) (tstamps /))
      (tstamp 53B17085))
    (comp (ref J6)
      (value CONN_3)
      (footprint PIN_ARRAY_3X1)
      (libsource (lib conn) (part CONN_3))
      (sheetpath (names /) (tstamps /))
      (tstamp 53B17388))
    (comp (ref J9)
      (value CONN_3)
      (footprint PIN_ARRAY_3X1)
      (libsource (lib conn) (part CONN_3))
      (sheetpath (names /) (tstamps /))
      (tstamp 53B174B9))
    (comp (ref J8)
      (value CONN_3)
      (footprint PIN_ARRAY_3X1)
      (libsource (lib conn) (part CONN_3))
      (sheetpath (names /) (tstamps /))
      (tstamp 53B1751A))
    (comp (ref J7)
      (value CONN_3)
      (footprint PIN_ARRAY_3X1)
      (libsource (lib conn) (part CONN_3))
      (sheetpath (names /) (tstamps /))
      (tstamp 53B17589))
    (comp (ref J11)
      (value CONN_6)
      (footprint PIN_ARRAY-6X1)
      (libsource (lib conn) (part CONN_6))
      (sheetpath (names /) (tstamps /))
      (tstamp 53B1765D))
    (comp (ref J10)
      (value CONN_6)
      (footprint PIN_ARRAY-6X1)
      (libsource (lib conn) (part CONN_6))
      (sheetpath (names /) (tstamps /))
      (tstamp 53B1766F))
    (comp (ref J1)
      (value CONN_4)
      (footprint PIN_ARRAY_4x1)
      (libsource (lib conn) (part CONN_4))
      (sheetpath (names /) (tstamps /))
      (tstamp 53B17BBF))
    (comp (ref J5)
      (value CONN_3)
      (footprint PIN_ARRAY_3X1)
      (libsource (lib conn) (part CONN_3))
      (sheetpath (names /) (tstamps /))
      (tstamp 53B18601))
    (comp (ref J4)
      (value CONN_3)
      (footprint PIN_ARRAY_3X1)
      (libsource (lib conn) (part CONN_3))
      (sheetpath (names /) (tstamps /))
      (tstamp 53B18607))
    (comp (ref J3)
      (value CONN_3)
      (footprint PIN_ARRAY_3X1)
      (libsource (lib conn) (part CONN_3))
      (sheetpath (names /) (tstamps /))
      (tstamp 53B1860D))
    (comp (ref F2)
      (value FUSE)
      (footprint SM1206)
      (libsource (lib device) (part FUSE))
      (sheetpath (names /) (tstamps /))
      (tstamp 53B1B2CC))
    (comp (ref COUP?2)
      (value COUPON)
      (footprint REV_BLOCK)
      (libsource (lib DougsSch) (part COUPON))
      (sheetpath (names /) (tstamps /))
      (tstamp 53B1CE77))
    (comp (ref COUP?1)
      (value COUPON)
      (footprint REV_BLOCK)
      (libsource (lib DougsSch) (part COUPON))
      (sheetpath (names /) (tstamps /))
      (tstamp 53B1CE86))
    (comp (ref J24)
      (value RASPIOPLUS)
      (footprint PIN_ARRAY_20X2)
      (libsource (lib DougsSch) (part RASPIOPLUS))
      (sheetpath (names /) (tstamps /))
      (tstamp 53C50367))
    (comp (ref J12)
      (value CONN_3)
      (footprint PIN_ARRAY_3X1)
      (libsource (lib conn) (part CONN_3))
      (sheetpath (names /) (tstamps /))
      (tstamp 53C50C58))
    (comp (ref J13)
      (value CONN_3)
      (footprint PIN_ARRAY_3X1)
      (libsource (lib conn) (part CONN_3))
      (sheetpath (names /) (tstamps /))
      (tstamp 53C50C5E))
    (comp (ref J14)
      (value CONN_3)
      (footprint PIN_ARRAY_3X1)
      (libsource (lib conn) (part CONN_3))
      (sheetpath (names /) (tstamps /))
      (tstamp 53C50C64))
    (comp (ref J15)
      (value CONN_3)
      (footprint PIN_ARRAY_3X1)
      (libsource (lib conn) (part CONN_3))
      (sheetpath (names /) (tstamps /))
      (tstamp 53C50C6A))
    (comp (ref J16)
      (value CONN_3)
      (footprint PIN_ARRAY_3X1)
      (libsource (lib conn) (part CONN_3))
      (sheetpath (names /) (tstamps /))
      (tstamp 53C50C70))
    (comp (ref J18)
      (value CONN_3)
      (footprint PIN_ARRAY_3X1)
      (libsource (lib conn) (part CONN_3))
      (sheetpath (names /) (tstamps /))
      (tstamp 53C50C76))
    (comp (ref J19)
      (value CONN_3)
      (footprint PIN_ARRAY_3X1)
      (libsource (lib conn) (part CONN_3))
      (sheetpath (names /) (tstamps /))
      (tstamp 53C50C7C))
    (comp (ref J20)
      (value CONN_3)
      (footprint PIN_ARRAY_3X1)
      (libsource (lib conn) (part CONN_3))
      (sheetpath (names /) (tstamps /))
      (tstamp 53C50C82))
    (comp (ref J17)
      (value CONN_3)
      (footprint PIN_ARRAY_3X1)
      (libsource (lib conn) (part CONN_3))
      (sheetpath (names /) (tstamps /))
      (tstamp 53C50C88))
    (comp (ref MTG4)
      (value CONN_1)
      (footprint MTG-2.75MM)
      (libsource (lib conn) (part CONN_1))
      (sheetpath (names /) (tstamps /))
      (tstamp 53C6E5CF))
    (comp (ref MTG3)
      (value CONN_1)
      (footprint MTG-2.75MM)
      (libsource (lib conn) (part CONN_1))
      (sheetpath (names /) (tstamps /))
      (tstamp 53C6E5DE))
    (comp (ref MTG2)
      (value CONN_1)
      (footprint MTG-2.75MM)
      (libsource (lib conn) (part CONN_1))
      (sheetpath (names /) (tstamps /))
      (tstamp 53C6E5ED))
    (comp (ref MTG1)
      (value CONN_1)
      (footprint MTG-2.75MM)
      (libsource (lib conn) (part CONN_1))
      (sheetpath (names /) (tstamps /))
      (tstamp 53C6E5FC))
    (comp (ref J21)
      (value CONN_3)
      (footprint PIN_ARRAY_3X1)
      (libsource (lib conn) (part CONN_3))
      (sheetpath (names /) (tstamps /))
      (tstamp 53CD794D))
    (comp (ref R6)
      (value 1K)
      (footprint SM0805)
      (libsource (lib device) (part R))
      (sheetpath (names /) (tstamps /))
      (tstamp 53CEA0F3))
    (comp (ref U1)
      (value 24C512)
      (footprint SO8E-wider)
      (libsource (lib DougsSch) (part 24C512))
      (sheetpath (names /) (tstamps /))
      (tstamp 53F159B9))
    (comp (ref U2)
      (value TXB0108)
      (footprint SOG20)
      (datasheet DOCUMENTATION)
      (libsource (lib DougsSch) (part TXB0108))
      (sheetpath (names /) (tstamps /))
      (tstamp 53F15F5D))
    (comp (ref J23)
      (value CONN_8)
      (footprint PIN_ARRAY-8X1)
      (libsource (lib conn) (part CONN_8))
      (sheetpath (names /) (tstamps /))
      (tstamp 53F16210))
    (comp (ref J25)
      (value CONN_3)
      (footprint PIN_ARRAY_3X1)
      (libsource (lib conn) (part CONN_3))
      (sheetpath (names /) (tstamps /))
      (tstamp 53F1621F))
    (comp (ref J26)
      (value CONN_3)
      (footprint PIN_ARRAY_3X1)
      (libsource (lib conn) (part CONN_3))
      (sheetpath (names /) (tstamps /))
      (tstamp 53F1627A))
    (comp (ref J27)
      (value CONN_3)
      (footprint PIN_ARRAY_3X1)
      (libsource (lib conn) (part CONN_3))
      (sheetpath (names /) (tstamps /))
      (tstamp 53F16280))
    (comp (ref J28)
      (value CONN_3)
      (footprint PIN_ARRAY_3X1)
      (libsource (lib conn) (part CONN_3))
      (sheetpath (names /) (tstamps /))
      (tstamp 53F16286))
    (comp (ref J29)
      (value CONN_3)
      (footprint PIN_ARRAY_3X1)
      (libsource (lib conn) (part CONN_3))
      (sheetpath (names /) (tstamps /))
      (tstamp 53F1628C))
    (comp (ref J30)
      (value CONN_3)
      (footprint PIN_ARRAY_3X1)
      (libsource (lib conn) (part CONN_3))
      (sheetpath (names /) (tstamps /))
      (tstamp 53F16292))
    (comp (ref J31)
      (value CONN_3)
      (footprint PIN_ARRAY_3X1)
      (libsource (lib conn) (part CONN_3))
      (sheetpath (names /) (tstamps /))
      (tstamp 53F16298))
    (comp (ref J32)
      (value CONN_3)
      (footprint PIN_ARRAY_3X1)
      (libsource (lib conn) (part CONN_3))
      (sheetpath (names /) (tstamps /))
      (tstamp 53F1629E))
    (comp (ref F1)
      (value FUSE)
      (footprint SM1206)
      (libsource (lib device) (part FUSE))
      (sheetpath (names /) (tstamps /))
      (tstamp 53F1727A))
    (comp (ref C1)
      (value 0.1uF)
      (footprint SM0805)
      (libsource (lib device) (part C))
      (sheetpath (names /) (tstamps /))
      (tstamp 53F1E123))
    (comp (ref C3)
      (value 0.1uF)
      (footprint SM0805)
      (libsource (lib device) (part C))
      (sheetpath (names /) (tstamps /))
      (tstamp 53F1E5DD))
    (comp (ref C2)
      (value 0.1uF)
      (footprint SM0805)
      (libsource (lib device) (part C))
      (sheetpath (names /) (tstamps /))
      (tstamp 53F1E5E3))
    (comp (ref FID1)
      (value CONN_1)
      (footprint FIDUCIAL)
      (libsource (lib conn) (part CONN_1))
      (sheetpath (names /) (tstamps /))
      (tstamp 53F2073B))
    (comp (ref FID2)
      (value CONN_1)
      (footprint FIDUCIAL)
      (libsource (lib conn) (part CONN_1))
      (sheetpath (names /) (tstamps /))
      (tstamp 53F2074A))
    (comp (ref R2)
      (value 3.9K)
      (footprint SM0805)
      (libsource (lib device) (part R))
      (sheetpath (names /) (tstamps /))
      (tstamp 54219F88))
    (comp (ref R1)
      (value 3.9K)
      (footprint SM0805)
      (libsource (lib device) (part R))
      (sheetpath (names /) (tstamps /))
      (tstamp 54219F8E))
    (comp (ref J22)
      (value CONN_2)
      (footprint PIN_ARRAY_2X1)
      (libsource (lib conn) (part CONN_2))
      (sheetpath (names /) (tstamps /))
      (tstamp 5422FCB6)))
  (libparts
    (libpart (lib device) (part C)
      (description "Condensateur non polarise")
      (footprints
        (fp SM*)
        (fp C?)
        (fp C1-1))
      (fields
        (field (name Reference) C)
        (field (name Value) C)
        (field (name Footprint) ~)
        (field (name Datasheet) ~))
      (pins
        (pin (num 1) (name ~) (type passive))
        (pin (num 2) (name ~) (type passive))))
    (libpart (lib device) (part FUSE)
      (fields
        (field (name Reference) F)
        (field (name Value) FUSE)
        (field (name Footprint) ~)
        (field (name Datasheet) ~))
      (pins
        (pin (num 1) (name ~) (type input))
        (pin (num 2) (name ~) (type input))))
    (libpart (lib device) (part R)
      (description Resistance)
      (footprints
        (fp R?)
        (fp SM0603)
        (fp SM0805)
        (fp R?-*)
        (fp SM1206))
      (fields
        (field (name Reference) R)
        (field (name Value) R)
        (field (name Footprint) ~)
        (field (name Datasheet) ~))
      (pins
        (pin (num 1) (name ~) (type passive))
        (pin (num 2) (name ~) (type passive))))
    (libpart (lib conn) (part CONN_1)
      (description "1 pin")
      (fields
        (field (name Reference) P)
        (field (name Value) CONN_1))
      (pins
        (pin (num 1) (name 1) (type passive))))
    (libpart (lib conn) (part CONN_2)
      (description "Symbole general de connecteur")
      (fields
        (field (name Reference) P)
        (field (name Value) CONN_2))
      (pins
        (pin (num 1) (name P1) (type passive))
        (pin (num 2) (name PM) (type passive))))
    (libpart (lib conn) (part CONN_6)
      (description "ymbole general de connecteur")
      (fields
        (field (name Reference) P)
        (field (name Value) CONN_6))
      (pins
        (pin (num 1) (name 1) (type passive))
        (pin (num 2) (name 2) (type passive))
        (pin (num 3) (name 3) (type passive))
        (pin (num 4) (name 4) (type passive))
        (pin (num 5) (name 5) (type passive))
        (pin (num 6) (name 6) (type passive))))
    (libpart (lib conn) (part CONN_4)
      (description "Symbole general de connecteur")
      (fields
        (field (name Reference) P)
        (field (name Value) CONN_4))
      (pins
        (pin (num 1) (name P1) (type passive))
        (pin (num 2) (name P2) (type passive))
        (pin (num 3) (name P3) (type passive))
        (pin (num 4) (name P4) (type passive))))
    (libpart (lib conn) (part CONN_8)
      (description "Symbole general de connecteur")
      (fields
        (field (name Reference) P)
        (field (name Value) CONN_8))
      (pins
        (pin (num 1) (name P1) (type passive))
        (pin (num 2) (name P2) (type passive))
        (pin (num 3) (name P3) (type passive))
        (pin (num 4) (name P4) (type passive))
        (pin (num 5) (name P5) (type passive))
        (pin (num 6) (name P6) (type passive))
        (pin (num 7) (name P7) (type passive))
        (pin (num 8) (name P8) (type passive))))
    (libpart (lib conn) (part CONN_3)
      (description "Symbole general de connecteur")
      (fields
        (field (name Reference) K)
        (field (name Value) CONN_3))
      (pins
        (pin (num 1) (name P1) (type passive))
        (pin (num 2) (name PM) (type passive))
        (pin (num 3) (name P3) (type passive))))
    (libpart (lib DougsSch) (part 24C01)
      (description "I2C Serial EEPROM")
      (fields
        (field (name Reference) U)
        (field (name Value) 24C01)
        (field (name Footprint) ~)
        (field (name Datasheet) ~))
      (pins
        (pin (num 1) (name A0) (type input))
        (pin (num 2) (name A1) (type input))
        (pin (num 3) (name A2) (type input))
        (pin (num 4) (name GND) (type power_in))
        (pin (num 5) (name SDA) (type BiDi))
        (pin (num 6) (name SCL) (type input))
        (pin (num 7) (name TEST) (type input))
        (pin (num 8) (name VCC) (type power_in))))
    (libpart (lib DougsSch) (part TXB0108)
      (fields
        (field (name Reference) U)
        (field (name Value) TXB0108)
        (field (name Footprint) MODULE)
        (field (name Datasheet) DOCUMENTATION))
      (pins
        (pin (num 1) (name A1) (type BiDi))
        (pin (num 2) (name "VCCA(LV)") (type passive))
        (pin (num 3) (name A2) (type BiDi))
        (pin (num 4) (name A3) (type BiDi))
        (pin (num 5) (name A4) (type BiDi))
        (pin (num 6) (name A5) (type BiDi))
        (pin (num 7) (name A6) (type BiDi))
        (pin (num 8) (name A7) (type BiDi))
        (pin (num 9) (name A8) (type BiDi))
        (pin (num 10) (name OE) (type input))
        (pin (num 11) (name GND) (type passive))
        (pin (num 12) (name B8) (type BiDi))
        (pin (num 13) (name B7) (type BiDi))
        (pin (num 14) (name B6) (type BiDi))
        (pin (num 15) (name B5) (type BiDi))
        (pin (num 16) (name B4) (type BiDi))
        (pin (num 17) (name B3) (type BiDi))
        (pin (num 18) (name G2) (type BiDi))
        (pin (num 19) (name "VCCB(HV)") (type passive))
        (pin (num 20) (name B1) (type BiDi))))
    (libpart (lib DougsSch) (part COUPON)
      (fields
        (field (name Reference) COUP?)
        (field (name Value) COUPON)
        (field (name Footprint) ~)
        (field (name Datasheet) ~)))
    (libpart (lib DougsSch) (part RASPIOPLUS)
      (fields
        (field (name Reference) J)
        (field (name Value) RASPIOPLUS)
        (field (name Footprint) ~)
        (field (name Datasheet) ~))
      (pins
        (pin (num 1) (name +3V3) (type power_out))
        (pin (num 2) (name +5V) (type power_out))
        (pin (num 3) (name SDA1) (type BiDi))
        (pin (num 4) (name +5V) (type power_out))
        (pin (num 5) (name SCLK1) (type output))
        (pin (num 6) (name GND) (type power_out))
        (pin (num 7) (name GPIO4_GCLK) (type output))
        (pin (num 8) (name TXD0) (type output))
        (pin (num 9) (name GND) (type power_out))
        (pin (num 10) (name RXD0) (type input))
        (pin (num 11) (name GPIO_17) (type BiDi))
        (pin (num 12) (name GPIO_18) (type BiDi))
        (pin (num 13) (name GPIO_27) (type BiDi))
        (pin (num 14) (name GND) (type power_out))
        (pin (num 15) (name GPIO_22) (type BiDi))
        (pin (num 16) (name GPIO_23) (type BiDi))
        (pin (num 17) (name +3V3) (type power_out))
        (pin (num 18) (name GPIO_24) (type BiDi))
        (pin (num 19) (name SPI_MOSI) (type output))
        (pin (num 20) (name GND) (type power_out))
        (pin (num 21) (name SPI_MISO) (type input))
        (pin (num 22) (name GPIO_25) (type output))
        (pin (num 23) (name SPI_SCLK) (type output))
        (pin (num 24) (name SPI_CE0) (type output))
        (pin (num 25) (name GND) (type power_out))
        (pin (num 26) (name SPI_CE1) (type BiDi))
        (pin (num 27) (name ID_SD) (type power_out))
        (pin (num 28) (name ID_SC) (type BiDi))
        (pin (num 29) (name GPIO5) (type power_out))
        (pin (num 30) (name GND) (type power_out))
        (pin (num 31) (name GPIO_6) (type BiDi))
        (pin (num 32) (name GPIO_12) (type BiDi))
        (pin (num 33) (name GPIO_13) (type BiDi))
        (pin (num 34) (name GND) (type power_out))
        (pin (num 35) (name GPIO_19) (type BiDi))
        (pin (num 36) (name GPIO_16) (type BiDi))
        (pin (num 37) (name GPIO_26) (type power_out))
        (pin (num 38) (name GPIO_20) (type BiDi))
        (pin (num 39) (name GND) (type power_out))
        (pin (num 40) (name GPIO_21) (type BiDi)))))
  (libraries
    (library (logical device)
      (uri "C:\\Program Files (x86)\\KiCad\\share\\library\\device.lib"))
    (library (logical conn)
      (uri "C:\\Program Files (x86)\\KiCad\\share\\library\\conn.lib"))
    (library (logical DougsSch)
      (uri C:\Users\Doug\Documents\GitHub\lb-boards\KiCAD\library\DougsSch.lib)))
  (nets
    (net (code 1) (name "")
      (node (ref J24) (pin 17))
      (node (ref F2) (pin 1))
      (node (ref J24) (pin 1)))
    (net (code 2) (name "")
      (node (ref J26) (pin 3))
      (node (ref U2) (pin 18)))
    (net (code 3) (name "")
      (node (ref J29) (pin 3))
      (node (ref U2) (pin 15)))
    (net (code 4) (name "")
      (node (ref J28) (pin 3))
      (node (ref U2) (pin 16)))
    (net (code 5) (name "")
      (node (ref J27) (pin 3))
      (node (ref U2) (pin 17)))
    (net (code 6) (name "")
      (node (ref U2) (pin 20))
      (node (ref J25) (pin 3)))
    (net (code 7) (name "")
      (node (ref J32) (pin 3))
      (node (ref U2) (pin 12)))
    (net (code 8) (name "")
      (node (ref U2) (pin 13))
      (node (ref J31) (pin 3)))
    (net (code 9) (name "")
      (node (ref J30) (pin 3))
      (node (ref U2) (pin 14)))
    (net (code 10) (name GND)
      (node (ref J25) (pin 1))
      (node (ref J27) (pin 1))
      (node (ref J24) (pin 14))
      (node (ref J24) (pin 34))
      (node (ref J24) (pin 25))
      (node (ref J26) (pin 1))
      (node (ref J24) (pin 20))
      (node (ref J29) (pin 1))
      (node (ref J24) (pin 30))
      (node (ref J28) (pin 1))
      (node (ref J5) (pin 1))
      (node (ref J6) (pin 1))
      (node (ref J22) (pin 2))
      (node (ref J11) (pin 1))
      (node (ref J7) (pin 1))
      (node (ref J8) (pin 1))
      (node (ref J4) (pin 1))
      (node (ref J12) (pin 1))
      (node (ref J3) (pin 1))
      (node (ref J24) (pin 6))
      (node (ref J24) (pin 9))
      (node (ref J9) (pin 1))
      (node (ref J13) (pin 1))
      (node (ref J14) (pin 1))
      (node (ref J15) (pin 1))
      (node (ref J16) (pin 1))
      (node (ref J24) (pin 39))
      (node (ref J10) (pin 1))
      (node (ref J1) (pin 1))
      (node (ref C1) (pin 2))
      (node (ref J17) (pin 1))
      (node (ref J21) (pin 1))
      (node (ref J20) (pin 1))
      (node (ref J18) (pin 1))
      (node (ref C3) (pin 2))
      (node (ref U2) (pin 11))
      (node (ref J32) (pin 1))
      (node (ref J31) (pin 1))
      (node (ref C2) (pin 2))
      (node (ref U1) (pin 4))
      (node (ref J2) (pin 1))
      (node (ref J19) (pin 1))
      (node (ref U1) (pin 3))
      (node (ref U1) (pin 2))
      (node (ref U1) (pin 1))
      (node (ref J30) (pin 1)))
    (net (code 11) (name "")
      (node (ref FID1) (pin 1)))
    (net (code 12) (name "")
      (node (ref FID2) (pin 1)))
    (net (code 13) (name "")
      (node (ref J24) (pin 2))
      (node (ref F1) (pin 1))
      (node (ref J24) (pin 4)))
    (net (code 14) (name "")
      (node (ref J23) (pin 8))
      (node (ref U2) (pin 1)))
    (net (code 15) (name "")
      (node (ref U2) (pin 3))
      (node (ref J23) (pin 7)))
    (net (code 16) (name "")
      (node (ref J23) (pin 6))
      (node (ref U2) (pin 4)))
    (net (code 17) (name "")
      (node (ref U2) (pin 5))
      (node (ref J23) (pin 5)))
    (net (code 18) (name "")
      (node (ref J23) (pin 4))
      (node (ref U2) (pin 6)))
    (net (code 19) (name "")
      (node (ref J23) (pin 3))
      (node (ref U2) (pin 7)))
    (net (code 20) (name "")
      (node (ref U2) (pin 8))
      (node (ref J23) (pin 2)))
    (net (code 21) (name "")
      (node (ref U2) (pin 9))
      (node (ref J23) (pin 1)))
    (net (code 22) (name /SPIMISO)
      (node (ref J24) (pin 21))
      (node (ref J11) (pin 4))
      (node (ref J10) (pin 4)))
    (net (code 23) (name /SPISCK)
      (node (ref J11) (pin 5))
      (node (ref J10) (pin 5))
      (node (ref J24) (pin 23)))
    (net (code 24) (name /IO_4)
      (node (ref J21) (pin 3))
      (node (ref J24) (pin 7)))
    (net (code 25) (name /IO_17)
      (node (ref J24) (pin 11))
      (node (ref J4) (pin 3)))
    (net (code 26) (name /IO_27)
      (node (ref J24) (pin 13))
      (node (ref J5) (pin 3)))
    (net (code 27) (name /IO_12)
      (node (ref J24) (pin 32))
      (node (ref J18) (pin 3)))
    (net (code 28) (name /IO_16)
      (node (ref J19) (pin 3))
      (node (ref J24) (pin 36)))
    (net (code 29) (name /IO_20)
      (node (ref J20) (pin 3))
      (node (ref J24) (pin 38)))
    (net (code 30) (name /IO_21)
      (node (ref J24) (pin 40))
      (node (ref J17) (pin 3)))
    (net (code 31) (name /IO_26)
      (node (ref J16) (pin 3))
      (node (ref J24) (pin 37)))
    (net (code 32) (name /SPIMOSI)
      (node (ref J24) (pin 19))
      (node (ref J11) (pin 3))
      (node (ref J10) (pin 3)))
    (net (code 33) (name /IO_5)
      (node (ref J24) (pin 29))
      (node (ref J12) (pin 3)))
    (net (code 34) (name /IO_6)
      (node (ref J13) (pin 3))
      (node (ref J24) (pin 31)))
    (net (code 35) (name /IO_13)
      (node (ref J14) (pin 3))
      (node (ref J24) (pin 33)))
    (net (code 36) (name /IO_19)
      (node (ref J15) (pin 3))
      (node (ref J24) (pin 35)))
    (net (code 37) (name /RXD0)
      (node (ref J24) (pin 10))
      (node (ref J2) (pin 4)))
    (net (code 38) (name /IO_22)
      (node (ref J7) (pin 3))
      (node (ref J24) (pin 15)))
    (net (code 39) (name /IO_25)
      (node (ref J24) (pin 22))
      (node (ref J9) (pin 3)))
    (net (code 40) (name /SPICE0)
      (node (ref J10) (pin 6))
      (node (ref J24) (pin 24)))
    (net (code 41) (name /SPICE1)
      (node (ref J24) (pin 26))
      (node (ref J11) (pin 6)))
    (net (code 42) (name /TXD0)
      (node (ref J24) (pin 8))
      (node (ref J2) (pin 3)))
    (net (code 43) (name /IO_18)
      (node (ref J3) (pin 3))
      (node (ref J24) (pin 12)))
    (net (code 44) (name /IO_23)
      (node (ref J6) (pin 3))
      (node (ref J24) (pin 16)))
    (net (code 45) (name /IO_24)
      (node (ref J24) (pin 18))
      (node (ref J8) (pin 3)))
    (net (code 46) (name /SDA1)
      (node (ref J24) (pin 3))
      (node (ref J1) (pin 3)))
    (net (code 47) (name /SCLK1)
      (node (ref J1) (pin 4))
      (node (ref J24) (pin 5)))
    (net (code 48) (name /+3.3V)
      (node (ref C1) (pin 1))
      (node (ref C2) (pin 1))
      (node (ref J18) (pin 2))
      (node (ref F2) (pin 2))
      (node (ref J6) (pin 2))
      (node (ref J12) (pin 2))
      (node (ref J14) (pin 2))
      (node (ref J15) (pin 2))
      (node (ref U1) (pin 8))
      (node (ref R6) (pin 1))
      (node (ref J21) (pin 2))
      (node (ref U2) (pin 10))
      (node (ref U2) (pin 2))
      (node (ref J17) (pin 2))
      (node (ref J19) (pin 2))
      (node (ref J13) (pin 2))
      (node (ref J20) (pin 2))
      (node (ref J4) (pin 2))
      (node (ref R1) (pin 1))
      (node (ref J16) (pin 2))
      (node (ref J3) (pin 2))
      (node (ref J10) (pin 2))
      (node (ref J11) (pin 2))
      (node (ref J1) (pin 2))
      (node (ref J5) (pin 2))
      (node (ref R2) (pin 1))
      (node (ref J2) (pin 2))
      (node (ref J7) (pin 2))
      (node (ref J8) (pin 2))
      (node (ref J9) (pin 2)))
    (net (code 49) (name /+5V)
      (node (ref U2) (pin 19))
      (node (ref J32) (pin 2))
      (node (ref J28) (pin 2))
      (node (ref J27) (pin 2))
      (node (ref J31) (pin 2))
      (node (ref F1) (pin 2))
      (node (ref J26) (pin 2))
      (node (ref C3) (pin 1))
      (node (ref J30) (pin 2))
      (node (ref J25) (pin 2))
      (node (ref J29) (pin 2)))
    (net (code 50) (name "")
      (node (ref MTG3) (pin 1)))
    (net (code 51) (name "")
      (node (ref MTG4) (pin 1)))
    (net (code 52) (name "")
      (node (ref MTG2) (pin 1)))
    (net (code 53) (name "")
      (node (ref MTG1) (pin 1)))
    (net (code 54) (name /SCL)
      (node (ref J24) (pin 28))
      (node (ref R2) (pin 2))
      (node (ref U1) (pin 6)))
    (net (code 55) (name /WR)
      (node (ref R6) (pin 2))
      (node (ref J22) (pin 1))
      (node (ref U1) (pin 7)))
    (net (code 56) (name /SDA)
      (node (ref J24) (pin 27))
      (node (ref R1) (pin 2))
      (node (ref U1) (pin 5)))))