(export (version D)
  (design
    (source "C:/Users/DGilliland/Documents/GitHub/lb-boards/Arduino Cards/UNO-DB25/UNO-DB25.sch")
    (date "2/1/2017 1:17:23 PM")
    (tool "Eeschema (after 2015-mar-04 BZR unknown)-product")
    (sheet (number 1) (name /) (tstamps /)
      (title_block
        (title UNO-DB25)
        (company land-boards.com)
        (rev X1)
        (date "Tuesday, January 31, 2017")
        (source UNO-DB25.sch)
        (comment (number 1) (value ""))
        (comment (number 2) (value ""))
        (comment (number 3) (value ""))
        (comment (number 4) (value "")))))
  (components
    (comp (ref MTG3)
      (value CONN_1)
      (footprint LandBoards_MountHoles:MTG-6-32)
      (libsource (lib DougsSch) (part CONN_1))
      (sheetpath (names /) (tstamps /))
      (tstamp 5030F2C2))
    (comp (ref MTG4)
      (value CONN_1)
      (footprint LandBoards_MountHoles:MTG-6-32)
      (libsource (lib DougsSch) (part CONN_1))
      (sheetpath (names /) (tstamps /))
      (tstamp 5030F2C1))
    (comp (ref MTG2)
      (value CONN_1)
      (footprint LandBoards_MountHoles:MTG-6-32)
      (libsource (lib DougsSch) (part CONN_1))
      (sheetpath (names /) (tstamps /))
      (tstamp 5030F2BD))
    (comp (ref MTG1)
      (value CONN_1)
      (footprint LandBoards_MountHoles:MTG-6-32)
      (libsource (lib DougsSch) (part CONN_1))
      (sheetpath (names /) (tstamps /))
      (tstamp 5030F2A7))
    (comp (ref SHIELD1)
      (value ARDUINO_SHIELD)
      (footprint "arduino_shields:ARDUINO SHIELD")
      (libsource (lib arduino_shieldsNCL) (part ARDUINO_SHIELD))
      (sheetpath (names /) (tstamps /))
      (tstamp 5890E945))
    (comp (ref J1)
      (value DB25F)
      (footprint LandBoards_Conns:DB25FC)
      (libsource (lib conn) (part DB25))
      (sheetpath (names /) (tstamps /))
      (tstamp 58911052))
    (comp (ref P1)
      (value CONN_01X04)
      (footprint Pin_Headers:Pin_Header_Angled_1x04_Pitch2.54mm)
      (libsource (lib conn) (part CONN_01X04))
      (sheetpath (names /) (tstamps /))
      (tstamp 5891190F))
    (comp (ref SW1)
      (value Switch_DPST)
      (footprint DougsNewMods:SW-PB-6MM)
      (libsource (lib device) (part Switch_DPST))
      (sheetpath (names /) (tstamps /))
      (tstamp 58921E84))
    (comp (ref P2)
      (value CONN_02X20)
      (footprint Pin_Headers:Pin_Header_Straight_2x20_Pitch2.54mm)
      (libsource (lib conn) (part CONN_02X20))
      (sheetpath (names /) (tstamps /))
      (tstamp 58922731))
    (comp (ref P5)
      (value CONN_01X08)
      (footprint Pin_Headers:Pin_Header_Straight_1x08_Pitch2.54mm)
      (libsource (lib conn) (part CONN_01X08))
      (sheetpath (names /) (tstamps /))
      (tstamp 58924AF6))
    (comp (ref P3)
      (value CONN_01X06)
      (footprint Pin_Headers:Pin_Header_Straight_1x06_Pitch2.54mm)
      (libsource (lib conn) (part CONN_01X06))
      (sheetpath (names /) (tstamps /))
      (tstamp 58924B3D))
    (comp (ref P4)
      (value CONN_02X06)
      (footprint Pin_Headers:Pin_Header_Straight_2x06_Pitch2.54mm)
      (libsource (lib conn) (part CONN_02X06))
      (sheetpath (names /) (tstamps /))
      (tstamp 58924B87))
    (comp (ref P6)
      (value CONN_02X08)
      (footprint Pin_Headers:Pin_Header_Straight_2x08_Pitch2.54mm)
      (libsource (lib conn) (part CONN_02X08))
      (sheetpath (names /) (tstamps /))
      (tstamp 58924BB8)))
  (libparts
    (libpart (lib device) (part Switch_DPST)
      (description "Double Pole Single Throw (DPST) Switch")
      (fields
        (field (name Reference) SW)
        (field (name Value) Switch_DPST))
      (pins
        (pin (num 1) (name 1) (type input))
        (pin (num 2) (name 2) (type input))
        (pin (num 3) (name 3) (type input))
        (pin (num 4) (name 4) (type input))))
    (libpart (lib conn) (part CONN_01X04)
      (footprints
        (fp Pin_Header_Straight_1X04)
        (fp Pin_Header_Angled_1X04)
        (fp Socket_Strip_Straight_1X04)
        (fp Socket_Strip_Angled_1X04))
      (fields
        (field (name Reference) P)
        (field (name Value) CONN_01X04))
      (pins
        (pin (num 1) (name P1) (type passive))
        (pin (num 2) (name P2) (type passive))
        (pin (num 3) (name P3) (type passive))
        (pin (num 4) (name P4) (type passive))))
    (libpart (lib conn) (part CONN_01X06)
      (footprints
        (fp Pin_Header_Straight_1X06)
        (fp Pin_Header_Angled_1X06)
        (fp Socket_Strip_Straight_1X06)
        (fp Socket_Strip_Angled_1X06))
      (fields
        (field (name Reference) P)
        (field (name Value) CONN_01X06))
      (pins
        (pin (num 1) (name P1) (type passive))
        (pin (num 2) (name P2) (type passive))
        (pin (num 3) (name P3) (type passive))
        (pin (num 4) (name P4) (type passive))
        (pin (num 5) (name P5) (type passive))
        (pin (num 6) (name P6) (type passive))))
    (libpart (lib conn) (part CONN_01X08)
      (footprints
        (fp Pin_Header_Straight_1X08)
        (fp Pin_Header_Angled_1X08)
        (fp Socket_Strip_Straight_1X08)
        (fp Socket_Strip_Angled_1X08))
      (fields
        (field (name Reference) P)
        (field (name Value) CONN_01X08))
      (pins
        (pin (num 1) (name P1) (type passive))
        (pin (num 2) (name P2) (type passive))
        (pin (num 3) (name P3) (type passive))
        (pin (num 4) (name P4) (type passive))
        (pin (num 5) (name P5) (type passive))
        (pin (num 6) (name P6) (type passive))
        (pin (num 7) (name P7) (type passive))
        (pin (num 8) (name P8) (type passive))))
    (libpart (lib conn) (part CONN_02X06)
      (footprints
        (fp Pin_Header_Straight_2X06)
        (fp Pin_Header_Angled_2X06)
        (fp Socket_Strip_Straight_2X06)
        (fp Socket_Strip_Angled_2X06))
      (fields
        (field (name Reference) P)
        (field (name Value) CONN_02X06))
      (pins
        (pin (num 1) (name P1) (type passive))
        (pin (num 2) (name P2) (type passive))
        (pin (num 3) (name P3) (type passive))
        (pin (num 4) (name P4) (type passive))
        (pin (num 5) (name P5) (type passive))
        (pin (num 6) (name P6) (type passive))
        (pin (num 7) (name P7) (type passive))
        (pin (num 8) (name P8) (type passive))
        (pin (num 9) (name P9) (type passive))
        (pin (num 10) (name P10) (type passive))
        (pin (num 11) (name P11) (type passive))
        (pin (num 12) (name P12) (type passive))))
    (libpart (lib conn) (part CONN_02X08)
      (footprints
        (fp Pin_Header_Straight_2X08)
        (fp Pin_Header_Angled_2X08)
        (fp Socket_Strip_Straight_2X08)
        (fp Socket_Strip_Angled_2X08))
      (fields
        (field (name Reference) P)
        (field (name Value) CONN_02X08))
      (pins
        (pin (num 1) (name P1) (type passive))
        (pin (num 2) (name P2) (type passive))
        (pin (num 3) (name P3) (type passive))
        (pin (num 4) (name P4) (type passive))
        (pin (num 5) (name P5) (type passive))
        (pin (num 6) (name P6) (type passive))
        (pin (num 7) (name P7) (type passive))
        (pin (num 8) (name P8) (type passive))
        (pin (num 9) (name P9) (type passive))
        (pin (num 10) (name P10) (type passive))
        (pin (num 11) (name P11) (type passive))
        (pin (num 12) (name P12) (type passive))
        (pin (num 13) (name P13) (type passive))
        (pin (num 14) (name P14) (type passive))
        (pin (num 15) (name P15) (type passive))
        (pin (num 16) (name P16) (type passive))))
    (libpart (lib conn) (part CONN_02X20)
      (footprints
        (fp Pin_Header_Straight_2X20)
        (fp Pin_Header_Angled_2X20)
        (fp Socket_Strip_Straight_2X20)
        (fp Socket_Strip_Angled_2X20))
      (fields
        (field (name Reference) P)
        (field (name Value) CONN_02X20))
      (pins
        (pin (num 1) (name P1) (type passive))
        (pin (num 2) (name P2) (type passive))
        (pin (num 3) (name P3) (type passive))
        (pin (num 4) (name P4) (type passive))
        (pin (num 5) (name P5) (type passive))
        (pin (num 6) (name P6) (type passive))
        (pin (num 7) (name P7) (type passive))
        (pin (num 8) (name P8) (type passive))
        (pin (num 9) (name P9) (type passive))
        (pin (num 10) (name P10) (type passive))
        (pin (num 11) (name P11) (type passive))
        (pin (num 12) (name P12) (type passive))
        (pin (num 13) (name P13) (type passive))
        (pin (num 14) (name P14) (type passive))
        (pin (num 15) (name P15) (type passive))
        (pin (num 16) (name P16) (type passive))
        (pin (num 17) (name P17) (type passive))
        (pin (num 18) (name P18) (type passive))
        (pin (num 19) (name P19) (type passive))
        (pin (num 20) (name P20) (type passive))
        (pin (num 21) (name P21) (type passive))
        (pin (num 22) (name P22) (type passive))
        (pin (num 23) (name P23) (type passive))
        (pin (num 24) (name P24) (type passive))
        (pin (num 25) (name P25) (type passive))
        (pin (num 26) (name P26) (type passive))
        (pin (num 27) (name P27) (type passive))
        (pin (num 28) (name P28) (type passive))
        (pin (num 29) (name P29) (type passive))
        (pin (num 30) (name P30) (type passive))
        (pin (num 31) (name P31) (type passive))
        (pin (num 32) (name P32) (type passive))
        (pin (num 33) (name P33) (type passive))
        (pin (num 34) (name P34) (type passive))
        (pin (num 35) (name P35) (type passive))
        (pin (num 36) (name P36) (type passive))
        (pin (num 37) (name P37) (type passive))
        (pin (num 38) (name P38) (type passive))
        (pin (num 39) (name P39) (type passive))
        (pin (num 40) (name P40) (type passive))))
    (libpart (lib conn) (part DB25)
      (footprints
        (fp DB25*))
      (fields
        (field (name Reference) J)
        (field (name Value) DB25))
      (pins
        (pin (num 1) (name 1) (type passive))
        (pin (num 2) (name 2) (type passive))
        (pin (num 3) (name 3) (type passive))
        (pin (num 4) (name 4) (type passive))
        (pin (num 5) (name 5) (type passive))
        (pin (num 6) (name 6) (type passive))
        (pin (num 7) (name 7) (type passive))
        (pin (num 8) (name 8) (type passive))
        (pin (num 9) (name 9) (type passive))
        (pin (num 10) (name 10) (type passive))
        (pin (num 11) (name 11) (type passive))
        (pin (num 12) (name 12) (type passive))
        (pin (num 13) (name 13) (type passive))
        (pin (num 14) (name P14) (type passive))
        (pin (num 15) (name P15) (type passive))
        (pin (num 16) (name P16) (type passive))
        (pin (num 17) (name P17) (type passive))
        (pin (num 18) (name P18) (type passive))
        (pin (num 19) (name P19) (type passive))
        (pin (num 20) (name P20) (type passive))
        (pin (num 21) (name P21) (type passive))
        (pin (num 22) (name P22) (type passive))
        (pin (num 23) (name P23) (type passive))
        (pin (num 24) (name P24) (type passive))
        (pin (num 25) (name P25) (type passive))))
    (libpart (lib DougsSch) (part CONN_1)
      (fields
        (field (name Reference) P)
        (field (name Value) CONN_1))
      (pins
        (pin (num 1) (name 1) (type passive))))
    (libpart (lib arduino_shieldsNCL) (part ARDUINO_SHIELD)
      (fields
        (field (name Reference) SHIELD)
        (field (name Value) ARDUINO_SHIELD))
      (pins
        (pin (num 0) (name 0) (type BiDi))
        (pin (num 1) (name 1) (type BiDi))
        (pin (num 2) (name 2) (type BiDi))
        (pin (num 3) (name 3) (type BiDi))
        (pin (num 4) (name 4) (type BiDi))
        (pin (num 5) (name 5) (type BiDi))
        (pin (num 5V) (name 5V) (type power_in))
        (pin (num 6) (name 6) (type BiDi))
        (pin (num 7) (name 7) (type BiDi))
        (pin (num 8) (name 8) (type BiDi))
        (pin (num 9) (name 9) (type BiDi))
        (pin (num 10) (name 10) (type BiDi))
        (pin (num 11) (name 11) (type BiDi))
        (pin (num 12) (name 12) (type BiDi))
        (pin (num 13) (name 13) (type BiDi))
        (pin (num 3V3) (name 3V3) (type power_in))
        (pin (num AD0) (name AD0) (type BiDi))
        (pin (num AD1) (name AD1) (type BiDi))
        (pin (num AD2) (name AD2) (type BiDi))
        (pin (num AD3) (name AD3) (type BiDi))
        (pin (num AD4) (name AD4) (type BiDi))
        (pin (num AD5) (name AD5) (type BiDi))
        (pin (num AREF) (name AREF) (type power_in))
        (pin (num GND1) (name GND1) (type power_in))
        (pin (num GND2) (name GND2) (type power_in))
        (pin (num GND3) (name GND3) (type power_in))
        (pin (num RST) (name RST) (type input))
        (pin (num V_IN) (name V_IN) (type power_in)))))
  (libraries
    (library (logical device)
      (uri "C:\\Program Files (x86)\\KiCad\\share\\kicad\\library\\device.lib"))
    (library (logical DougsSch)
      (uri C:\Users\DGilliland\Documents\GitHub\lb-boards\KiCAD\library\DougsSch.lib))
    (library (logical conn)
      (uri "C:\\Program Files (x86)\\KiCad\\share\\kicad\\library\\conn.lib"))
    (library (logical arduino_shieldsNCL)
      (uri C:\Users\DGilliland\Documents\GitHub\lb-boards\KiCAD\library\arduino_shieldsNCL.lib)))
  (nets
    (net (code 1) (name GND)
      (node (ref P4) (pin 8))
      (node (ref P4) (pin 6))
      (node (ref P4) (pin 4))
      (node (ref P4) (pin 2))
      (node (ref P6) (pin 10))
      (node (ref P6) (pin 16))
      (node (ref P6) (pin 14))
      (node (ref P2) (pin 38))
      (node (ref P2) (pin 28))
      (node (ref P6) (pin 12))
      (node (ref SHIELD1) (pin GND3))
      (node (ref SHIELD1) (pin GND2))
      (node (ref SHIELD1) (pin GND1))
      (node (ref P1) (pin 1))
      (node (ref P2) (pin 6))
      (node (ref P2) (pin 4))
      (node (ref P2) (pin 2))
      (node (ref J1) (pin 14))
      (node (ref SW1) (pin 3))
      (node (ref SW1) (pin 1))
      (node (ref J1) (pin 1))
      (node (ref P2) (pin 8))
      (node (ref P6) (pin 8))
      (node (ref P6) (pin 6))
      (node (ref P6) (pin 4))
      (node (ref P6) (pin 2))
      (node (ref P4) (pin 12))
      (node (ref P4) (pin 10))
      (node (ref P2) (pin 10))
      (node (ref P2) (pin 36))
      (node (ref P2) (pin 26))
      (node (ref P2) (pin 16))
      (node (ref P2) (pin 20))
      (node (ref P2) (pin 30))
      (node (ref P2) (pin 40))
      (node (ref P2) (pin 34))
      (node (ref P2) (pin 12))
      (node (ref P2) (pin 22))
      (node (ref P2) (pin 32))
      (node (ref P2) (pin 24))
      (node (ref P2) (pin 18))
      (node (ref P2) (pin 14)))
    (net (code 2) (name +5V)
      (node (ref P6) (pin 9))
      (node (ref P6) (pin 15))
      (node (ref P6) (pin 13))
      (node (ref P6) (pin 11))
      (node (ref P6) (pin 7))
      (node (ref P6) (pin 5))
      (node (ref P6) (pin 3))
      (node (ref P6) (pin 1))
      (node (ref P4) (pin 11))
      (node (ref P2) (pin 3))
      (node (ref P2) (pin 5))
      (node (ref P2) (pin 7))
      (node (ref J1) (pin 25))
      (node (ref P1) (pin 2))
      (node (ref P2) (pin 1))
      (node (ref J1) (pin 13))
      (node (ref SHIELD1) (pin 5V))
      (node (ref P2) (pin 9))
      (node (ref P2) (pin 11))
      (node (ref P2) (pin 21))
      (node (ref P2) (pin 31))
      (node (ref P2) (pin 39))
      (node (ref P2) (pin 29))
      (node (ref P2) (pin 19))
      (node (ref P4) (pin 9))
      (node (ref P4) (pin 1))
      (node (ref P2) (pin 37))
      (node (ref P4) (pin 3))
      (node (ref P2) (pin 27))
      (node (ref P4) (pin 5))
      (node (ref P2) (pin 17))
      (node (ref P4) (pin 7))
      (node (ref P2) (pin 35))
      (node (ref P2) (pin 25))
      (node (ref P2) (pin 15))
      (node (ref P2) (pin 33))
      (node (ref P2) (pin 13))
      (node (ref P2) (pin 23)))
    (net (code 3) (name /D3)
      (node (ref SHIELD1) (pin 3))
      (node (ref J1) (pin 16))
      (node (ref P5) (pin 5)))
    (net (code 4) (name /D2)
      (node (ref J1) (pin 3))
      (node (ref SHIELD1) (pin 2))
      (node (ref P5) (pin 6)))
    (net (code 5) (name /D1)
      (node (ref J1) (pin 15))
      (node (ref SHIELD1) (pin 1))
      (node (ref P5) (pin 7)))
    (net (code 6) (name /D0)
      (node (ref SHIELD1) (pin 0))
      (node (ref P5) (pin 8))
      (node (ref J1) (pin 2)))
    (net (code 7) (name /D7)
      (node (ref J1) (pin 18))
      (node (ref SHIELD1) (pin 7))
      (node (ref P5) (pin 1)))
    (net (code 8) (name /D6)
      (node (ref P5) (pin 2))
      (node (ref SHIELD1) (pin 6))
      (node (ref J1) (pin 5)))
    (net (code 9) (name /D5)
      (node (ref J1) (pin 17))
      (node (ref SHIELD1) (pin 5))
      (node (ref P5) (pin 3)))
    (net (code 10) (name /D13)
      (node (ref J1) (pin 21))
      (node (ref P3) (pin 1))
      (node (ref SHIELD1) (pin 13)))
    (net (code 11) (name /D12)
      (node (ref J1) (pin 8))
      (node (ref SHIELD1) (pin 12))
      (node (ref P3) (pin 2)))
    (net (code 12) (name /D11)
      (node (ref SHIELD1) (pin 11))
      (node (ref J1) (pin 20))
      (node (ref P3) (pin 3)))
    (net (code 13) (name /D10)
      (node (ref J1) (pin 7))
      (node (ref P3) (pin 4))
      (node (ref SHIELD1) (pin 10)))
    (net (code 14) (name /D9)
      (node (ref P3) (pin 5))
      (node (ref SHIELD1) (pin 9))
      (node (ref J1) (pin 19)))
    (net (code 15) (name /D8)
      (node (ref SHIELD1) (pin 8))
      (node (ref J1) (pin 6))
      (node (ref P3) (pin 6)))
    (net (code 16) (name "Net-(SHIELD1-Pad3V3)")
      (node (ref SHIELD1) (pin 3V3)))
    (net (code 17) (name /D4)
      (node (ref J1) (pin 4))
      (node (ref SHIELD1) (pin 4))
      (node (ref P5) (pin 4)))
    (net (code 18) (name "Net-(MTG1-Pad1)")
      (node (ref MTG1) (pin 1)))
    (net (code 19) (name "Net-(MTG2-Pad1)")
      (node (ref MTG2) (pin 1)))
    (net (code 20) (name "Net-(MTG4-Pad1)")
      (node (ref MTG4) (pin 1)))
    (net (code 21) (name "Net-(MTG3-Pad1)")
      (node (ref MTG3) (pin 1)))
    (net (code 22) (name "Net-(SHIELD1-PadAREF)")
      (node (ref SHIELD1) (pin AREF)))
    (net (code 23) (name /AD5)
      (node (ref SHIELD1) (pin AD5))
      (node (ref P1) (pin 4))
      (node (ref J1) (pin 24)))
    (net (code 24) (name /AD4)
      (node (ref J1) (pin 11))
      (node (ref SHIELD1) (pin AD4))
      (node (ref P1) (pin 3)))
    (net (code 25) (name /VIN)
      (node (ref SHIELD1) (pin V_IN))
      (node (ref J1) (pin 12)))
    (net (code 26) (name "Net-(SHIELD1-PadRST)")
      (node (ref SW1) (pin 4))
      (node (ref SW1) (pin 2))
      (node (ref SHIELD1) (pin RST)))
    (net (code 27) (name /AD3)
      (node (ref J1) (pin 23))
      (node (ref SHIELD1) (pin AD3)))
    (net (code 28) (name /AD2)
      (node (ref SHIELD1) (pin AD2))
      (node (ref J1) (pin 10)))
    (net (code 29) (name /AD1)
      (node (ref SHIELD1) (pin AD1))
      (node (ref J1) (pin 22)))
    (net (code 30) (name /AD0)
      (node (ref J1) (pin 9))
      (node (ref SHIELD1) (pin AD0)))))