(kicad_sch (version 20211123) (generator eeschema)

  (uuid 8699bac7-c709-4bd2-ac59-e4dee6e882c0)

  (paper "B")

  (lib_symbols
    (symbol "Device:C_Small" (pin_numbers hide) (pin_names (offset 0.254) hide) (in_bom yes) (on_board yes)
      (property "Reference" "C" (id 0) (at 0.254 1.778 0)
        (effects (font (size 1.27 1.27)) (justify left))
      )
      (property "Value" "C_Small" (id 1) (at 0.254 -2.032 0)
        (effects (font (size 1.27 1.27)) (justify left))
      )
      (property "Footprint" "" (id 2) (at 0 0 0)
        (effects (font (size 1.27 1.27)) hide)
      )
      (property "Datasheet" "~" (id 3) (at 0 0 0)
        (effects (font (size 1.27 1.27)) hide)
      )
      (property "ki_keywords" "capacitor cap" (id 4) (at 0 0 0)
        (effects (font (size 1.27 1.27)) hide)
      )
      (property "ki_description" "Unpolarized capacitor, small symbol" (id 5) (at 0 0 0)
        (effects (font (size 1.27 1.27)) hide)
      )
      (property "ki_fp_filters" "C_*" (id 6) (at 0 0 0)
        (effects (font (size 1.27 1.27)) hide)
      )
      (symbol "C_Small_0_1"
        (polyline
          (pts
            (xy -1.524 -0.508)
            (xy 1.524 -0.508)
          )
          (stroke (width 0.3302) (type default) (color 0 0 0 0))
          (fill (type none))
        )
        (polyline
          (pts
            (xy -1.524 0.508)
            (xy 1.524 0.508)
          )
          (stroke (width 0.3048) (type default) (color 0 0 0 0))
          (fill (type none))
        )
      )
      (symbol "C_Small_1_1"
        (pin passive line (at 0 2.54 270) (length 2.032)
          (name "~" (effects (font (size 1.27 1.27))))
          (number "1" (effects (font (size 1.27 1.27))))
        )
        (pin passive line (at 0 -2.54 90) (length 2.032)
          (name "~" (effects (font (size 1.27 1.27))))
          (number "2" (effects (font (size 1.27 1.27))))
        )
      )
    )
    (symbol "Device:RFShield_OnePiece" (pin_names (offset 1.016)) (in_bom yes) (on_board yes)
      (property "Reference" "J" (id 0) (at 0 5.08 0)
        (effects (font (size 1.27 1.27)))
      )
      (property "Value" "RFShield_OnePiece" (id 1) (at 0 2.54 0)
        (effects (font (size 1.27 1.27)))
      )
      (property "Footprint" "" (id 2) (at 0 -2.54 0)
        (effects (font (size 1.27 1.27)) hide)
      )
      (property "Datasheet" "~" (id 3) (at 0 -2.54 0)
        (effects (font (size 1.27 1.27)) hide)
      )
      (property "ki_keywords" "RF EMI shielding cabinet" (id 4) (at 0 0 0)
        (effects (font (size 1.27 1.27)) hide)
      )
      (property "ki_description" "One-piece EMI RF shielding cabinet" (id 5) (at 0 0 0)
        (effects (font (size 1.27 1.27)) hide)
      )
      (symbol "RFShield_OnePiece_0_1"
        (polyline
          (pts
            (xy -15.24 -5.08)
            (xy -15.24 -2.54)
          )
          (stroke (width 0.254) (type default) (color 0 0 0 0))
          (fill (type none))
        )
        (polyline
          (pts
            (xy -15.24 -1.27)
            (xy -15.24 1.27)
          )
          (stroke (width 0.254) (type default) (color 0 0 0 0))
          (fill (type none))
        )
        (polyline
          (pts
            (xy -15.24 2.54)
            (xy -15.24 5.08)
          )
          (stroke (width 0.254) (type default) (color 0 0 0 0))
          (fill (type none))
        )
        (polyline
          (pts
            (xy -12.7 7.62)
            (xy -10.16 7.62)
          )
          (stroke (width 0.254) (type default) (color 0 0 0 0))
          (fill (type none))
        )
        (polyline
          (pts
            (xy -10.16 -7.62)
            (xy -12.7 -7.62)
          )
          (stroke (width 0.254) (type default) (color 0 0 0 0))
          (fill (type none))
        )
        (polyline
          (pts
            (xy -6.35 -7.62)
            (xy -8.89 -7.62)
          )
          (stroke (width 0.254) (type default) (color 0 0 0 0))
          (fill (type none))
        )
        (polyline
          (pts
            (xy -6.35 7.62)
            (xy -8.89 7.62)
          )
          (stroke (width 0.254) (type default) (color 0 0 0 0))
          (fill (type none))
        )
        (polyline
          (pts
            (xy -2.54 -7.62)
            (xy -5.08 -7.62)
          )
          (stroke (width 0.254) (type default) (color 0 0 0 0))
          (fill (type none))
        )
        (polyline
          (pts
            (xy -2.54 7.62)
            (xy -5.08 7.62)
          )
          (stroke (width 0.254) (type default) (color 0 0 0 0))
          (fill (type none))
        )
        (polyline
          (pts
            (xy -1.27 -7.62)
            (xy 1.27 -7.62)
          )
          (stroke (width 0.254) (type default) (color 0 0 0 0))
          (fill (type none))
        )
        (polyline
          (pts
            (xy 1.27 7.62)
            (xy -1.27 7.62)
          )
          (stroke (width 0.254) (type default) (color 0 0 0 0))
          (fill (type none))
        )
        (polyline
          (pts
            (xy 2.54 -7.62)
            (xy 5.08 -7.62)
          )
          (stroke (width 0.254) (type default) (color 0 0 0 0))
          (fill (type none))
        )
        (polyline
          (pts
            (xy 5.08 7.62)
            (xy 2.54 7.62)
          )
          (stroke (width 0.254) (type default) (color 0 0 0 0))
          (fill (type none))
        )
        (polyline
          (pts
            (xy 6.35 -7.62)
            (xy 8.89 -7.62)
          )
          (stroke (width 0.254) (type default) (color 0 0 0 0))
          (fill (type none))
        )
        (polyline
          (pts
            (xy 8.89 7.62)
            (xy 6.35 7.62)
          )
          (stroke (width 0.254) (type default) (color 0 0 0 0))
          (fill (type none))
        )
        (polyline
          (pts
            (xy 10.16 -7.62)
            (xy 12.7 -7.62)
          )
          (stroke (width 0.254) (type default) (color 0 0 0 0))
          (fill (type none))
        )
        (polyline
          (pts
            (xy 12.7 7.62)
            (xy 10.16 7.62)
          )
          (stroke (width 0.254) (type default) (color 0 0 0 0))
          (fill (type none))
        )
        (polyline
          (pts
            (xy 15.24 -5.08)
            (xy 15.24 -2.54)
          )
          (stroke (width 0.254) (type default) (color 0 0 0 0))
          (fill (type none))
        )
        (polyline
          (pts
            (xy 15.24 -1.27)
            (xy 15.24 1.27)
          )
          (stroke (width 0.254) (type default) (color 0 0 0 0))
          (fill (type none))
        )
        (polyline
          (pts
            (xy 15.24 2.54)
            (xy 15.24 5.08)
          )
          (stroke (width 0.254) (type default) (color 0 0 0 0))
          (fill (type none))
        )
        (polyline
          (pts
            (xy -15.24 6.35)
            (xy -15.24 7.62)
            (xy -13.97 7.62)
          )
          (stroke (width 0.254) (type default) (color 0 0 0 0))
          (fill (type none))
        )
        (polyline
          (pts
            (xy -13.97 -7.62)
            (xy -15.24 -7.62)
            (xy -15.24 -6.35)
          )
          (stroke (width 0.254) (type default) (color 0 0 0 0))
          (fill (type none))
        )
        (polyline
          (pts
            (xy 13.97 -7.62)
            (xy 15.24 -7.62)
            (xy 15.24 -6.35)
          )
          (stroke (width 0.254) (type default) (color 0 0 0 0))
          (fill (type none))
        )
        (polyline
          (pts
            (xy 15.24 6.35)
            (xy 15.24 7.62)
            (xy 13.97 7.62)
          )
          (stroke (width 0.254) (type default) (color 0 0 0 0))
          (fill (type none))
        )
      )
      (symbol "RFShield_OnePiece_1_1"
        (pin passive line (at 0 -10.16 90) (length 2.54)
          (name "Shield" (effects (font (size 1.27 1.27))))
          (number "1" (effects (font (size 1.27 1.27))))
        )
      )
    )
    (symbol "Device:R_Small_US" (pin_numbers hide) (pin_names (offset 0.254) hide) (in_bom yes) (on_board yes)
      (property "Reference" "R" (id 0) (at 0.762 0.508 0)
        (effects (font (size 1.27 1.27)) (justify left))
      )
      (property "Value" "R_Small_US" (id 1) (at 0.762 -1.016 0)
        (effects (font (size 1.27 1.27)) (justify left))
      )
      (property "Footprint" "" (id 2) (at 0 0 0)
        (effects (font (size 1.27 1.27)) hide)
      )
      (property "Datasheet" "~" (id 3) (at 0 0 0)
        (effects (font (size 1.27 1.27)) hide)
      )
      (property "ki_keywords" "r resistor" (id 4) (at 0 0 0)
        (effects (font (size 1.27 1.27)) hide)
      )
      (property "ki_description" "Resistor, small US symbol" (id 5) (at 0 0 0)
        (effects (font (size 1.27 1.27)) hide)
      )
      (property "ki_fp_filters" "R_*" (id 6) (at 0 0 0)
        (effects (font (size 1.27 1.27)) hide)
      )
      (symbol "R_Small_US_1_1"
        (polyline
          (pts
            (xy 0 0)
            (xy 1.016 -0.381)
            (xy 0 -0.762)
            (xy -1.016 -1.143)
            (xy 0 -1.524)
          )
          (stroke (width 0) (type default) (color 0 0 0 0))
          (fill (type none))
        )
        (polyline
          (pts
            (xy 0 1.524)
            (xy 1.016 1.143)
            (xy 0 0.762)
            (xy -1.016 0.381)
            (xy 0 0)
          )
          (stroke (width 0) (type default) (color 0 0 0 0))
          (fill (type none))
        )
        (pin passive line (at 0 2.54 270) (length 1.016)
          (name "~" (effects (font (size 1.27 1.27))))
          (number "1" (effects (font (size 1.27 1.27))))
        )
        (pin passive line (at 0 -2.54 90) (length 1.016)
          (name "~" (effects (font (size 1.27 1.27))))
          (number "2" (effects (font (size 1.27 1.27))))
        )
      )
    )
    (symbol "OreSat-Power:5V" (power) (pin_names (offset 0)) (in_bom yes) (on_board yes)
      (property "Reference" "#5V" (id 0) (at 0 -3.81 0)
        (effects (font (size 1.27 1.27)) hide)
      )
      (property "Value" "5V" (id 1) (at 0 3.556 0)
        (effects (font (size 1.27 1.27)))
      )
      (property "Footprint" "" (id 2) (at 0 0 0)
        (effects (font (size 1.27 1.27)) hide)
      )
      (property "Datasheet" "" (id 3) (at 0 0 0)
        (effects (font (size 1.27 1.27)) hide)
      )
      (property "ki_keywords" "power-flag" (id 4) (at 0 0 0)
        (effects (font (size 1.27 1.27)) hide)
      )
      (property "ki_description" "Power symbol creates a global label with name \"+5V\"" (id 5) (at 0 0 0)
        (effects (font (size 1.27 1.27)) hide)
      )
      (symbol "5V_0_1"
        (polyline
          (pts
            (xy -0.762 1.27)
            (xy 0 2.54)
          )
          (stroke (width 0) (type default) (color 0 0 0 0))
          (fill (type none))
        )
        (polyline
          (pts
            (xy 0 0)
            (xy 0 2.54)
          )
          (stroke (width 0) (type default) (color 0 0 0 0))
          (fill (type none))
        )
        (polyline
          (pts
            (xy 0 2.54)
            (xy 0.762 1.27)
          )
          (stroke (width 0) (type default) (color 0 0 0 0))
          (fill (type none))
        )
      )
      (symbol "5V_1_1"
        (pin power_in line (at 0 0 90) (length 0) hide
          (name "5V" (effects (font (size 1.27 1.27))))
          (number "1" (effects (font (size 1.27 1.27))))
        )
      )
    )
    (symbol "OreSat-Power:GND" (power) (pin_names (offset 0)) (in_bom yes) (on_board yes)
      (property "Reference" "#GND" (id 0) (at 0 -6.35 0)
        (effects (font (size 1.27 1.27)) hide)
      )
      (property "Value" "GND" (id 1) (at 0 -2.54 0)
        (effects (font (size 1.27 1.27)))
      )
      (property "Footprint" "" (id 2) (at 0 0 0)
        (effects (font (size 1.27 1.27)) hide)
      )
      (property "Datasheet" "" (id 3) (at 0 0 0)
        (effects (font (size 1.27 1.27)) hide)
      )
      (property "ki_keywords" "power-flag" (id 4) (at 0 0 0)
        (effects (font (size 1.27 1.27)) hide)
      )
      (property "ki_description" "Power symbol creates a global label with name \"GND\" , ground" (id 5) (at 0 0 0)
        (effects (font (size 1.27 1.27)) hide)
      )
      (symbol "GND_0_1"
        (polyline
          (pts
            (xy 0 0)
            (xy 0 -1.27)
            (xy 1.27 -1.27)
            (xy 0 -1.27)
            (xy -1.27 -1.27)
            (xy 0 -1.27)
          )
          (stroke (width 0) (type default) (color 0 0 0 0))
          (fill (type none))
        )
      )
      (symbol "GND_1_1"
        (pin power_in line (at 0 0 270) (length 0) hide
          (name "GND" (effects (font (size 1.27 1.27))))
          (number "1" (effects (font (size 1.27 1.27))))
        )
      )
    )
    (symbol "OreSat-TestPoint:Test-Point" (pin_numbers hide) (pin_names hide) (in_bom yes) (on_board yes)
      (property "Reference" "TP" (id 0) (at 0 2.54 0)
        (effects (font (size 1.27 1.27)))
      )
      (property "Value" "Test-Point" (id 1) (at 0 2.54 0)
        (effects (font (size 1.27 1.27)) hide)
      )
      (property "Footprint" "" (id 2) (at 0 2.54 0)
        (effects (font (size 1.27 1.27)) hide)
      )
      (property "Datasheet" "" (id 3) (at 0 2.54 0)
        (effects (font (size 1.27 1.27)) hide)
      )
      (symbol "Test-Point_0_1"
        (rectangle (start -1.27 1.27) (end 1.27 -1.27)
          (stroke (width 0.254) (type default) (color 0 0 0 0))
          (fill (type none))
        )
      )
      (symbol "Test-Point_1_1"
        (pin passive line (at 0 0 90) (length 0)
          (name "" (effects (font (size 1.27 1.27))))
          (number "1" (effects (font (size 1.27 1.27))))
        )
      )
    )
    (symbol "U-Maxim-MAX8510EXK29+T-low-noise-LDO-2v85:MAX8510EXK29+T" (in_bom yes) (on_board yes)
      (property "Reference" "U" (id 0) (at 5.08 10.16 0)
        (effects (font (size 1.27 1.27)))
      )
      (property "Value" "MAX8510EXK29+T" (id 1) (at -7.62 10.16 0)
        (effects (font (size 1.27 1.27)))
      )
      (property "Footprint" "Package_TO_SOT_SMD:SOT-353_SC-70-5" (id 2) (at 0 10.16 0)
        (effects (font (size 1.27 1.27)) hide)
      )
      (property "Datasheet" "https://datasheets.maximintegrated.com/en/ds/MAX8510-MAX8512.pdf" (id 3) (at 0 10.16 0)
        (effects (font (size 1.27 1.27)) hide)
      )
      (property "ki_description" "Ultra-low-noise LDO 2.85 V, SC-70-5" (id 4) (at 0 0 0)
        (effects (font (size 1.27 1.27)) hide)
      )
      (symbol "MAX8510EXK29+T_0_1"
        (rectangle (start -5.08 5.08) (end 5.08 -5.08)
          (stroke (width 0.254) (type default) (color 0 0 0 0))
          (fill (type none))
        )
      )
      (symbol "MAX8510EXK29+T_1_0"
        (pin power_in line (at -7.62 2.54 0) (length 2.54)
          (name "IN" (effects (font (size 1.27 1.27))))
          (number "1" (effects (font (size 1.27 1.27))))
        )
        (pin power_in line (at 0 -7.62 90) (length 2.54)
          (name "GND" (effects (font (size 1.27 1.27))))
          (number "2" (effects (font (size 1.27 1.27))))
        )
        (pin input line (at -7.62 -2.54 0) (length 2.54)
          (name "EN" (effects (font (size 1.27 1.27))))
          (number "3" (effects (font (size 1.27 1.27))))
        )
        (pin passive line (at 7.62 -2.54 180) (length 2.54)
          (name "BP" (effects (font (size 1.27 1.27))))
          (number "4" (effects (font (size 1.27 1.27))))
        )
        (pin power_out line (at 7.62 2.54 180) (length 2.54)
          (name "OUT" (effects (font (size 1.27 1.27))))
          (number "5" (effects (font (size 1.27 1.27))))
        )
      )
    )
    (symbol "U-Minicircuits-BP2G+l-band-splitter:BP2G+" (in_bom yes) (on_board yes)
      (property "Reference" "U" (id 0) (at -6.35 10.16 0)
        (effects (font (size 1.27 1.27)))
      )
      (property "Value" "BP2G+" (id 1) (at 5.08 10.16 0)
        (effects (font (size 1.27 1.27)))
      )
      (property "Footprint" "" (id 2) (at 1.27 10.16 0)
        (effects (font (size 1.27 1.27)) hide)
      )
      (property "Datasheet" "https://www.minicircuits.com/pdfs/BP2G+.pdf" (id 3) (at 1.27 10.16 0)
        (effects (font (size 1.27 1.27)) hide)
      )
      (property "ki_description" "L-band power splitter/combiner" (id 4) (at 0 0 0)
        (effects (font (size 1.27 1.27)) hide)
      )
      (symbol "BP2G+_0_1"
        (rectangle (start -7.62 7.62) (end 7.62 -7.62)
          (stroke (width 0.254) (type default) (color 0 0 0 0))
          (fill (type none))
        )
      )
      (symbol "BP2G+_1_0"
        (pin power_in line (at 0 -10.16 90) (length 2.54)
          (name "GND" (effects (font (size 1.27 1.27))))
          (number "1" (effects (font (size 1.27 1.27))))
        )
        (pin input line (at -10.16 2.54 0) (length 2.54)
          (name "SUM" (effects (font (size 1.27 1.27))))
          (number "2" (effects (font (size 1.27 1.27))))
        )
        (pin passive line (at 0 -10.16 90) (length 2.54) hide
          (name "GND" (effects (font (size 1.27 1.27))))
          (number "3" (effects (font (size 1.27 1.27))))
        )
        (pin passive line (at 0 -10.16 90) (length 2.54) hide
          (name "GND" (effects (font (size 1.27 1.27))))
          (number "4" (effects (font (size 1.27 1.27))))
        )
        (pin output line (at 10.16 0 180) (length 2.54)
          (name "PORT2" (effects (font (size 1.27 1.27))))
          (number "5" (effects (font (size 1.27 1.27))))
        )
        (pin passive line (at 0 -10.16 90) (length 2.54) hide
          (name "GND" (effects (font (size 1.27 1.27))))
          (number "6" (effects (font (size 1.27 1.27))))
        )
        (pin passive line (at 0 -10.16 90) (length 2.54) hide
          (name "GND" (effects (font (size 1.27 1.27))))
          (number "7" (effects (font (size 1.27 1.27))))
        )
        (pin output line (at 10.16 5.08 180) (length 2.54)
          (name "PORT1" (effects (font (size 1.27 1.27))))
          (number "8" (effects (font (size 1.27 1.27))))
        )
      )
    )
    (symbol "U-Skyworks-SKY65723-81-gps-low-noise-amplifier-front-end:SKY65723-81" (in_bom yes) (on_board yes)
      (property "Reference" "U" (id 0) (at -5.08 11.43 0)
        (effects (font (size 1.27 1.27)))
      )
      (property "Value" "SKY65723-81" (id 1) (at -8.89 8.89 0)
        (effects (font (size 1.27 1.27)))
      )
      (property "Footprint" "oresat-footprints:U-Skyworks-SKY65723-81-gps-lna" (id 2) (at -2.54 12.7 0)
        (effects (font (size 1.27 1.27)) hide)
      )
      (property "Datasheet" "https://www.skyworksinc.com/-/media/SkyWorks/Documents/Products/2801-2900/SKY65723_81_203923G.pdf" (id 3) (at -2.54 12.7 0)
        (effects (font (size 1.27 1.27)) hide)
      )
      (property "ki_description" "GPS LNA" (id 4) (at 0 0 0)
        (effects (font (size 1.27 1.27)) hide)
      )
      (symbol "SKY65723-81_0_1"
        (rectangle (start -10.16 7.62) (end 10.16 -7.62)
          (stroke (width 0.254) (type default) (color 0 0 0 0))
          (fill (type none))
        )
      )
      (symbol "SKY65723-81_1_0"
        (pin power_in line (at 0 10.16 270) (length 2.54)
          (name "VCC" (effects (font (size 1.27 1.27))))
          (number "1" (effects (font (size 1.27 1.27))))
        )
        (pin input line (at 5.08 10.16 270) (length 2.54)
          (name "VEN" (effects (font (size 1.27 1.27))))
          (number "2" (effects (font (size 1.27 1.27))))
        )
        (pin input line (at -12.7 0 0) (length 2.54)
          (name "RF_IN" (effects (font (size 1.27 1.27))))
          (number "3" (effects (font (size 1.27 1.27))))
        )
        (pin output line (at 12.7 0 180) (length 2.54)
          (name "RF_OUT" (effects (font (size 1.27 1.27))))
          (number "6" (effects (font (size 1.27 1.27))))
        )
        (pin power_in line (at 0 -10.16 90) (length 2.54)
          (name "GND" (effects (font (size 1.27 1.27))))
          (number "7" (effects (font (size 1.27 1.27))))
        )
      )
    )
    (symbol "gps-power:2.85VA" (power) (in_bom no) (on_board no)
      (property "Reference" "#2V85A" (id 0) (at 0 5.08 0)
        (effects (font (size 1.27 1.27)) hide)
      )
      (property "Value" "2.85VA" (id 1) (at 0 5.08 0)
        (effects (font (size 1.27 1.27)))
      )
      (property "Footprint" "" (id 2) (at 0 5.08 0)
        (effects (font (size 1.27 1.27)) hide)
      )
      (property "Datasheet" "" (id 3) (at 0 5.08 0)
        (effects (font (size 1.27 1.27)) hide)
      )
      (symbol "2.85VA_0_1"
        (polyline
          (pts
            (xy -0.762 1.27)
            (xy 0 2.54)
          )
          (stroke (width 0) (type default) (color 0 0 0 0))
          (fill (type none))
        )
        (polyline
          (pts
            (xy 0 0)
            (xy 0 2.54)
          )
          (stroke (width 0) (type default) (color 0 0 0 0))
          (fill (type none))
        )
        (polyline
          (pts
            (xy 0 2.54)
            (xy 0.762 1.27)
          )
          (stroke (width 0) (type default) (color 0 0 0 0))
          (fill (type none))
        )
      )
      (symbol "2.85VA_1_1"
        (pin power_in line (at 0 0 90) (length 2.54) hide
          (name "2.85VA" (effects (font (size 1.27 1.27))))
          (number "1" (effects (font (size 1.27 1.27))))
        )
      )
    )
    (symbol "gps-power:2.85VD" (power) (in_bom no) (on_board no)
      (property "Reference" "#2V85D" (id 0) (at 0 5.08 0)
        (effects (font (size 1.27 1.27)) hide)
      )
      (property "Value" "2.85VD" (id 1) (at 0 5.08 0)
        (effects (font (size 1.27 1.27)))
      )
      (property "Footprint" "" (id 2) (at 0 5.08 0)
        (effects (font (size 1.27 1.27)) hide)
      )
      (property "Datasheet" "" (id 3) (at 0 5.08 0)
        (effects (font (size 1.27 1.27)) hide)
      )
      (symbol "2.85VD_0_1"
        (polyline
          (pts
            (xy -0.762 1.27)
            (xy 0 2.54)
          )
          (stroke (width 0) (type default) (color 0 0 0 0))
          (fill (type none))
        )
        (polyline
          (pts
            (xy 0 0)
            (xy 0 2.54)
          )
          (stroke (width 0) (type default) (color 0 0 0 0))
          (fill (type none))
        )
        (polyline
          (pts
            (xy 0 2.54)
            (xy 0.762 1.27)
          )
          (stroke (width 0) (type default) (color 0 0 0 0))
          (fill (type none))
        )
      )
      (symbol "2.85VD_1_1"
        (pin power_in line (at 0 0 90) (length 2.54) hide
          (name "2.85VD" (effects (font (size 1.27 1.27))))
          (number "1" (effects (font (size 1.27 1.27))))
        )
      )
    )
    (symbol "gps-power:3.3V-S" (power) (in_bom no) (on_board no)
      (property "Reference" "#3V3-S" (id 0) (at 0 5.08 0)
        (effects (font (size 1.27 1.27)) hide)
      )
      (property "Value" "3.3V-S" (id 1) (at 0 5.08 0)
        (effects (font (size 1.27 1.27)))
      )
      (property "Footprint" "" (id 2) (at 0 5.08 0)
        (effects (font (size 1.27 1.27)) hide)
      )
      (property "Datasheet" "" (id 3) (at 0 5.08 0)
        (effects (font (size 1.27 1.27)) hide)
      )
      (symbol "3.3V-S_0_1"
        (polyline
          (pts
            (xy -0.762 1.27)
            (xy 0 2.54)
          )
          (stroke (width 0) (type default) (color 0 0 0 0))
          (fill (type none))
        )
        (polyline
          (pts
            (xy 0 0)
            (xy 0 2.54)
          )
          (stroke (width 0) (type default) (color 0 0 0 0))
          (fill (type none))
        )
        (polyline
          (pts
            (xy 0 2.54)
            (xy 0.762 1.27)
          )
          (stroke (width 0) (type default) (color 0 0 0 0))
          (fill (type none))
        )
      )
      (symbol "3.3V-S_1_1"
        (pin power_in line (at 0 0 90) (length 2.54) hide
          (name "3.3V-S" (effects (font (size 1.27 1.27))))
          (number "1" (effects (font (size 1.27 1.27))))
        )
      )
    )
  )

  (junction (at 279.4 104.14) (diameter 0) (color 0 0 0 0)
    (uuid 02847784-ec25-494d-8bb4-bc1cfc7d7fbe)
  )
  (junction (at 335.28 149.86) (diameter 0) (color 0 0 0 0)
    (uuid 03269293-410b-4ac9-9e57-a3d563dcb7b5)
  )
  (junction (at 274.32 104.14) (diameter 0) (color 0 0 0 0)
    (uuid 03be9483-74f6-4292-ae4b-025eab053959)
  )
  (junction (at 279.4 149.86) (diameter 0) (color 0 0 0 0)
    (uuid 086bf90f-d5f3-4706-bb2a-7ece7dc9334d)
  )
  (junction (at 314.96 73.66) (diameter 0) (color 0 0 0 0)
    (uuid 122b0690-37e5-47b4-845f-cf97329ec239)
  )
  (junction (at 345.44 73.66) (diameter 0) (color 0 0 0 0)
    (uuid 144974b9-e78e-4d7b-8263-eb7e1169bc98)
  )
  (junction (at 274.32 73.66) (diameter 0) (color 0 0 0 0)
    (uuid 1ec2147a-4b2b-4169-a120-83cafa216b58)
  )
  (junction (at 335.28 73.66) (diameter 0) (color 0 0 0 0)
    (uuid 276da4aa-8dcc-410d-ab66-54707d700423)
  )
  (junction (at 314.96 104.14) (diameter 0) (color 0 0 0 0)
    (uuid 36119f98-836c-4ee2-b424-4083255e1305)
  )
  (junction (at 335.28 104.14) (diameter 0) (color 0 0 0 0)
    (uuid 4bb6d70c-82d2-4e52-9afc-62257a7970cf)
  )
  (junction (at 314.96 149.86) (diameter 0) (color 0 0 0 0)
    (uuid 6910693b-92d9-43c5-b9b6-7c5f9e40c502)
  )
  (junction (at 289.56 109.22) (diameter 0) (color 0 0 0 0)
    (uuid 7e7757a3-113a-4379-9f9f-d8ed1078ec75)
  )
  (junction (at 279.4 73.66) (diameter 0) (color 0 0 0 0)
    (uuid 92cfe407-2e08-4191-b5f5-fa677203158a)
  )
  (junction (at 93.98 78.74) (diameter 0) (color 0 0 0 0)
    (uuid 952f65ce-c9b5-4b43-96ee-27d29bb111ef)
  )
  (junction (at 325.12 104.14) (diameter 0) (color 0 0 0 0)
    (uuid 9bc0e0d7-9359-4e27-8142-e971085069c1)
  )
  (junction (at 345.44 104.14) (diameter 0) (color 0 0 0 0)
    (uuid a30be896-f7d5-4ab1-a620-8ee637def2bd)
  )
  (junction (at 325.12 73.66) (diameter 0) (color 0 0 0 0)
    (uuid bc8f9862-127d-4ac3-b185-cd08631a63ce)
  )
  (junction (at 289.56 121.92) (diameter 0) (color 0 0 0 0)
    (uuid dc104b6b-6d6c-4be9-9470-61037df867c2)
  )
  (junction (at 345.44 149.86) (diameter 0) (color 0 0 0 0)
    (uuid ed54e958-dfe4-4042-81c0-7e600a9a049a)
  )
  (junction (at 325.12 149.86) (diameter 0) (color 0 0 0 0)
    (uuid f21d8618-c1bf-4575-b2d3-64773643c739)
  )
  (junction (at 289.56 167.64) (diameter 0) (color 0 0 0 0)
    (uuid fe88c5a6-eccb-4215-b46e-ba5a399b2f6a)
  )

  (wire (pts (xy 279.4 104.14) (xy 274.32 104.14))
    (stroke (width 0) (type default) (color 0 0 0 0))
    (uuid 005cf6b7-9db4-4820-b89d-dd21a6619c64)
  )
  (wire (pts (xy 269.24 121.92) (xy 289.56 121.92))
    (stroke (width 0) (type default) (color 0 0 0 0))
    (uuid 035b4d5b-44d7-439c-ae58-a3185b4c74a5)
  )
  (wire (pts (xy 274.32 73.66) (xy 274.32 71.12))
    (stroke (width 0) (type default) (color 0 0 0 0))
    (uuid 04bf2156-ad24-40ad-89bf-71eedf394998)
  )
  (wire (pts (xy 93.98 76.2) (xy 93.98 78.74))
    (stroke (width 0) (type default) (color 0 0 0 0))
    (uuid 04c36d5c-af9a-4d31-8f85-599e47e1f704)
  )
  (wire (pts (xy 93.98 78.74) (xy 99.06 78.74))
    (stroke (width 0) (type default) (color 0 0 0 0))
    (uuid 069e2226-ac4d-4b20-ac25-ff1cef1fc0fb)
  )
  (polyline (pts (xy 129.54 137.16) (xy 172.72 137.16))
    (stroke (width 0) (type default) (color 0 0 0 0))
    (uuid 0b011593-8803-4a58-a1cc-14ce826f23b1)
  )

  (wire (pts (xy 279.4 73.66) (xy 274.32 73.66))
    (stroke (width 0) (type default) (color 0 0 0 0))
    (uuid 104f05d3-f6e5-44ee-b79f-6a567348599f)
  )
  (wire (pts (xy 279.4 111.76) (xy 279.4 116.84))
    (stroke (width 0) (type default) (color 0 0 0 0))
    (uuid 171caa5b-520f-456e-8970-c8cb9b7e445f)
  )
  (wire (pts (xy 81.28 101.6) (xy 86.36 101.6))
    (stroke (width 0) (type default) (color 0 0 0 0))
    (uuid 18486bc4-4b0a-4250-aa78-217cc8be9756)
  )
  (wire (pts (xy 274.32 104.14) (xy 274.32 149.86))
    (stroke (width 0) (type default) (color 0 0 0 0))
    (uuid 1f4555c0-1435-4782-98d0-d4343d691a15)
  )
  (wire (pts (xy 104.14 76.2) (xy 104.14 81.28))
    (stroke (width 0) (type default) (color 0 0 0 0))
    (uuid 1fb05987-26f0-474c-84f7-d82510dd2b50)
  )
  (wire (pts (xy 289.56 154.94) (xy 289.56 167.64))
    (stroke (width 0) (type default) (color 0 0 0 0))
    (uuid 2126f3f6-3745-436f-8938-20d69a928544)
  )
  (wire (pts (xy 350.52 149.86) (xy 350.52 147.32))
    (stroke (width 0) (type default) (color 0 0 0 0))
    (uuid 234c0ba5-f086-45e2-82c2-b965ab70ce29)
  )
  (wire (pts (xy 325.12 78.74) (xy 325.12 86.36))
    (stroke (width 0) (type default) (color 0 0 0 0))
    (uuid 239b8886-a936-457e-8737-893c1973f312)
  )
  (wire (pts (xy 294.64 154.94) (xy 289.56 154.94))
    (stroke (width 0) (type default) (color 0 0 0 0))
    (uuid 2bcaa980-5aae-4b6b-baec-cf9699c538c3)
  )
  (wire (pts (xy 142.24 114.3) (xy 142.24 116.84))
    (stroke (width 0) (type default) (color 0 0 0 0))
    (uuid 3075050f-4357-4904-9bf6-a9f019a82202)
  )
  (wire (pts (xy 335.28 73.66) (xy 345.44 73.66))
    (stroke (width 0) (type default) (color 0 0 0 0))
    (uuid 32920421-d41d-4e2e-9305-5945bc06b5df)
  )
  (wire (pts (xy 335.28 78.74) (xy 335.28 86.36))
    (stroke (width 0) (type default) (color 0 0 0 0))
    (uuid 32dde3ea-2029-456e-a6f2-848218c89da6)
  )
  (wire (pts (xy 302.26 83.82) (xy 302.26 86.36))
    (stroke (width 0) (type default) (color 0 0 0 0))
    (uuid 36658b81-be6a-4e48-a81c-6addd60f4e14)
  )
  (wire (pts (xy 309.88 109.22) (xy 314.96 109.22))
    (stroke (width 0) (type default) (color 0 0 0 0))
    (uuid 3677ba2f-d766-415a-88c1-a5a1abb0938e)
  )
  (wire (pts (xy 83.82 86.36) (xy 83.82 88.9))
    (stroke (width 0) (type default) (color 0 0 0 0))
    (uuid 3ac7de13-3b6e-4c00-9fe2-517b4b1eecb7)
  )
  (polyline (pts (xy 60.96 68.58) (xy 172.72 68.58))
    (stroke (width 0) (type default) (color 0 0 0 0))
    (uuid 3cb99240-5412-45e9-a0ca-96d8a6db59cd)
  )

  (wire (pts (xy 309.88 104.14) (xy 314.96 104.14))
    (stroke (width 0) (type default) (color 0 0 0 0))
    (uuid 3cdb3320-6e4b-4dec-9cc5-5396062a849a)
  )
  (wire (pts (xy 314.96 149.86) (xy 325.12 149.86))
    (stroke (width 0) (type default) (color 0 0 0 0))
    (uuid 417355eb-8508-49f8-84d7-70c84eab0ef7)
  )
  (wire (pts (xy 350.52 73.66) (xy 350.52 71.12))
    (stroke (width 0) (type default) (color 0 0 0 0))
    (uuid 4209152f-9a54-47f9-b88c-a9edf7bb6875)
  )
  (polyline (pts (xy 99.06 137.16) (xy 60.96 137.16))
    (stroke (width 0) (type default) (color 0 0 0 0))
    (uuid 47af3804-6ea5-4a50-b266-37ab45ccaa95)
  )

  (wire (pts (xy 152.4 99.06) (xy 157.48 99.06))
    (stroke (width 0) (type default) (color 0 0 0 0))
    (uuid 480738d0-7c55-4761-8d31-71506067e8b7)
  )
  (wire (pts (xy 309.88 154.94) (xy 314.96 154.94))
    (stroke (width 0) (type default) (color 0 0 0 0))
    (uuid 4937b041-5536-4190-bc61-9375a5fffcdd)
  )
  (wire (pts (xy 279.4 149.86) (xy 274.32 149.86))
    (stroke (width 0) (type default) (color 0 0 0 0))
    (uuid 4f291002-d573-4dbe-a5ad-5f1b1c6872d4)
  )
  (wire (pts (xy 294.64 109.22) (xy 289.56 109.22))
    (stroke (width 0) (type default) (color 0 0 0 0))
    (uuid 552c87c9-ea5c-443a-ab68-da03093209ee)
  )
  (wire (pts (xy 314.96 104.14) (xy 325.12 104.14))
    (stroke (width 0) (type default) (color 0 0 0 0))
    (uuid 557cf465-9206-4c7d-9440-b180a56c5c61)
  )
  (wire (pts (xy 335.28 109.22) (xy 335.28 116.84))
    (stroke (width 0) (type default) (color 0 0 0 0))
    (uuid 5a11c8a4-5c35-4400-b4aa-adc9b5503eed)
  )
  (polyline (pts (xy 60.96 137.16) (xy 60.96 68.58))
    (stroke (width 0) (type default) (color 0 0 0 0))
    (uuid 606c7f51-cf6f-47e7-8c79-37f2e5460059)
  )

  (wire (pts (xy 114.3 147.32) (xy 114.3 149.86))
    (stroke (width 0) (type default) (color 0 0 0 0))
    (uuid 60776530-f40a-40d2-a957-163117cad1be)
  )
  (wire (pts (xy 325.12 109.22) (xy 325.12 116.84))
    (stroke (width 0) (type default) (color 0 0 0 0))
    (uuid 610781b5-7cf2-4966-81c2-bcefee04563a)
  )
  (wire (pts (xy 104.14 86.36) (xy 104.14 91.44))
    (stroke (width 0) (type default) (color 0 0 0 0))
    (uuid 6157851e-b52a-47e3-ba9d-04f95c92b8c5)
  )
  (wire (pts (xy 93.98 78.74) (xy 93.98 81.28))
    (stroke (width 0) (type default) (color 0 0 0 0))
    (uuid 6447a1d6-d279-440e-adfd-80acf6793d56)
  )
  (wire (pts (xy 279.4 157.48) (xy 279.4 162.56))
    (stroke (width 0) (type default) (color 0 0 0 0))
    (uuid 65885a5f-66af-4d0e-83e1-5af50c612570)
  )
  (wire (pts (xy 289.56 121.92) (xy 289.56 124.46))
    (stroke (width 0) (type default) (color 0 0 0 0))
    (uuid 6c5622ff-128c-426c-9fa3-f5f7607833a2)
  )
  (wire (pts (xy 325.12 104.14) (xy 335.28 104.14))
    (stroke (width 0) (type default) (color 0 0 0 0))
    (uuid 74c5bfd2-f341-40e4-8a1d-294a66f245ea)
  )
  (wire (pts (xy 345.44 104.14) (xy 350.52 104.14))
    (stroke (width 0) (type default) (color 0 0 0 0))
    (uuid 75cc0207-3489-4266-bab5-7de2852c353d)
  )
  (wire (pts (xy 83.82 81.28) (xy 83.82 78.74))
    (stroke (width 0) (type default) (color 0 0 0 0))
    (uuid 778a5589-db9c-4b94-b291-d6a48aa1c24c)
  )
  (wire (pts (xy 345.44 73.66) (xy 350.52 73.66))
    (stroke (width 0) (type default) (color 0 0 0 0))
    (uuid 79ddb89b-da8d-4ce0-9350-36fa957e1f2d)
  )
  (wire (pts (xy 279.4 73.66) (xy 294.64 73.66))
    (stroke (width 0) (type default) (color 0 0 0 0))
    (uuid 7e0fb54b-709b-4aa5-83e1-562ad31b2322)
  )
  (wire (pts (xy 350.52 104.14) (xy 350.52 101.6))
    (stroke (width 0) (type default) (color 0 0 0 0))
    (uuid 84281355-c215-45b2-bd7a-4da26c109369)
  )
  (wire (pts (xy 274.32 73.66) (xy 274.32 104.14))
    (stroke (width 0) (type default) (color 0 0 0 0))
    (uuid 89687cfd-4980-4ad0-862b-f4cbc779a3f8)
  )
  (wire (pts (xy 335.28 154.94) (xy 335.28 162.56))
    (stroke (width 0) (type default) (color 0 0 0 0))
    (uuid 8dac5755-9604-4be2-bf2b-7f647b6b53c2)
  )
  (wire (pts (xy 99.06 111.76) (xy 99.06 114.3))
    (stroke (width 0) (type default) (color 0 0 0 0))
    (uuid 97fbf5a0-544c-480a-95d8-24f5b3034c01)
  )
  (wire (pts (xy 289.56 109.22) (xy 289.56 121.92))
    (stroke (width 0) (type default) (color 0 0 0 0))
    (uuid 98390dbc-ae98-49f8-85b4-439324194f4b)
  )
  (wire (pts (xy 279.4 81.28) (xy 279.4 86.36))
    (stroke (width 0) (type default) (color 0 0 0 0))
    (uuid 987e367b-993d-47ba-877d-3b5c0b3d4f9d)
  )
  (wire (pts (xy 279.4 76.2) (xy 279.4 73.66))
    (stroke (width 0) (type default) (color 0 0 0 0))
    (uuid 9ced7ee9-3404-4e7c-9816-7749d434a213)
  )
  (wire (pts (xy 345.44 149.86) (xy 350.52 149.86))
    (stroke (width 0) (type default) (color 0 0 0 0))
    (uuid 9e76cd5e-29cf-452d-b0a2-750bcfdaa96d)
  )
  (wire (pts (xy 279.4 104.14) (xy 294.64 104.14))
    (stroke (width 0) (type default) (color 0 0 0 0))
    (uuid a07d04e2-9105-44d0-bf52-7630c8ff1de6)
  )
  (polyline (pts (xy 172.72 68.58) (xy 172.72 137.16))
    (stroke (width 0) (type dash) (color 0 0 0 0))
    (uuid a08f4809-ff92-44f3-90fd-6e058eadb9c2)
  )

  (wire (pts (xy 83.82 78.74) (xy 93.98 78.74))
    (stroke (width 0) (type default) (color 0 0 0 0))
    (uuid a189663f-2b4c-40ff-a0ef-9beda216f0a0)
  )
  (wire (pts (xy 279.4 152.4) (xy 279.4 149.86))
    (stroke (width 0) (type default) (color 0 0 0 0))
    (uuid a82d0dbc-9889-48a6-8211-b99bf31cabe4)
  )
  (wire (pts (xy 269.24 167.64) (xy 289.56 167.64))
    (stroke (width 0) (type default) (color 0 0 0 0))
    (uuid a8eba1ae-6301-40a7-aa2d-9f4d380f9c1c)
  )
  (wire (pts (xy 279.4 106.68) (xy 279.4 104.14))
    (stroke (width 0) (type default) (color 0 0 0 0))
    (uuid b02d35a5-51bf-48c3-b87d-f4bcba9eda16)
  )
  (wire (pts (xy 309.88 78.74) (xy 314.96 78.74))
    (stroke (width 0) (type default) (color 0 0 0 0))
    (uuid b4610d74-7d0e-4200-ae56-7d5969a9f164)
  )
  (wire (pts (xy 302.26 160.02) (xy 302.26 162.56))
    (stroke (width 0) (type default) (color 0 0 0 0))
    (uuid b811d778-ff4c-4857-baee-531d521c9b12)
  )
  (wire (pts (xy 93.98 86.36) (xy 93.98 88.9))
    (stroke (width 0) (type default) (color 0 0 0 0))
    (uuid b87fd636-bf46-4c83-a948-324aedd95f81)
  )
  (wire (pts (xy 289.56 109.22) (xy 289.56 78.74))
    (stroke (width 0) (type default) (color 0 0 0 0))
    (uuid c9b83846-c82d-4b78-ad3b-b970a1394f62)
  )
  (wire (pts (xy 325.12 149.86) (xy 335.28 149.86))
    (stroke (width 0) (type default) (color 0 0 0 0))
    (uuid d000eb1d-1755-4bfe-9f3e-086976cb58ab)
  )
  (wire (pts (xy 279.4 149.86) (xy 294.64 149.86))
    (stroke (width 0) (type default) (color 0 0 0 0))
    (uuid d0217fe4-ba61-4253-a2f7-4a29ba3cd929)
  )
  (wire (pts (xy 309.88 73.66) (xy 314.96 73.66))
    (stroke (width 0) (type default) (color 0 0 0 0))
    (uuid d0a5db26-5cbe-4e63-bae2-33f2e53ee16a)
  )
  (wire (pts (xy 302.26 114.3) (xy 302.26 116.84))
    (stroke (width 0) (type default) (color 0 0 0 0))
    (uuid d63a8246-7e53-4007-8fad-67069a3bc860)
  )
  (wire (pts (xy 289.56 175.26) (xy 289.56 177.8))
    (stroke (width 0) (type default) (color 0 0 0 0))
    (uuid d7b59ba3-8f3c-4147-b070-cf11a5587925)
  )
  (wire (pts (xy 111.76 101.6) (xy 132.08 101.6))
    (stroke (width 0) (type default) (color 0 0 0 0))
    (uuid d7e34e96-49dc-40ce-ae05-cadb2616e854)
  )
  (wire (pts (xy 289.56 170.18) (xy 289.56 167.64))
    (stroke (width 0) (type default) (color 0 0 0 0))
    (uuid dece106a-5322-4144-ac02-1182c1ad9905)
  )
  (wire (pts (xy 335.28 149.86) (xy 345.44 149.86))
    (stroke (width 0) (type default) (color 0 0 0 0))
    (uuid df5f5b15-a600-430e-9895-a5b8afc1b17d)
  )
  (wire (pts (xy 325.12 73.66) (xy 335.28 73.66))
    (stroke (width 0) (type default) (color 0 0 0 0))
    (uuid e06ba80d-0943-4bca-86ec-3f26c6df1d26)
  )
  (wire (pts (xy 289.56 78.74) (xy 294.64 78.74))
    (stroke (width 0) (type default) (color 0 0 0 0))
    (uuid e255138e-2d9a-4059-bb0c-f15f7989aeb3)
  )
  (wire (pts (xy 325.12 154.94) (xy 325.12 162.56))
    (stroke (width 0) (type default) (color 0 0 0 0))
    (uuid e45efc8d-ea36-4e9d-8b51-980b479f16b9)
  )
  (wire (pts (xy 99.06 78.74) (xy 99.06 91.44))
    (stroke (width 0) (type default) (color 0 0 0 0))
    (uuid e9b301c1-502a-4721-abbe-cf0ccfadcb77)
  )
  (wire (pts (xy 309.88 149.86) (xy 314.96 149.86))
    (stroke (width 0) (type default) (color 0 0 0 0))
    (uuid f1596df8-d5e8-41f9-a2cd-cf033cf874bd)
  )
  (wire (pts (xy 314.96 73.66) (xy 325.12 73.66))
    (stroke (width 0) (type default) (color 0 0 0 0))
    (uuid f19c8659-d4e1-4ca8-825d-1e0fa7f98268)
  )
  (wire (pts (xy 152.4 104.14) (xy 157.48 104.14))
    (stroke (width 0) (type default) (color 0 0 0 0))
    (uuid f964e6e7-234e-48ba-bd48-b5e250fbb775)
  )
  (wire (pts (xy 289.56 129.54) (xy 289.56 132.08))
    (stroke (width 0) (type default) (color 0 0 0 0))
    (uuid fa1d6650-83ec-41c0-b1a5-342df3a3df67)
  )
  (wire (pts (xy 335.28 104.14) (xy 345.44 104.14))
    (stroke (width 0) (type default) (color 0 0 0 0))
    (uuid fbc41bb7-5b91-4b87-ad08-baba34571b50)
  )

  (text "3.3V supply for SkyTraq" (at 292.1 142.24 0)
    (effects (font (size 1.27 1.27)) (justify left bottom))
    (uuid 2ef310a3-8556-4ae8-9da1-d7c8394f4c77)
  )
  (text "2.85V digital supply for MAX2771" (at 287.02 66.04 0)
    (effects (font (size 1.27 1.27)) (justify left bottom))
    (uuid b15d4513-2136-4a3a-ac0a-7d450a3adae6)
  )
  (text "2.85V analog supply for MAX2771" (at 287.02 96.52 0)
    (effects (font (size 1.27 1.27)) (justify left bottom))
    (uuid cc84be2d-fd0f-4995-aaa6-736d620b3585)
  )

  (label "RF-OUT" (at 116.84 101.6 0)
    (effects (font (size 1.27 1.27)) (justify left bottom))
    (uuid f496991f-bdd4-49c2-854f-d4b09e2fb0b9)
  )

  (global_label "MAX-RF" (shape input) (at 157.48 104.14 0) (fields_autoplaced)
    (effects (font (size 1.27 1.27)) (justify left))
    (uuid 408e648d-9bce-45fb-96e1-04e5087051c0)
    (property "Intersheet References" "${INTERSHEET_REFS}" (id 0) (at 167.5736 104.0606 0)
      (effects (font (size 1.27 1.27)) (justify left) hide)
    )
  )
  (global_label "RF-IN" (shape input) (at 81.28 101.6 180) (fields_autoplaced)
    (effects (font (size 1.27 1.27)) (justify right))
    (uuid 623ff611-1d99-4c99-bb0f-1dc8c9d92ef7)
    (property "Intersheet References" "${INTERSHEET_REFS}" (id 0) (at 73.0007 101.5206 0)
      (effects (font (size 1.27 1.27)) (justify right) hide)
    )
  )
  (global_label "STQ-RF" (shape input) (at 157.48 99.06 0) (fields_autoplaced)
    (effects (font (size 1.27 1.27)) (justify left))
    (uuid 6f59f08b-5906-4f46-9f47-d29bf902e91d)
    (property "Intersheet References" "${INTERSHEET_REFS}" (id 0) (at 167.3317 98.9806 0)
      (effects (font (size 1.27 1.27)) (justify left) hide)
    )
  )
  (global_label "STQ-EN" (shape input) (at 269.24 167.64 180) (fields_autoplaced)
    (effects (font (size 1.27 1.27)) (justify right))
    (uuid 7b863488-b78c-43f5-92bc-40797ea94347)
    (property "Intersheet References" "${INTERSHEET_REFS}" (id 0) (at 259.2674 167.5606 0)
      (effects (font (size 1.27 1.27)) (justify right) hide)
    )
  )
  (global_label "MAX-EN" (shape input) (at 269.24 121.92 180) (fields_autoplaced)
    (effects (font (size 1.27 1.27)) (justify right))
    (uuid b65934da-dbc0-45ce-a926-3bcdd420b221)
    (property "Intersheet References" "${INTERSHEET_REFS}" (id 0) (at 259.0255 121.8406 0)
      (effects (font (size 1.27 1.27)) (justify right) hide)
    )
  )

  (symbol (lib_id "OreSat-Power:GND") (at 325.12 162.56 0) (unit 1)
    (in_bom yes) (on_board yes)
    (uuid 0478145b-6679-4857-a49e-aa273a94ba40)
    (property "Reference" "#GND0179" (id 0) (at 325.12 168.91 0)
      (effects (font (size 1.27 1.27)) hide)
    )
    (property "Value" "GND" (id 1) (at 325.12 166.37 0))
    (property "Footprint" "" (id 2) (at 325.12 162.56 0)
      (effects (font (size 1.27 1.27)) hide)
    )
    (property "Datasheet" "" (id 3) (at 325.12 162.56 0)
      (effects (font (size 1.27 1.27)) hide)
    )
    (pin "1" (uuid db7a947c-0436-4e36-8ba6-4fec682c6281))
  )

  (symbol (lib_id "U-Minicircuits-BP2G+l-band-splitter:BP2G+") (at 142.24 104.14 0) (unit 1)
    (in_bom yes) (on_board yes) (fields_autoplaced)
    (uuid 04b5f818-877d-4726-975e-c2a55eec720d)
    (property "Reference" "U16" (id 0) (at 142.24 91.44 0))
    (property "Value" "BP2G+" (id 1) (at 142.24 93.98 0))
    (property "Footprint" "oresat-footprints:U-Minicircuits-BP2G+" (id 2) (at 143.51 93.98 0)
      (effects (font (size 1.27 1.27)) hide)
    )
    (property "Datasheet" "https://www.minicircuits.com/pdfs/BP2G+.pdf" (id 3) (at 143.51 93.98 0)
      (effects (font (size 1.27 1.27)) hide)
    )
    (pin "1" (uuid c95aebce-5261-4a10-8378-1c7723b4fb1d))
    (pin "2" (uuid 927aaf2d-e697-4552-b9c4-03cd35668344))
    (pin "3" (uuid 7b196534-7d75-4ef4-b8a0-9546c4d1c9c0))
    (pin "4" (uuid a1437697-4d7e-4157-812f-939f6d395d33))
    (pin "5" (uuid be8d63fc-7866-47f0-a4e1-9288418247fd))
    (pin "6" (uuid 89483100-c51e-4d1d-bb95-443c349351a0))
    (pin "7" (uuid eb8005f3-9ff9-4ad1-991a-f1a890b6bbe0))
    (pin "8" (uuid eae173a3-de94-4270-a366-c56e272d3140))
  )

  (symbol (lib_id "Device:C_Small") (at 314.96 76.2 0) (unit 1)
    (in_bom yes) (on_board yes) (fields_autoplaced)
    (uuid 057393e9-2ca6-481b-b07a-36130c006b11)
    (property "Reference" "C42" (id 0) (at 317.5 74.9362 0)
      (effects (font (size 1.27 1.27)) (justify left))
    )
    (property "Value" "10n" (id 1) (at 317.5 77.4762 0)
      (effects (font (size 1.27 1.27)) (justify left))
    )
    (property "Footprint" "Capacitor_SMD:C_0603_1608Metric" (id 2) (at 314.96 76.2 0)
      (effects (font (size 1.27 1.27)) hide)
    )
    (property "Datasheet" "~" (id 3) (at 314.96 76.2 0)
      (effects (font (size 1.27 1.27)) hide)
    )
    (pin "1" (uuid 42aab798-c073-492b-9964-68173cb3271f))
    (pin "2" (uuid 6a72c4bc-2371-4644-8c24-595164b37064))
  )

  (symbol (lib_id "gps-power:2.85VD") (at 350.52 71.12 0) (unit 1)
    (in_bom no) (on_board no) (fields_autoplaced)
    (uuid 0a493db4-a18f-44a1-b740-e09947ffba75)
    (property "Reference" "#2V85D0106" (id 0) (at 350.52 66.04 0)
      (effects (font (size 1.27 1.27)) hide)
    )
    (property "Value" "2.85VD" (id 1) (at 350.52 66.04 0))
    (property "Footprint" "" (id 2) (at 350.52 66.04 0)
      (effects (font (size 1.27 1.27)) hide)
    )
    (property "Datasheet" "" (id 3) (at 350.52 66.04 0)
      (effects (font (size 1.27 1.27)) hide)
    )
    (pin "1" (uuid a15c1bf0-e2bc-478f-b542-4acf0d14a158))
  )

  (symbol (lib_id "OreSat-Power:GND") (at 83.82 88.9 0) (unit 1)
    (in_bom yes) (on_board yes) (fields_autoplaced)
    (uuid 0d64dbf1-c2a7-4d86-9378-7f6fab0d8a32)
    (property "Reference" "#GND0169" (id 0) (at 83.82 95.25 0)
      (effects (font (size 1.27 1.27)) hide)
    )
    (property "Value" "GND" (id 1) (at 83.82 92.71 0))
    (property "Footprint" "" (id 2) (at 83.82 88.9 0)
      (effects (font (size 1.27 1.27)) hide)
    )
    (property "Datasheet" "" (id 3) (at 83.82 88.9 0)
      (effects (font (size 1.27 1.27)) hide)
    )
    (pin "1" (uuid 7a92f191-c5a9-461f-bb37-d65be803668f))
  )

  (symbol (lib_id "U-Maxim-MAX8510EXK29+T-low-noise-LDO-2v85:MAX8510EXK29+T") (at 302.26 106.68 0) (unit 1)
    (in_bom yes) (on_board yes)
    (uuid 195996a5-cef7-4992-a52c-a3c3d302a050)
    (property "Reference" "U18" (id 0) (at 294.64 101.6 0))
    (property "Value" "MAX8510EXK29+T" (id 1) (at 302.26 99.06 0))
    (property "Footprint" "Package_TO_SOT_SMD:SOT-353_SC-70-5" (id 2) (at 302.26 96.52 0)
      (effects (font (size 1.27 1.27)) hide)
    )
    (property "Datasheet" "https://datasheets.maximintegrated.com/en/ds/MAX8510-MAX8512.pdf" (id 3) (at 302.26 96.52 0)
      (effects (font (size 1.27 1.27)) hide)
    )
    (pin "1" (uuid c30a0004-06ee-44b5-8671-1fcc07d48dbf))
    (pin "2" (uuid 4022e85e-d38c-4619-b1cd-5f67c6e39aa8))
    (pin "3" (uuid 03adabbd-4f6c-426f-a278-eb52c3d77d70))
    (pin "4" (uuid 643e115d-992e-4a30-9ed1-77b2c255061a))
    (pin "5" (uuid f29403b2-dac3-4b77-87b1-2a3038a3ceb8))
  )

  (symbol (lib_id "Device:R_Small_US") (at 104.14 83.82 0) (unit 1)
    (in_bom yes) (on_board yes) (fields_autoplaced)
    (uuid 1c393f02-d82b-4354-bd16-080cd90d2cc2)
    (property "Reference" "R58" (id 0) (at 106.68 82.5499 0)
      (effects (font (size 1.27 1.27)) (justify left))
    )
    (property "Value" "10k" (id 1) (at 106.68 85.0899 0)
      (effects (font (size 1.27 1.27)) (justify left))
    )
    (property "Footprint" "Resistor_SMD:R_0402_1005Metric" (id 2) (at 104.14 83.82 0)
      (effects (font (size 1.27 1.27)) hide)
    )
    (property "Datasheet" "~" (id 3) (at 104.14 83.82 0)
      (effects (font (size 1.27 1.27)) hide)
    )
    (pin "1" (uuid d479688a-f511-4b24-8b2a-d6b0bc8a0615))
    (pin "2" (uuid e975224e-2211-4c54-9e45-c6e320814355))
  )

  (symbol (lib_id "OreSat-Power:GND") (at 99.06 114.3 0) (unit 1)
    (in_bom yes) (on_board yes) (fields_autoplaced)
    (uuid 1cefe8a1-72ee-416a-af28-c8d96bbf337c)
    (property "Reference" "#GND0167" (id 0) (at 99.06 120.65 0)
      (effects (font (size 1.27 1.27)) hide)
    )
    (property "Value" "GND" (id 1) (at 99.06 118.11 0))
    (property "Footprint" "" (id 2) (at 99.06 114.3 0)
      (effects (font (size 1.27 1.27)) hide)
    )
    (property "Datasheet" "" (id 3) (at 99.06 114.3 0)
      (effects (font (size 1.27 1.27)) hide)
    )
    (pin "1" (uuid 211d28e5-1a22-4d7b-92df-efbfb0f7b6f4))
  )

  (symbol (lib_id "OreSat-Power:GND") (at 142.24 116.84 0) (unit 1)
    (in_bom yes) (on_board yes) (fields_autoplaced)
    (uuid 2253cd79-bf26-4ac1-bbf0-5c81b9a9bf5c)
    (property "Reference" "#GND0185" (id 0) (at 142.24 123.19 0)
      (effects (font (size 1.27 1.27)) hide)
    )
    (property "Value" "GND" (id 1) (at 142.24 120.65 0))
    (property "Footprint" "" (id 2) (at 142.24 116.84 0)
      (effects (font (size 1.27 1.27)) hide)
    )
    (property "Datasheet" "" (id 3) (at 142.24 116.84 0)
      (effects (font (size 1.27 1.27)) hide)
    )
    (pin "1" (uuid f20a95bc-bfae-4078-bca3-6e77bdd3e3b7))
  )

  (symbol (lib_id "Device:C_Small") (at 335.28 106.68 0) (unit 1)
    (in_bom yes) (on_board yes) (fields_autoplaced)
    (uuid 24740028-a344-49db-b3eb-2e973b2b83a7)
    (property "Reference" "C49" (id 0) (at 337.82 105.4162 0)
      (effects (font (size 1.27 1.27)) (justify left))
    )
    (property "Value" "1u" (id 1) (at 337.82 107.9562 0)
      (effects (font (size 1.27 1.27)) (justify left))
    )
    (property "Footprint" "Capacitor_SMD:C_0603_1608Metric" (id 2) (at 335.28 106.68 0)
      (effects (font (size 1.27 1.27)) hide)
    )
    (property "Datasheet" "~" (id 3) (at 335.28 106.68 0)
      (effects (font (size 1.27 1.27)) hide)
    )
    (pin "1" (uuid 9ff46386-1790-4077-9cd4-4c91ba6edeb4))
    (pin "2" (uuid 92daed07-9033-4cb1-bc44-88924ba9a414))
  )

  (symbol (lib_id "Device:C_Small") (at 83.82 83.82 0) (mirror y) (unit 1)
    (in_bom yes) (on_board yes)
    (uuid 2757b136-e435-4d58-8264-718ad09b1eb0)
    (property "Reference" "C37" (id 0) (at 77.47 82.55 0)
      (effects (font (size 1.27 1.27)) (justify right))
    )
    (property "Value" "56p" (id 1) (at 77.47 85.09 0)
      (effects (font (size 1.27 1.27)) (justify right))
    )
    (property "Footprint" "Capacitor_SMD:C_0402_1005Metric" (id 2) (at 83.82 83.82 0)
      (effects (font (size 1.27 1.27)) hide)
    )
    (property "Datasheet" "~" (id 3) (at 83.82 83.82 0)
      (effects (font (size 1.27 1.27)) hide)
    )
    (pin "1" (uuid 8f2f7afc-dcba-4497-9095-304d73b79ffc))
    (pin "2" (uuid 1dc22374-412d-4843-aff1-2095961bb213))
  )

  (symbol (lib_id "U-Skyworks-SKY65723-81-gps-low-noise-amplifier-front-end:SKY65723-81") (at 99.06 101.6 0) (unit 1)
    (in_bom yes) (on_board yes)
    (uuid 28bfb121-35dc-4529-9b13-e6e19b8565b2)
    (property "Reference" "U15" (id 0) (at 109.22 111.76 0))
    (property "Value" "SKY65723-81" (id 1) (at 109.22 114.3 0))
    (property "Footprint" "oresat-footprints:U-Skyworks-SKY65723-81-gps-lna" (id 2) (at 96.52 88.9 0)
      (effects (font (size 1.27 1.27)) hide)
    )
    (property "Datasheet" "https://www.skyworksinc.com/-/media/SkyWorks/Documents/Products/2801-2900/SKY65723_81_203923G.pdf" (id 3) (at 96.52 88.9 0)
      (effects (font (size 1.27 1.27)) hide)
    )
    (pin "1" (uuid 7bb095a5-6552-4cef-b135-99b860b91ed5))
    (pin "2" (uuid 85cd47e5-7747-4e32-8ced-0627b3137da6))
    (pin "3" (uuid 8e8c02e6-8960-4679-9a34-99a4ca35ee64))
    (pin "6" (uuid ec265777-3aea-4cbb-8cc3-d41e802420f2))
    (pin "7" (uuid d2415f92-2519-435d-8b7c-401a72ddbff4))
  )

  (symbol (lib_id "U-Maxim-MAX8510EXK29+T-low-noise-LDO-2v85:MAX8510EXK29+T") (at 302.26 76.2 0) (unit 1)
    (in_bom yes) (on_board yes)
    (uuid 2c37c360-3400-43a5-8b88-f80f224d1fd9)
    (property "Reference" "U17" (id 0) (at 294.64 71.12 0))
    (property "Value" "MAX8510EXK29+T" (id 1) (at 302.26 68.58 0))
    (property "Footprint" "Package_TO_SOT_SMD:SOT-353_SC-70-5" (id 2) (at 302.26 66.04 0)
      (effects (font (size 1.27 1.27)) hide)
    )
    (property "Datasheet" "https://datasheets.maximintegrated.com/en/ds/MAX8510-MAX8512.pdf" (id 3) (at 302.26 66.04 0)
      (effects (font (size 1.27 1.27)) hide)
    )
    (pin "1" (uuid f200c9e3-ea37-4848-8c74-fa4dc58dee8a))
    (pin "2" (uuid fd6837ae-c93f-4edf-9be7-0171788d8793))
    (pin "3" (uuid 906be191-af03-4c96-81cc-0f57d5312803))
    (pin "4" (uuid 6b27157a-90d9-4a2f-bf51-dbcfd8e05e10))
    (pin "5" (uuid cb209ed9-e617-47b4-8236-7d2ef0e69f96))
  )

  (symbol (lib_id "gps-power:2.85VA") (at 93.98 76.2 0) (unit 1)
    (in_bom no) (on_board no) (fields_autoplaced)
    (uuid 2f3a642d-3fad-4581-92f7-c024b595e4da)
    (property "Reference" "#2V85A0108" (id 0) (at 93.98 71.12 0)
      (effects (font (size 1.27 1.27)) hide)
    )
    (property "Value" "2.85VA" (id 1) (at 93.98 71.12 0))
    (property "Footprint" "" (id 2) (at 93.98 71.12 0)
      (effects (font (size 1.27 1.27)) hide)
    )
    (property "Datasheet" "" (id 3) (at 93.98 71.12 0)
      (effects (font (size 1.27 1.27)) hide)
    )
    (pin "1" (uuid d41b7ac2-5e45-4bec-a1c4-3b7394adcd7a))
  )

  (symbol (lib_id "gps-power:3.3V-S") (at 350.52 147.32 0) (unit 1)
    (in_bom no) (on_board no) (fields_autoplaced)
    (uuid 38f51556-2a0b-4ce6-a5cd-0ab410f37e37)
    (property "Reference" "#3V3-S0104" (id 0) (at 350.52 142.24 0)
      (effects (font (size 1.27 1.27)) hide)
    )
    (property "Value" "3.3V-S" (id 1) (at 350.52 142.24 0))
    (property "Footprint" "" (id 2) (at 350.52 142.24 0)
      (effects (font (size 1.27 1.27)) hide)
    )
    (property "Datasheet" "" (id 3) (at 350.52 142.24 0)
      (effects (font (size 1.27 1.27)) hide)
    )
    (pin "1" (uuid dc05eec3-2f0b-4851-82c9-1a639547a3ab))
  )

  (symbol (lib_id "OreSat-Power:GND") (at 335.28 116.84 0) (unit 1)
    (in_bom yes) (on_board yes)
    (uuid 3d1b647e-9123-4e90-89b2-87bdb8496985)
    (property "Reference" "#GND0178" (id 0) (at 335.28 123.19 0)
      (effects (font (size 1.27 1.27)) hide)
    )
    (property "Value" "GND" (id 1) (at 335.28 120.65 0))
    (property "Footprint" "" (id 2) (at 335.28 116.84 0)
      (effects (font (size 1.27 1.27)) hide)
    )
    (property "Datasheet" "" (id 3) (at 335.28 116.84 0)
      (effects (font (size 1.27 1.27)) hide)
    )
    (pin "1" (uuid a66110d8-9069-4224-bcea-7151ac37be31))
  )

  (symbol (lib_id "OreSat-Power:GND") (at 114.3 149.86 0) (unit 1)
    (in_bom yes) (on_board yes) (fields_autoplaced)
    (uuid 4292197b-a425-4c60-8a39-5d2ea81c00fe)
    (property "Reference" "#GND0168" (id 0) (at 114.3 156.21 0)
      (effects (font (size 1.27 1.27)) hide)
    )
    (property "Value" "GND" (id 1) (at 114.3 153.67 0))
    (property "Footprint" "" (id 2) (at 114.3 149.86 0)
      (effects (font (size 1.27 1.27)) hide)
    )
    (property "Datasheet" "" (id 3) (at 114.3 149.86 0)
      (effects (font (size 1.27 1.27)) hide)
    )
    (pin "1" (uuid 39f5edcf-4192-4c93-9629-8aca584b90ba))
  )

  (symbol (lib_id "Device:C_Small") (at 279.4 78.74 0) (unit 1)
    (in_bom yes) (on_board yes) (fields_autoplaced)
    (uuid 44789227-d7bd-4006-8ebd-2372061c156c)
    (property "Reference" "C39" (id 0) (at 281.94 77.4762 0)
      (effects (font (size 1.27 1.27)) (justify left))
    )
    (property "Value" "1u" (id 1) (at 281.94 80.0162 0)
      (effects (font (size 1.27 1.27)) (justify left))
    )
    (property "Footprint" "Capacitor_SMD:C_0603_1608Metric" (id 2) (at 279.4 78.74 0)
      (effects (font (size 1.27 1.27)) hide)
    )
    (property "Datasheet" "~" (id 3) (at 279.4 78.74 0)
      (effects (font (size 1.27 1.27)) hide)
    )
    (pin "1" (uuid 8833b3d4-bde4-4873-8577-31fb94c34505))
    (pin "2" (uuid 8c08c5d0-5413-43a6-99b5-7bb5ca4a6a03))
  )

  (symbol (lib_id "Device:C_Small") (at 279.4 109.22 0) (unit 1)
    (in_bom yes) (on_board yes) (fields_autoplaced)
    (uuid 5b35bb85-265a-4e98-993f-1b65c05d9c8c)
    (property "Reference" "C40" (id 0) (at 281.94 107.9562 0)
      (effects (font (size 1.27 1.27)) (justify left))
    )
    (property "Value" "1u" (id 1) (at 281.94 110.4962 0)
      (effects (font (size 1.27 1.27)) (justify left))
    )
    (property "Footprint" "Capacitor_SMD:C_0603_1608Metric" (id 2) (at 279.4 109.22 0)
      (effects (font (size 1.27 1.27)) hide)
    )
    (property "Datasheet" "~" (id 3) (at 279.4 109.22 0)
      (effects (font (size 1.27 1.27)) hide)
    )
    (pin "1" (uuid f6416a57-169b-4a9a-a06b-566a65a20069))
    (pin "2" (uuid b47afd31-fffd-4f84-a8d6-3f8001edb889))
  )

  (symbol (lib_id "Device:RFShield_OnePiece") (at 114.3 137.16 0) (unit 1)
    (in_bom yes) (on_board yes) (fields_autoplaced)
    (uuid 6762ae3c-3c01-4132-8abb-280f4b47bcdb)
    (property "Reference" "SH1" (id 0) (at 130.81 135.8899 0)
      (effects (font (size 1.27 1.27)) (justify left))
    )
    (property "Value" "BMI-S-202-C" (id 1) (at 130.81 138.4299 0)
      (effects (font (size 1.27 1.27)) (justify left))
    )
    (property "Footprint" "RF_Shielding:Laird_Technologies_BMI-S-202-F_16.50x16.50mm" (id 2) (at 114.3 139.7 0)
      (effects (font (size 1.27 1.27)) hide)
    )
    (property "Datasheet" "~" (id 3) (at 114.3 139.7 0)
      (effects (font (size 1.27 1.27)) hide)
    )
    (pin "1" (uuid c8e90b00-d45e-474f-bb31-336fb2835fcb))
  )

  (symbol (lib_id "OreSat-Power:GND") (at 335.28 86.36 0) (unit 1)
    (in_bom yes) (on_board yes)
    (uuid 703aaf70-0fcc-450b-a305-0dd3a9a6b16b)
    (property "Reference" "#GND0176" (id 0) (at 335.28 92.71 0)
      (effects (font (size 1.27 1.27)) hide)
    )
    (property "Value" "GND" (id 1) (at 335.28 90.17 0))
    (property "Footprint" "" (id 2) (at 335.28 86.36 0)
      (effects (font (size 1.27 1.27)) hide)
    )
    (property "Datasheet" "" (id 3) (at 335.28 86.36 0)
      (effects (font (size 1.27 1.27)) hide)
    )
    (pin "1" (uuid 9670fd71-0849-4dd6-ae26-844798df8a96))
  )

  (symbol (lib_id "OreSat-TestPoint:Test-Point") (at 345.44 149.86 180) (unit 1)
    (in_bom yes) (on_board yes)
    (uuid 74dcd89b-3252-43e7-8664-5539075255fe)
    (property "Reference" "TP97" (id 0) (at 342.9 147.32 0)
      (effects (font (size 1.27 1.27)) (justify right))
    )
    (property "Value" "Test-Point" (id 1) (at 345.44 152.4 0)
      (effects (font (size 1.27 1.27)) hide)
    )
    (property "Footprint" "OreSat-TestPoint:PAD.03X.04" (id 2) (at 345.44 152.4 0)
      (effects (font (size 1.27 1.27)) hide)
    )
    (property "Datasheet" "" (id 3) (at 345.44 152.4 0)
      (effects (font (size 1.27 1.27)) hide)
    )
    (pin "1" (uuid f4123049-0ee9-4fcc-a18e-ecc83b6aaa52))
  )

  (symbol (lib_id "OreSat-Power:GND") (at 93.98 88.9 0) (unit 1)
    (in_bom yes) (on_board yes) (fields_autoplaced)
    (uuid 785c16ef-98a6-49ea-8d75-f09cdb016742)
    (property "Reference" "#GND0170" (id 0) (at 93.98 95.25 0)
      (effects (font (size 1.27 1.27)) hide)
    )
    (property "Value" "GND" (id 1) (at 93.98 92.71 0))
    (property "Footprint" "" (id 2) (at 93.98 88.9 0)
      (effects (font (size 1.27 1.27)) hide)
    )
    (property "Datasheet" "" (id 3) (at 93.98 88.9 0)
      (effects (font (size 1.27 1.27)) hide)
    )
    (pin "1" (uuid 08481be4-be47-4b73-99f1-801cde455080))
  )

  (symbol (lib_id "OreSat-Power:GND") (at 279.4 116.84 0) (unit 1)
    (in_bom yes) (on_board yes)
    (uuid 831c6217-e5f8-4f3c-9120-0e5321557712)
    (property "Reference" "#GND0172" (id 0) (at 279.4 123.19 0)
      (effects (font (size 1.27 1.27)) hide)
    )
    (property "Value" "GND" (id 1) (at 279.4 120.65 0))
    (property "Footprint" "" (id 2) (at 279.4 116.84 0)
      (effects (font (size 1.27 1.27)) hide)
    )
    (property "Datasheet" "" (id 3) (at 279.4 116.84 0)
      (effects (font (size 1.27 1.27)) hide)
    )
    (pin "1" (uuid 76920bd0-8695-43e7-9cd1-c0857b7f2f2f))
  )

  (symbol (lib_id "U-Maxim-MAX8510EXK29+T-low-noise-LDO-2v85:MAX8510EXK29+T") (at 302.26 152.4 0) (unit 1)
    (in_bom yes) (on_board yes)
    (uuid 84b9f416-6a12-4ad3-a469-a57032a70267)
    (property "Reference" "U19" (id 0) (at 294.64 147.32 0))
    (property "Value" "MAX8510EXK33+T" (id 1) (at 302.26 144.78 0))
    (property "Footprint" "Package_TO_SOT_SMD:SOT-353_SC-70-5" (id 2) (at 302.26 142.24 0)
      (effects (font (size 1.27 1.27)) hide)
    )
    (property "Datasheet" "https://datasheets.maximintegrated.com/en/ds/MAX8510-MAX8512.pdf" (id 3) (at 302.26 142.24 0)
      (effects (font (size 1.27 1.27)) hide)
    )
    (pin "1" (uuid 59339350-c607-42b8-9eb7-56bf16a24a7d))
    (pin "2" (uuid 1aeecc05-ddc5-4266-b268-6bfec891565c))
    (pin "3" (uuid aa5f21a0-3beb-4fdd-97ed-c06b17d9c9a7))
    (pin "4" (uuid 1025a8b5-1b44-4790-9265-f2f55b0e7c7d))
    (pin "5" (uuid e0cb859b-3921-4b25-9952-9580b2c75423))
  )

  (symbol (lib_id "OreSat-Power:GND") (at 289.56 132.08 0) (unit 1)
    (in_bom yes) (on_board yes) (fields_autoplaced)
    (uuid 8d391b59-c6b0-4db6-a665-6199846b99f9)
    (property "Reference" "#GND0183" (id 0) (at 289.56 138.43 0)
      (effects (font (size 1.27 1.27)) hide)
    )
    (property "Value" "GND" (id 1) (at 289.56 135.89 0))
    (property "Footprint" "" (id 2) (at 289.56 132.08 0)
      (effects (font (size 1.27 1.27)) hide)
    )
    (property "Datasheet" "" (id 3) (at 289.56 132.08 0)
      (effects (font (size 1.27 1.27)) hide)
    )
    (pin "1" (uuid 0b011b3c-c987-4d43-9393-5c5896cf6ae0))
  )

  (symbol (lib_id "Device:C_Small") (at 325.12 152.4 0) (unit 1)
    (in_bom yes) (on_board yes) (fields_autoplaced)
    (uuid 9101ce00-baf6-4d61-82d7-434e6b3adbc0)
    (property "Reference" "C47" (id 0) (at 327.66 151.1362 0)
      (effects (font (size 1.27 1.27)) (justify left))
    )
    (property "Value" "100n" (id 1) (at 327.66 153.6762 0)
      (effects (font (size 1.27 1.27)) (justify left))
    )
    (property "Footprint" "Capacitor_SMD:C_0603_1608Metric" (id 2) (at 325.12 152.4 0)
      (effects (font (size 1.27 1.27)) hide)
    )
    (property "Datasheet" "~" (id 3) (at 325.12 152.4 0)
      (effects (font (size 1.27 1.27)) hide)
    )
    (pin "1" (uuid aa7665e3-df9a-4a18-8421-58193602b7c1))
    (pin "2" (uuid 2f23587b-57d7-48af-9b3e-6c8cf4a6fc73))
  )

  (symbol (lib_id "Device:C_Small") (at 335.28 76.2 0) (unit 1)
    (in_bom yes) (on_board yes) (fields_autoplaced)
    (uuid 92911604-f014-4eb1-a8b4-41468ace8161)
    (property "Reference" "C48" (id 0) (at 337.82 74.9362 0)
      (effects (font (size 1.27 1.27)) (justify left))
    )
    (property "Value" "1u" (id 1) (at 337.82 77.4762 0)
      (effects (font (size 1.27 1.27)) (justify left))
    )
    (property "Footprint" "Capacitor_SMD:C_0603_1608Metric" (id 2) (at 335.28 76.2 0)
      (effects (font (size 1.27 1.27)) hide)
    )
    (property "Datasheet" "~" (id 3) (at 335.28 76.2 0)
      (effects (font (size 1.27 1.27)) hide)
    )
    (pin "1" (uuid 9d2b0c44-fa77-4879-ab78-ebf570f375c6))
    (pin "2" (uuid bf3e9e23-e470-4fc0-abe6-bcb31e382e37))
  )

  (symbol (lib_id "Device:C_Small") (at 93.98 83.82 0) (unit 1)
    (in_bom yes) (on_board yes)
    (uuid 97a866c1-0a1e-4c81-b099-cbc85125cc9c)
    (property "Reference" "C38" (id 0) (at 87.63 82.55 0)
      (effects (font (size 1.27 1.27)) (justify left))
    )
    (property "Value" "100n" (id 1) (at 87.63 85.09 0)
      (effects (font (size 1.27 1.27)) (justify left))
    )
    (property "Footprint" "Capacitor_SMD:C_0603_1608Metric" (id 2) (at 93.98 83.82 0)
      (effects (font (size 1.27 1.27)) hide)
    )
    (property "Datasheet" "~" (id 3) (at 93.98 83.82 0)
      (effects (font (size 1.27 1.27)) hide)
    )
    (pin "1" (uuid 23f808ba-b94f-443b-a245-bb2df9a6e2e1))
    (pin "2" (uuid aa8ddd7c-71a5-4d36-8dfb-53c23e98cfc5))
  )

  (symbol (lib_id "OreSat-Power:GND") (at 302.26 116.84 0) (unit 1)
    (in_bom yes) (on_board yes)
    (uuid 9cc28391-81a9-4059-944d-57276d90a2e0)
    (property "Reference" "#GND0173" (id 0) (at 302.26 123.19 0)
      (effects (font (size 1.27 1.27)) hide)
    )
    (property "Value" "GND" (id 1) (at 302.26 120.65 0))
    (property "Footprint" "" (id 2) (at 302.26 116.84 0)
      (effects (font (size 1.27 1.27)) hide)
    )
    (property "Datasheet" "" (id 3) (at 302.26 116.84 0)
      (effects (font (size 1.27 1.27)) hide)
    )
    (pin "1" (uuid 96914d57-1241-49f1-b8aa-7c3cf58b2063))
  )

  (symbol (lib_id "gps-power:2.85VA") (at 104.14 76.2 0) (unit 1)
    (in_bom no) (on_board no) (fields_autoplaced)
    (uuid 9e9791c4-25d7-4a47-9317-6d7b81eb8771)
    (property "Reference" "#2V85A0107" (id 0) (at 104.14 71.12 0)
      (effects (font (size 1.27 1.27)) hide)
    )
    (property "Value" "2.85VA" (id 1) (at 104.14 71.12 0))
    (property "Footprint" "" (id 2) (at 104.14 71.12 0)
      (effects (font (size 1.27 1.27)) hide)
    )
    (property "Datasheet" "" (id 3) (at 104.14 71.12 0)
      (effects (font (size 1.27 1.27)) hide)
    )
    (pin "1" (uuid db06a5ce-6f44-4777-920d-96b98f6fca85))
  )

  (symbol (lib_id "Device:C_Small") (at 325.12 106.68 0) (unit 1)
    (in_bom yes) (on_board yes) (fields_autoplaced)
    (uuid a0ff359b-8ef8-4683-8d6f-1c4face51af2)
    (property "Reference" "C46" (id 0) (at 327.66 105.4162 0)
      (effects (font (size 1.27 1.27)) (justify left))
    )
    (property "Value" "100n" (id 1) (at 327.66 107.9562 0)
      (effects (font (size 1.27 1.27)) (justify left))
    )
    (property "Footprint" "Capacitor_SMD:C_0603_1608Metric" (id 2) (at 325.12 106.68 0)
      (effects (font (size 1.27 1.27)) hide)
    )
    (property "Datasheet" "~" (id 3) (at 325.12 106.68 0)
      (effects (font (size 1.27 1.27)) hide)
    )
    (pin "1" (uuid 59596b6a-0a47-42f3-9533-ab17b4975792))
    (pin "2" (uuid a55d3dee-c94e-4fae-8b33-ca5ae162771a))
  )

  (symbol (lib_id "OreSat-TestPoint:Test-Point") (at 345.44 73.66 180) (unit 1)
    (in_bom yes) (on_board yes)
    (uuid a7a69ce9-fce3-4d64-adc6-cae1097a49ec)
    (property "Reference" "TP95" (id 0) (at 342.9 71.12 0)
      (effects (font (size 1.27 1.27)) (justify right))
    )
    (property "Value" "Test-Point" (id 1) (at 345.44 76.2 0)
      (effects (font (size 1.27 1.27)) hide)
    )
    (property "Footprint" "OreSat-TestPoint:PAD.03X.04" (id 2) (at 345.44 76.2 0)
      (effects (font (size 1.27 1.27)) hide)
    )
    (property "Datasheet" "" (id 3) (at 345.44 76.2 0)
      (effects (font (size 1.27 1.27)) hide)
    )
    (pin "1" (uuid 60ea8a23-7f15-4591-ad2d-684d77d13164))
  )

  (symbol (lib_id "gps-power:2.85VA") (at 350.52 101.6 0) (unit 1)
    (in_bom no) (on_board no) (fields_autoplaced)
    (uuid a877aeb6-940d-48ab-9588-c946ddfe70d4)
    (property "Reference" "#2V85A0106" (id 0) (at 350.52 96.52 0)
      (effects (font (size 1.27 1.27)) hide)
    )
    (property "Value" "2.85VA" (id 1) (at 350.52 96.52 0))
    (property "Footprint" "" (id 2) (at 350.52 96.52 0)
      (effects (font (size 1.27 1.27)) hide)
    )
    (property "Datasheet" "" (id 3) (at 350.52 96.52 0)
      (effects (font (size 1.27 1.27)) hide)
    )
    (pin "1" (uuid 19c32d69-2700-4986-bc11-2439710027aa))
  )

  (symbol (lib_id "Device:C_Small") (at 314.96 106.68 0) (unit 1)
    (in_bom yes) (on_board yes) (fields_autoplaced)
    (uuid ab9df78b-9d9f-4b40-a4ec-7007743697fa)
    (property "Reference" "C43" (id 0) (at 317.5 105.4162 0)
      (effects (font (size 1.27 1.27)) (justify left))
    )
    (property "Value" "10n" (id 1) (at 317.5 107.9562 0)
      (effects (font (size 1.27 1.27)) (justify left))
    )
    (property "Footprint" "Capacitor_SMD:C_0603_1608Metric" (id 2) (at 314.96 106.68 0)
      (effects (font (size 1.27 1.27)) hide)
    )
    (property "Datasheet" "~" (id 3) (at 314.96 106.68 0)
      (effects (font (size 1.27 1.27)) hide)
    )
    (pin "1" (uuid faf46056-2b39-4907-88c1-1f4373b8229c))
    (pin "2" (uuid 52bb476f-bc1e-49a3-a283-0ff2f95f02b8))
  )

  (symbol (lib_id "OreSat-Power:GND") (at 325.12 86.36 0) (unit 1)
    (in_bom yes) (on_board yes)
    (uuid b1bebff6-456f-41b3-90d1-2fce30040ffc)
    (property "Reference" "#GND0175" (id 0) (at 325.12 92.71 0)
      (effects (font (size 1.27 1.27)) hide)
    )
    (property "Value" "GND" (id 1) (at 325.12 90.17 0))
    (property "Footprint" "" (id 2) (at 325.12 86.36 0)
      (effects (font (size 1.27 1.27)) hide)
    )
    (property "Datasheet" "" (id 3) (at 325.12 86.36 0)
      (effects (font (size 1.27 1.27)) hide)
    )
    (pin "1" (uuid 929c520b-54fa-4280-8e49-2eb3a0a8a795))
  )

  (symbol (lib_id "OreSat-TestPoint:Test-Point") (at 345.44 104.14 180) (unit 1)
    (in_bom yes) (on_board yes)
    (uuid b46eb1d2-ca25-4591-ba99-c4ab57ec7e1e)
    (property "Reference" "TP96" (id 0) (at 342.9 101.6 0)
      (effects (font (size 1.27 1.27)) (justify right))
    )
    (property "Value" "Test-Point" (id 1) (at 345.44 106.68 0)
      (effects (font (size 1.27 1.27)) hide)
    )
    (property "Footprint" "OreSat-TestPoint:PAD.03X.04" (id 2) (at 345.44 106.68 0)
      (effects (font (size 1.27 1.27)) hide)
    )
    (property "Datasheet" "" (id 3) (at 345.44 106.68 0)
      (effects (font (size 1.27 1.27)) hide)
    )
    (pin "1" (uuid 5b6aef40-357c-44cb-8880-a656a348114f))
  )

  (symbol (lib_id "Device:C_Small") (at 325.12 76.2 0) (unit 1)
    (in_bom yes) (on_board yes) (fields_autoplaced)
    (uuid b7dce8f9-b371-4a7d-9919-22b6fada75f4)
    (property "Reference" "C45" (id 0) (at 327.66 74.9362 0)
      (effects (font (size 1.27 1.27)) (justify left))
    )
    (property "Value" "100n" (id 1) (at 327.66 77.4762 0)
      (effects (font (size 1.27 1.27)) (justify left))
    )
    (property "Footprint" "Capacitor_SMD:C_0603_1608Metric" (id 2) (at 325.12 76.2 0)
      (effects (font (size 1.27 1.27)) hide)
    )
    (property "Datasheet" "~" (id 3) (at 325.12 76.2 0)
      (effects (font (size 1.27 1.27)) hide)
    )
    (pin "1" (uuid f6fe16e1-a5aa-4f47-8459-044e2cf5a027))
    (pin "2" (uuid a8d6e477-6625-4c90-9b54-d286ec668d55))
  )

  (symbol (lib_id "OreSat-Power:GND") (at 279.4 86.36 0) (unit 1)
    (in_bom yes) (on_board yes)
    (uuid ba225d10-e271-470a-b879-efc0a3721814)
    (property "Reference" "#GND0174" (id 0) (at 279.4 92.71 0)
      (effects (font (size 1.27 1.27)) hide)
    )
    (property "Value" "GND" (id 1) (at 279.4 90.17 0))
    (property "Footprint" "" (id 2) (at 279.4 86.36 0)
      (effects (font (size 1.27 1.27)) hide)
    )
    (property "Datasheet" "" (id 3) (at 279.4 86.36 0)
      (effects (font (size 1.27 1.27)) hide)
    )
    (pin "1" (uuid e703fb09-5b33-422f-93b3-0d830d2f35c4))
  )

  (symbol (lib_id "OreSat-Power:GND") (at 279.4 162.56 0) (unit 1)
    (in_bom yes) (on_board yes)
    (uuid bc943b26-1c4d-404a-9723-f7b824e8f2eb)
    (property "Reference" "#GND0184" (id 0) (at 279.4 168.91 0)
      (effects (font (size 1.27 1.27)) hide)
    )
    (property "Value" "GND" (id 1) (at 279.4 166.37 0))
    (property "Footprint" "" (id 2) (at 279.4 162.56 0)
      (effects (font (size 1.27 1.27)) hide)
    )
    (property "Datasheet" "" (id 3) (at 279.4 162.56 0)
      (effects (font (size 1.27 1.27)) hide)
    )
    (pin "1" (uuid 9166c763-bc78-4b6e-826f-66a99e9d3820))
  )

  (symbol (lib_id "OreSat-Power:GND") (at 302.26 86.36 0) (unit 1)
    (in_bom yes) (on_board yes)
    (uuid c2a159d7-dcbc-446c-b256-9c9caeecd1f6)
    (property "Reference" "#GND0171" (id 0) (at 302.26 92.71 0)
      (effects (font (size 1.27 1.27)) hide)
    )
    (property "Value" "GND" (id 1) (at 302.26 90.17 0))
    (property "Footprint" "" (id 2) (at 302.26 86.36 0)
      (effects (font (size 1.27 1.27)) hide)
    )
    (property "Datasheet" "" (id 3) (at 302.26 86.36 0)
      (effects (font (size 1.27 1.27)) hide)
    )
    (pin "1" (uuid e1b7604f-79ef-4402-b983-9b8b8fbe171c))
  )

  (symbol (lib_id "OreSat-Power:5V") (at 274.32 71.12 0) (unit 1)
    (in_bom yes) (on_board yes)
    (uuid c7cd3ce9-d9d1-4df2-970d-c81ca8ec8c78)
    (property "Reference" "#5V0104" (id 0) (at 274.32 74.93 0)
      (effects (font (size 1.27 1.27)) hide)
    )
    (property "Value" "5V" (id 1) (at 274.32 66.04 0))
    (property "Footprint" "" (id 2) (at 274.32 71.12 0)
      (effects (font (size 1.27 1.27)) hide)
    )
    (property "Datasheet" "" (id 3) (at 274.32 71.12 0)
      (effects (font (size 1.27 1.27)) hide)
    )
    (pin "1" (uuid 1514d931-eca3-48e6-af02-7bacaf649322))
  )

  (symbol (lib_id "Device:C_Small") (at 279.4 154.94 0) (unit 1)
    (in_bom yes) (on_board yes) (fields_autoplaced)
    (uuid d1f9166a-e4bf-4398-ae6c-af2971e5085e)
    (property "Reference" "C41" (id 0) (at 281.94 153.6762 0)
      (effects (font (size 1.27 1.27)) (justify left))
    )
    (property "Value" "1u" (id 1) (at 281.94 156.2162 0)
      (effects (font (size 1.27 1.27)) (justify left))
    )
    (property "Footprint" "Capacitor_SMD:C_0603_1608Metric" (id 2) (at 279.4 154.94 0)
      (effects (font (size 1.27 1.27)) hide)
    )
    (property "Datasheet" "~" (id 3) (at 279.4 154.94 0)
      (effects (font (size 1.27 1.27)) hide)
    )
    (pin "1" (uuid 8fea2ae1-609e-40ea-b0a2-754e6d4ee3a2))
    (pin "2" (uuid 989f395e-7498-4859-8d66-2f683c74c1b7))
  )

  (symbol (lib_id "OreSat-Power:GND") (at 335.28 162.56 0) (unit 1)
    (in_bom yes) (on_board yes)
    (uuid d4c4c3fe-512e-4b35-ace1-c8a7e16b3e61)
    (property "Reference" "#GND0180" (id 0) (at 335.28 168.91 0)
      (effects (font (size 1.27 1.27)) hide)
    )
    (property "Value" "GND" (id 1) (at 335.28 166.37 0))
    (property "Footprint" "" (id 2) (at 335.28 162.56 0)
      (effects (font (size 1.27 1.27)) hide)
    )
    (property "Datasheet" "" (id 3) (at 335.28 162.56 0)
      (effects (font (size 1.27 1.27)) hide)
    )
    (pin "1" (uuid 5cbf59e9-85e3-4273-8086-f1070efa5dec))
  )

  (symbol (lib_id "Device:C_Small") (at 335.28 152.4 0) (unit 1)
    (in_bom yes) (on_board yes) (fields_autoplaced)
    (uuid d7fcc41f-7a0d-4491-bf97-dfb1a27b0819)
    (property "Reference" "C50" (id 0) (at 337.82 151.1362 0)
      (effects (font (size 1.27 1.27)) (justify left))
    )
    (property "Value" "1u" (id 1) (at 337.82 153.6762 0)
      (effects (font (size 1.27 1.27)) (justify left))
    )
    (property "Footprint" "Capacitor_SMD:C_0603_1608Metric" (id 2) (at 335.28 152.4 0)
      (effects (font (size 1.27 1.27)) hide)
    )
    (property "Datasheet" "~" (id 3) (at 335.28 152.4 0)
      (effects (font (size 1.27 1.27)) hide)
    )
    (pin "1" (uuid c08d671c-1727-4ec3-8ad9-37185b5d2dbb))
    (pin "2" (uuid 10c71626-0aa0-4a61-9f6f-b0ebf07c4c43))
  )

  (symbol (lib_id "Device:R_Small_US") (at 289.56 127 0) (unit 1)
    (in_bom yes) (on_board yes) (fields_autoplaced)
    (uuid da3be62d-b9ad-4a26-8bdf-f3226f6e9137)
    (property "Reference" "R59" (id 0) (at 292.1 125.7299 0)
      (effects (font (size 1.27 1.27)) (justify left))
    )
    (property "Value" "10k" (id 1) (at 292.1 128.2699 0)
      (effects (font (size 1.27 1.27)) (justify left))
    )
    (property "Footprint" "Resistor_SMD:R_0603_1608Metric" (id 2) (at 289.56 127 0)
      (effects (font (size 1.27 1.27)) hide)
    )
    (property "Datasheet" "~" (id 3) (at 289.56 127 0)
      (effects (font (size 1.27 1.27)) hide)
    )
    (pin "1" (uuid c9725c4b-cd06-4e78-a14b-b07321c80aa1))
    (pin "2" (uuid 99916832-0fb7-4cf3-b632-09e06557f154))
  )

  (symbol (lib_id "OreSat-Power:GND") (at 289.56 177.8 0) (unit 1)
    (in_bom yes) (on_board yes) (fields_autoplaced)
    (uuid debbe7db-29d5-47ae-a5de-b3da5e9d0d31)
    (property "Reference" "#GND0181" (id 0) (at 289.56 184.15 0)
      (effects (font (size 1.27 1.27)) hide)
    )
    (property "Value" "GND" (id 1) (at 289.56 181.61 0))
    (property "Footprint" "" (id 2) (at 289.56 177.8 0)
      (effects (font (size 1.27 1.27)) hide)
    )
    (property "Datasheet" "" (id 3) (at 289.56 177.8 0)
      (effects (font (size 1.27 1.27)) hide)
    )
    (pin "1" (uuid ee94df1d-21d5-410b-b0de-2428fad6fdd9))
  )

  (symbol (lib_id "Device:C_Small") (at 314.96 152.4 0) (unit 1)
    (in_bom yes) (on_board yes) (fields_autoplaced)
    (uuid e4a7eaf3-c665-4998-81fe-e08a39b1c5d3)
    (property "Reference" "C44" (id 0) (at 317.5 151.1362 0)
      (effects (font (size 1.27 1.27)) (justify left))
    )
    (property "Value" "10n" (id 1) (at 317.5 153.6762 0)
      (effects (font (size 1.27 1.27)) (justify left))
    )
    (property "Footprint" "Capacitor_SMD:C_0603_1608Metric" (id 2) (at 314.96 152.4 0)
      (effects (font (size 1.27 1.27)) hide)
    )
    (property "Datasheet" "~" (id 3) (at 314.96 152.4 0)
      (effects (font (size 1.27 1.27)) hide)
    )
    (pin "1" (uuid 8faa277c-03d5-41dc-8b1f-461ba6520d28))
    (pin "2" (uuid 400ad8ec-a0fb-4521-b559-a6735c051f80))
  )

  (symbol (lib_id "Device:R_Small_US") (at 289.56 172.72 0) (unit 1)
    (in_bom yes) (on_board yes) (fields_autoplaced)
    (uuid e6357c53-b6ab-4a92-9685-a6fcd451c3a3)
    (property "Reference" "R60" (id 0) (at 292.1 171.4499 0)
      (effects (font (size 1.27 1.27)) (justify left))
    )
    (property "Value" "10k" (id 1) (at 292.1 173.9899 0)
      (effects (font (size 1.27 1.27)) (justify left))
    )
    (property "Footprint" "Resistor_SMD:R_0603_1608Metric" (id 2) (at 289.56 172.72 0)
      (effects (font (size 1.27 1.27)) hide)
    )
    (property "Datasheet" "~" (id 3) (at 289.56 172.72 0)
      (effects (font (size 1.27 1.27)) hide)
    )
    (pin "1" (uuid b1f10318-a0c1-4f9d-9630-e6a04a9ad49e))
    (pin "2" (uuid 9f855ff8-5606-483b-841c-9f74cd07b325))
  )

  (symbol (lib_id "OreSat-Power:GND") (at 325.12 116.84 0) (unit 1)
    (in_bom yes) (on_board yes)
    (uuid ea3d701b-eb2c-4b47-bda4-642cda3f1921)
    (property "Reference" "#GND0177" (id 0) (at 325.12 123.19 0)
      (effects (font (size 1.27 1.27)) hide)
    )
    (property "Value" "GND" (id 1) (at 325.12 120.65 0))
    (property "Footprint" "" (id 2) (at 325.12 116.84 0)
      (effects (font (size 1.27 1.27)) hide)
    )
    (property "Datasheet" "" (id 3) (at 325.12 116.84 0)
      (effects (font (size 1.27 1.27)) hide)
    )
    (pin "1" (uuid 43448b57-4d1f-43df-8972-b2896742125d))
  )

  (symbol (lib_id "OreSat-Power:GND") (at 302.26 162.56 0) (unit 1)
    (in_bom yes) (on_board yes)
    (uuid f174ddfb-7998-48c5-8a5f-db726009be61)
    (property "Reference" "#GND0182" (id 0) (at 302.26 168.91 0)
      (effects (font (size 1.27 1.27)) hide)
    )
    (property "Value" "GND" (id 1) (at 302.26 166.37 0))
    (property "Footprint" "" (id 2) (at 302.26 162.56 0)
      (effects (font (size 1.27 1.27)) hide)
    )
    (property "Datasheet" "" (id 3) (at 302.26 162.56 0)
      (effects (font (size 1.27 1.27)) hide)
    )
    (pin "1" (uuid 681843ec-ba5f-45d7-8377-0fc82dbf680a))
  )
)
