(kicad_sch (version 20211123) (generator eeschema)

  (uuid e63e39d7-6ac0-4ffd-8aa3-1841a4541b55)

  (paper "A")

  (title_block
    (title "VCO CONTROL PANEL")
    (date "2022-09-30")
    (rev "1")
    (company "LAND BOARDS LLC")
    (comment 1 "https://note.com/solder_state/n/nca6a1dec3921")
  )

  (lib_symbols
    (symbol "Connector:AudioJack2_SwitchT" (in_bom yes) (on_board yes)
      (property "Reference" "J" (id 0) (at 0 8.89 0)
        (effects (font (size 1.27 1.27)))
      )
      (property "Value" "AudioJack2_SwitchT" (id 1) (at 0 6.35 0)
        (effects (font (size 1.27 1.27)))
      )
      (property "Footprint" "" (id 2) (at 0 0 0)
        (effects (font (size 1.27 1.27)) hide)
      )
      (property "Datasheet" "~" (id 3) (at 0 0 0)
        (effects (font (size 1.27 1.27)) hide)
      )
      (property "ki_keywords" "audio jack receptacle mono headphones phone TS connector" (id 4) (at 0 0 0)
        (effects (font (size 1.27 1.27)) hide)
      )
      (property "ki_description" "Audio Jack, 2 Poles (Mono / TS), Switched T Pole (Normalling)" (id 5) (at 0 0 0)
        (effects (font (size 1.27 1.27)) hide)
      )
      (property "ki_fp_filters" "Jack*" (id 6) (at 0 0 0)
        (effects (font (size 1.27 1.27)) hide)
      )
      (symbol "AudioJack2_SwitchT_0_1"
        (rectangle (start -2.54 0) (end -3.81 -2.54)
          (stroke (width 0.254) (type default) (color 0 0 0 0))
          (fill (type outline))
        )
        (polyline
          (pts
            (xy 1.778 -0.254)
            (xy 2.032 -0.762)
          )
          (stroke (width 0) (type default) (color 0 0 0 0))
          (fill (type none))
        )
        (polyline
          (pts
            (xy 0 0)
            (xy 0.635 -0.635)
            (xy 1.27 0)
            (xy 2.54 0)
          )
          (stroke (width 0.254) (type default) (color 0 0 0 0))
          (fill (type none))
        )
        (polyline
          (pts
            (xy 2.54 -2.54)
            (xy 1.778 -2.54)
            (xy 1.778 -0.254)
            (xy 1.524 -0.762)
          )
          (stroke (width 0) (type default) (color 0 0 0 0))
          (fill (type none))
        )
        (polyline
          (pts
            (xy 2.54 2.54)
            (xy -0.635 2.54)
            (xy -0.635 0)
            (xy -1.27 -0.635)
            (xy -1.905 0)
          )
          (stroke (width 0.254) (type default) (color 0 0 0 0))
          (fill (type none))
        )
        (rectangle (start 2.54 3.81) (end -2.54 -5.08)
          (stroke (width 0.254) (type default) (color 0 0 0 0))
          (fill (type background))
        )
      )
      (symbol "AudioJack2_SwitchT_1_1"
        (pin passive line (at 5.08 2.54 180) (length 2.54)
          (name "~" (effects (font (size 1.27 1.27))))
          (number "S" (effects (font (size 1.27 1.27))))
        )
        (pin passive line (at 5.08 0 180) (length 2.54)
          (name "~" (effects (font (size 1.27 1.27))))
          (number "T" (effects (font (size 1.27 1.27))))
        )
        (pin passive line (at 5.08 -2.54 180) (length 2.54)
          (name "~" (effects (font (size 1.27 1.27))))
          (number "TN" (effects (font (size 1.27 1.27))))
        )
      )
    )
    (symbol "Connector_Generic:Conn_01x16" (pin_names (offset 1.016) hide) (in_bom yes) (on_board yes)
      (property "Reference" "J" (id 0) (at 0 20.32 0)
        (effects (font (size 1.27 1.27)))
      )
      (property "Value" "Conn_01x16" (id 1) (at 0 -22.86 0)
        (effects (font (size 1.27 1.27)))
      )
      (property "Footprint" "" (id 2) (at 0 0 0)
        (effects (font (size 1.27 1.27)) hide)
      )
      (property "Datasheet" "~" (id 3) (at 0 0 0)
        (effects (font (size 1.27 1.27)) hide)
      )
      (property "ki_keywords" "connector" (id 4) (at 0 0 0)
        (effects (font (size 1.27 1.27)) hide)
      )
      (property "ki_description" "Generic connector, single row, 01x16, script generated (kicad-library-utils/schlib/autogen/connector/)" (id 5) (at 0 0 0)
        (effects (font (size 1.27 1.27)) hide)
      )
      (property "ki_fp_filters" "Connector*:*_1x??_*" (id 6) (at 0 0 0)
        (effects (font (size 1.27 1.27)) hide)
      )
      (symbol "Conn_01x16_1_1"
        (rectangle (start -1.27 -20.193) (end 0 -20.447)
          (stroke (width 0.1524) (type default) (color 0 0 0 0))
          (fill (type none))
        )
        (rectangle (start -1.27 -17.653) (end 0 -17.907)
          (stroke (width 0.1524) (type default) (color 0 0 0 0))
          (fill (type none))
        )
        (rectangle (start -1.27 -15.113) (end 0 -15.367)
          (stroke (width 0.1524) (type default) (color 0 0 0 0))
          (fill (type none))
        )
        (rectangle (start -1.27 -12.573) (end 0 -12.827)
          (stroke (width 0.1524) (type default) (color 0 0 0 0))
          (fill (type none))
        )
        (rectangle (start -1.27 -10.033) (end 0 -10.287)
          (stroke (width 0.1524) (type default) (color 0 0 0 0))
          (fill (type none))
        )
        (rectangle (start -1.27 -7.493) (end 0 -7.747)
          (stroke (width 0.1524) (type default) (color 0 0 0 0))
          (fill (type none))
        )
        (rectangle (start -1.27 -4.953) (end 0 -5.207)
          (stroke (width 0.1524) (type default) (color 0 0 0 0))
          (fill (type none))
        )
        (rectangle (start -1.27 -2.413) (end 0 -2.667)
          (stroke (width 0.1524) (type default) (color 0 0 0 0))
          (fill (type none))
        )
        (rectangle (start -1.27 0.127) (end 0 -0.127)
          (stroke (width 0.1524) (type default) (color 0 0 0 0))
          (fill (type none))
        )
        (rectangle (start -1.27 2.667) (end 0 2.413)
          (stroke (width 0.1524) (type default) (color 0 0 0 0))
          (fill (type none))
        )
        (rectangle (start -1.27 5.207) (end 0 4.953)
          (stroke (width 0.1524) (type default) (color 0 0 0 0))
          (fill (type none))
        )
        (rectangle (start -1.27 7.747) (end 0 7.493)
          (stroke (width 0.1524) (type default) (color 0 0 0 0))
          (fill (type none))
        )
        (rectangle (start -1.27 10.287) (end 0 10.033)
          (stroke (width 0.1524) (type default) (color 0 0 0 0))
          (fill (type none))
        )
        (rectangle (start -1.27 12.827) (end 0 12.573)
          (stroke (width 0.1524) (type default) (color 0 0 0 0))
          (fill (type none))
        )
        (rectangle (start -1.27 15.367) (end 0 15.113)
          (stroke (width 0.1524) (type default) (color 0 0 0 0))
          (fill (type none))
        )
        (rectangle (start -1.27 17.907) (end 0 17.653)
          (stroke (width 0.1524) (type default) (color 0 0 0 0))
          (fill (type none))
        )
        (rectangle (start -1.27 19.05) (end 1.27 -21.59)
          (stroke (width 0.254) (type default) (color 0 0 0 0))
          (fill (type background))
        )
        (pin passive line (at -5.08 17.78 0) (length 3.81)
          (name "Pin_1" (effects (font (size 1.27 1.27))))
          (number "1" (effects (font (size 1.27 1.27))))
        )
        (pin passive line (at -5.08 -5.08 0) (length 3.81)
          (name "Pin_10" (effects (font (size 1.27 1.27))))
          (number "10" (effects (font (size 1.27 1.27))))
        )
        (pin passive line (at -5.08 -7.62 0) (length 3.81)
          (name "Pin_11" (effects (font (size 1.27 1.27))))
          (number "11" (effects (font (size 1.27 1.27))))
        )
        (pin passive line (at -5.08 -10.16 0) (length 3.81)
          (name "Pin_12" (effects (font (size 1.27 1.27))))
          (number "12" (effects (font (size 1.27 1.27))))
        )
        (pin passive line (at -5.08 -12.7 0) (length 3.81)
          (name "Pin_13" (effects (font (size 1.27 1.27))))
          (number "13" (effects (font (size 1.27 1.27))))
        )
        (pin passive line (at -5.08 -15.24 0) (length 3.81)
          (name "Pin_14" (effects (font (size 1.27 1.27))))
          (number "14" (effects (font (size 1.27 1.27))))
        )
        (pin passive line (at -5.08 -17.78 0) (length 3.81)
          (name "Pin_15" (effects (font (size 1.27 1.27))))
          (number "15" (effects (font (size 1.27 1.27))))
        )
        (pin passive line (at -5.08 -20.32 0) (length 3.81)
          (name "Pin_16" (effects (font (size 1.27 1.27))))
          (number "16" (effects (font (size 1.27 1.27))))
        )
        (pin passive line (at -5.08 15.24 0) (length 3.81)
          (name "Pin_2" (effects (font (size 1.27 1.27))))
          (number "2" (effects (font (size 1.27 1.27))))
        )
        (pin passive line (at -5.08 12.7 0) (length 3.81)
          (name "Pin_3" (effects (font (size 1.27 1.27))))
          (number "3" (effects (font (size 1.27 1.27))))
        )
        (pin passive line (at -5.08 10.16 0) (length 3.81)
          (name "Pin_4" (effects (font (size 1.27 1.27))))
          (number "4" (effects (font (size 1.27 1.27))))
        )
        (pin passive line (at -5.08 7.62 0) (length 3.81)
          (name "Pin_5" (effects (font (size 1.27 1.27))))
          (number "5" (effects (font (size 1.27 1.27))))
        )
        (pin passive line (at -5.08 5.08 0) (length 3.81)
          (name "Pin_6" (effects (font (size 1.27 1.27))))
          (number "6" (effects (font (size 1.27 1.27))))
        )
        (pin passive line (at -5.08 2.54 0) (length 3.81)
          (name "Pin_7" (effects (font (size 1.27 1.27))))
          (number "7" (effects (font (size 1.27 1.27))))
        )
        (pin passive line (at -5.08 0 0) (length 3.81)
          (name "Pin_8" (effects (font (size 1.27 1.27))))
          (number "8" (effects (font (size 1.27 1.27))))
        )
        (pin passive line (at -5.08 -2.54 0) (length 3.81)
          (name "Pin_9" (effects (font (size 1.27 1.27))))
          (number "9" (effects (font (size 1.27 1.27))))
        )
      )
    )
    (symbol "Device:C" (pin_numbers hide) (pin_names (offset 0.254)) (in_bom yes) (on_board yes)
      (property "Reference" "C" (id 0) (at 0.635 2.54 0)
        (effects (font (size 1.27 1.27)) (justify left))
      )
      (property "Value" "C" (id 1) (at 0.635 -2.54 0)
        (effects (font (size 1.27 1.27)) (justify left))
      )
      (property "Footprint" "" (id 2) (at 0.9652 -3.81 0)
        (effects (font (size 1.27 1.27)) hide)
      )
      (property "Datasheet" "~" (id 3) (at 0 0 0)
        (effects (font (size 1.27 1.27)) hide)
      )
      (property "ki_keywords" "cap capacitor" (id 4) (at 0 0 0)
        (effects (font (size 1.27 1.27)) hide)
      )
      (property "ki_description" "Unpolarized capacitor" (id 5) (at 0 0 0)
        (effects (font (size 1.27 1.27)) hide)
      )
      (property "ki_fp_filters" "C_*" (id 6) (at 0 0 0)
        (effects (font (size 1.27 1.27)) hide)
      )
      (symbol "C_0_1"
        (polyline
          (pts
            (xy -2.032 -0.762)
            (xy 2.032 -0.762)
          )
          (stroke (width 0.508) (type default) (color 0 0 0 0))
          (fill (type none))
        )
        (polyline
          (pts
            (xy -2.032 0.762)
            (xy 2.032 0.762)
          )
          (stroke (width 0.508) (type default) (color 0 0 0 0))
          (fill (type none))
        )
      )
      (symbol "C_1_1"
        (pin passive line (at 0 3.81 270) (length 2.794)
          (name "~" (effects (font (size 1.27 1.27))))
          (number "1" (effects (font (size 1.27 1.27))))
        )
        (pin passive line (at 0 -3.81 90) (length 2.794)
          (name "~" (effects (font (size 1.27 1.27))))
          (number "2" (effects (font (size 1.27 1.27))))
        )
      )
    )
    (symbol "Device:C_Polarized" (pin_numbers hide) (pin_names (offset 0.254)) (in_bom yes) (on_board yes)
      (property "Reference" "C" (id 0) (at 0.635 2.54 0)
        (effects (font (size 1.27 1.27)) (justify left))
      )
      (property "Value" "C_Polarized" (id 1) (at 0.635 -2.54 0)
        (effects (font (size 1.27 1.27)) (justify left))
      )
      (property "Footprint" "" (id 2) (at 0.9652 -3.81 0)
        (effects (font (size 1.27 1.27)) hide)
      )
      (property "Datasheet" "~" (id 3) (at 0 0 0)
        (effects (font (size 1.27 1.27)) hide)
      )
      (property "ki_keywords" "cap capacitor" (id 4) (at 0 0 0)
        (effects (font (size 1.27 1.27)) hide)
      )
      (property "ki_description" "Polarized capacitor" (id 5) (at 0 0 0)
        (effects (font (size 1.27 1.27)) hide)
      )
      (property "ki_fp_filters" "CP_*" (id 6) (at 0 0 0)
        (effects (font (size 1.27 1.27)) hide)
      )
      (symbol "C_Polarized_0_1"
        (rectangle (start -2.286 0.508) (end 2.286 1.016)
          (stroke (width 0) (type default) (color 0 0 0 0))
          (fill (type none))
        )
        (polyline
          (pts
            (xy -1.778 2.286)
            (xy -0.762 2.286)
          )
          (stroke (width 0) (type default) (color 0 0 0 0))
          (fill (type none))
        )
        (polyline
          (pts
            (xy -1.27 2.794)
            (xy -1.27 1.778)
          )
          (stroke (width 0) (type default) (color 0 0 0 0))
          (fill (type none))
        )
        (rectangle (start 2.286 -0.508) (end -2.286 -1.016)
          (stroke (width 0) (type default) (color 0 0 0 0))
          (fill (type outline))
        )
      )
      (symbol "C_Polarized_1_1"
        (pin passive line (at 0 3.81 270) (length 2.794)
          (name "~" (effects (font (size 1.27 1.27))))
          (number "1" (effects (font (size 1.27 1.27))))
        )
        (pin passive line (at 0 -3.81 90) (length 2.794)
          (name "~" (effects (font (size 1.27 1.27))))
          (number "2" (effects (font (size 1.27 1.27))))
        )
      )
    )
    (symbol "Device:D_Schottky" (pin_numbers hide) (pin_names (offset 1.016) hide) (in_bom yes) (on_board yes)
      (property "Reference" "D" (id 0) (at 0 2.54 0)
        (effects (font (size 1.27 1.27)))
      )
      (property "Value" "D_Schottky" (id 1) (at 0 -2.54 0)
        (effects (font (size 1.27 1.27)))
      )
      (property "Footprint" "" (id 2) (at 0 0 0)
        (effects (font (size 1.27 1.27)) hide)
      )
      (property "Datasheet" "~" (id 3) (at 0 0 0)
        (effects (font (size 1.27 1.27)) hide)
      )
      (property "ki_keywords" "diode Schottky" (id 4) (at 0 0 0)
        (effects (font (size 1.27 1.27)) hide)
      )
      (property "ki_description" "Schottky diode" (id 5) (at 0 0 0)
        (effects (font (size 1.27 1.27)) hide)
      )
      (property "ki_fp_filters" "TO-???* *_Diode_* *SingleDiode* D_*" (id 6) (at 0 0 0)
        (effects (font (size 1.27 1.27)) hide)
      )
      (symbol "D_Schottky_0_1"
        (polyline
          (pts
            (xy 1.27 0)
            (xy -1.27 0)
          )
          (stroke (width 0) (type default) (color 0 0 0 0))
          (fill (type none))
        )
        (polyline
          (pts
            (xy 1.27 1.27)
            (xy 1.27 -1.27)
            (xy -1.27 0)
            (xy 1.27 1.27)
          )
          (stroke (width 0.254) (type default) (color 0 0 0 0))
          (fill (type none))
        )
        (polyline
          (pts
            (xy -1.905 0.635)
            (xy -1.905 1.27)
            (xy -1.27 1.27)
            (xy -1.27 -1.27)
            (xy -0.635 -1.27)
            (xy -0.635 -0.635)
          )
          (stroke (width 0.254) (type default) (color 0 0 0 0))
          (fill (type none))
        )
      )
      (symbol "D_Schottky_1_1"
        (pin passive line (at -3.81 0 0) (length 2.54)
          (name "K" (effects (font (size 1.27 1.27))))
          (number "1" (effects (font (size 1.27 1.27))))
        )
        (pin passive line (at 3.81 0 180) (length 2.54)
          (name "A" (effects (font (size 1.27 1.27))))
          (number "2" (effects (font (size 1.27 1.27))))
        )
      )
    )
    (symbol "Device:R" (pin_numbers hide) (pin_names (offset 0)) (in_bom yes) (on_board yes)
      (property "Reference" "R" (id 0) (at 2.032 0 90)
        (effects (font (size 1.27 1.27)))
      )
      (property "Value" "R" (id 1) (at 0 0 90)
        (effects (font (size 1.27 1.27)))
      )
      (property "Footprint" "" (id 2) (at -1.778 0 90)
        (effects (font (size 1.27 1.27)) hide)
      )
      (property "Datasheet" "~" (id 3) (at 0 0 0)
        (effects (font (size 1.27 1.27)) hide)
      )
      (property "ki_keywords" "R res resistor" (id 4) (at 0 0 0)
        (effects (font (size 1.27 1.27)) hide)
      )
      (property "ki_description" "Resistor" (id 5) (at 0 0 0)
        (effects (font (size 1.27 1.27)) hide)
      )
      (property "ki_fp_filters" "R_*" (id 6) (at 0 0 0)
        (effects (font (size 1.27 1.27)) hide)
      )
      (symbol "R_0_1"
        (rectangle (start -1.016 -2.54) (end 1.016 2.54)
          (stroke (width 0.254) (type default) (color 0 0 0 0))
          (fill (type none))
        )
      )
      (symbol "R_1_1"
        (pin passive line (at 0 3.81 270) (length 1.27)
          (name "~" (effects (font (size 1.27 1.27))))
          (number "1" (effects (font (size 1.27 1.27))))
        )
        (pin passive line (at 0 -3.81 90) (length 1.27)
          (name "~" (effects (font (size 1.27 1.27))))
          (number "2" (effects (font (size 1.27 1.27))))
        )
      )
    )
    (symbol "LandBoards:MTG_HOLE" (pin_names (offset 1.016)) (in_bom yes) (on_board yes)
      (property "Reference" "MTG?" (id 0) (at 0 2.54 0)
        (effects (font (size 1.524 1.524)))
      )
      (property "Value" "MTG_HOLE" (id 1) (at 0 -2.54 0)
        (effects (font (size 1.524 1.524)))
      )
      (property "Footprint" "" (id 2) (at 0 0 0)
        (effects (font (size 1.524 1.524)))
      )
      (property "Datasheet" "" (id 3) (at 0 0 0)
        (effects (font (size 1.524 1.524)))
      )
      (symbol "MTG_HOLE_0_1"
        (rectangle (start -1.27 -1.27) (end 1.27 -1.27)
          (stroke (width 0) (type default) (color 0 0 0 0))
          (fill (type none))
        )
        (rectangle (start -1.27 1.27) (end -1.27 -1.27)
          (stroke (width 0) (type default) (color 0 0 0 0))
          (fill (type none))
        )
        (rectangle (start 1.27 1.27) (end -1.27 1.27)
          (stroke (width 0) (type default) (color 0 0 0 0))
          (fill (type none))
        )
        (rectangle (start 1.27 1.27) (end 1.27 -1.27)
          (stroke (width 0) (type default) (color 0 0 0 0))
          (fill (type none))
        )
      )
    )
    (symbol "LandBoards:POT" (pin_names (offset 1.016) hide) (in_bom yes) (on_board yes)
      (property "Reference" "RV" (id 0) (at 0 -2.54 0)
        (effects (font (size 1.27 1.27)))
      )
      (property "Value" "POT" (id 1) (at 0 0 0)
        (effects (font (size 1.27 1.27)))
      )
      (property "Footprint" "" (id 2) (at 0 0 0)
        (effects (font (size 1.524 1.524)))
      )
      (property "Datasheet" "" (id 3) (at 0 0 0)
        (effects (font (size 1.524 1.524)))
      )
      (symbol "POT_0_1"
        (rectangle (start -3.81 1.27) (end 3.81 -1.27)
          (stroke (width 0) (type default) (color 0 0 0 0))
          (fill (type none))
        )
        (polyline
          (pts
            (xy 0 1.27)
            (xy -0.508 1.778)
            (xy 0.508 1.778)
          )
          (stroke (width 0) (type default) (color 0 0 0 0))
          (fill (type outline))
        )
      )
      (symbol "POT_1_1"
        (pin passive line (at -6.35 0 0) (length 2.54)
          (name "1" (effects (font (size 1.016 1.016))))
          (number "1" (effects (font (size 1.016 1.016))))
        )
        (pin passive line (at 0 3.81 270) (length 2.032)
          (name "2" (effects (font (size 1.016 1.016))))
          (number "2" (effects (font (size 1.016 1.016))))
        )
        (pin passive line (at 6.35 0 180) (length 2.54)
          (name "3" (effects (font (size 1.016 1.016))))
          (number "3" (effects (font (size 1.016 1.016))))
        )
      )
    )
    (symbol "Switch:SW_Push" (pin_numbers hide) (pin_names (offset 1.016) hide) (in_bom yes) (on_board yes)
      (property "Reference" "SW" (id 0) (at 1.27 2.54 0)
        (effects (font (size 1.27 1.27)) (justify left))
      )
      (property "Value" "SW_Push" (id 1) (at 0 -1.524 0)
        (effects (font (size 1.27 1.27)))
      )
      (property "Footprint" "" (id 2) (at 0 5.08 0)
        (effects (font (size 1.27 1.27)) hide)
      )
      (property "Datasheet" "~" (id 3) (at 0 5.08 0)
        (effects (font (size 1.27 1.27)) hide)
      )
      (property "ki_keywords" "switch normally-open pushbutton push-button" (id 4) (at 0 0 0)
        (effects (font (size 1.27 1.27)) hide)
      )
      (property "ki_description" "Push button switch, generic, two pins" (id 5) (at 0 0 0)
        (effects (font (size 1.27 1.27)) hide)
      )
      (symbol "SW_Push_0_1"
        (circle (center -2.032 0) (radius 0.508)
          (stroke (width 0) (type default) (color 0 0 0 0))
          (fill (type none))
        )
        (polyline
          (pts
            (xy 0 1.27)
            (xy 0 3.048)
          )
          (stroke (width 0) (type default) (color 0 0 0 0))
          (fill (type none))
        )
        (polyline
          (pts
            (xy 2.54 1.27)
            (xy -2.54 1.27)
          )
          (stroke (width 0) (type default) (color 0 0 0 0))
          (fill (type none))
        )
        (circle (center 2.032 0) (radius 0.508)
          (stroke (width 0) (type default) (color 0 0 0 0))
          (fill (type none))
        )
        (pin passive line (at -5.08 0 0) (length 2.54)
          (name "1" (effects (font (size 1.27 1.27))))
          (number "1" (effects (font (size 1.27 1.27))))
        )
        (pin passive line (at 5.08 0 180) (length 2.54)
          (name "2" (effects (font (size 1.27 1.27))))
          (number "2" (effects (font (size 1.27 1.27))))
        )
      )
    )
    (symbol "Switch:SW_SPDT_MSM" (pin_names (offset 0) hide) (in_bom yes) (on_board yes)
      (property "Reference" "SW" (id 0) (at 0 5.08 0)
        (effects (font (size 1.27 1.27)))
      )
      (property "Value" "SW_SPDT_MSM" (id 1) (at 0 -5.08 0)
        (effects (font (size 1.27 1.27)))
      )
      (property "Footprint" "" (id 2) (at 0 0 0)
        (effects (font (size 1.27 1.27)) hide)
      )
      (property "Datasheet" "~" (id 3) (at 0 0 0)
        (effects (font (size 1.27 1.27)) hide)
      )
      (property "ki_keywords" "switch spdt single-pole double-throw ON-OFF-ON" (id 4) (at 0 0 0)
        (effects (font (size 1.27 1.27)) hide)
      )
      (property "ki_description" "Switch, single pole double throw, center OFF position" (id 5) (at 0 0 0)
        (effects (font (size 1.27 1.27)) hide)
      )
      (symbol "SW_SPDT_MSM_0_0"
        (circle (center -2.032 0) (radius 0.508)
          (stroke (width 0) (type default) (color 0 0 0 0))
          (fill (type none))
        )
        (polyline
          (pts
            (xy -1.524 0.127)
            (xy 1.778 1.016)
          )
          (stroke (width 0) (type default) (color 0 0 0 0))
          (fill (type none))
        )
        (circle (center 2.032 -2.54) (radius 0.508)
          (stroke (width 0) (type default) (color 0 0 0 0))
          (fill (type none))
        )
      )
      (symbol "SW_SPDT_MSM_0_1"
        (circle (center 2.032 2.54) (radius 0.508)
          (stroke (width 0) (type default) (color 0 0 0 0))
          (fill (type none))
        )
        (circle (center 2.286 0) (radius 0.508)
          (stroke (width 0) (type default) (color 0 0 0 0))
          (fill (type none))
        )
      )
      (symbol "SW_SPDT_MSM_1_1"
        (pin passive line (at 5.08 2.54 180) (length 2.54)
          (name "1" (effects (font (size 1.27 1.27))))
          (number "1" (effects (font (size 1.27 1.27))))
        )
        (pin passive line (at -5.08 0 0) (length 2.54)
          (name "2" (effects (font (size 1.27 1.27))))
          (number "2" (effects (font (size 1.27 1.27))))
        )
        (pin passive line (at 5.08 -2.54 180) (length 2.54)
          (name "3" (effects (font (size 1.27 1.27))))
          (number "3" (effects (font (size 1.27 1.27))))
        )
      )
    )
    (symbol "power:+3.3V" (power) (pin_names (offset 0)) (in_bom yes) (on_board yes)
      (property "Reference" "#PWR" (id 0) (at 0 -3.81 0)
        (effects (font (size 1.27 1.27)) hide)
      )
      (property "Value" "+3.3V" (id 1) (at 0 3.556 0)
        (effects (font (size 1.27 1.27)))
      )
      (property "Footprint" "" (id 2) (at 0 0 0)
        (effects (font (size 1.27 1.27)) hide)
      )
      (property "Datasheet" "" (id 3) (at 0 0 0)
        (effects (font (size 1.27 1.27)) hide)
      )
      (property "ki_keywords" "power-flag" (id 4) (at 0 0 0)
        (effects (font (size 1.27 1.27)) hide)
      )
      (property "ki_description" "Power symbol creates a global label with name \"+3.3V\"" (id 5) (at 0 0 0)
        (effects (font (size 1.27 1.27)) hide)
      )
      (symbol "+3.3V_0_1"
        (polyline
          (pts
            (xy -0.762 1.27)
            (xy 0 2.54)
          )
          (stroke (width 0) (type default) (color 0 0 0 0))
          (fill (type none))
        )
        (polyline
          (pts
            (xy 0 0)
            (xy 0 2.54)
          )
          (stroke (width 0) (type default) (color 0 0 0 0))
          (fill (type none))
        )
        (polyline
          (pts
            (xy 0 2.54)
            (xy 0.762 1.27)
          )
          (stroke (width 0) (type default) (color 0 0 0 0))
          (fill (type none))
        )
      )
      (symbol "+3.3V_1_1"
        (pin power_in line (at 0 0 90) (length 0) hide
          (name "+3V3" (effects (font (size 1.27 1.27))))
          (number "1" (effects (font (size 1.27 1.27))))
        )
      )
    )
    (symbol "power:GND" (power) (pin_names (offset 0)) (in_bom yes) (on_board yes)
      (property "Reference" "#PWR" (id 0) (at 0 -6.35 0)
        (effects (font (size 1.27 1.27)) hide)
      )
      (property "Value" "GND" (id 1) (at 0 -3.81 0)
        (effects (font (size 1.27 1.27)))
      )
      (property "Footprint" "" (id 2) (at 0 0 0)
        (effects (font (size 1.27 1.27)) hide)
      )
      (property "Datasheet" "" (id 3) (at 0 0 0)
        (effects (font (size 1.27 1.27)) hide)
      )
      (property "ki_keywords" "power-flag" (id 4) (at 0 0 0)
        (effects (font (size 1.27 1.27)) hide)
      )
      (property "ki_description" "Power symbol creates a global label with name \"GND\" , ground" (id 5) (at 0 0 0)
        (effects (font (size 1.27 1.27)) hide)
      )
      (symbol "GND_0_1"
        (polyline
          (pts
            (xy 0 0)
            (xy 0 -1.27)
            (xy 1.27 -1.27)
            (xy 0 -2.54)
            (xy -1.27 -1.27)
            (xy 0 -1.27)
          )
          (stroke (width 0) (type default) (color 0 0 0 0))
          (fill (type none))
        )
      )
      (symbol "GND_1_1"
        (pin power_in line (at 0 0 270) (length 0) hide
          (name "GND" (effects (font (size 1.27 1.27))))
          (number "1" (effects (font (size 1.27 1.27))))
        )
      )
    )
  )

  (junction (at 67.31 44.45) (diameter 0) (color 0 0 0 0)
    (uuid 06c5df15-638f-416e-9375-db8d50a4cd05)
  )
  (junction (at 87.63 83.82) (diameter 0) (color 0 0 0 0)
    (uuid 161829b8-ae95-4dfb-977c-905b9360131c)
  )
  (junction (at 67.31 114.3) (diameter 0) (color 0 0 0 0)
    (uuid 183c52d6-a9ea-43e0-85ae-b4ea9c2ff6ea)
  )
  (junction (at 166.37 38.1) (diameter 0) (color 0 0 0 0)
    (uuid 1c2302b0-5916-4824-9d5b-b461eeb336f6)
  )
  (junction (at 67.31 73.66) (diameter 0) (color 0 0 0 0)
    (uuid 3df40294-f5be-41fd-8275-710435cb59b7)
  )
  (junction (at 69.85 34.29) (diameter 0) (color 0 0 0 0)
    (uuid 498f4b1b-496c-469c-a2b4-72b061cd06b2)
  )
  (junction (at 238.76 25.4) (diameter 0) (color 0 0 0 0)
    (uuid 4f475a92-f9e4-404c-8420-75ad1bb14c9d)
  )
  (junction (at 48.26 36.83) (diameter 0) (color 0 0 0 0)
    (uuid 5d3dcfbe-1fa4-4657-88bd-3cdf1e0ea81f)
  )
  (junction (at 67.31 83.82) (diameter 0) (color 0 0 0 0)
    (uuid 66b64cc3-62c1-4916-894d-f50ba8ae5420)
  )
  (junction (at 67.31 34.29) (diameter 0) (color 0 0 0 0)
    (uuid 68436a53-e454-456a-b552-671611f04900)
  )
  (junction (at 87.63 44.45) (diameter 0) (color 0 0 0 0)
    (uuid 6c6d8d2b-908e-499c-8cf5-737d1dbf2ba6)
  )
  (junction (at 87.63 124.46) (diameter 0) (color 0 0 0 0)
    (uuid 7f943214-c2d2-4c4c-a4c5-4de568dc1e7d)
  )
  (junction (at 72.39 44.45) (diameter 0) (color 0 0 0 0)
    (uuid 853367c4-35cb-44c0-8597-ec684eef7667)
  )
  (junction (at 72.39 114.3) (diameter 0) (color 0 0 0 0)
    (uuid 99da8691-8e34-4d56-a61d-c22288f347ad)
  )
  (junction (at 69.85 114.3) (diameter 0) (color 0 0 0 0)
    (uuid ab640d48-4ef6-48e9-8240-130693dc7605)
  )
  (junction (at 72.39 83.82) (diameter 0) (color 0 0 0 0)
    (uuid b069cc77-5672-49c9-baee-69b317ed22b5)
  )
  (junction (at 166.37 67.31) (diameter 0) (color 0 0 0 0)
    (uuid b2acafec-92a8-4a1b-bd2f-04566a671887)
  )
  (junction (at 139.7 48.26) (diameter 0) (color 0 0 0 0)
    (uuid b7312cae-e0a0-4670-a123-f1b5d606cf86)
  )
  (junction (at 49.53 76.2) (diameter 0) (color 0 0 0 0)
    (uuid b8d9857f-a6a3-485d-b9d8-954dbd89b760)
  )
  (junction (at 238.76 63.5) (diameter 0) (color 0 0 0 0)
    (uuid ba5501da-3a8b-42e5-a208-e95e5a26fab7)
  )
  (junction (at 72.39 34.29) (diameter 0) (color 0 0 0 0)
    (uuid bfecdcad-b480-49bb-b778-a1d3951b1283)
  )
  (junction (at 67.31 124.46) (diameter 0) (color 0 0 0 0)
    (uuid c1536508-d211-4acb-85dd-4f0a0d5dcdc2)
  )
  (junction (at 72.39 124.46) (diameter 0) (color 0 0 0 0)
    (uuid e59e9638-17d6-466c-ab36-ade1f32d31c9)
  )
  (junction (at 48.26 116.84) (diameter 0) (color 0 0 0 0)
    (uuid f35956fe-910e-4bef-a03f-873e538f1193)
  )
  (junction (at 69.85 73.66) (diameter 0) (color 0 0 0 0)
    (uuid f8f6f11c-872c-4106-9dd9-13db41917bf3)
  )
  (junction (at 72.39 73.66) (diameter 0) (color 0 0 0 0)
    (uuid fa56ba46-006c-4160-bce6-cc98c5b8df5d)
  )
  (junction (at 139.7 77.47) (diameter 0) (color 0 0 0 0)
    (uuid fc703e57-7d50-4850-93f5-8d835e3bd29e)
  )

  (wire (pts (xy 67.31 73.66) (xy 69.85 73.66))
    (stroke (width 0) (type default) (color 0 0 0 0))
    (uuid 020711d9-6a2e-488b-a631-9776fcfe5bd6)
  )
  (wire (pts (xy 143.51 38.1) (xy 156.21 38.1))
    (stroke (width 0) (type default) (color 0 0 0 0))
    (uuid 042d8bf9-5cb6-47b3-838b-38b46c5fa73a)
  )
  (wire (pts (xy 241.3 27.94) (xy 238.76 27.94))
    (stroke (width 0) (type default) (color 0 0 0 0))
    (uuid 0493583d-f592-4f05-8668-48f9c17b7909)
  )
  (wire (pts (xy 139.7 48.26) (xy 139.7 44.45))
    (stroke (width 0) (type default) (color 0 0 0 0))
    (uuid 04a56b2d-ac18-4d7b-8c0b-8bbe3b077283)
  )
  (wire (pts (xy 219.71 50.8) (xy 241.3 50.8))
    (stroke (width 0) (type default) (color 0 0 0 0))
    (uuid 04f0473b-2ebf-410c-a50d-a457aa35ee6f)
  )
  (wire (pts (xy 59.69 36.83) (xy 48.26 36.83))
    (stroke (width 0) (type default) (color 0 0 0 0))
    (uuid 06b4f7d2-be60-4162-a8c2-2585ea4b7cb3)
  )
  (wire (pts (xy 153.67 95.25) (xy 172.72 95.25))
    (stroke (width 0) (type default) (color 0 0 0 0))
    (uuid 07009ba7-40c2-4c42-b60e-89772c156aec)
  )
  (wire (pts (xy 69.85 31.75) (xy 69.85 34.29))
    (stroke (width 0) (type default) (color 0 0 0 0))
    (uuid 096b08f2-73b2-49a1-8120-a6289e10e462)
  )
  (wire (pts (xy 219.71 33.02) (xy 241.3 33.02))
    (stroke (width 0) (type default) (color 0 0 0 0))
    (uuid 0c3a01b7-c196-4f2f-b35f-79294687f752)
  )
  (wire (pts (xy 72.39 34.29) (xy 72.39 35.56))
    (stroke (width 0) (type default) (color 0 0 0 0))
    (uuid 0cfd7562-d801-4398-b7c3-6dc15fc2f0c4)
  )
  (wire (pts (xy 69.85 34.29) (xy 72.39 34.29))
    (stroke (width 0) (type default) (color 0 0 0 0))
    (uuid 13b7c81c-0505-46de-966e-a11c8beb6800)
  )
  (wire (pts (xy 72.39 114.3) (xy 72.39 115.57))
    (stroke (width 0) (type default) (color 0 0 0 0))
    (uuid 13ccfd87-f7ed-4d7e-94a5-896d2589ffb8)
  )
  (wire (pts (xy 238.76 60.96) (xy 241.3 60.96))
    (stroke (width 0) (type default) (color 0 0 0 0))
    (uuid 1ae3e1d0-daed-48c3-adfe-76fd063334f9)
  )
  (wire (pts (xy 45.72 31.75) (xy 48.26 31.75))
    (stroke (width 0) (type default) (color 0 0 0 0))
    (uuid 1c05bd26-ff0c-47de-8990-68f22c08c1b0)
  )
  (wire (pts (xy 69.85 71.12) (xy 69.85 73.66))
    (stroke (width 0) (type default) (color 0 0 0 0))
    (uuid 1faadfa4-4709-4f66-8b01-0da7c9fed773)
  )
  (wire (pts (xy 45.72 111.76) (xy 48.26 111.76))
    (stroke (width 0) (type default) (color 0 0 0 0))
    (uuid 25438d4a-b450-4956-904b-d6c6ba783f4f)
  )
  (wire (pts (xy 238.76 67.31) (xy 238.76 63.5))
    (stroke (width 0) (type default) (color 0 0 0 0))
    (uuid 26584982-28b5-452f-aa25-c60eaad0946e)
  )
  (wire (pts (xy 49.53 71.12) (xy 49.53 76.2))
    (stroke (width 0) (type default) (color 0 0 0 0))
    (uuid 277286fb-93fa-4715-9772-a15f4b01cd81)
  )
  (wire (pts (xy 67.31 44.45) (xy 67.31 43.18))
    (stroke (width 0) (type default) (color 0 0 0 0))
    (uuid 27e4df6a-cd7e-4b67-9e8e-042faa4a4f93)
  )
  (wire (pts (xy 153.67 100.33) (xy 172.72 100.33))
    (stroke (width 0) (type default) (color 0 0 0 0))
    (uuid 2986ce9a-4902-4e4a-8e45-2f6dd3309560)
  )
  (wire (pts (xy 219.71 30.48) (xy 241.3 30.48))
    (stroke (width 0) (type default) (color 0 0 0 0))
    (uuid 2cdef2a3-d8ee-4c75-a090-183f4d1abdb3)
  )
  (wire (pts (xy 139.7 59.69) (xy 139.7 60.96))
    (stroke (width 0) (type default) (color 0 0 0 0))
    (uuid 2d4a4ccd-fd20-4bbd-a5ae-819e1d97884d)
  )
  (wire (pts (xy 66.04 34.29) (xy 67.31 34.29))
    (stroke (width 0) (type default) (color 0 0 0 0))
    (uuid 308b542a-5a42-4b91-8eb4-c17a0f0807ef)
  )
  (wire (pts (xy 67.31 124.46) (xy 67.31 123.19))
    (stroke (width 0) (type default) (color 0 0 0 0))
    (uuid 338b193b-d9ed-425a-b53f-451eebe8e026)
  )
  (wire (pts (xy 72.39 83.82) (xy 67.31 83.82))
    (stroke (width 0) (type default) (color 0 0 0 0))
    (uuid 3576e168-79ca-497b-bdee-605875e33bff)
  )
  (wire (pts (xy 45.72 114.3) (xy 58.42 114.3))
    (stroke (width 0) (type default) (color 0 0 0 0))
    (uuid 35db55a8-d494-4f58-9e39-7bf1b79ed981)
  )
  (wire (pts (xy 48.26 116.84) (xy 57.15 116.84))
    (stroke (width 0) (type default) (color 0 0 0 0))
    (uuid 35e564c3-bd10-4417-8d6d-ee2990b20a54)
  )
  (wire (pts (xy 59.69 76.2) (xy 49.53 76.2))
    (stroke (width 0) (type default) (color 0 0 0 0))
    (uuid 394ad625-4a7d-4912-ab8b-16fd65460d02)
  )
  (wire (pts (xy 72.39 123.19) (xy 72.39 124.46))
    (stroke (width 0) (type default) (color 0 0 0 0))
    (uuid 3b5b9f8f-3c80-4279-a267-df61d3d4c69d)
  )
  (wire (pts (xy 48.26 31.75) (xy 48.26 36.83))
    (stroke (width 0) (type default) (color 0 0 0 0))
    (uuid 3c13f948-c4d9-475e-a170-280cc600b647)
  )
  (wire (pts (xy 166.37 38.1) (xy 166.37 39.37))
    (stroke (width 0) (type default) (color 0 0 0 0))
    (uuid 3da9d78d-5775-40e7-85bf-3785e241ca85)
  )
  (wire (pts (xy 87.63 83.82) (xy 87.63 85.09))
    (stroke (width 0) (type default) (color 0 0 0 0))
    (uuid 3db14709-205a-406c-bcd8-b9c9eeaa4ec9)
  )
  (wire (pts (xy 45.72 71.12) (xy 49.53 71.12))
    (stroke (width 0) (type default) (color 0 0 0 0))
    (uuid 3ffce523-60ef-4ab3-a2c8-166a9e95c900)
  )
  (wire (pts (xy 219.71 48.26) (xy 241.3 48.26))
    (stroke (width 0) (type default) (color 0 0 0 0))
    (uuid 409c7d19-4131-464f-a42a-1fefe5e09ca1)
  )
  (wire (pts (xy 57.15 124.46) (xy 67.31 124.46))
    (stroke (width 0) (type default) (color 0 0 0 0))
    (uuid 43ecc1ba-6925-4117-810c-a78cfd1bc067)
  )
  (wire (pts (xy 166.37 38.1) (xy 180.34 38.1))
    (stroke (width 0) (type default) (color 0 0 0 0))
    (uuid 43faf98e-cfa4-4c6a-8d31-a3913ac9dc3d)
  )
  (wire (pts (xy 87.63 34.29) (xy 72.39 34.29))
    (stroke (width 0) (type default) (color 0 0 0 0))
    (uuid 442e1fb4-7040-4e7d-a7dc-10f7727bdd5f)
  )
  (wire (pts (xy 166.37 76.2) (xy 166.37 77.47))
    (stroke (width 0) (type default) (color 0 0 0 0))
    (uuid 46a7386f-7534-4512-8198-9e25cae39753)
  )
  (wire (pts (xy 62.23 149.86) (xy 78.74 149.86))
    (stroke (width 0) (type default) (color 0 0 0 0))
    (uuid 4dede479-7d98-4458-bf61-d5671009d48e)
  )
  (wire (pts (xy 87.63 82.55) (xy 87.63 83.82))
    (stroke (width 0) (type default) (color 0 0 0 0))
    (uuid 502cd17b-cdbf-4aa6-a767-959199f3c66c)
  )
  (wire (pts (xy 87.63 44.45) (xy 87.63 45.72))
    (stroke (width 0) (type default) (color 0 0 0 0))
    (uuid 5142b565-7e0a-4ac6-81c9-8f4c5e9930a0)
  )
  (wire (pts (xy 219.71 43.18) (xy 241.3 43.18))
    (stroke (width 0) (type default) (color 0 0 0 0))
    (uuid 533be789-23ad-4a25-9291-12cb95fc29da)
  )
  (wire (pts (xy 67.31 73.66) (xy 67.31 74.93))
    (stroke (width 0) (type default) (color 0 0 0 0))
    (uuid 53b1e357-548f-452e-bf9c-47cb1eb88332)
  )
  (wire (pts (xy 72.39 124.46) (xy 67.31 124.46))
    (stroke (width 0) (type default) (color 0 0 0 0))
    (uuid 569563cd-794e-467d-8ade-c2e2330289c9)
  )
  (wire (pts (xy 87.63 73.66) (xy 72.39 73.66))
    (stroke (width 0) (type default) (color 0 0 0 0))
    (uuid 578a2d82-97da-43ad-b793-6f7df54f222a)
  )
  (wire (pts (xy 72.39 73.66) (xy 72.39 74.93))
    (stroke (width 0) (type default) (color 0 0 0 0))
    (uuid 6438b86e-5bc4-4c4e-a8b4-a699bc442be8)
  )
  (wire (pts (xy 87.63 35.56) (xy 87.63 34.29))
    (stroke (width 0) (type default) (color 0 0 0 0))
    (uuid 66ec32b0-cc6a-455a-a8f7-292ad21b11fd)
  )
  (wire (pts (xy 72.39 124.46) (xy 87.63 124.46))
    (stroke (width 0) (type default) (color 0 0 0 0))
    (uuid 6a5f9612-23cc-4011-85cb-876de6f12eed)
  )
  (wire (pts (xy 69.85 22.86) (xy 69.85 24.13))
    (stroke (width 0) (type default) (color 0 0 0 0))
    (uuid 6aa68452-943d-440a-b30f-a23e3ed5702e)
  )
  (wire (pts (xy 219.71 55.88) (xy 241.3 55.88))
    (stroke (width 0) (type default) (color 0 0 0 0))
    (uuid 6cb0c78a-c1b8-4afe-a74d-c48d3a4f5351)
  )
  (wire (pts (xy 72.39 82.55) (xy 72.39 83.82))
    (stroke (width 0) (type default) (color 0 0 0 0))
    (uuid 6ec264ab-74cb-4ce5-98b0-501f725dc2d4)
  )
  (wire (pts (xy 238.76 25.4) (xy 238.76 20.32))
    (stroke (width 0) (type default) (color 0 0 0 0))
    (uuid 70d74511-b548-4f73-8ce3-8c852f97189b)
  )
  (wire (pts (xy 45.72 34.29) (xy 58.42 34.29))
    (stroke (width 0) (type default) (color 0 0 0 0))
    (uuid 7193e484-59a7-4a04-8624-86468e85307e)
  )
  (wire (pts (xy 59.69 44.45) (xy 59.69 36.83))
    (stroke (width 0) (type default) (color 0 0 0 0))
    (uuid 756bed0c-3188-4d1b-b946-2c1d8d14adfb)
  )
  (wire (pts (xy 163.83 38.1) (xy 166.37 38.1))
    (stroke (width 0) (type default) (color 0 0 0 0))
    (uuid 78c3eb4b-08c3-461e-8b1f-1541ed964b1a)
  )
  (wire (pts (xy 87.63 74.93) (xy 87.63 73.66))
    (stroke (width 0) (type default) (color 0 0 0 0))
    (uuid 7c14ad88-6d4c-45cf-96de-dc5253554c00)
  )
  (wire (pts (xy 45.72 73.66) (xy 58.42 73.66))
    (stroke (width 0) (type default) (color 0 0 0 0))
    (uuid 7d8336c4-422e-4f2d-a193-6070e8b497fd)
  )
  (wire (pts (xy 166.37 67.31) (xy 180.34 67.31))
    (stroke (width 0) (type default) (color 0 0 0 0))
    (uuid 80233ff5-851d-4c89-9543-dfd1b16827a6)
  )
  (wire (pts (xy 67.31 34.29) (xy 69.85 34.29))
    (stroke (width 0) (type default) (color 0 0 0 0))
    (uuid 80b081b8-83aa-43e0-a1b9-7c052996a559)
  )
  (wire (pts (xy 153.67 123.19) (xy 172.72 123.19))
    (stroke (width 0) (type default) (color 0 0 0 0))
    (uuid 8286ca79-5dca-4c0d-bd28-dcb385353752)
  )
  (wire (pts (xy 48.26 149.86) (xy 54.61 149.86))
    (stroke (width 0) (type default) (color 0 0 0 0))
    (uuid 82d94b91-9454-4393-bb7e-9e404fef2d32)
  )
  (wire (pts (xy 69.85 111.76) (xy 69.85 114.3))
    (stroke (width 0) (type default) (color 0 0 0 0))
    (uuid 850204d7-cd29-4a3e-8078-6e90eb4803f0)
  )
  (wire (pts (xy 139.7 49.53) (xy 139.7 48.26))
    (stroke (width 0) (type default) (color 0 0 0 0))
    (uuid 8697af84-67c8-4d84-a8b4-a590118c8ce6)
  )
  (wire (pts (xy 45.72 116.84) (xy 48.26 116.84))
    (stroke (width 0) (type default) (color 0 0 0 0))
    (uuid 883f8c7b-8d81-4a26-a946-bc14e93526eb)
  )
  (wire (pts (xy 24.13 149.86) (xy 40.64 149.86))
    (stroke (width 0) (type default) (color 0 0 0 0))
    (uuid 8c3e7ea4-8cc1-4aea-8bf3-b008410e1edb)
  )
  (wire (pts (xy 67.31 83.82) (xy 59.69 83.82))
    (stroke (width 0) (type default) (color 0 0 0 0))
    (uuid 8fbf3f1d-8e0e-44c1-b112-36c4e459298d)
  )
  (wire (pts (xy 57.15 116.84) (xy 57.15 124.46))
    (stroke (width 0) (type default) (color 0 0 0 0))
    (uuid 9237073d-986a-449d-9310-29954fc7d009)
  )
  (wire (pts (xy 69.85 73.66) (xy 72.39 73.66))
    (stroke (width 0) (type default) (color 0 0 0 0))
    (uuid 9deadb99-50c0-4d86-8ae6-bf581d953233)
  )
  (wire (pts (xy 72.39 44.45) (xy 87.63 44.45))
    (stroke (width 0) (type default) (color 0 0 0 0))
    (uuid a15849e9-ed57-49e2-b73e-8a0960f46148)
  )
  (wire (pts (xy 49.53 76.2) (xy 45.72 76.2))
    (stroke (width 0) (type default) (color 0 0 0 0))
    (uuid a620221a-cfa3-409d-a7f4-36743d003294)
  )
  (wire (pts (xy 139.7 77.47) (xy 139.7 73.66))
    (stroke (width 0) (type default) (color 0 0 0 0))
    (uuid a8ad5961-c53e-4b70-b42b-e52f3cbec10d)
  )
  (wire (pts (xy 66.04 73.66) (xy 67.31 73.66))
    (stroke (width 0) (type default) (color 0 0 0 0))
    (uuid ab676310-2df5-4acb-a145-a5311950d110)
  )
  (wire (pts (xy 143.51 67.31) (xy 156.21 67.31))
    (stroke (width 0) (type default) (color 0 0 0 0))
    (uuid abe0b287-e005-4109-9e91-fafea068d181)
  )
  (wire (pts (xy 219.71 53.34) (xy 241.3 53.34))
    (stroke (width 0) (type default) (color 0 0 0 0))
    (uuid ae555f58-f58d-495a-8886-14a5f47cc26a)
  )
  (wire (pts (xy 142.24 120.65) (xy 143.51 120.65))
    (stroke (width 0) (type default) (color 0 0 0 0))
    (uuid af537336-e6d0-40ca-9456-438cf2fb4a11)
  )
  (wire (pts (xy 238.76 63.5) (xy 238.76 60.96))
    (stroke (width 0) (type default) (color 0 0 0 0))
    (uuid b3bcff99-d648-4406-b4de-b593592865da)
  )
  (wire (pts (xy 142.24 100.33) (xy 142.24 97.79))
    (stroke (width 0) (type default) (color 0 0 0 0))
    (uuid b4cb041b-95ce-4b42-bf0b-e5afa0e16941)
  )
  (wire (pts (xy 219.71 38.1) (xy 241.3 38.1))
    (stroke (width 0) (type default) (color 0 0 0 0))
    (uuid b7542216-9856-4284-a507-29571c2ccf02)
  )
  (wire (pts (xy 238.76 27.94) (xy 238.76 25.4))
    (stroke (width 0) (type default) (color 0 0 0 0))
    (uuid b92a6888-7509-45f3-9f96-a4e673c13e73)
  )
  (wire (pts (xy 166.37 46.99) (xy 166.37 48.26))
    (stroke (width 0) (type default) (color 0 0 0 0))
    (uuid b9a848e5-dd67-4e2b-8b5e-83eba6aba0b1)
  )
  (wire (pts (xy 219.71 35.56) (xy 241.3 35.56))
    (stroke (width 0) (type default) (color 0 0 0 0))
    (uuid bbfa3f07-92f6-44f5-b543-8f5a4bc87dcd)
  )
  (wire (pts (xy 139.7 30.48) (xy 139.7 31.75))
    (stroke (width 0) (type default) (color 0 0 0 0))
    (uuid bf83c8b2-2171-47a8-a42f-266fff66db83)
  )
  (wire (pts (xy 67.31 44.45) (xy 59.69 44.45))
    (stroke (width 0) (type default) (color 0 0 0 0))
    (uuid c1d394a6-1025-4a8d-b7a7-21f03c560eda)
  )
  (wire (pts (xy 87.63 114.3) (xy 72.39 114.3))
    (stroke (width 0) (type default) (color 0 0 0 0))
    (uuid c30c25ba-747a-413b-9356-70be46b884c0)
  )
  (wire (pts (xy 163.83 67.31) (xy 166.37 67.31))
    (stroke (width 0) (type default) (color 0 0 0 0))
    (uuid c3a8f3d4-589b-4894-a31c-2f29215589cd)
  )
  (wire (pts (xy 67.31 83.82) (xy 67.31 82.55))
    (stroke (width 0) (type default) (color 0 0 0 0))
    (uuid c749cd6e-c1ed-4df1-8f28-606aba05e87b)
  )
  (wire (pts (xy 87.63 123.19) (xy 87.63 124.46))
    (stroke (width 0) (type default) (color 0 0 0 0))
    (uuid c767e921-993d-46d0-b7af-97a2c9b10bd4)
  )
  (wire (pts (xy 48.26 36.83) (xy 45.72 36.83))
    (stroke (width 0) (type default) (color 0 0 0 0))
    (uuid c7d322b5-2cc7-4ab4-953c-5ca2eb1d4d62)
  )
  (wire (pts (xy 238.76 25.4) (xy 241.3 25.4))
    (stroke (width 0) (type default) (color 0 0 0 0))
    (uuid cc118b2d-f9a2-41b6-b727-dd2b180704b2)
  )
  (wire (pts (xy 69.85 102.87) (xy 69.85 104.14))
    (stroke (width 0) (type default) (color 0 0 0 0))
    (uuid cd1ba348-fe5a-4958-98b7-904d9c42ba1a)
  )
  (wire (pts (xy 139.7 48.26) (xy 166.37 48.26))
    (stroke (width 0) (type default) (color 0 0 0 0))
    (uuid cf289d4b-3021-4468-bdb4-d97521f4e974)
  )
  (wire (pts (xy 72.39 44.45) (xy 67.31 44.45))
    (stroke (width 0) (type default) (color 0 0 0 0))
    (uuid cf8d39cf-e9be-4edf-8e48-6df6c1feef5d)
  )
  (wire (pts (xy 74.93 147.32) (xy 78.74 147.32))
    (stroke (width 0) (type default) (color 0 0 0 0))
    (uuid d168f937-1fd7-4f7b-9c66-3516ae3780e5)
  )
  (wire (pts (xy 153.67 143.51) (xy 171.45 143.51))
    (stroke (width 0) (type default) (color 0 0 0 0))
    (uuid d2575226-30de-4385-adce-2fe07162b0d3)
  )
  (wire (pts (xy 69.85 62.23) (xy 69.85 63.5))
    (stroke (width 0) (type default) (color 0 0 0 0))
    (uuid d4272707-8a74-445e-bde1-a57023bf76c4)
  )
  (wire (pts (xy 219.71 58.42) (xy 241.3 58.42))
    (stroke (width 0) (type default) (color 0 0 0 0))
    (uuid d6f29acf-bd54-49ca-92f6-78deaf2d102b)
  )
  (wire (pts (xy 69.85 114.3) (xy 72.39 114.3))
    (stroke (width 0) (type default) (color 0 0 0 0))
    (uuid d7ef10ed-af34-4a2b-a948-897c782af1d5)
  )
  (wire (pts (xy 219.71 45.72) (xy 241.3 45.72))
    (stroke (width 0) (type default) (color 0 0 0 0))
    (uuid da2bc03f-171f-4ee9-8c3b-60d2d1316430)
  )
  (wire (pts (xy 142.24 97.79) (xy 143.51 97.79))
    (stroke (width 0) (type default) (color 0 0 0 0))
    (uuid db3c3152-99a3-4915-ad8c-57e1c8ab887c)
  )
  (wire (pts (xy 153.67 118.11) (xy 172.72 118.11))
    (stroke (width 0) (type default) (color 0 0 0 0))
    (uuid dba15874-6b38-4ca9-95e0-3df0c183c1f0)
  )
  (wire (pts (xy 140.97 143.51) (xy 143.51 143.51))
    (stroke (width 0) (type default) (color 0 0 0 0))
    (uuid dc1a6d5d-515d-4161-9f79-f4e4f1b7155d)
  )
  (wire (pts (xy 139.7 77.47) (xy 166.37 77.47))
    (stroke (width 0) (type default) (color 0 0 0 0))
    (uuid dc665f4a-59e7-4dcb-84cf-5e5f8e23760c)
  )
  (wire (pts (xy 74.93 157.48) (xy 74.93 147.32))
    (stroke (width 0) (type default) (color 0 0 0 0))
    (uuid dddb983b-fa17-42e3-8384-9d19f9bb7d42)
  )
  (wire (pts (xy 59.69 83.82) (xy 59.69 76.2))
    (stroke (width 0) (type default) (color 0 0 0 0))
    (uuid de06275f-a734-4bc0-8255-6ea9bd5a82c4)
  )
  (wire (pts (xy 87.63 43.18) (xy 87.63 44.45))
    (stroke (width 0) (type default) (color 0 0 0 0))
    (uuid e0b4f914-d6c2-46d6-afad-f39cf253e97d)
  )
  (wire (pts (xy 140.97 143.51) (xy 140.97 146.05))
    (stroke (width 0) (type default) (color 0 0 0 0))
    (uuid e83aa043-8bfc-4fb7-9dd7-1c82beff80b9)
  )
  (wire (pts (xy 142.24 123.19) (xy 142.24 120.65))
    (stroke (width 0) (type default) (color 0 0 0 0))
    (uuid e83b443c-f59a-4865-89ff-d5084d0dd6be)
  )
  (wire (pts (xy 48.26 111.76) (xy 48.26 116.84))
    (stroke (width 0) (type default) (color 0 0 0 0))
    (uuid e92f955a-c3b1-473b-96e0-f304b4f9b568)
  )
  (wire (pts (xy 72.39 83.82) (xy 87.63 83.82))
    (stroke (width 0) (type default) (color 0 0 0 0))
    (uuid ea02b3c4-0d42-4775-af01-944d87c83195)
  )
  (wire (pts (xy 67.31 34.29) (xy 67.31 35.56))
    (stroke (width 0) (type default) (color 0 0 0 0))
    (uuid eb3bc926-e80d-44b3-9765-a80f95b8faef)
  )
  (wire (pts (xy 72.39 43.18) (xy 72.39 44.45))
    (stroke (width 0) (type default) (color 0 0 0 0))
    (uuid ed7bec86-a624-48d1-803f-3ebbf3f45e6b)
  )
  (wire (pts (xy 219.71 40.64) (xy 241.3 40.64))
    (stroke (width 0) (type default) (color 0 0 0 0))
    (uuid f0d48993-7073-47a5-bb2c-84b73c86c437)
  )
  (wire (pts (xy 87.63 115.57) (xy 87.63 114.3))
    (stroke (width 0) (type default) (color 0 0 0 0))
    (uuid f0d92af9-5eca-4922-9845-c1a7e5a69412)
  )
  (wire (pts (xy 166.37 67.31) (xy 166.37 68.58))
    (stroke (width 0) (type default) (color 0 0 0 0))
    (uuid f7f5d99f-3625-47ec-ad2d-73ed7ac693d5)
  )
  (wire (pts (xy 67.31 114.3) (xy 67.31 115.57))
    (stroke (width 0) (type default) (color 0 0 0 0))
    (uuid f82da007-6724-46e9-bafd-cab35bbd6a70)
  )
  (wire (pts (xy 87.63 124.46) (xy 87.63 125.73))
    (stroke (width 0) (type default) (color 0 0 0 0))
    (uuid f9e592a6-a4da-49ef-a323-c9d56ba58939)
  )
  (wire (pts (xy 66.04 114.3) (xy 67.31 114.3))
    (stroke (width 0) (type default) (color 0 0 0 0))
    (uuid faf94cd0-b33f-4c9b-9cb4-a9259026ceb2)
  )
  (wire (pts (xy 67.31 114.3) (xy 69.85 114.3))
    (stroke (width 0) (type default) (color 0 0 0 0))
    (uuid fb00b5eb-98b3-44f3-8f8a-e2b66b45a743)
  )
  (wire (pts (xy 238.76 63.5) (xy 241.3 63.5))
    (stroke (width 0) (type default) (color 0 0 0 0))
    (uuid fc63e2fb-2d7d-46d0-8d66-0a7df2ef7254)
  )
  (wire (pts (xy 139.7 78.74) (xy 139.7 77.47))
    (stroke (width 0) (type default) (color 0 0 0 0))
    (uuid fe7e64d9-852e-40e5-b09e-3ddb66974264)
  )

  (text "OCTAVE SWITCH" (at 149.86 106.68 0)
    (effects (font (size 1.905 1.905) (thickness 0.381) bold) (justify left bottom))
    (uuid 0787b9ac-9a01-42bc-b171-f86187b67991)
  )
  (text "GATE" (at 25.4 114.3 0)
    (effects (font (size 1.905 1.905) (thickness 0.381) bold) (justify left bottom))
    (uuid 0ff45be0-935d-475a-887c-e7d043ec2acc)
  )
  (text "V/OCT" (at 21.59 34.29 0)
    (effects (font (size 1.905 1.905) (thickness 0.381) bold) (justify left bottom))
    (uuid 202ca707-a20c-4b36-aa1c-ca77a298470f)
  )
  (text "MOD_CV" (at 19.05 73.66 0)
    (effects (font (size 1.905 1.905) (thickness 0.381) bold) (justify left bottom))
    (uuid 44c6f334-57fc-49df-9a4c-2f92e87356a5)
  )
  (text "FREQ" (at 123.19 40.64 0)
    (effects (font (size 1.905 1.905) (thickness 0.381) bold) (justify left bottom))
    (uuid 533f2d31-47e2-4f6c-b9be-587f8c6c4ed1)
  )
  (text "MODE SWITCH" (at 148.59 132.08 0)
    (effects (font (size 1.905 1.905) (thickness 0.381) bold) (justify left bottom))
    (uuid 84bdff7a-5f16-44cb-bcd0-c7a0a2a826b3)
  )
  (text "WAVEFORM\nSELECT" (at 125.73 144.78 0)
    (effects (font (size 1.905 1.905) (thickness 0.381) bold) (justify left bottom))
    (uuid a26010ef-6073-4e67-94cc-2417efb418c3)
  )
  (text "MOD" (at 125.73 68.58 0)
    (effects (font (size 1.905 1.905) (thickness 0.381) bold) (justify left bottom))
    (uuid d27a6869-12d6-4a70-b646-e5cf35ece4a0)
  )
  (text "AUD_OUT" (at 92.71 152.4 0)
    (effects (font (size 1.905 1.905) (thickness 0.381) bold) (justify left bottom))
    (uuid e7675e50-ffb8-4088-989e-fcf5444b3ede)
  )

  (label "GATE_CTL" (at 77.47 114.3 0)
    (effects (font (size 1.27 1.27)) (justify left bottom))
    (uuid 12be23f9-f502-46ea-bc49-83f436aa7da4)
  )
  (label "V_OCT" (at 50.8 34.29 0)
    (effects (font (size 1.27 1.27)) (justify left bottom))
    (uuid 1a74eb50-b0b6-4421-9cd1-7fa35e3e6e51)
  )
  (label "FREQ_POT" (at 222.25 45.72 0)
    (effects (font (size 1.27 1.27)) (justify left bottom))
    (uuid 325bea33-ac9d-4c20-be3e-1d9cb21bae5f)
  )
  (label "MOD_CV" (at 77.47 73.66 0)
    (effects (font (size 1.27 1.27)) (justify left bottom))
    (uuid 4343120a-670e-4d9d-916d-47c867b8ad9f)
  )
  (label "FREQ_POT" (at 168.91 38.1 0)
    (effects (font (size 1.27 1.27)) (justify left bottom))
    (uuid 4dc51635-fb7f-4e3b-8540-f80176727e1b)
  )
  (label "MOD_FINE" (at 144.78 67.31 0)
    (effects (font (size 1.27 1.27)) (justify left bottom))
    (uuid 4e5f4bbe-c3de-49b9-aefe-dde1b89c00a1)
  )
  (label "MOD_POT" (at 222.25 35.56 0)
    (effects (font (size 1.27 1.27)) (justify left bottom))
    (uuid 514871b5-a5ae-4e63-9804-53d85f7ec10f)
  )
  (label "OCT_DN_PB" (at 222.25 33.02 0)
    (effects (font (size 1.27 1.27)) (justify left bottom))
    (uuid 5223f601-c64f-4833-848f-b7c60a751a90)
  )
  (label "AUD_OUT" (at 29.21 149.86 0)
    (effects (font (size 1.27 1.27)) (justify left bottom))
    (uuid 53b82561-051f-403d-8bf4-78406a82f64f)
  )
  (label "MODE_DN_PB" (at 222.25 48.26 0)
    (effects (font (size 1.27 1.27)) (justify left bottom))
    (uuid 59824616-d26c-49bb-8a95-7ec42803794d)
  )
  (label "MOD_POT" (at 168.91 67.31 0)
    (effects (font (size 1.27 1.27)) (justify left bottom))
    (uuid 5bc7627d-2a6c-4700-b0b7-1fc6de9fb0ab)
  )
  (label "TIMBRE_PB" (at 158.75 143.51 0)
    (effects (font (size 1.27 1.27)) (justify left bottom))
    (uuid 5fb89c5b-0c93-4049-ac44-1b53b59657a1)
  )
  (label "MOD_CV" (at 222.25 53.34 0)
    (effects (font (size 1.27 1.27)) (justify left bottom))
    (uuid 8139e267-9b2e-419e-9ccc-e348ee347764)
  )
  (label "OCT_UP_PB" (at 222.25 38.1 0)
    (effects (font (size 1.27 1.27)) (justify left bottom))
    (uuid 8e694484-fbe6-4ef0-84d9-099e35539b47)
  )
  (label "GATE_CTL" (at 222.25 40.64 0)
    (effects (font (size 1.27 1.27)) (justify left bottom))
    (uuid 9360c86a-c140-452e-9c85-f713fb43357e)
  )
  (label "MODE_UP_PB" (at 222.25 43.18 0)
    (effects (font (size 1.27 1.27)) (justify left bottom))
    (uuid 96139031-c150-4364-a35a-377de5e437ac)
  )
  (label "VPEROCT_CV" (at 76.2 34.29 0)
    (effects (font (size 1.27 1.27)) (justify left bottom))
    (uuid 99f2159b-1f11-41f1-9dd7-f84e9fe47ce5)
  )
  (label "OCT_DN_PB" (at 158.75 100.33 0)
    (effects (font (size 1.27 1.27)) (justify left bottom))
    (uuid 9f69812c-1db7-4090-864b-8aa9f9d9eb6a)
  )
  (label "CV" (at 54.61 73.66 0)
    (effects (font (size 1.27 1.27)) (justify left bottom))
    (uuid ad337a6e-604f-4455-8e33-0bb2e41f8410)
  )
  (label "FREQ_FINE" (at 144.78 38.1 0)
    (effects (font (size 1.27 1.27)) (justify left bottom))
    (uuid c8da75ce-14b6-42d4-b5a2-0b777c6bb2a4)
  )
  (label "MODE_UP_PB" (at 157.48 118.11 0)
    (effects (font (size 1.27 1.27)) (justify left bottom))
    (uuid d9a9f005-22be-49e7-98b9-98ec87790a09)
  )
  (label "GATE" (at 53.34 114.3 0)
    (effects (font (size 1.27 1.27)) (justify left bottom))
    (uuid dbc6bf33-0237-48dc-ae27-ad54518f632a)
  )
  (label "VPEROCT_CV" (at 222.25 50.8 0)
    (effects (font (size 1.27 1.27)) (justify left bottom))
    (uuid f3061990-d6ed-4907-a612-ef6acd556808)
  )
  (label "AUD_OUT" (at 222.25 55.88 0)
    (effects (font (size 1.27 1.27)) (justify left bottom))
    (uuid f3bf47ef-e9cb-4d6d-a366-8913e6069591)
  )
  (label "TIMBRE_PB" (at 222.25 58.42 0)
    (effects (font (size 1.27 1.27)) (justify left bottom))
    (uuid f5deb0ed-1c31-447d-be55-938fdcf89b27)
  )
  (label "OCT_UP_PB" (at 158.75 95.25 0)
    (effects (font (size 1.27 1.27)) (justify left bottom))
    (uuid f653984e-336c-47a7-a019-3cc4a84878d7)
  )
  (label "MODE_DN_PB" (at 157.48 123.19 0)
    (effects (font (size 1.27 1.27)) (justify left bottom))
    (uuid f9d08046-be99-47b2-b08c-03caac8c7660)
  )

  (symbol (lib_id "LandBoards:POT") (at 139.7 67.31 270) (mirror x) (unit 1)
    (in_bom yes) (on_board yes)
    (uuid 0185a47c-5669-4a7c-89ae-2009fc7ca3bb)
    (property "Reference" "RV1" (id 0) (at 137.795 68.2185 90)
      (effects (font (size 1.27 1.27)) (justify right))
    )
    (property "Value" "10K" (id 1) (at 137.795 65.4434 90)
      (effects (font (size 1.27 1.27)) (justify right))
    )
    (property "Footprint" "Potentiometer_THT:Potentiometer_Bourns_PTV09A-1_Single_Vertical" (id 2) (at 162.56 53.34 90)
      (effects (font (size 0.762 0.762) bold))
    )
    (property "Datasheet" "" (id 3) (at 139.7 67.31 0)
      (effects (font (size 1.524 1.524)))
    )
    (pin "1" (uuid b0d9041a-507f-439c-b4cb-24c447b30536))
    (pin "2" (uuid 5786a576-40a3-41be-a381-0fb9e5df1bf4))
    (pin "3" (uuid 5221b4cc-22eb-4adc-a740-2cb7829cf48f))
  )

  (symbol (lib_id "Device:C") (at 87.63 78.74 0) (unit 1)
    (in_bom yes) (on_board yes)
    (uuid 021fa758-1d78-4a56-a1ae-a6e82432e68a)
    (property "Reference" "C7" (id 0) (at 90.551 76.4286 0)
      (effects (font (size 1.27 1.27)) (justify left))
    )
    (property "Value" "0.01uF" (id 1) (at 90.551 78.74 0)
      (effects (font (size 1.27 1.27)) (justify left))
    )
    (property "Footprint" "Capacitor_THT:C_Rect_L4.0mm_W2.5mm_P2.50mm" (id 2) (at 73.66 93.98 0)
      (effects (font (size 0.762 0.762)) (justify left))
    )
    (property "Datasheet" "https://www.mouser.com/ProductDetail/TDK/FG18X7R1H473KNT06?qs=qf2ddTMq67Ua7q%2FdN4IhqA%3D%3D" (id 3) (at 87.63 78.74 0)
      (effects (font (size 1.27 1.27)) hide)
    )
    (pin "1" (uuid 8e44031c-2efe-47bf-a26d-c46038a35395))
    (pin "2" (uuid d1cde004-0174-437c-a522-054d621689a1))
  )

  (symbol (lib_id "power:GND") (at 139.7 78.74 0) (unit 1)
    (in_bom yes) (on_board yes) (fields_autoplaced)
    (uuid 0b4d2440-e6d6-4110-b066-614cd4d82fb3)
    (property "Reference" "#PWR0109" (id 0) (at 139.7 85.09 0)
      (effects (font (size 1.27 1.27)) hide)
    )
    (property "Value" "GND" (id 1) (at 139.7 83.3025 0))
    (property "Footprint" "" (id 2) (at 139.7 78.74 0)
      (effects (font (size 1.27 1.27)) hide)
    )
    (property "Datasheet" "" (id 3) (at 139.7 78.74 0)
      (effects (font (size 1.27 1.27)) hide)
    )
    (pin "1" (uuid 34afbc14-ba30-4229-86b3-79f7aa20ff8a))
  )

  (symbol (lib_id "power:GND") (at 87.63 125.73 0) (unit 1)
    (in_bom yes) (on_board yes) (fields_autoplaced)
    (uuid 183cde98-bab0-4968-88af-53864d2fd937)
    (property "Reference" "#PWR0131" (id 0) (at 87.63 132.08 0)
      (effects (font (size 1.27 1.27)) hide)
    )
    (property "Value" "GND" (id 1) (at 87.63 130.2925 0))
    (property "Footprint" "" (id 2) (at 87.63 125.73 0)
      (effects (font (size 1.27 1.27)) hide)
    )
    (property "Datasheet" "" (id 3) (at 87.63 125.73 0)
      (effects (font (size 1.27 1.27)) hide)
    )
    (pin "1" (uuid b3e652f7-0425-46d6-a5a2-71ad7eea48d8))
  )

  (symbol (lib_id "Device:R") (at 62.23 73.66 90) (unit 1)
    (in_bom yes) (on_board yes)
    (uuid 189add42-cbba-483e-8b20-c3fbe615fb76)
    (property "Reference" "R13" (id 0) (at 62.23 71.12 90))
    (property "Value" "22K" (id 1) (at 62.23 73.66 90))
    (property "Footprint" "Resistor_THT:R_Axial_DIN0204_L3.6mm_D1.6mm_P2.54mm_Vertical" (id 2) (at 62.23 90.17 90)
      (effects (font (size 0.762 0.762)))
    )
    (property "Datasheet" "https://www.mouser.com/ProductDetail/Xicon/299-2.2K-RC?qs=QaPBMFBEHz3RDbXknTj%252ByA%3D%3D" (id 3) (at 62.23 73.66 0)
      (effects (font (size 1.27 1.27)) hide)
    )
    (pin "1" (uuid 0265d3cf-0444-4f03-af15-97712bffe163))
    (pin "2" (uuid 4176cdda-e5fa-4b8d-9f8d-ecaa2838d73f))
  )

  (symbol (lib_id "Device:R") (at 160.02 38.1 90) (unit 1)
    (in_bom yes) (on_board yes)
    (uuid 18fd3ab7-7fdd-4b43-8b50-8f58cbc03bbd)
    (property "Reference" "R11" (id 0) (at 160.02 35.56 90))
    (property "Value" "1K" (id 1) (at 160.02 38.1 90))
    (property "Footprint" "Resistor_THT:R_Axial_DIN0204_L3.6mm_D1.6mm_P2.54mm_Vertical" (id 2) (at 179.07 54.61 90)
      (effects (font (size 0.762 0.762)))
    )
    (property "Datasheet" "https://www.mouser.com/ProductDetail/Xicon/299-2.2K-RC?qs=QaPBMFBEHz3RDbXknTj%252ByA%3D%3D" (id 3) (at 160.02 38.1 0)
      (effects (font (size 1.27 1.27)) hide)
    )
    (pin "1" (uuid 8f16d9e5-0329-4601-a34e-ce04f5e667ad))
    (pin "2" (uuid ef489288-a1e4-4b32-aa70-be22e6e312a5))
  )

  (symbol (lib_id "power:GND") (at 87.63 85.09 0) (unit 1)
    (in_bom yes) (on_board yes) (fields_autoplaced)
    (uuid 1bc87082-5d9a-4e43-9e24-e7de0a9cf913)
    (property "Reference" "#PWR0101" (id 0) (at 87.63 91.44 0)
      (effects (font (size 1.27 1.27)) hide)
    )
    (property "Value" "GND" (id 1) (at 87.63 89.6525 0))
    (property "Footprint" "" (id 2) (at 87.63 85.09 0)
      (effects (font (size 1.27 1.27)) hide)
    )
    (property "Datasheet" "" (id 3) (at 87.63 85.09 0)
      (effects (font (size 1.27 1.27)) hide)
    )
    (pin "1" (uuid 41c9f05f-7be0-4465-8c47-159d47cfdd47))
  )

  (symbol (lib_id "power:+3.3V") (at 69.85 62.23 0) (unit 1)
    (in_bom yes) (on_board yes) (fields_autoplaced)
    (uuid 1d236c4c-4090-4b2b-9a46-fef729bf41f7)
    (property "Reference" "#PWR0102" (id 0) (at 69.85 66.04 0)
      (effects (font (size 1.27 1.27)) hide)
    )
    (property "Value" "+3.3V" (id 1) (at 69.85 58.6255 0))
    (property "Footprint" "" (id 2) (at 69.85 62.23 0)
      (effects (font (size 1.27 1.27)) hide)
    )
    (property "Datasheet" "" (id 3) (at 69.85 62.23 0)
      (effects (font (size 1.27 1.27)) hide)
    )
    (pin "1" (uuid ff3588f0-aeb3-46c4-a84f-02701fed6d39))
  )

  (symbol (lib_id "Device:C") (at 166.37 43.18 0) (unit 1)
    (in_bom yes) (on_board yes)
    (uuid 1f974058-9655-4deb-8f6a-0f702bb2e27f)
    (property "Reference" "C6" (id 0) (at 169.291 40.8686 0)
      (effects (font (size 1.27 1.27)) (justify left))
    )
    (property "Value" "0.1uF" (id 1) (at 169.291 43.18 0)
      (effects (font (size 1.27 1.27)) (justify left))
    )
    (property "Footprint" "Capacitor_THT:C_Rect_L4.0mm_W2.5mm_P2.50mm" (id 2) (at 156.21 53.34 0)
      (effects (font (size 0.762 0.762)) (justify left))
    )
    (property "Datasheet" "https://www.mouser.com/ProductDetail/TDK/FG18X7R1H473KNT06?qs=qf2ddTMq67Ua7q%2FdN4IhqA%3D%3D" (id 3) (at 166.37 43.18 0)
      (effects (font (size 1.27 1.27)) hide)
    )
    (pin "1" (uuid 0e13c9f5-7f84-4474-bda4-358d73bfa30e))
    (pin "2" (uuid 48275b40-b544-44dd-830f-6aae35378b04))
  )

  (symbol (lib_id "Device:R") (at 62.23 34.29 90) (unit 1)
    (in_bom yes) (on_board yes)
    (uuid 23b9a4cd-cdfa-4a8d-ad9e-e45e4667b853)
    (property "Reference" "R9" (id 0) (at 62.23 31.75 90))
    (property "Value" "220K" (id 1) (at 62.23 34.29 90))
    (property "Footprint" "Resistor_THT:R_Axial_DIN0204_L3.6mm_D1.6mm_P2.54mm_Vertical" (id 2) (at 62.23 50.8 90)
      (effects (font (size 0.762 0.762)))
    )
    (property "Datasheet" "https://www.mouser.com/ProductDetail/Xicon/299-2.2K-RC?qs=QaPBMFBEHz3RDbXknTj%252ByA%3D%3D" (id 3) (at 62.23 34.29 0)
      (effects (font (size 1.27 1.27)) hide)
    )
    (pin "1" (uuid 7e982573-19cd-4615-b1d7-047489272a97))
    (pin "2" (uuid d1b808d7-7fa5-49d6-a656-49a20c55ec7d))
  )

  (symbol (lib_id "Connector:AudioJack2_SwitchT") (at 83.82 149.86 0) (mirror y) (unit 1)
    (in_bom yes) (on_board yes)
    (uuid 251d9043-2594-45e9-994a-7c526362a4c1)
    (property "Reference" "J2" (id 0) (at 83.82 144.78 0))
    (property "Value" "PJ-301BM" (id 1) (at 83.82 156.21 0))
    (property "Footprint" "AudioJacks:Jack_3.5mm_QingPu_WQP-PJ301BM_Vertical" (id 2) (at 83.82 149.86 0)
      (effects (font (size 1.27 1.27)) hide)
    )
    (property "Datasheet" "https://store.synthrotek.com/3_point_5mm_Vertical_Mount_Jacks" (id 3) (at 83.82 149.86 0)
      (effects (font (size 1.27 1.27)) hide)
    )
    (pin "S" (uuid 3b117fc4-cd78-4946-9e24-7b6f61a17143))
    (pin "T" (uuid c24a7a0c-0477-443e-bc2e-8d1f453830ef))
    (pin "TN" (uuid 0f113a20-0051-4cef-9ff5-54f1f83c29b6))
  )

  (symbol (lib_id "power:GND") (at 238.76 67.31 0) (unit 1)
    (in_bom yes) (on_board yes) (fields_autoplaced)
    (uuid 2852ff54-665b-4bb8-93ab-81a9ba0aa6d7)
    (property "Reference" "#PWR0104" (id 0) (at 238.76 73.66 0)
      (effects (font (size 1.27 1.27)) hide)
    )
    (property "Value" "GND" (id 1) (at 238.76 71.8725 0))
    (property "Footprint" "" (id 2) (at 238.76 67.31 0)
      (effects (font (size 1.27 1.27)) hide)
    )
    (property "Datasheet" "" (id 3) (at 238.76 67.31 0)
      (effects (font (size 1.27 1.27)) hide)
    )
    (pin "1" (uuid f5d947e0-1a40-4be1-b537-55484539f42b))
  )

  (symbol (lib_id "Device:D_Schottky") (at 69.85 27.94 270) (unit 1)
    (in_bom yes) (on_board yes)
    (uuid 3017ff5a-a688-458b-bc91-2b91ea1e010c)
    (property "Reference" "D5" (id 0) (at 71.882 26.714 90)
      (effects (font (size 1.27 1.27)) (justify left))
    )
    (property "Value" "BAT41" (id 1) (at 71.882 29.4891 90)
      (effects (font (size 1.27 1.27)) (justify left))
    )
    (property "Footprint" "Diode_THT:D_DO-35_SOD27_P2.54mm_Vertical_KathodeUp" (id 2) (at 69.85 53.34 90)
      (effects (font (size 0.762 0.762)))
    )
    (property "Datasheet" "~" (id 3) (at 69.85 27.94 0)
      (effects (font (size 1.27 1.27)) hide)
    )
    (pin "1" (uuid a4e64c80-b2df-4558-a2cb-a8c6591229fc))
    (pin "2" (uuid 710deca7-5df4-4e58-8361-22c21253049c))
  )

  (symbol (lib_id "Connector:AudioJack2_SwitchT") (at 40.64 73.66 0) (unit 1)
    (in_bom yes) (on_board yes)
    (uuid 3d6a2f2e-3e33-4e65-a61f-5fbbe459244f)
    (property "Reference" "J4" (id 0) (at 40.64 68.58 0))
    (property "Value" "PJ-301BM" (id 1) (at 40.64 80.01 0))
    (property "Footprint" "AudioJacks:Jack_3.5mm_QingPu_WQP-PJ301BM_Vertical" (id 2) (at 40.64 92.71 0)
      (effects (font (size 0.762 0.762)))
    )
    (property "Datasheet" "https://store.synthrotek.com/3_point_5mm_Vertical_Mount_Jacks" (id 3) (at 40.64 73.66 0)
      (effects (font (size 1.27 1.27)) hide)
    )
    (pin "S" (uuid 7122a679-0d1d-4bc8-a92d-965bd8303494))
    (pin "T" (uuid f671cf39-6df4-4942-8712-44c8f9fa5fdc))
    (pin "TN" (uuid fd369f2a-2c0e-4ed7-9b1c-acc5938c6035))
  )

  (symbol (lib_id "Switch:SW_SPDT_MSM") (at 148.59 97.79 0) (mirror x) (unit 1)
    (in_bom yes) (on_board yes)
    (uuid 3f599525-8211-46a7-a6bb-60db6a40aae0)
    (property "Reference" "SW4" (id 0) (at 148.59 102.87 0))
    (property "Value" "SW_SPDT_MSM" (id 1) (at 153.67 92.71 0))
    (property "Footprint" "Connector_PinHeader_2.54mm:PinHeader_1x03_P2.54mm_Horizontal" (id 2) (at 148.59 107.95 0)
      (effects (font (size 0.762 0.762)))
    )
    (property "Datasheet" "~" (id 3) (at 148.59 97.79 0)
      (effects (font (size 1.27 1.27)) hide)
    )
    (pin "1" (uuid 8a9f6e4a-e586-4ee7-9fe6-4e0137792ea0))
    (pin "2" (uuid 0bc364ab-c5b3-44f8-bec5-4094e38768f3))
    (pin "3" (uuid 49ad1df5-1ee4-4b4d-a502-67993612e8ae))
  )

  (symbol (lib_id "power:GND") (at 142.24 100.33 0) (unit 1)
    (in_bom yes) (on_board yes) (fields_autoplaced)
    (uuid 3fcf5849-f035-4ef6-a904-5771bc1e4db0)
    (property "Reference" "#PWR0112" (id 0) (at 142.24 106.68 0)
      (effects (font (size 1.27 1.27)) hide)
    )
    (property "Value" "GND" (id 1) (at 142.24 104.8925 0))
    (property "Footprint" "" (id 2) (at 142.24 100.33 0)
      (effects (font (size 1.27 1.27)) hide)
    )
    (property "Datasheet" "" (id 3) (at 142.24 100.33 0)
      (effects (font (size 1.27 1.27)) hide)
    )
    (pin "1" (uuid 40dcc27d-1810-4fdd-ba72-8745fb04c433))
  )

  (symbol (lib_id "Device:D_Schottky") (at 72.39 119.38 270) (unit 1)
    (in_bom yes) (on_board yes)
    (uuid 4b009266-d309-4daa-b0d0-be665b559a6a)
    (property "Reference" "D4" (id 0) (at 74.422 118.154 90)
      (effects (font (size 1.27 1.27)) (justify left))
    )
    (property "Value" "BAT41" (id 1) (at 74.422 120.9291 90)
      (effects (font (size 1.27 1.27)) (justify left))
    )
    (property "Footprint" "Diode_THT:D_DO-35_SOD27_P2.54mm_Vertical_KathodeUp" (id 2) (at 72.39 135.89 90)
      (effects (font (size 0.762 0.762)))
    )
    (property "Datasheet" "~" (id 3) (at 72.39 119.38 0)
      (effects (font (size 1.27 1.27)) hide)
    )
    (pin "1" (uuid 43533884-4da3-4d39-bb8a-8358a28d4c6f))
    (pin "2" (uuid 876e02d5-b6b2-43de-8108-a8160b701ea6))
  )

  (symbol (lib_id "power:GND") (at 140.97 146.05 0) (unit 1)
    (in_bom yes) (on_board yes) (fields_autoplaced)
    (uuid 4d2dee06-1f77-448f-9763-08299f350ea1)
    (property "Reference" "#PWR0107" (id 0) (at 140.97 152.4 0)
      (effects (font (size 1.27 1.27)) hide)
    )
    (property "Value" "GND" (id 1) (at 140.97 150.6125 0))
    (property "Footprint" "" (id 2) (at 140.97 146.05 0)
      (effects (font (size 1.27 1.27)) hide)
    )
    (property "Datasheet" "" (id 3) (at 140.97 146.05 0)
      (effects (font (size 1.27 1.27)) hide)
    )
    (pin "1" (uuid 5ca81d58-088b-4cd5-92d8-3314bf8b475e))
  )

  (symbol (lib_id "Device:R") (at 67.31 39.37 180) (unit 1)
    (in_bom yes) (on_board yes)
    (uuid 55b5161c-7cb2-464e-8aff-4f92cac50461)
    (property "Reference" "R10" (id 0) (at 69.85 39.37 90))
    (property "Value" "330K" (id 1) (at 67.31 39.37 90))
    (property "Footprint" "Resistor_THT:R_Axial_DIN0204_L3.6mm_D1.6mm_P2.54mm_Vertical" (id 2) (at 67.31 52.07 0)
      (effects (font (size 0.762 0.762)))
    )
    (property "Datasheet" "https://www.mouser.com/ProductDetail/Xicon/299-2.2K-RC?qs=QaPBMFBEHz3RDbXknTj%252ByA%3D%3D" (id 3) (at 67.31 39.37 0)
      (effects (font (size 1.27 1.27)) hide)
    )
    (pin "1" (uuid 0209b71b-21ad-4bd2-a5fb-903987090e95))
    (pin "2" (uuid bacd49ee-e7b7-4fbc-969b-6850e3c190e9))
  )

  (symbol (lib_id "Switch:SW_Push") (at 148.59 143.51 0) (unit 1)
    (in_bom yes) (on_board yes)
    (uuid 57473e84-911c-4145-8a6d-79cca39050c6)
    (property "Reference" "SW1" (id 0) (at 154.94 142.24 0))
    (property "Value" "SW_Push" (id 1) (at 157.48 144.78 0))
    (property "Footprint" "Button_Switch_THT:SW_PUSH_6mm_H5mm" (id 2) (at 148.59 157.48 0)
      (effects (font (size 0.762 0.762)))
    )
    (property "Datasheet" "~" (id 3) (at 148.59 138.43 0)
      (effects (font (size 1.27 1.27)) hide)
    )
    (pin "1" (uuid 55a7665e-1363-425a-990e-cc7735eca7b1))
    (pin "2" (uuid e27146c9-698a-4df3-a8ca-828180558f06))
  )

  (symbol (lib_id "Device:C") (at 166.37 72.39 0) (unit 1)
    (in_bom yes) (on_board yes)
    (uuid 5885be4e-4cf8-4a83-9b21-bafad6ed3285)
    (property "Reference" "C8" (id 0) (at 169.291 70.0786 0)
      (effects (font (size 1.27 1.27)) (justify left))
    )
    (property "Value" "0.1uF" (id 1) (at 169.291 72.39 0)
      (effects (font (size 1.27 1.27)) (justify left))
    )
    (property "Footprint" "Capacitor_THT:C_Rect_L4.0mm_W2.5mm_P2.50mm" (id 2) (at 154.94 82.55 0)
      (effects (font (size 0.762 0.762)) (justify left))
    )
    (property "Datasheet" "https://www.mouser.com/ProductDetail/TDK/FG18X7R1H473KNT06?qs=qf2ddTMq67Ua7q%2FdN4IhqA%3D%3D" (id 3) (at 166.37 72.39 0)
      (effects (font (size 1.27 1.27)) hide)
    )
    (pin "1" (uuid 551d2548-be65-42ea-b20a-6dcb8ce98402))
    (pin "2" (uuid a702ce96-8b13-41b8-87c2-92165191ea71))
  )

  (symbol (lib_id "Switch:SW_SPDT_MSM") (at 148.59 120.65 0) (unit 1)
    (in_bom yes) (on_board yes)
    (uuid 5a34dfb7-4c3c-4ef5-99cf-dfdb8e1241b6)
    (property "Reference" "SW2" (id 0) (at 148.59 115.57 0))
    (property "Value" "SW_SPDT_MSM" (id 1) (at 153.67 127 0))
    (property "Footprint" "Connector_PinHeader_2.54mm:PinHeader_1x03_P2.54mm_Horizontal" (id 2) (at 148.59 133.35 0)
      (effects (font (size 0.762 0.762)))
    )
    (property "Datasheet" "~" (id 3) (at 148.59 120.65 0)
      (effects (font (size 1.27 1.27)) hide)
    )
    (pin "1" (uuid 0b234c75-98dd-4e80-a59a-849c3fd6f4d1))
    (pin "2" (uuid ff4fe8b0-c76e-45fc-8a03-f71a32afc89e))
    (pin "3" (uuid 1b961806-4b29-4a63-9497-0f477bb9b1a7))
  )

  (symbol (lib_id "Device:R") (at 67.31 119.38 180) (unit 1)
    (in_bom yes) (on_board yes)
    (uuid 60ec9046-0507-4070-8091-112b47b73b6d)
    (property "Reference" "R8" (id 0) (at 69.85 119.38 90))
    (property "Value" "330K" (id 1) (at 67.31 119.38 90))
    (property "Footprint" "Resistor_THT:R_Axial_DIN0204_L3.6mm_D1.6mm_P2.54mm_Vertical" (id 2) (at 67.31 132.08 0)
      (effects (font (size 0.762 0.762)))
    )
    (property "Datasheet" "https://www.mouser.com/ProductDetail/Xicon/299-2.2K-RC?qs=QaPBMFBEHz3RDbXknTj%252ByA%3D%3D" (id 3) (at 67.31 119.38 0)
      (effects (font (size 1.27 1.27)) hide)
    )
    (pin "1" (uuid 6aeeb452-2094-4210-9b93-a8dbc3e323bb))
    (pin "2" (uuid e0e166ed-808d-4e59-8c93-8f7dbe8150c2))
  )

  (symbol (lib_id "power:+3.3V") (at 139.7 59.69 0) (unit 1)
    (in_bom yes) (on_board yes) (fields_autoplaced)
    (uuid 63562be9-7346-46ab-9962-85ce5965a913)
    (property "Reference" "#PWR0110" (id 0) (at 139.7 63.5 0)
      (effects (font (size 1.27 1.27)) hide)
    )
    (property "Value" "+3.3V" (id 1) (at 139.7 56.0855 0))
    (property "Footprint" "" (id 2) (at 139.7 59.69 0)
      (effects (font (size 1.27 1.27)) hide)
    )
    (property "Datasheet" "" (id 3) (at 139.7 59.69 0)
      (effects (font (size 1.27 1.27)) hide)
    )
    (pin "1" (uuid 98285bd5-74cd-49de-b99f-4fa9a5e9726f))
  )

  (symbol (lib_id "Connector:AudioJack2_SwitchT") (at 40.64 34.29 0) (unit 1)
    (in_bom yes) (on_board yes)
    (uuid 675cfbd2-e790-4842-b368-f626e1795786)
    (property "Reference" "J3" (id 0) (at 40.64 29.21 0))
    (property "Value" "PJ-301BM" (id 1) (at 40.64 40.64 0))
    (property "Footprint" "AudioJacks:Jack_3.5mm_QingPu_WQP-PJ301BM_Vertical" (id 2) (at 40.64 53.34 0)
      (effects (font (size 0.762 0.762)))
    )
    (property "Datasheet" "https://store.synthrotek.com/3_point_5mm_Vertical_Mount_Jacks" (id 3) (at 40.64 34.29 0)
      (effects (font (size 1.27 1.27)) hide)
    )
    (pin "S" (uuid f3749464-3429-4e5d-8e9e-7776a190bf7c))
    (pin "T" (uuid 22a8e1bc-22fb-4e62-add4-2ae0c07ce05c))
    (pin "TN" (uuid 34bc4df9-50ad-433a-a204-50b962ec67ce))
  )

  (symbol (lib_id "power:+3.3V") (at 69.85 102.87 0) (unit 1)
    (in_bom yes) (on_board yes) (fields_autoplaced)
    (uuid 6da05d4b-e2c1-4334-ae88-a25b10098bed)
    (property "Reference" "#PWR0132" (id 0) (at 69.85 106.68 0)
      (effects (font (size 1.27 1.27)) hide)
    )
    (property "Value" "+3.3V" (id 1) (at 69.85 99.2655 0))
    (property "Footprint" "" (id 2) (at 69.85 102.87 0)
      (effects (font (size 1.27 1.27)) hide)
    )
    (property "Datasheet" "" (id 3) (at 69.85 102.87 0)
      (effects (font (size 1.27 1.27)) hide)
    )
    (pin "1" (uuid d680e533-f617-4319-80d5-5d1cffc91efd))
  )

  (symbol (lib_id "Device:C") (at 87.63 39.37 0) (unit 1)
    (in_bom yes) (on_board yes)
    (uuid 6df295b5-7825-454f-8c4b-423b0bc301cf)
    (property "Reference" "C5" (id 0) (at 90.551 37.0586 0)
      (effects (font (size 1.27 1.27)) (justify left))
    )
    (property "Value" "0.01uF" (id 1) (at 90.551 39.37 0)
      (effects (font (size 1.27 1.27)) (justify left))
    )
    (property "Footprint" "Capacitor_THT:C_Rect_L4.0mm_W2.5mm_P2.50mm" (id 2) (at 73.66 54.61 0)
      (effects (font (size 0.762 0.762)) (justify left))
    )
    (property "Datasheet" "https://www.mouser.com/ProductDetail/TDK/FG18X7R1H473KNT06?qs=qf2ddTMq67Ua7q%2FdN4IhqA%3D%3D" (id 3) (at 87.63 39.37 0)
      (effects (font (size 1.27 1.27)) hide)
    )
    (pin "1" (uuid 10fbe552-04cd-4144-a29a-f8128e66e140))
    (pin "2" (uuid dc5047f6-77e0-42aa-80e1-350f139635dc))
  )

  (symbol (lib_id "Device:R") (at 67.31 78.74 180) (unit 1)
    (in_bom yes) (on_board yes)
    (uuid 7281335f-b70f-437c-818b-9f20564b0909)
    (property "Reference" "R14" (id 0) (at 69.85 78.74 90))
    (property "Value" "33K" (id 1) (at 67.31 78.74 90))
    (property "Footprint" "Resistor_THT:R_Axial_DIN0204_L3.6mm_D1.6mm_P2.54mm_Vertical" (id 2) (at 67.31 91.44 0)
      (effects (font (size 0.762 0.762)))
    )
    (property "Datasheet" "https://www.mouser.com/ProductDetail/Xicon/299-2.2K-RC?qs=QaPBMFBEHz3RDbXknTj%252ByA%3D%3D" (id 3) (at 67.31 78.74 0)
      (effects (font (size 1.27 1.27)) hide)
    )
    (pin "1" (uuid eaac4ab3-6e88-4bb3-833f-a758ce9a185b))
    (pin "2" (uuid 04611e05-3b37-4942-b03e-34018122b8de))
  )

  (symbol (lib_id "Device:R") (at 160.02 67.31 90) (unit 1)
    (in_bom yes) (on_board yes)
    (uuid 7fcdfab1-e1ec-44c9-b0a9-5dffd7d0e91c)
    (property "Reference" "R12" (id 0) (at 160.02 64.77 90))
    (property "Value" "1K" (id 1) (at 160.02 67.31 90))
    (property "Footprint" "Resistor_THT:R_Axial_DIN0204_L3.6mm_D1.6mm_P2.54mm_Vertical" (id 2) (at 175.26 83.82 90)
      (effects (font (size 0.762 0.762)))
    )
    (property "Datasheet" "https://www.mouser.com/ProductDetail/Xicon/299-2.2K-RC?qs=QaPBMFBEHz3RDbXknTj%252ByA%3D%3D" (id 3) (at 160.02 67.31 0)
      (effects (font (size 1.27 1.27)) hide)
    )
    (pin "1" (uuid 2fe2ff16-6bb0-424f-ae97-50f011fea861))
    (pin "2" (uuid eb897750-bae7-4a77-892d-86b672b07e49))
  )

  (symbol (lib_id "Device:C") (at 87.63 119.38 0) (unit 1)
    (in_bom yes) (on_board yes)
    (uuid 8572397b-5469-48fb-adee-83c3efae79e6)
    (property "Reference" "C4" (id 0) (at 90.551 117.0686 0)
      (effects (font (size 1.27 1.27)) (justify left))
    )
    (property "Value" "0.01uF" (id 1) (at 90.551 119.38 0)
      (effects (font (size 1.27 1.27)) (justify left))
    )
    (property "Footprint" "Capacitor_THT:C_Rect_L4.0mm_W2.5mm_P2.50mm" (id 2) (at 73.66 134.62 0)
      (effects (font (size 0.762 0.762)) (justify left))
    )
    (property "Datasheet" "https://www.mouser.com/ProductDetail/TDK/FG18X7R1H473KNT06?qs=qf2ddTMq67Ua7q%2FdN4IhqA%3D%3D" (id 3) (at 87.63 119.38 0)
      (effects (font (size 1.27 1.27)) hide)
    )
    (pin "1" (uuid 9b4ad1cd-e881-4ce3-82d3-c82792165ea8))
    (pin "2" (uuid 059c77b2-fe34-4653-ad23-b56060bb43ca))
  )

  (symbol (lib_id "power:GND") (at 74.93 157.48 0) (unit 1)
    (in_bom yes) (on_board yes) (fields_autoplaced)
    (uuid 8aaeeb77-872e-4ee5-9da3-f6482c8e3952)
    (property "Reference" "#PWR0105" (id 0) (at 74.93 163.83 0)
      (effects (font (size 1.27 1.27)) hide)
    )
    (property "Value" "GND" (id 1) (at 74.93 162.0425 0))
    (property "Footprint" "" (id 2) (at 74.93 157.48 0)
      (effects (font (size 1.27 1.27)) hide)
    )
    (property "Datasheet" "" (id 3) (at 74.93 157.48 0)
      (effects (font (size 1.27 1.27)) hide)
    )
    (pin "1" (uuid 8d8bab6f-43c4-43f4-87dc-4169ab6d7ace))
  )

  (symbol (lib_id "Device:D_Schottky") (at 69.85 67.31 270) (unit 1)
    (in_bom yes) (on_board yes)
    (uuid a43e79b6-f051-4ddf-b482-9f8d21c892e4)
    (property "Reference" "D8" (id 0) (at 71.882 66.084 90)
      (effects (font (size 1.27 1.27)) (justify left))
    )
    (property "Value" "BAT41" (id 1) (at 71.882 68.8591 90)
      (effects (font (size 1.27 1.27)) (justify left))
    )
    (property "Footprint" "Diode_THT:D_DO-35_SOD27_P2.54mm_Vertical_KathodeUp" (id 2) (at 69.85 92.71 90)
      (effects (font (size 0.762 0.762)))
    )
    (property "Datasheet" "~" (id 3) (at 69.85 67.31 0)
      (effects (font (size 1.27 1.27)) hide)
    )
    (pin "1" (uuid 14acc27e-e152-4230-95c7-1f02996eee85))
    (pin "2" (uuid b92fce20-621d-4b02-81a7-f9ae5fce0f3d))
  )

  (symbol (lib_id "Device:D_Schottky") (at 72.39 78.74 270) (unit 1)
    (in_bom yes) (on_board yes)
    (uuid a563ebff-20ca-4b24-965d-d03f461b75b4)
    (property "Reference" "D7" (id 0) (at 74.422 77.514 90)
      (effects (font (size 1.27 1.27)) (justify left))
    )
    (property "Value" "BAT41" (id 1) (at 74.422 80.2891 90)
      (effects (font (size 1.27 1.27)) (justify left))
    )
    (property "Footprint" "Diode_THT:D_DO-35_SOD27_P2.54mm_Vertical_KathodeUp" (id 2) (at 72.39 95.25 90)
      (effects (font (size 0.762 0.762)))
    )
    (property "Datasheet" "~" (id 3) (at 72.39 78.74 0)
      (effects (font (size 1.27 1.27)) hide)
    )
    (pin "1" (uuid 2b3fcbcb-d944-4ed6-9062-270f823c57a8))
    (pin "2" (uuid 816eaece-2995-491e-ac83-9b15b56de08d))
  )

  (symbol (lib_id "power:+3.3V") (at 238.76 20.32 0) (unit 1)
    (in_bom yes) (on_board yes) (fields_autoplaced)
    (uuid aae3621f-bc45-4b58-8042-8cc1ec39f05e)
    (property "Reference" "#PWR0113" (id 0) (at 238.76 24.13 0)
      (effects (font (size 1.27 1.27)) hide)
    )
    (property "Value" "+3.3V" (id 1) (at 238.76 16.7155 0))
    (property "Footprint" "" (id 2) (at 238.76 20.32 0)
      (effects (font (size 1.27 1.27)) hide)
    )
    (property "Datasheet" "" (id 3) (at 238.76 20.32 0)
      (effects (font (size 1.27 1.27)) hide)
    )
    (pin "1" (uuid 396410e8-bab1-4195-b5f6-e275cee1c656))
  )

  (symbol (lib_id "power:+3.3V") (at 139.7 30.48 0) (unit 1)
    (in_bom yes) (on_board yes) (fields_autoplaced)
    (uuid aef5daa3-6fd7-4a0b-b945-324c8b7dd1eb)
    (property "Reference" "#PWR0108" (id 0) (at 139.7 34.29 0)
      (effects (font (size 1.27 1.27)) hide)
    )
    (property "Value" "+3.3V" (id 1) (at 139.7 26.8755 0))
    (property "Footprint" "" (id 2) (at 139.7 30.48 0)
      (effects (font (size 1.27 1.27)) hide)
    )
    (property "Datasheet" "" (id 3) (at 139.7 30.48 0)
      (effects (font (size 1.27 1.27)) hide)
    )
    (pin "1" (uuid dc0f27ba-443c-4a7d-b87d-0bfb563f4665))
  )

  (symbol (lib_id "Device:C_Polarized") (at 58.42 149.86 90) (unit 1)
    (in_bom yes) (on_board yes)
    (uuid bf7b6ccc-1a04-43d8-a365-231a360b0ec2)
    (property "Reference" "C1" (id 0) (at 58.42 146.05 90))
    (property "Value" "47uF" (id 1) (at 58.42 153.67 90))
    (property "Footprint" "Capacitor_THT:CP_Radial_D5.0mm_P2.50mm" (id 2) (at 62.23 172.72 90)
      (effects (font (size 0.762 0.762)))
    )
    (property "Datasheet" "https://www.mouser.com/ProductDetail/140-REA470M1CBK0511P" (id 3) (at 58.42 149.86 0)
      (effects (font (size 1.27 1.27)) hide)
    )
    (pin "1" (uuid 01bb103b-197d-42d9-a012-52f9e88dc56a))
    (pin "2" (uuid 38c4f6a0-de40-4f38-8873-acc5d4f4fafa))
  )

  (symbol (lib_id "Device:R") (at 62.23 114.3 90) (unit 1)
    (in_bom yes) (on_board yes)
    (uuid c282d7db-54f9-4647-a1c8-177b6cb9e27e)
    (property "Reference" "R7" (id 0) (at 62.23 111.76 90))
    (property "Value" "220K" (id 1) (at 62.23 114.3 90))
    (property "Footprint" "Resistor_THT:R_Axial_DIN0204_L3.6mm_D1.6mm_P2.54mm_Vertical" (id 2) (at 62.23 130.81 90)
      (effects (font (size 0.762 0.762)))
    )
    (property "Datasheet" "https://www.mouser.com/ProductDetail/Xicon/299-2.2K-RC?qs=QaPBMFBEHz3RDbXknTj%252ByA%3D%3D" (id 3) (at 62.23 114.3 0)
      (effects (font (size 1.27 1.27)) hide)
    )
    (pin "1" (uuid 05da28d8-33c8-4304-a507-facdae83aa52))
    (pin "2" (uuid 4af059ac-4fc1-40ca-89e7-97213085d5bf))
  )

  (symbol (lib_id "Device:D_Schottky") (at 72.39 39.37 270) (unit 1)
    (in_bom yes) (on_board yes)
    (uuid c6015437-a333-429c-9a4f-06e23bd3a2f9)
    (property "Reference" "D6" (id 0) (at 74.422 38.144 90)
      (effects (font (size 1.27 1.27)) (justify left))
    )
    (property "Value" "BAT41" (id 1) (at 74.422 40.9191 90)
      (effects (font (size 1.27 1.27)) (justify left))
    )
    (property "Footprint" "Diode_THT:D_DO-35_SOD27_P2.54mm_Vertical_KathodeUp" (id 2) (at 72.39 55.88 90)
      (effects (font (size 0.762 0.762)))
    )
    (property "Datasheet" "~" (id 3) (at 72.39 39.37 0)
      (effects (font (size 1.27 1.27)) hide)
    )
    (pin "1" (uuid da1637f5-e9dd-48a4-9177-ae1e74fbb38c))
    (pin "2" (uuid 3f641505-e1ea-49ef-884d-39bbcfa6a106))
  )

  (symbol (lib_id "LandBoards:POT") (at 139.7 38.1 270) (mirror x) (unit 1)
    (in_bom yes) (on_board yes)
    (uuid cbbea72e-0d26-496c-85ed-060778a301ec)
    (property "Reference" "RV2" (id 0) (at 137.795 39.0085 90)
      (effects (font (size 1.27 1.27)) (justify right))
    )
    (property "Value" "10K" (id 1) (at 137.795 36.2334 90)
      (effects (font (size 1.27 1.27)) (justify right))
    )
    (property "Footprint" "Potentiometer_THT:Potentiometer_Bourns_PTV09A-1_Single_Vertical" (id 2) (at 163.83 24.13 90)
      (effects (font (size 0.762 0.762) bold))
    )
    (property "Datasheet" "" (id 3) (at 139.7 38.1 0)
      (effects (font (size 1.524 1.524)))
    )
    (pin "1" (uuid 57db27c9-5830-4ccd-8087-79597271d023))
    (pin "2" (uuid e7dd536d-12a1-4f2f-8ae2-32dde49f73e1))
    (pin "3" (uuid 104114a5-a32d-40bc-a90d-a310732a828a))
  )

  (symbol (lib_id "power:GND") (at 142.24 123.19 0) (unit 1)
    (in_bom yes) (on_board yes) (fields_autoplaced)
    (uuid cd38cd6e-d6ab-4725-9232-a1484ce6f95e)
    (property "Reference" "#PWR0136" (id 0) (at 142.24 129.54 0)
      (effects (font (size 1.27 1.27)) hide)
    )
    (property "Value" "GND" (id 1) (at 142.24 127.7525 0))
    (property "Footprint" "" (id 2) (at 142.24 123.19 0)
      (effects (font (size 1.27 1.27)) hide)
    )
    (property "Datasheet" "" (id 3) (at 142.24 123.19 0)
      (effects (font (size 1.27 1.27)) hide)
    )
    (pin "1" (uuid b19b7356-b6a5-4699-b094-3d6f38b1139b))
  )

  (symbol (lib_id "power:GND") (at 87.63 45.72 0) (unit 1)
    (in_bom yes) (on_board yes) (fields_autoplaced)
    (uuid d0a819bc-132e-42c9-9399-c5d191753168)
    (property "Reference" "#PWR0103" (id 0) (at 87.63 52.07 0)
      (effects (font (size 1.27 1.27)) hide)
    )
    (property "Value" "GND" (id 1) (at 87.63 50.2825 0))
    (property "Footprint" "" (id 2) (at 87.63 45.72 0)
      (effects (font (size 1.27 1.27)) hide)
    )
    (property "Datasheet" "" (id 3) (at 87.63 45.72 0)
      (effects (font (size 1.27 1.27)) hide)
    )
    (pin "1" (uuid 272b4a44-3be0-4626-bf75-9ac4ceb757c1))
  )

  (symbol (lib_id "power:+3.3V") (at 69.85 22.86 0) (unit 1)
    (in_bom yes) (on_board yes) (fields_autoplaced)
    (uuid d3d4ad1b-eeaa-4fbc-bcb5-043e2bc24ffc)
    (property "Reference" "#PWR0106" (id 0) (at 69.85 26.67 0)
      (effects (font (size 1.27 1.27)) hide)
    )
    (property "Value" "+3.3V" (id 1) (at 69.85 19.2555 0))
    (property "Footprint" "" (id 2) (at 69.85 22.86 0)
      (effects (font (size 1.27 1.27)) hide)
    )
    (property "Datasheet" "" (id 3) (at 69.85 22.86 0)
      (effects (font (size 1.27 1.27)) hide)
    )
    (pin "1" (uuid 65901c94-ba42-4ccb-9da6-82d8046dd05a))
  )

  (symbol (lib_id "LandBoards:MTG_HOLE") (at 137.16 191.77 0) (unit 1)
    (in_bom yes) (on_board yes)
    (uuid d51ba27b-8ed7-4eca-b0be-3ba1363dff58)
    (property "Reference" "MTG1" (id 0) (at 139.065 189.5346 0)
      (effects (font (size 1.524 1.524)) (justify left))
    )
    (property "Value" "MTG_HOLE" (id 1) (at 139.065 192.8136 0)
      (effects (font (size 1.524 1.524)) (justify left))
    )
    (property "Footprint" "LandBoards_MountHoles:MTG-4-40-SMALL" (id 2) (at 125.73 194.31 0)
      (effects (font (size 0.762 0.762)) (justify left))
    )
    (property "Datasheet" "" (id 3) (at 137.16 191.77 0)
      (effects (font (size 1.524 1.524)))
    )
  )

  (symbol (lib_id "Device:D_Schottky") (at 69.85 107.95 270) (unit 1)
    (in_bom yes) (on_board yes)
    (uuid d56e2cbb-18b1-4bbb-a667-68ae00ced67f)
    (property "Reference" "D3" (id 0) (at 71.882 106.724 90)
      (effects (font (size 1.27 1.27)) (justify left))
    )
    (property "Value" "BAT41" (id 1) (at 71.882 109.4991 90)
      (effects (font (size 1.27 1.27)) (justify left))
    )
    (property "Footprint" "Diode_THT:D_DO-35_SOD27_P2.54mm_Vertical_KathodeUp" (id 2) (at 69.85 133.35 90)
      (effects (font (size 0.762 0.762)))
    )
    (property "Datasheet" "~" (id 3) (at 69.85 107.95 0)
      (effects (font (size 1.27 1.27)) hide)
    )
    (pin "1" (uuid 4f7357f9-2b57-45a0-b939-25e1c2b8f4ae))
    (pin "2" (uuid fda01e88-058b-4555-ab77-908fa0ff0540))
  )

  (symbol (lib_id "Connector_Generic:Conn_01x16") (at 246.38 43.18 0) (unit 1)
    (in_bom yes) (on_board yes) (fields_autoplaced)
    (uuid de9ec491-8319-4ca6-9de5-0d6fba155097)
    (property "Reference" "J5" (id 0) (at 248.412 43.5415 0)
      (effects (font (size 1.27 1.27)) (justify left))
    )
    (property "Value" "Conn_01x16" (id 1) (at 248.412 46.3166 0)
      (effects (font (size 1.27 1.27)) (justify left))
    )
    (property "Footprint" "Connector_PinHeader_2.54mm:PinHeader_2x08_P2.54mm_Vertical" (id 2) (at 246.38 43.18 0)
      (effects (font (size 1.27 1.27)) hide)
    )
    (property "Datasheet" "~" (id 3) (at 246.38 43.18 0)
      (effects (font (size 1.27 1.27)) hide)
    )
    (pin "1" (uuid 17bb06dd-c192-4f2c-8d8d-da90b90048eb))
    (pin "10" (uuid 64f88f7f-1488-4c17-ae53-847c3bed49fb))
    (pin "11" (uuid 36e59656-cc24-4623-a00b-3097bea8834f))
    (pin "12" (uuid b3589cd6-8efa-4c21-aa0f-d00e1e63962c))
    (pin "13" (uuid d9fcfa1b-9e52-4da2-8b53-b08cd86fdd99))
    (pin "14" (uuid 1433b5a9-1068-445b-9d1c-19ad3d24d24b))
    (pin "15" (uuid 96bd24d1-a18b-4fe1-bb89-18daf1bebf18))
    (pin "16" (uuid 3b9effce-f8b5-4691-8424-2696d14e7cbb))
    (pin "2" (uuid 3c21f5e2-8451-4a64-b7e8-139730754a05))
    (pin "3" (uuid b9ad5dc8-a70e-4ac9-b176-2cfe013d1db5))
    (pin "4" (uuid ef379546-913e-4cd9-87ab-acfbdbbd2a40))
    (pin "5" (uuid 92c9947e-7ee5-405d-ae36-e4b79f9a2f47))
    (pin "6" (uuid aa4117ac-a462-46ec-8f03-ba4af9e935d6))
    (pin "7" (uuid 340976f7-e1cd-45d1-8ae1-0f2d6e993d83))
    (pin "8" (uuid 691d3393-9017-42ec-a109-a1dab497505a))
    (pin "9" (uuid ccf727cf-1212-4af8-9253-9d19dbc7928e))
  )

  (symbol (lib_id "Device:R") (at 44.45 149.86 270) (unit 1)
    (in_bom yes) (on_board yes)
    (uuid eb0700bd-48c4-4149-b4fe-df80dbb18063)
    (property "Reference" "R1" (id 0) (at 44.45 147.32 90))
    (property "Value" "330" (id 1) (at 44.45 149.86 90))
    (property "Footprint" "Resistor_THT:R_Axial_DIN0204_L3.6mm_D1.6mm_P2.54mm_Vertical" (id 2) (at 44.45 173.99 90)
      (effects (font (size 0.762 0.762)))
    )
    (property "Datasheet" "https://www.mouser.com/ProductDetail/Xicon/299-2.2K-RC?qs=QaPBMFBEHz3RDbXknTj%252ByA%3D%3D" (id 3) (at 44.45 149.86 0)
      (effects (font (size 1.27 1.27)) hide)
    )
    (pin "1" (uuid 5566bace-dc5f-436a-baa7-d7e13a20fa6f))
    (pin "2" (uuid 1f302008-4a35-480c-97f5-eccb06bdab15))
  )

  (symbol (lib_id "Connector:AudioJack2_SwitchT") (at 40.64 114.3 0) (unit 1)
    (in_bom yes) (on_board yes)
    (uuid f1d00af1-68b5-4489-9488-6653e3850b93)
    (property "Reference" "J1" (id 0) (at 40.64 109.22 0))
    (property "Value" "PJ-301BM" (id 1) (at 40.64 120.65 0))
    (property "Footprint" "AudioJacks:Jack_3.5mm_QingPu_WQP-PJ301BM_Vertical" (id 2) (at 40.64 134.62 0)
      (effects (font (size 0.762 0.762)))
    )
    (property "Datasheet" "https://store.synthrotek.com/3_point_5mm_Vertical_Mount_Jacks" (id 3) (at 40.64 114.3 0)
      (effects (font (size 1.27 1.27)) hide)
    )
    (pin "S" (uuid f3245e87-e57c-4a07-8e6c-7d6293b755be))
    (pin "T" (uuid 3b63e46e-9a44-4741-a96e-c1c6dd8a6002))
    (pin "TN" (uuid 5c081f5d-6bb7-4195-baa0-c37b80da7e6e))
  )

  (symbol (lib_id "power:GND") (at 139.7 49.53 0) (unit 1)
    (in_bom yes) (on_board yes) (fields_autoplaced)
    (uuid f40ed9c4-a5fd-4288-9e12-66e8c9802aa0)
    (property "Reference" "#PWR0111" (id 0) (at 139.7 55.88 0)
      (effects (font (size 1.27 1.27)) hide)
    )
    (property "Value" "GND" (id 1) (at 139.7 54.0925 0))
    (property "Footprint" "" (id 2) (at 139.7 49.53 0)
      (effects (font (size 1.27 1.27)) hide)
    )
    (property "Datasheet" "" (id 3) (at 139.7 49.53 0)
      (effects (font (size 1.27 1.27)) hide)
    )
    (pin "1" (uuid 3fd07287-07c3-42a3-9743-c7b4fa3d22d5))
  )

  (sheet_instances
    (path "/" (page "1"))
  )

  (symbol_instances
    (path "/1bc87082-5d9a-4e43-9e24-e7de0a9cf913"
      (reference "#PWR0101") (unit 1) (value "GND") (footprint "")
    )
    (path "/1d236c4c-4090-4b2b-9a46-fef729bf41f7"
      (reference "#PWR0102") (unit 1) (value "+3.3V") (footprint "")
    )
    (path "/d0a819bc-132e-42c9-9399-c5d191753168"
      (reference "#PWR0103") (unit 1) (value "GND") (footprint "")
    )
    (path "/2852ff54-665b-4bb8-93ab-81a9ba0aa6d7"
      (reference "#PWR0104") (unit 1) (value "GND") (footprint "")
    )
    (path "/8aaeeb77-872e-4ee5-9da3-f6482c8e3952"
      (reference "#PWR0105") (unit 1) (value "GND") (footprint "")
    )
    (path "/d3d4ad1b-eeaa-4fbc-bcb5-043e2bc24ffc"
      (reference "#PWR0106") (unit 1) (value "+3.3V") (footprint "")
    )
    (path "/4d2dee06-1f77-448f-9763-08299f350ea1"
      (reference "#PWR0107") (unit 1) (value "GND") (footprint "")
    )
    (path "/aef5daa3-6fd7-4a0b-b945-324c8b7dd1eb"
      (reference "#PWR0108") (unit 1) (value "+3.3V") (footprint "")
    )
    (path "/0b4d2440-e6d6-4110-b066-614cd4d82fb3"
      (reference "#PWR0109") (unit 1) (value "GND") (footprint "")
    )
    (path "/63562be9-7346-46ab-9962-85ce5965a913"
      (reference "#PWR0110") (unit 1) (value "+3.3V") (footprint "")
    )
    (path "/f40ed9c4-a5fd-4288-9e12-66e8c9802aa0"
      (reference "#PWR0111") (unit 1) (value "GND") (footprint "")
    )
    (path "/3fcf5849-f035-4ef6-a904-5771bc1e4db0"
      (reference "#PWR0112") (unit 1) (value "GND") (footprint "")
    )
    (path "/aae3621f-bc45-4b58-8042-8cc1ec39f05e"
      (reference "#PWR0113") (unit 1) (value "+3.3V") (footprint "")
    )
    (path "/183cde98-bab0-4968-88af-53864d2fd937"
      (reference "#PWR0131") (unit 1) (value "GND") (footprint "")
    )
    (path "/6da05d4b-e2c1-4334-ae88-a25b10098bed"
      (reference "#PWR0132") (unit 1) (value "+3.3V") (footprint "")
    )
    (path "/cd38cd6e-d6ab-4725-9232-a1484ce6f95e"
      (reference "#PWR0136") (unit 1) (value "GND") (footprint "")
    )
    (path "/bf7b6ccc-1a04-43d8-a365-231a360b0ec2"
      (reference "C1") (unit 1) (value "47uF") (footprint "Capacitor_THT:CP_Radial_D5.0mm_P2.50mm")
    )
    (path "/8572397b-5469-48fb-adee-83c3efae79e6"
      (reference "C4") (unit 1) (value "0.01uF") (footprint "Capacitor_THT:C_Rect_L4.0mm_W2.5mm_P2.50mm")
    )
    (path "/6df295b5-7825-454f-8c4b-423b0bc301cf"
      (reference "C5") (unit 1) (value "0.01uF") (footprint "Capacitor_THT:C_Rect_L4.0mm_W2.5mm_P2.50mm")
    )
    (path "/1f974058-9655-4deb-8f6a-0f702bb2e27f"
      (reference "C6") (unit 1) (value "0.1uF") (footprint "Capacitor_THT:C_Rect_L4.0mm_W2.5mm_P2.50mm")
    )
    (path "/021fa758-1d78-4a56-a1ae-a6e82432e68a"
      (reference "C7") (unit 1) (value "0.01uF") (footprint "Capacitor_THT:C_Rect_L4.0mm_W2.5mm_P2.50mm")
    )
    (path "/5885be4e-4cf8-4a83-9b21-bafad6ed3285"
      (reference "C8") (unit 1) (value "0.1uF") (footprint "Capacitor_THT:C_Rect_L4.0mm_W2.5mm_P2.50mm")
    )
    (path "/d56e2cbb-18b1-4bbb-a667-68ae00ced67f"
      (reference "D3") (unit 1) (value "BAT41") (footprint "Diode_THT:D_DO-35_SOD27_P2.54mm_Vertical_KathodeUp")
    )
    (path "/4b009266-d309-4daa-b0d0-be665b559a6a"
      (reference "D4") (unit 1) (value "BAT41") (footprint "Diode_THT:D_DO-35_SOD27_P2.54mm_Vertical_KathodeUp")
    )
    (path "/3017ff5a-a688-458b-bc91-2b91ea1e010c"
      (reference "D5") (unit 1) (value "BAT41") (footprint "Diode_THT:D_DO-35_SOD27_P2.54mm_Vertical_KathodeUp")
    )
    (path "/c6015437-a333-429c-9a4f-06e23bd3a2f9"
      (reference "D6") (unit 1) (value "BAT41") (footprint "Diode_THT:D_DO-35_SOD27_P2.54mm_Vertical_KathodeUp")
    )
    (path "/a563ebff-20ca-4b24-965d-d03f461b75b4"
      (reference "D7") (unit 1) (value "BAT41") (footprint "Diode_THT:D_DO-35_SOD27_P2.54mm_Vertical_KathodeUp")
    )
    (path "/a43e79b6-f051-4ddf-b482-9f8d21c892e4"
      (reference "D8") (unit 1) (value "BAT41") (footprint "Diode_THT:D_DO-35_SOD27_P2.54mm_Vertical_KathodeUp")
    )
    (path "/f1d00af1-68b5-4489-9488-6653e3850b93"
      (reference "J1") (unit 1) (value "PJ-301BM") (footprint "AudioJacks:Jack_3.5mm_QingPu_WQP-PJ301BM_Vertical")
    )
    (path "/251d9043-2594-45e9-994a-7c526362a4c1"
      (reference "J2") (unit 1) (value "PJ-301BM") (footprint "AudioJacks:Jack_3.5mm_QingPu_WQP-PJ301BM_Vertical")
    )
    (path "/675cfbd2-e790-4842-b368-f626e1795786"
      (reference "J3") (unit 1) (value "PJ-301BM") (footprint "AudioJacks:Jack_3.5mm_QingPu_WQP-PJ301BM_Vertical")
    )
    (path "/3d6a2f2e-3e33-4e65-a61f-5fbbe459244f"
      (reference "J4") (unit 1) (value "PJ-301BM") (footprint "AudioJacks:Jack_3.5mm_QingPu_WQP-PJ301BM_Vertical")
    )
    (path "/de9ec491-8319-4ca6-9de5-0d6fba155097"
      (reference "J5") (unit 1) (value "Conn_01x16") (footprint "Connector_PinHeader_2.54mm:PinHeader_2x08_P2.54mm_Vertical")
    )
    (path "/d51ba27b-8ed7-4eca-b0be-3ba1363dff58"
      (reference "MTG1") (unit 1) (value "MTG_HOLE") (footprint "LandBoards_MountHoles:MTG-4-40-SMALL")
    )
    (path "/eb0700bd-48c4-4149-b4fe-df80dbb18063"
      (reference "R1") (unit 1) (value "330") (footprint "Resistor_THT:R_Axial_DIN0204_L3.6mm_D1.6mm_P2.54mm_Vertical")
    )
    (path "/c282d7db-54f9-4647-a1c8-177b6cb9e27e"
      (reference "R7") (unit 1) (value "220K") (footprint "Resistor_THT:R_Axial_DIN0204_L3.6mm_D1.6mm_P2.54mm_Vertical")
    )
    (path "/60ec9046-0507-4070-8091-112b47b73b6d"
      (reference "R8") (unit 1) (value "330K") (footprint "Resistor_THT:R_Axial_DIN0204_L3.6mm_D1.6mm_P2.54mm_Vertical")
    )
    (path "/23b9a4cd-cdfa-4a8d-ad9e-e45e4667b853"
      (reference "R9") (unit 1) (value "220K") (footprint "Resistor_THT:R_Axial_DIN0204_L3.6mm_D1.6mm_P2.54mm_Vertical")
    )
    (path "/55b5161c-7cb2-464e-8aff-4f92cac50461"
      (reference "R10") (unit 1) (value "330K") (footprint "Resistor_THT:R_Axial_DIN0204_L3.6mm_D1.6mm_P2.54mm_Vertical")
    )
    (path "/18fd3ab7-7fdd-4b43-8b50-8f58cbc03bbd"
      (reference "R11") (unit 1) (value "1K") (footprint "Resistor_THT:R_Axial_DIN0204_L3.6mm_D1.6mm_P2.54mm_Vertical")
    )
    (path "/7fcdfab1-e1ec-44c9-b0a9-5dffd7d0e91c"
      (reference "R12") (unit 1) (value "1K") (footprint "Resistor_THT:R_Axial_DIN0204_L3.6mm_D1.6mm_P2.54mm_Vertical")
    )
    (path "/189add42-cbba-483e-8b20-c3fbe615fb76"
      (reference "R13") (unit 1) (value "22K") (footprint "Resistor_THT:R_Axial_DIN0204_L3.6mm_D1.6mm_P2.54mm_Vertical")
    )
    (path "/7281335f-b70f-437c-818b-9f20564b0909"
      (reference "R14") (unit 1) (value "33K") (footprint "Resistor_THT:R_Axial_DIN0204_L3.6mm_D1.6mm_P2.54mm_Vertical")
    )
    (path "/0185a47c-5669-4a7c-89ae-2009fc7ca3bb"
      (reference "RV1") (unit 1) (value "10K") (footprint "Potentiometer_THT:Potentiometer_Bourns_PTV09A-1_Single_Vertical")
    )
    (path "/cbbea72e-0d26-496c-85ed-060778a301ec"
      (reference "RV2") (unit 1) (value "10K") (footprint "Potentiometer_THT:Potentiometer_Bourns_PTV09A-1_Single_Vertical")
    )
    (path "/57473e84-911c-4145-8a6d-79cca39050c6"
      (reference "SW1") (unit 1) (value "SW_Push") (footprint "Button_Switch_THT:SW_PUSH_6mm_H5mm")
    )
    (path "/5a34dfb7-4c3c-4ef5-99cf-dfdb8e1241b6"
      (reference "SW2") (unit 1) (value "SW_SPDT_MSM") (footprint "Connector_PinHeader_2.54mm:PinHeader_1x03_P2.54mm_Horizontal")
    )
    (path "/3f599525-8211-46a7-a6bb-60db6a40aae0"
      (reference "SW4") (unit 1) (value "SW_SPDT_MSM") (footprint "Connector_PinHeader_2.54mm:PinHeader_1x03_P2.54mm_Horizontal")
    )
  )
)
