(kicad_pcb (version 20211014) (generator pcbnew)

  (general
    (thickness 1.6)
  )

  (paper "A4")
  (title_block
    (title "MOD-MIDI-THRU")
    (date "2022-10-06")
    (rev "1")
  )

  (layers
    (0 "F.Cu" signal)
    (31 "B.Cu" signal)
    (32 "B.Adhes" user "B.Adhesive")
    (33 "F.Adhes" user "F.Adhesive")
    (34 "B.Paste" user)
    (35 "F.Paste" user)
    (36 "B.SilkS" user "B.Silkscreen")
    (37 "F.SilkS" user "F.Silkscreen")
    (38 "B.Mask" user)
    (39 "F.Mask" user)
    (40 "Dwgs.User" user "User.Drawings")
    (41 "Cmts.User" user "User.Comments")
    (42 "Eco1.User" user "User.Eco1")
    (43 "Eco2.User" user "User.Eco2")
    (44 "Edge.Cuts" user)
    (45 "Margin" user)
    (46 "B.CrtYd" user "B.Courtyard")
    (47 "F.CrtYd" user "F.Courtyard")
    (48 "B.Fab" user)
    (49 "F.Fab" user)
    (50 "User.1" user)
    (51 "User.2" user)
    (52 "User.3" user)
    (53 "User.4" user)
    (54 "User.5" user)
    (55 "User.6" user)
    (56 "User.7" user)
    (57 "User.8" user)
    (58 "User.9" user)
  )

  (setup
    (stackup
      (layer "F.SilkS" (type "Top Silk Screen"))
      (layer "F.Paste" (type "Top Solder Paste"))
      (layer "F.Mask" (type "Top Solder Mask") (thickness 0.01))
      (layer "F.Cu" (type "copper") (thickness 0.035))
      (layer "dielectric 1" (type "core") (thickness 1.51) (material "FR4") (epsilon_r 4.5) (loss_tangent 0.02))
      (layer "B.Cu" (type "copper") (thickness 0.035))
      (layer "B.Mask" (type "Bottom Solder Mask") (thickness 0.01))
      (layer "B.Paste" (type "Bottom Solder Paste"))
      (layer "B.SilkS" (type "Bottom Silk Screen"))
      (copper_finish "None")
      (dielectric_constraints no)
    )
    (pad_to_mask_clearance 0)
    (pcbplotparams
      (layerselection 0x00010f0_ffffffff)
      (disableapertmacros false)
      (usegerberextensions true)
      (usegerberattributes true)
      (usegerberadvancedattributes true)
      (creategerberjobfile false)
      (svguseinch false)
      (svgprecision 6)
      (excludeedgelayer true)
      (plotframeref false)
      (viasonmask false)
      (mode 1)
      (useauxorigin false)
      (hpglpennumber 1)
      (hpglpenspeed 20)
      (hpglpendiameter 15.000000)
      (dxfpolygonmode true)
      (dxfimperialunits true)
      (dxfusepcbnewfont true)
      (psnegative false)
      (psa4output false)
      (plotreference true)
      (plotvalue true)
      (plotinvisibletext false)
      (sketchpadsonfab false)
      (subtractmaskfromsilk false)
      (outputformat 1)
      (mirror false)
      (drillshape 0)
      (scaleselection 1)
      (outputdirectory "PLOTS/")
    )
  )

  (net 0 "")

  (footprint "" (layer "F.Cu")
    (tedit 0) (tstamp 22bf3bba-63e2-42b1-8e86-bc41cd140ed5)
    (at 10 125.5)
    (fp_text reference "" (at 0 0) (layer "F.SilkS")
      (effects (font (size 1.27 1.27) (thickness 0.15)))
      (tstamp b7ed4c31-5417-4fb5-9261-7dca42c1c776)
    )
    (fp_text value "" (at 0 0) (layer "F.SilkS")
      (effects (font (size 1.27 1.27) (thickness 0.15)))
      (tstamp bb5e8a0f-2ed5-4c2a-91b7-cb63c4c66e15)
    )
    (pad "" np_thru_hole oval (at 0 0) (size 12 3.2) (drill oval 12 3.2) (layers F&B.Cu *.Mask) (tstamp 529c3296-7567-4791-965b-c6289c029990))
    (pad "" np_thru_hole oval (at 0 0) (size 12 3.2) (drill oval 12 3.2) (layers F&B.Cu *.Mask) (tstamp 6ae901e7-3f37-4fdc-9fbb-f82666744826))
    (pad "" np_thru_hole oval (at 0 0) (size 12 3.2) (drill oval 12 3.2) (layers F&B.Cu *.Mask) (tstamp f5dbfdd3-affe-43c2-ba80-a1e95c85b91a))
  )

  (footprint "" (layer "F.Cu")
    (tedit 0) (tstamp ddd506b9-e41d-4f92-9a7d-745c083388ad)
    (at 9.5 3)
    (fp_text reference "" (at 0 0) (layer "F.SilkS")
      (effects (font (size 1.27 1.27) (thickness 0.15)))
      (tstamp 3cd41d37-8a65-4d42-858b-135e2fa233fc)
    )
    (fp_text value "" (at 0 0) (layer "F.SilkS")
      (effects (font (size 1.27 1.27) (thickness 0.15)))
      (tstamp ba0488be-6feb-4508-81ea-c8f364ec7257)
    )
    (pad "" np_thru_hole oval (at 0 0) (size 12 3.2) (drill oval 12 3.2) (layers F&B.Cu *.Mask) (tstamp bba48047-4df3-41ed-ac2b-baf152fd60dc))
    (pad "" np_thru_hole oval (at 0 0) (size 12 3.2) (drill oval 12 3.2) (layers F&B.Cu *.Mask) (tstamp e8b0ef86-7136-489d-8600-8d97ef3d2325))
    (pad "" np_thru_hole oval (at 0 0) (size 12 3.2) (drill oval 12 3.2) (layers F&B.Cu *.Mask) (tstamp fc79c26b-aed6-4661-b60e-ae39129c3fa3))
  )

  (gr_circle (center 6 33) (end 9.1 33) (layer "Dwgs.User") (width 0.15) (fill none) (tstamp 00d76817-9e8b-4344-8955-b2923e5cbb0c))
  (gr_circle (center 6 78) (end 9.1 78) (layer "Dwgs.User") (width 0.15) (fill none) (tstamp 34e702ba-d48d-493e-a000-8b3da5f1ac0d))
  (gr_circle (center 6 48) (end 9.1 48) (layer "Dwgs.User") (width 0.15) (fill none) (tstamp 395bf560-9f7a-48c2-be76-c8f0d338d485))
  (gr_circle (center 6 18.11) (end 9.1 18.11) (layer "Dwgs.User") (width 0.15) (fill none) (tstamp 3da7e6ae-4fd6-4940-b181-6b25f6c60f8e))
  (gr_circle (center 15 99.5) (end 22.5 99.5) (layer "Dwgs.User") (width 0.15) (fill none) (tstamp 614941c2-9997-4459-a46a-65b1f47ad8c1))
  (gr_circle (center 25 90.75) (end 27.5 90.75) (layer "Dwgs.User") (width 0.15) (fill none) (tstamp 6194dc42-1f2e-47d8-8bd9-8a095051f2ec))
  (gr_circle (center 6 63) (end 9.1 63) (layer "Dwgs.User") (width 0.15) (fill none) (tstamp 64430570-0a8e-4d39-a725-9ce9c1f0532e))
  (gr_line (start 2 87.75) (end 33 87.75) (layer "Dwgs.User") (width 0.15) (tstamp abcc9754-562d-4b79-b5b9-3ecfb3b905cf))
  (gr_rect (start 0 0) (end 30 128.5) (layer "Dwgs.User") (width 0.5) (fill none) (tstamp bbeb4758-2d88-449c-a139-6d130c88e4f6))
  (gr_line (start -9.75 90.75) (end 32 90.75) (layer "Dwgs.User") (width 0.15) (tstamp c6e4eb73-688e-4be1-9b7c-68677c2da41c))
  (gr_rect (start 1 119.5) (end 29 9.5) (layer "Eco1.User") (width 0.5) (fill none) (tstamp db1a3512-6c01-4e83-9a03-d1465e9e17d2))
  (gr_circle (center 6 33) (end 9.1 33) (layer "Edge.Cuts") (width 0.1) (fill none) (tstamp 0816bee4-5935-4741-bd0f-c370f413b02b))
  (gr_circle (center 6 78) (end 9.1 78) (layer "Edge.Cuts") (width 0.1) (fill none) (tstamp 5eaefe45-4377-4f72-b5ff-c30dbfcff29f))
  (gr_circle (center 6 48) (end 9.1 48) (layer "Edge.Cuts") (width 0.1) (fill none) (tstamp 675bb9b6-2005-4a9f-96b9-341a2d5d4912))
  (gr_circle (center 6 18.13) (end 9.1 18.13) (layer "Edge.Cuts") (width 0.1) (fill none) (tstamp 71d48a52-b8b3-40ee-8443-1f8ed57774db))
  (gr_circle (center 25 90.75) (end 27.5 90.77) (layer "Edge.Cuts") (width 0.1) (fill none) (tstamp 9a064237-81c6-4294-a4e7-2aadc7d202ff))
  (gr_circle (center 5.99 63) (end 9.09 63) (layer "Edge.Cuts") (width 0.1) (fill none) (tstamp cfa7d3f6-0cc9-4375-a0ac-d721b57ce3a3))
  (gr_circle (center 14.99 99.5) (end 22.5 99.5) (layer "Edge.Cuts") (width 0.1) (fill none) (tstamp cfffdc3a-ac12-4e47-bb6e-1daa86a6b444))
  (gr_rect (start 0 0) (end 30 128.5) (layer "Edge.Cuts") (width 0.1) (fill none) (tstamp db09a492-3111-4077-8b89-2ff4c8eebad3))
  (gr_text "JLCJLCJLCJLC" (at 22.5 126) (layer "B.SilkS") (tstamp 825ca21e-b6a1-4e84-a612-f8e2fae8ac04)
    (effects (font (size 1 1) (thickness 0.25)) (justify mirror))
  )
  (gr_text "MIDI THRU\nTRS A" (at 15 10) (layer "F.SilkS") (tstamp 19e542b1-72ff-4399-8d07-8c6569e45803)
    (effects (font (size 2.5 2.5) (thickness 0.625)))
  )
  (gr_text "ACT" (at 25 85.59) (layer "F.SilkS") (tstamp 5e2a5e29-d3ce-43c8-a9bb-575f16ec6348)
    (effects (font (size 2 2) (thickness 0.5)))
  )
  (gr_text "OUT 3" (at 12 48.11) (layer "F.SilkS") (tstamp 6111ecb6-de8a-4057-a2c1-59cb1d9df8d7)
    (effects (font (size 2.5 2.5) (thickness 0.625)) (justify left))
  )
  (gr_text "IN A" (at 12 78.11) (layer "F.SilkS") (tstamp 68b6134d-8081-4485-8f88-c10979d96efc)
    (effects (font (size 2.5 2.5) (thickness 0.625)) (justify left))
  )
  (gr_text "OUT 4" (at 12 63.15) (layer "F.SilkS") (tstamp 725e893b-995a-48e5-bd69-5ad21b4afe74)
    (effects (font (size 2.5 2.5) (thickness 0.625)) (justify left))
  )
  (gr_text "IN B" (at 15 88.17) (layer "F.SilkS") (tstamp 7f6e69d4-f2e6-46ae-8005-3c744d190768)
    (effects (font (size 2.5 2.5) (thickness 0.625)))
  )
  (gr_text "OR" (at 15.5 83) (layer "F.SilkS") (tstamp 8919db6f-257a-40da-9a70-9e267594dcec)
    (effects (font (size 2.5 2.5) (thickness 0.625)))
  )
  (gr_text "land-boards.com/\nER-MIDI-THRU" (at 14.95 115.65) (layer "F.SilkS") (tstamp 9d4636a6-3b00-4ce8-ad40-d18e283ccb33)
    (effects (font (size 2 2) (thickness 0.5)))
  )
  (gr_text "OUT 1" (at 12 18.12) (layer "F.SilkS") (tstamp c0f1d8db-b0d6-4d23-9d3f-2f4e8c280843)
    (effects (font (size 2.5 2.5) (thickness 0.625)) (justify left))
  )
  (gr_text "OUT 2" (at 12 33) (layer "F.SilkS") (tstamp dfaebc5e-bc4f-4fcf-a498-f6997159c9ad)
    (effects (font (size 2.5 2.5) (thickness 0.625)) (justify left))
  )
  (gr_text "2.5MM RADIUS" (at 25 92) (layer "Dwgs.User") (tstamp 385e0403-8b28-4505-873a-a91713d8181b)
    (effects (font (size 1 1) (thickness 0.15)))
  )
  (gr_text "7.5MM RADIUS" (at 15 102) (layer "Dwgs.User") (tstamp 93c8b975-6589-4817-b45a-d26eb20e895c)
    (effects (font (size 1 1) (thickness 0.15)))
  )
  (dimension (type aligned) (layer "Dwgs.User") (tstamp 083a1953-92d9-4d0d-a45b-665293bdbbd9)
    (pts (xy 0 110) (xy 0 100.7075))
    (height -4)
    (gr_text "9.2925 mm" (at -5.15 105.35375 90) (layer "Dwgs.User") (tstamp 083a1953-92d9-4d0d-a45b-665293bdbbd9)
      (effects (font (size 1 1) (thickness 0.15)))
    )
    (format (units 3) (units_format 1) (precision 4))
    (style (thickness 0.15) (arrow_length 1.27) (text_position_mode 0) (extension_height 0.58642) (extension_offset 0.5) keep_text_aligned)
  )
  (dimension (type aligned) (layer "Dwgs.User") (tstamp 0af60b38-b9fe-45f4-9bae-d229c2204529)
    (pts (xy 0 128.5) (xy 6 128.5))
    (height -142.5)
    (gr_text "6.0000 mm" (at 3 -15.15) (layer "Dwgs.User") (tstamp 0af60b38-b9fe-45f4-9bae-d229c2204529)
      (effects (font (size 1 1) (thickness 0.15)))
    )
    (format (units 3) (units_format 1) (precision 4))
    (style (thickness 0.15) (arrow_length 1.27) (text_position_mode 0) (extension_height 0.58642) (extension_offset 0.5) keep_text_aligned)
  )
  (dimension (type aligned) (layer "Dwgs.User") (tstamp 22d4b765-b917-427c-a567-113773e1520b)
    (pts (xy 0 78) (xy 0 99.5))
    (height -37.5)
    (gr_text "21.5000 mm" (at 36.35 88.75 90) (layer "Dwgs.User") (tstamp 22d4b765-b917-427c-a567-113773e1520b)
      (effects (font (size 1 1) (thickness 0.15)))
    )
    (format (units 3) (units_format 1) (precision 4))
    (style (thickness 0.15) (arrow_length 1.27) (text_position_mode 0) (extension_height 0.58642) (extension_offset 0.5) keep_text_aligned)
  )
  (dimension (type aligned) (layer "Dwgs.User") (tstamp 261e1fea-305b-4485-819c-b52e3ff81ef3)
    (pts (xy 0 0) (xy 7 0))
    (height 130.5)
    (gr_text "7.0000 mm" (at 3.5 129.35) (layer "Dwgs.User") (tstamp 261e1fea-305b-4485-819c-b52e3ff81ef3)
      (effects (font (size 1 1) (thickness 0.15)))
    )
    (format (units 3) (units_format 1) (precision 4))
    (style (thickness 0.15) (arrow_length 1.27) (text_position_mode 0) (extension_height 0.58642) (extension_offset 0.5) keep_text_aligned)
  )
  (dimension (type aligned) (layer "Dwgs.User") (tstamp 2e40f114-5cd4-4f1a-823b-b9a9a2b5ec24)
    (pts (xy 0 0) (xy 0 3))
    (height -32)
    (gr_text "3.0000 mm" (at 30.85 1.5 90) (layer "Dwgs.User") (tstamp 2e40f114-5cd4-4f1a-823b-b9a9a2b5ec24)
      (effects (font (size 1 1) (thickness 0.15)))
    )
    (format (units 3) (units_format 1) (precision 4))
    (style (thickness 0.15) (arrow_length 1.27) (text_position_mode 0) (extension_height 0.58642) (extension_offset 0.5) keep_text_aligned)
  )
  (dimension (type aligned) (layer "Dwgs.User") (tstamp 4601dce8-5dca-487b-891a-071c562d572a)
    (pts (xy 0 48) (xy 0 63))
    (height -37.5)
    (gr_text "15.0000 mm" (at 36.35 55.5 90) (layer "Dwgs.User") (tstamp 4601dce8-5dca-487b-891a-071c562d572a)
      (effects (font (size 1 1) (thickness 0.15)))
    )
    (format (units 3) (units_format 1) (precision 4))
    (style (thickness 0.15) (arrow_length 1.27) (text_position_mode 0) (extension_height 0.58642) (extension_offset 0.5) keep_text_aligned)
  )
  (dimension (type aligned) (layer "Dwgs.User") (tstamp 6519c812-8fe1-40db-91a2-03ee90d6f207)
    (pts (xy -33.5 119.5) (xy -33.5 99.5))
    (height 71)
    (gr_text "20.0000 mm" (at 36.35 109.5 90) (layer "Dwgs.User") (tstamp 6519c812-8fe1-40db-91a2-03ee90d6f207)
      (effects (font (size 1 1) (thickness 0.15)))
    )
    (format (units 3) (units_format 1) (precision 4))
    (style (thickness 0.15) (arrow_length 1.27) (text_position_mode 0) (extension_height 0.58642) (extension_offset 0.5) keep_text_aligned)
  )
  (dimension (type aligned) (layer "Dwgs.User") (tstamp 678563eb-eab6-4f68-9cf0-f3827943b3fe)
    (pts (xy 30 128.5) (xy 30 119.5))
    (height 7.5)
    (gr_text "9.0000 mm" (at 36.35 124 90) (layer "Dwgs.User") (tstamp 678563eb-eab6-4f68-9cf0-f3827943b3fe)
      (effects (font (size 1 1) (thickness 0.15)))
    )
    (format (units 3) (units_format 1) (precision 4))
    (style (thickness 0.15) (arrow_length 1.27) (text_position_mode 0) (extension_height 0.58642) (extension_offset 0.5) keep_text_aligned)
  )
  (dimension (type aligned) (layer "Dwgs.User") (tstamp 767570aa-2d30-41e5-9ae7-c546c862e0e7)
    (pts (xy 0 110) (xy 0 0))
    (height -14)
    (gr_text "110.0000 mm" (at -15.15 55 90) (layer "Dwgs.User") (tstamp 767570aa-2d30-41e5-9ae7-c546c862e0e7)
      (effects (font (size 1 1) (thickness 0.15)))
    )
    (format (units 3) (units_format 1) (precision 4))
    (style (thickness 0.15) (arrow_length 1.27) (text_position_mode 0) (extension_height 0.58642) (extension_offset 0.5) keep_text_aligned)
  )
  (dimension (type aligned) (layer "Dwgs.User") (tstamp 7f599efc-3bde-434e-9cf5-fef2fee1d4bd)
    (pts (xy 0 18) (xy 0 33))
    (height -37.5)
    (gr_text "15.0000 mm" (at 36.35 25.5 90) (layer "Dwgs.User") (tstamp 7f599efc-3bde-434e-9cf5-fef2fee1d4bd)
      (effects (font (size 1 1) (thickness 0.15)))
    )
    (format (units 3) (units_format 1) (precision 4))
    (style (thickness 0.15) (arrow_length 1.27) (text_position_mode 0) (extension_height 0.58642) (extension_offset 0.5) keep_text_aligned)
  )
  (dimension (type aligned) (layer "Dwgs.User") (tstamp 7fe2e84f-dc3a-43e1-976e-5e3458db0140)
    (pts (xy 15 128.5) (xy 15 125.5))
    (height -20.5)
    (gr_text "3.0000 mm" (at -6.65 127 90) (layer "Dwgs.User") (tstamp 7fe2e84f-dc3a-43e1-976e-5e3458db0140)
      (effects (font (size 1 1) (thickness 0.15)))
    )
    (format (units 3) (units_format 1) (precision 4))
    (style (thickness 0.15) (arrow_length 1.27) (text_position_mode 0) (extension_height 0.58642) (extension_offset 0.5) keep_text_aligned)
  )
  (dimension (type aligned) (layer "Dwgs.User") (tstamp 8456274a-a771-43eb-ac89-1bdaeb0518a8)
    (pts (xy 0 63) (xy 0 78))
    (height -37.5)
    (gr_text "15.0000 mm" (at 36.35 70.5 90) (layer "Dwgs.User") (tstamp 8456274a-a771-43eb-ac89-1bdaeb0518a8)
      (effects (font (size 1 1) (thickness 0.15)))
    )
    (format (units 3) (units_format 1) (precision 4))
    (style (thickness 0.15) (arrow_length 1.27) (text_position_mode 0) (extension_height 0.58642) (extension_offset 0.5) keep_text_aligned)
  )
  (dimension (type aligned) (layer "Dwgs.User") (tstamp 871b85ca-02a6-4751-a75d-88ccd6584571)
    (pts (xy 30 0) (xy 29 0))
    (height -134.25)
    (gr_text "1.0000 mm" (at 29.5 133.1) (layer "Dwgs.User") (tstamp 871b85ca-02a6-4751-a75d-88ccd6584571)
      (effects (font (size 1 1) (thickness 0.15)))
    )
    (format (units 3) (units_format 1) (precision 4))
    (style (thickness 0.15) (arrow_length 1.27) (text_position_mode 0) (extension_height 0.58642) (extension_offset 0.5) keep_text_aligned)
  )
  (dimension (type aligned) (layer "Dwgs.User") (tstamp 8dc5a29c-e62b-44c7-8ea1-85fd039290b2)
    (pts (xy 30 99.5) (xy 30 0))
    (height 11.5)
    (gr_text "99.5000 mm" (at 40.35 49.75 90) (layer "Dwgs.User") (tstamp 8dc5a29c-e62b-44c7-8ea1-85fd039290b2)
      (effects (font (size 1 1) (thickness 0.15)))
    )
    (format (units 3) (units_format 1) (precision 4))
    (style (thickness 0.15) (arrow_length 1.27) (text_position_mode 0) (extension_height 0.58642) (extension_offset 0.5) keep_text_aligned)
  )
  (dimension (type aligned) (layer "Dwgs.User") (tstamp 9e7afc48-ca27-4486-8418-cb644ae116df)
    (pts (xy 0 33) (xy 0 48))
    (height -37.5)
    (gr_text "15.0000 mm" (at 36.35 40.5 90) (layer "Dwgs.User") (tstamp 9e7afc48-ca27-4486-8418-cb644ae116df)
      (effects (font (size 1 1) (thickness 0.15)))
    )
    (format (units 3) (units_format 1) (precision 4))
    (style (thickness 0.15) (arrow_length 1.27) (text_position_mode 0) (extension_height 0.58642) (extension_offset 0.5) keep_text_aligned)
  )
  (dimension (type aligned) (layer "Dwgs.User") (tstamp a62b16ac-b45a-498b-854d-b6b0717e0a29)
    (pts (xy 30 128.5) (xy 25 128.5))
    (height 47)
    (gr_text "5.0000 mm" (at 27.5 80.35) (layer "Dwgs.User") (tstamp a62b16ac-b45a-498b-854d-b6b0717e0a29)
      (effects (font (size 1 1) (thickness 0.15)))
    )
    (format (units 3) (units_format 1) (precision 4))
    (style (thickness 0.15) (arrow_length 1.27) (text_position_mode 0) (extension_height 0.58642) (extension_offset 0.5) keep_text_aligned)
  )
  (dimension (type aligned) (layer "Dwgs.User") (tstamp b8cb5c3e-fa34-45b7-bd46-30d1719923a8)
    (pts (xy -27.5 18) (xy -27.5 9.5))
    (height 61.5)
    (gr_text "8.5000 mm" (at 32.85 13.75 90) (layer "Dwgs.User") (tstamp b8cb5c3e-fa34-45b7-bd46-30d1719923a8)
      (effects (font (size 1 1) (thickness 0.15)))
    )
    (format (units 3) (units_format 1) (precision 4))
    (style (thickness 0.15) (arrow_length 1.27) (text_position_mode 0) (extension_height 0.58642) (extension_offset 0.5) keep_text_aligned)
  )
  (dimension (type aligned) (layer "Dwgs.User") (tstamp ce9c3ac2-8c9b-438f-8701-6644ae05a712)
    (pts (xy 0 0) (xy 30 0))
    (height -5.5)
    (gr_text "30.0000 mm" (at 15 -6.65) (layer "Dwgs.User") (tstamp ce9c3ac2-8c9b-438f-8701-6644ae05a712)
      (effects (font (size 1 1) (thickness 0.15)))
    )
    (format (units 3) (units_format 1) (precision 4))
    (style (thickness 0.15) (arrow_length 1.27) (text_position_mode 0) (extension_height 0.58642) (extension_offset 0.5) keep_text_aligned)
  )
  (dimension (type aligned) (layer "Dwgs.User") (tstamp d1f3ef52-d427-4b32-b3ce-6b351ce4a118)
    (pts (xy 30 9.5) (xy 30 0))
    (height 4)
    (gr_text "9.5000 mm" (at 32.85 4.75 90) (layer "Dwgs.User") (tstamp d1f3ef52-d427-4b32-b3ce-6b351ce4a118)
      (effects (font (size 1 1) (thickness 0.15)))
    )
    (format (units 3) (units_format 1) (precision 4))
    (style (thickness 0.15) (arrow_length 1.27) (text_position_mode 0) (extension_height 0.58642) (extension_offset 0.5) keep_text_aligned)
  )
  (dimension (type aligned) (layer "Dwgs.User") (tstamp ddbeca52-0a75-45ca-ad33-37e4246d0d98)
    (pts (xy 1 0) (xy 29 0))
    (height -1.995456)
    (gr_text "28.0000 mm" (at 15 -3.145456) (layer "Dwgs.User") (tstamp ddbeca52-0a75-45ca-ad33-37e4246d0d98)
      (effects (font (size 1 1) (thickness 0.15)))
    )
    (format (units 3) (units_format 1) (precision 4))
    (style (thickness 0.15) (arrow_length 1.27) (text_position_mode 0) (extension_height 0.58642) (extension_offset 0.5) keep_text_aligned)
  )
  (dimension (type aligned) (layer "Dwgs.User") (tstamp df8f921d-165e-4dca-97f9-1895a8a89a10)
    (pts (xy 1 0) (xy 6 0))
    (height 135)
    (gr_text "5.0000 mm" (at 3.5 133.85) (layer "Dwgs.User") (tstamp df8f921d-165e-4dca-97f9-1895a8a89a10)
      (effects (font (size 1 1) (thickness 0.15)))
    )
    (format (units 3) (units_format 1) (precision 4))
    (style (thickness 0.15) (arrow_length 1.27) (text_position_mode 0) (extension_height 0.58642) (extension_offset 0.5) keep_text_aligned)
  )
  (dimension (type aligned) (layer "Dwgs.User") (tstamp e71e9a2a-2076-4135-853a-0b38d46fca16)
    (pts (xy 30 128.5) (xy 30 0))
    (height 17.5)
    (gr_text "128.5000 mm" (at 46.35 64.25 90) (layer "Dwgs.User") (tstamp e71e9a2a-2076-4135-853a-0b38d46fca16)
      (effects (font (size 1 1) (thickness 0.15)))
    )
    (format (units 3) (units_format 1) (precision 4))
    (style (thickness 0.15) (arrow_length 1.27) (text_position_mode 0) (extension_height 0.58642) (extension_offset 0.5) keep_text_aligned)
  )
  (dimension (type aligned) (layer "Dwgs.User") (tstamp e721274f-b458-4ab5-8d4d-44bffaffa7c9)
    (pts (xy 2.9 18.13) (xy 9.1 18.13))
    (height 4.87)
    (gr_text "6.2000 mm" (at 6 21.85) (layer "Dwgs.User") (tstamp e721274f-b458-4ab5-8d4d-44bffaffa7c9)
      (effects (font (size 1 1) (thickness 0.15)))
    )
    (format (units 3) (units_format 1) (precision 4))
    (style (thickness 0.15) (arrow_length 1.27) (text_position_mode 0) (extension_height 0.58642) (extension_offset 0.5) keep_text_aligned)
  )
  (dimension (type aligned) (layer "Dwgs.User") (tstamp f4275444-eb6b-4cdb-b091-514cc32fa7cd)
    (pts (xy 0 0) (xy 15 0))
    (height 141)
    (gr_text "15.0000 mm" (at 7.5 139.85) (layer "Dwgs.User") (tstamp f4275444-eb6b-4cdb-b091-514cc32fa7cd)
      (effects (font (size 1 1) (thickness 0.15)))
    )
    (format (units 3) (units_format 1) (precision 4))
    (style (thickness 0.15) (arrow_length 1.27) (text_position_mode 0) (extension_height 0.58642) (extension_offset 0.5) keep_text_aligned)
  )
  (dimension (type aligned) (layer "Dwgs.User") (tstamp f79d39bc-12fd-4c21-a7e5-767848db6076)
    (pts (xy 0 -0.25) (xy 1 -0.25))
    (height 132.75)
    (gr_text "1.0000 mm" (at 0.5 131.35) (layer "Dwgs.User") (tstamp f79d39bc-12fd-4c21-a7e5-767848db6076)
      (effects (font (size 1 1) (thickness 0.15)))
    )
    (format (units 3) (units_format 1) (precision 4))
    (style (thickness 0.15) (arrow_length 1.27) (text_position_mode 0) (extension_height 0.58642) (extension_offset 0.5) keep_text_aligned)
  )
  (dimension (type aligned) (layer "Dwgs.User") (tstamp fbd93739-3fd5-4784-93e2-a53fefd87435)
    (pts (xy 29.99 18) (xy 30 0))
    (height 7.51)
    (gr_text "18.0000 mm" (at 36.354999 9.003533 89.96816901) (layer "Dwgs.User") (tstamp fbd93739-3fd5-4784-93e2-a53fefd87435)
      (effects (font (size 1 1) (thickness 0.15)))
    )
    (format (units 3) (units_format 1) (precision 4))
    (style (thickness 0.15) (arrow_length 1.27) (text_position_mode 0) (extension_height 0.58642) (extension_offset 0.5) keep_text_aligned)
  )

)
