(kicad_sch (version 20211123) (generator eeschema)

  (uuid eb667eea-300e-4ca7-8a6f-4b00de80cd45)

  (paper "A")

  (title_block
    (title "QTPy49-01")
    (date "2022-07-24")
    (rev "1")
    (company "land-boards.com")
  )

  (lib_symbols
    (symbol "Connector_Generic:Conn_01x03" (pin_names (offset 1.016) hide) (in_bom yes) (on_board yes)
      (property "Reference" "J" (id 0) (at 0 5.08 0)
        (effects (font (size 1.27 1.27)))
      )
      (property "Value" "Conn_01x03" (id 1) (at 0 -5.08 0)
        (effects (font (size 1.27 1.27)))
      )
      (property "Footprint" "" (id 2) (at 0 0 0)
        (effects (font (size 1.27 1.27)) hide)
      )
      (property "Datasheet" "~" (id 3) (at 0 0 0)
        (effects (font (size 1.27 1.27)) hide)
      )
      (property "ki_keywords" "connector" (id 4) (at 0 0 0)
        (effects (font (size 1.27 1.27)) hide)
      )
      (property "ki_description" "Generic connector, single row, 01x03, script generated (kicad-library-utils/schlib/autogen/connector/)" (id 5) (at 0 0 0)
        (effects (font (size 1.27 1.27)) hide)
      )
      (property "ki_fp_filters" "Connector*:*_1x??_*" (id 6) (at 0 0 0)
        (effects (font (size 1.27 1.27)) hide)
      )
      (symbol "Conn_01x03_1_1"
        (rectangle (start -1.27 -2.413) (end 0 -2.667)
          (stroke (width 0.1524) (type default) (color 0 0 0 0))
          (fill (type none))
        )
        (rectangle (start -1.27 0.127) (end 0 -0.127)
          (stroke (width 0.1524) (type default) (color 0 0 0 0))
          (fill (type none))
        )
        (rectangle (start -1.27 2.667) (end 0 2.413)
          (stroke (width 0.1524) (type default) (color 0 0 0 0))
          (fill (type none))
        )
        (rectangle (start -1.27 3.81) (end 1.27 -3.81)
          (stroke (width 0.254) (type default) (color 0 0 0 0))
          (fill (type background))
        )
        (pin passive line (at -5.08 2.54 0) (length 3.81)
          (name "Pin_1" (effects (font (size 1.27 1.27))))
          (number "1" (effects (font (size 1.27 1.27))))
        )
        (pin passive line (at -5.08 0 0) (length 3.81)
          (name "Pin_2" (effects (font (size 1.27 1.27))))
          (number "2" (effects (font (size 1.27 1.27))))
        )
        (pin passive line (at -5.08 -2.54 0) (length 3.81)
          (name "Pin_3" (effects (font (size 1.27 1.27))))
          (number "3" (effects (font (size 1.27 1.27))))
        )
      )
    )
    (symbol "Connector_Generic:Conn_01x04" (pin_names (offset 1.016) hide) (in_bom yes) (on_board yes)
      (property "Reference" "J" (id 0) (at 0 5.08 0)
        (effects (font (size 1.27 1.27)))
      )
      (property "Value" "Conn_01x04" (id 1) (at 0 -7.62 0)
        (effects (font (size 1.27 1.27)))
      )
      (property "Footprint" "" (id 2) (at 0 0 0)
        (effects (font (size 1.27 1.27)) hide)
      )
      (property "Datasheet" "~" (id 3) (at 0 0 0)
        (effects (font (size 1.27 1.27)) hide)
      )
      (property "ki_keywords" "connector" (id 4) (at 0 0 0)
        (effects (font (size 1.27 1.27)) hide)
      )
      (property "ki_description" "Generic connector, single row, 01x04, script generated (kicad-library-utils/schlib/autogen/connector/)" (id 5) (at 0 0 0)
        (effects (font (size 1.27 1.27)) hide)
      )
      (property "ki_fp_filters" "Connector*:*_1x??_*" (id 6) (at 0 0 0)
        (effects (font (size 1.27 1.27)) hide)
      )
      (symbol "Conn_01x04_1_1"
        (rectangle (start -1.27 -4.953) (end 0 -5.207)
          (stroke (width 0.1524) (type default) (color 0 0 0 0))
          (fill (type none))
        )
        (rectangle (start -1.27 -2.413) (end 0 -2.667)
          (stroke (width 0.1524) (type default) (color 0 0 0 0))
          (fill (type none))
        )
        (rectangle (start -1.27 0.127) (end 0 -0.127)
          (stroke (width 0.1524) (type default) (color 0 0 0 0))
          (fill (type none))
        )
        (rectangle (start -1.27 2.667) (end 0 2.413)
          (stroke (width 0.1524) (type default) (color 0 0 0 0))
          (fill (type none))
        )
        (rectangle (start -1.27 3.81) (end 1.27 -6.35)
          (stroke (width 0.254) (type default) (color 0 0 0 0))
          (fill (type background))
        )
        (pin passive line (at -5.08 2.54 0) (length 3.81)
          (name "Pin_1" (effects (font (size 1.27 1.27))))
          (number "1" (effects (font (size 1.27 1.27))))
        )
        (pin passive line (at -5.08 0 0) (length 3.81)
          (name "Pin_2" (effects (font (size 1.27 1.27))))
          (number "2" (effects (font (size 1.27 1.27))))
        )
        (pin passive line (at -5.08 -2.54 0) (length 3.81)
          (name "Pin_3" (effects (font (size 1.27 1.27))))
          (number "3" (effects (font (size 1.27 1.27))))
        )
        (pin passive line (at -5.08 -5.08 0) (length 3.81)
          (name "Pin_4" (effects (font (size 1.27 1.27))))
          (number "4" (effects (font (size 1.27 1.27))))
        )
      )
    )
    (symbol "Device:D_Schottky" (pin_numbers hide) (pin_names (offset 1.016) hide) (in_bom yes) (on_board yes)
      (property "Reference" "D" (id 0) (at 0 2.54 0)
        (effects (font (size 1.27 1.27)))
      )
      (property "Value" "D_Schottky" (id 1) (at 0 -2.54 0)
        (effects (font (size 1.27 1.27)))
      )
      (property "Footprint" "" (id 2) (at 0 0 0)
        (effects (font (size 1.27 1.27)) hide)
      )
      (property "Datasheet" "~" (id 3) (at 0 0 0)
        (effects (font (size 1.27 1.27)) hide)
      )
      (property "ki_keywords" "diode Schottky" (id 4) (at 0 0 0)
        (effects (font (size 1.27 1.27)) hide)
      )
      (property "ki_description" "Schottky diode" (id 5) (at 0 0 0)
        (effects (font (size 1.27 1.27)) hide)
      )
      (property "ki_fp_filters" "TO-???* *_Diode_* *SingleDiode* D_*" (id 6) (at 0 0 0)
        (effects (font (size 1.27 1.27)) hide)
      )
      (symbol "D_Schottky_0_1"
        (polyline
          (pts
            (xy 1.27 0)
            (xy -1.27 0)
          )
          (stroke (width 0) (type default) (color 0 0 0 0))
          (fill (type none))
        )
        (polyline
          (pts
            (xy 1.27 1.27)
            (xy 1.27 -1.27)
            (xy -1.27 0)
            (xy 1.27 1.27)
          )
          (stroke (width 0.254) (type default) (color 0 0 0 0))
          (fill (type none))
        )
        (polyline
          (pts
            (xy -1.905 0.635)
            (xy -1.905 1.27)
            (xy -1.27 1.27)
            (xy -1.27 -1.27)
            (xy -0.635 -1.27)
            (xy -0.635 -0.635)
          )
          (stroke (width 0.254) (type default) (color 0 0 0 0))
          (fill (type none))
        )
      )
      (symbol "D_Schottky_1_1"
        (pin passive line (at -3.81 0 0) (length 2.54)
          (name "K" (effects (font (size 1.27 1.27))))
          (number "1" (effects (font (size 1.27 1.27))))
        )
        (pin passive line (at 3.81 0 180) (length 2.54)
          (name "A" (effects (font (size 1.27 1.27))))
          (number "2" (effects (font (size 1.27 1.27))))
        )
      )
    )
    (symbol "LandBoards:COUPON" (pin_names (offset 1.016)) (in_bom yes) (on_board yes)
      (property "Reference" "COUP?" (id 0) (at 0 0 0)
        (effects (font (size 1.524 1.524)))
      )
      (property "Value" "COUPON" (id 1) (at 0 0 0)
        (effects (font (size 1.524 1.524)))
      )
      (property "Footprint" "" (id 2) (at 0 0 0)
        (effects (font (size 1.524 1.524)))
      )
      (property "Datasheet" "" (id 3) (at 0 0 0)
        (effects (font (size 1.524 1.524)))
      )
      (symbol "COUPON_0_1"
        (rectangle (start -5.08 0) (end 5.08 6.35)
          (stroke (width 0) (type default) (color 0 0 0 0))
          (fill (type none))
        )
      )
    )
    (symbol "LandBoards:MTG_HOLE" (pin_names (offset 1.016)) (in_bom yes) (on_board yes)
      (property "Reference" "MTG?" (id 0) (at 0 2.54 0)
        (effects (font (size 1.524 1.524)))
      )
      (property "Value" "MTG_HOLE" (id 1) (at 0 -2.54 0)
        (effects (font (size 1.524 1.524)))
      )
      (property "Footprint" "" (id 2) (at 0 0 0)
        (effects (font (size 1.524 1.524)))
      )
      (property "Datasheet" "" (id 3) (at 0 0 0)
        (effects (font (size 1.524 1.524)))
      )
      (symbol "MTG_HOLE_0_1"
        (rectangle (start -1.27 -1.27) (end 1.27 -1.27)
          (stroke (width 0) (type default) (color 0 0 0 0))
          (fill (type none))
        )
        (rectangle (start -1.27 1.27) (end -1.27 -1.27)
          (stroke (width 0) (type default) (color 0 0 0 0))
          (fill (type none))
        )
        (rectangle (start 1.27 1.27) (end -1.27 1.27)
          (stroke (width 0) (type default) (color 0 0 0 0))
          (fill (type none))
        )
        (rectangle (start 1.27 1.27) (end 1.27 -1.27)
          (stroke (width 0) (type default) (color 0 0 0 0))
          (fill (type none))
        )
      )
    )
    (symbol "LandBoards_Conns:SD_Card-Connector" (pin_names (offset 1.016)) (in_bom yes) (on_board yes)
      (property "Reference" "J3" (id 0) (at 0 13.97 0)
        (effects (font (size 1.27 1.27)))
      )
      (property "Value" "SD_Card-Connector" (id 1) (at 0 -13.97 0)
        (effects (font (size 1.27 1.27)))
      )
      (property "Footprint" "LandBoards_Conns:SD_CARD" (id 2) (at 0 -16.51 0)
        (effects (font (size 1.27 1.27)))
      )
      (property "Datasheet" "http://portal.fciconnect.com/Comergent//fci/drawing/10067847.pdf" (id 3) (at 2.54 -19.05 0)
        (effects (font (size 1.27 1.27)) hide)
      )
      (property "ki_fp_filters" "SD*" (id 4) (at 0 0 0)
        (effects (font (size 1.27 1.27)) hide)
      )
      (symbol "SD_Card-Connector_0_1"
        (rectangle (start -8.89 -9.525) (end -6.35 -10.795)
          (stroke (width 0) (type default) (color 0 0 0 0))
          (fill (type outline))
        )
        (rectangle (start -8.89 -6.985) (end -6.35 -8.255)
          (stroke (width 0) (type default) (color 0 0 0 0))
          (fill (type outline))
        )
        (rectangle (start -8.89 -4.445) (end -6.35 -5.715)
          (stroke (width 0) (type default) (color 0 0 0 0))
          (fill (type outline))
        )
        (rectangle (start -8.89 -1.905) (end -6.35 -3.175)
          (stroke (width 0) (type default) (color 0 0 0 0))
          (fill (type outline))
        )
        (rectangle (start -8.89 0.635) (end -6.35 -0.635)
          (stroke (width 0) (type default) (color 0 0 0 0))
          (fill (type outline))
        )
        (rectangle (start -8.89 3.175) (end -6.35 1.905)
          (stroke (width 0) (type default) (color 0 0 0 0))
          (fill (type outline))
        )
        (rectangle (start -8.89 5.715) (end -6.35 4.445)
          (stroke (width 0) (type default) (color 0 0 0 0))
          (fill (type outline))
        )
        (rectangle (start -8.89 8.255) (end -6.35 6.985)
          (stroke (width 0) (type default) (color 0 0 0 0))
          (fill (type outline))
        )
        (rectangle (start -7.62 10.795) (end -5.08 9.525)
          (stroke (width 0) (type default) (color 0 0 0 0))
          (fill (type outline))
        )
        (polyline
          (pts
            (xy -10.16 8.89)
            (xy -7.62 11.43)
            (xy 20.32 11.43)
            (xy 20.32 -11.43)
            (xy -10.16 -11.43)
            (xy -10.16 8.89)
          )
          (stroke (width 0) (type default) (color 0 0 0 0))
          (fill (type background))
        )
        (polyline
          (pts
            (xy 16.51 11.43)
            (xy 16.51 12.7)
            (xy -20.32 12.7)
            (xy -20.32 -12.7)
            (xy 16.51 -12.7)
            (xy 16.51 -11.43)
          )
          (stroke (width 0) (type default) (color 0 0 0 0))
          (fill (type none))
        )
      )
      (symbol "SD_Card-Connector_1_1"
        (pin input line (at -22.86 7.62 0) (length 2.54)
          (name "CD/DAT3/SS" (effects (font (size 1.27 1.27))))
          (number "1" (effects (font (size 1.27 1.27))))
        )
        (pin input line (at 22.86 5.08 180) (length 2.54)
          (name "CARD_DETECT" (effects (font (size 1.27 1.27))))
          (number "10" (effects (font (size 1.27 1.27))))
        )
        (pin input line (at 22.86 2.54 180) (length 2.54)
          (name "WRITE_PROTECT" (effects (font (size 1.27 1.27))))
          (number "11" (effects (font (size 1.27 1.27))))
        )
        (pin input line (at 22.86 -2.54 180) (length 2.54)
          (name "SHELL1" (effects (font (size 1.27 1.27))))
          (number "12" (effects (font (size 1.27 1.27))))
        )
        (pin input line (at 22.86 -5.08 180) (length 2.54)
          (name "SHELL2" (effects (font (size 1.27 1.27))))
          (number "13" (effects (font (size 1.27 1.27))))
        )
        (pin input line (at 22.86 -7.62 180) (length 2.54)
          (name "SHELL3" (effects (font (size 1.27 1.27))))
          (number "14" (effects (font (size 1.27 1.27))))
        )
        (pin input line (at 22.86 -10.16 180) (length 2.54)
          (name "SHELL4" (effects (font (size 1.27 1.27))))
          (number "15" (effects (font (size 1.27 1.27))))
        )
        (pin input line (at -22.86 5.08 0) (length 2.54)
          (name "CMD/MOSI" (effects (font (size 1.27 1.27))))
          (number "2" (effects (font (size 1.27 1.27))))
        )
        (pin power_in line (at -22.86 2.54 0) (length 2.54)
          (name "VSS" (effects (font (size 1.27 1.27))))
          (number "3" (effects (font (size 1.27 1.27))))
        )
        (pin power_in line (at -22.86 0 0) (length 2.54)
          (name "VDD" (effects (font (size 1.27 1.27))))
          (number "4" (effects (font (size 1.27 1.27))))
        )
        (pin input line (at -22.86 -2.54 0) (length 2.54)
          (name "CLK/SCK" (effects (font (size 1.27 1.27))))
          (number "5" (effects (font (size 1.27 1.27))))
        )
        (pin power_in line (at -22.86 -5.08 0) (length 2.54)
          (name "VSS" (effects (font (size 1.27 1.27))))
          (number "6" (effects (font (size 1.27 1.27))))
        )
        (pin input line (at -22.86 -7.62 0) (length 2.54)
          (name "DAT0/MISO" (effects (font (size 1.27 1.27))))
          (number "7" (effects (font (size 1.27 1.27))))
        )
        (pin input line (at -22.86 -10.16 0) (length 2.54)
          (name "DAT1" (effects (font (size 1.27 1.27))))
          (number "8" (effects (font (size 1.27 1.27))))
        )
        (pin input line (at -22.86 10.16 0) (length 2.54)
          (name "DAT2" (effects (font (size 1.27 1.27))))
          (number "9" (effects (font (size 1.27 1.27))))
        )
      )
    )
    (symbol "QTPy49-rescue:AP1117" (pin_names (offset 1.016)) (in_bom yes) (on_board yes)
      (property "Reference" "U" (id 0) (at 2.54 3.81 0)
        (effects (font (size 1.524 1.524)))
      )
      (property "Value" "AP1117" (id 1) (at 6.35 -6.35 0)
        (effects (font (size 1.524 1.524)))
      )
      (property "Footprint" "" (id 2) (at 0 0 0)
        (effects (font (size 1.524 1.524)))
      )
      (property "Datasheet" "" (id 3) (at 0 0 0)
        (effects (font (size 1.524 1.524)))
      )
      (symbol "AP1117_0_1"
        (polyline
          (pts
            (xy -8.89 -5.08)
            (xy -8.89 2.54)
            (xy 5.08 2.54)
            (xy 5.08 -5.08)
            (xy -8.89 -5.08)
          )
          (stroke (width 0) (type default) (color 0 0 0 0))
          (fill (type none))
        )
      )
      (symbol "AP1117_1_1"
        (pin power_in line (at -2.54 -12.7 90) (length 7.62)
          (name "GND" (effects (font (size 1.27 1.27))))
          (number "1" (effects (font (size 1.27 1.27))))
        )
        (pin passive line (at 12.7 -2.54 180) (length 7.62)
          (name "VO" (effects (font (size 1.27 1.27))))
          (number "2" (effects (font (size 1.27 1.27))))
        )
        (pin power_in line (at -16.51 -1.27 0) (length 7.62)
          (name "VIN" (effects (font (size 1.27 1.27))))
          (number "3" (effects (font (size 1.27 1.27))))
        )
        (pin power_out line (at 12.7 0 180) (length 7.62)
          (name "VO" (effects (font (size 1.27 1.27))))
          (number "4" (effects (font (size 1.27 1.27))))
        )
      )
    )
    (symbol "QTPy49-rescue:C" (pin_numbers hide) (pin_names (offset 0.254)) (in_bom yes) (on_board yes)
      (property "Reference" "C" (id 0) (at 1.27 2.54 0)
        (effects (font (size 1.27 1.27)) (justify left))
      )
      (property "Value" "C" (id 1) (at 1.27 -2.54 0)
        (effects (font (size 1.27 1.27)) (justify left))
      )
      (property "Footprint" "" (id 2) (at 0 0 0)
        (effects (font (size 1.524 1.524)))
      )
      (property "Datasheet" "" (id 3) (at 0 0 0)
        (effects (font (size 1.524 1.524)))
      )
      (property "ki_fp_filters" "SM* C? C1-1" (id 4) (at 0 0 0)
        (effects (font (size 1.27 1.27)) hide)
      )
      (symbol "C_0_1"
        (polyline
          (pts
            (xy -2.54 -0.762)
            (xy 2.54 -0.762)
          )
          (stroke (width 0.508) (type default) (color 0 0 0 0))
          (fill (type none))
        )
        (polyline
          (pts
            (xy -2.54 0.762)
            (xy 2.54 0.762)
          )
          (stroke (width 0.508) (type default) (color 0 0 0 0))
          (fill (type none))
        )
      )
      (symbol "C_1_1"
        (pin passive line (at 0 5.08 270) (length 4.318)
          (name "~" (effects (font (size 1.016 1.016))))
          (number "1" (effects (font (size 1.016 1.016))))
        )
        (pin passive line (at 0 -5.08 90) (length 4.318)
          (name "~" (effects (font (size 1.016 1.016))))
          (number "2" (effects (font (size 1.016 1.016))))
        )
      )
    )
    (symbol "QTPy49-rescue:DCJ0202" (pin_names (offset 1.016)) (in_bom yes) (on_board yes)
      (property "Reference" "J" (id 0) (at -2.54 3.81 0)
        (effects (font (size 1.27 1.27)) (justify left bottom))
      )
      (property "Value" "DCJ0202" (id 1) (at -2.54 -6.35 0)
        (effects (font (size 1.27 1.27)) (justify left bottom))
      )
      (property "Footprint" "con-jack-DCJ0202" (id 2) (at 0 3.81 0)
        (effects (font (size 1.27 1.27)) hide)
      )
      (property "Datasheet" "" (id 3) (at 0 0 0)
        (effects (font (size 1.524 1.524)))
      )
      (symbol "DCJ0202_1_0"
        (polyline
          (pts
            (xy -2.54 2.54)
            (xy -2.54 1.27)
          )
          (stroke (width 0) (type default) (color 0 0 0 0))
          (fill (type none))
        )
        (polyline
          (pts
            (xy 0 -1.016)
            (xy -0.762 -2.54)
          )
          (stroke (width 0) (type default) (color 0 0 0 0))
          (fill (type none))
        )
        (polyline
          (pts
            (xy 0.762 -2.54)
            (xy 0 -1.016)
          )
          (stroke (width 0) (type default) (color 0 0 0 0))
          (fill (type none))
        )
        (polyline
          (pts
            (xy 2.54 -2.54)
            (xy 0.762 -2.54)
          )
          (stroke (width 0) (type default) (color 0 0 0 0))
          (fill (type none))
        )
        (polyline
          (pts
            (xy 2.54 0)
            (xy 2.54 -2.54)
          )
          (stroke (width 0) (type default) (color 0 0 0 0))
          (fill (type none))
        )
        (polyline
          (pts
            (xy 5.08 -2.54)
            (xy 2.54 -2.54)
          )
          (stroke (width 0) (type default) (color 0 0 0 0))
          (fill (type none))
        )
        (polyline
          (pts
            (xy 5.08 0)
            (xy 2.54 0)
          )
          (stroke (width 0) (type default) (color 0 0 0 0))
          (fill (type none))
        )
        (polyline
          (pts
            (xy 5.08 2.54)
            (xy -2.54 2.54)
          )
          (stroke (width 0) (type default) (color 0 0 0 0))
          (fill (type none))
        )
      )
      (symbol "DCJ0202_1_1"
        (rectangle (start -3.302 -2.54) (end -1.778 1.27)
          (stroke (width 0) (type default) (color 0 0 0 0))
          (fill (type outline))
        )
        (polyline
          (pts
            (xy 2.54 -2.54)
            (xy 2.032 -1.27)
            (xy 2.032 -1.27)
            (xy 3.048 -1.27)
            (xy 3.048 -1.27)
            (xy 2.54 -2.54)
          )
          (stroke (width 0) (type default) (color 0 0 0 0))
          (fill (type outline))
        )
        (pin passive line (at 7.62 2.54 180) (length 2.54)
          (name "1" (effects (font (size 1.016 1.016))))
          (number "1" (effects (font (size 1.016 1.016))))
        )
        (pin passive line (at 7.62 0 180) (length 2.54)
          (name "2" (effects (font (size 1.016 1.016))))
          (number "2" (effects (font (size 1.016 1.016))))
        )
        (pin passive line (at 7.62 -2.54 180) (length 2.54)
          (name "3" (effects (font (size 1.016 1.016))))
          (number "3" (effects (font (size 1.016 1.016))))
        )
      )
    )
    (symbol "QTPy49-rescue:GND" (power) (pin_names (offset 0)) (in_bom yes) (on_board yes)
      (property "Reference" "#PWR" (id 0) (at 0 0 0)
        (effects (font (size 0.762 0.762)) hide)
      )
      (property "Value" "GND" (id 1) (at 0 -1.778 0)
        (effects (font (size 0.762 0.762)) hide)
      )
      (property "Footprint" "" (id 2) (at 0 0 0)
        (effects (font (size 1.524 1.524)))
      )
      (property "Datasheet" "" (id 3) (at 0 0 0)
        (effects (font (size 1.524 1.524)))
      )
      (symbol "GND_0_1"
        (polyline
          (pts
            (xy -1.27 0)
            (xy 0 -1.27)
            (xy 1.27 0)
            (xy -1.27 0)
          )
          (stroke (width 0) (type default) (color 0 0 0 0))
          (fill (type none))
        )
      )
      (symbol "GND_1_1"
        (pin power_in line (at 0 0 90) (length 0) hide
          (name "GND" (effects (font (size 0.762 0.762))))
          (number "1" (effects (font (size 0.762 0.762))))
        )
      )
    )
    (symbol "QT_Py_1" (pin_names (offset 1.016)) (in_bom yes) (on_board yes)
      (property "Reference" "BRD" (id 0) (at 0 11.43 0)
        (effects (font (size 1.524 1.524)))
      )
      (property "Value" "QT_Py_1" (id 1) (at 0 -11.43 0)
        (effects (font (size 1.524 1.524)))
      )
      (property "Footprint" "" (id 2) (at 3.81 0 0)
        (effects (font (size 1.524 1.524)))
      )
      (property "Datasheet" "" (id 3) (at 3.81 0 0)
        (effects (font (size 1.524 1.524)))
      )
      (symbol "QT_Py_1_0_0"
        (rectangle (start -15.24 10.16) (end 13.97 -10.16)
          (stroke (width 0) (type default) (color 0 0 0 0))
          (fill (type none))
        )
      )
      (symbol "QT_Py_1_1_1"
        (pin bidirectional line (at -22.86 7.62 0) (length 7.62)
          (name "D0/A0/AOUT" (effects (font (size 1.27 1.27))))
          (number "1" (effects (font (size 1.27 1.27))))
        )
        (pin bidirectional line (at 21.59 -2.54 180) (length 7.62)
          (name "D9/MISO/A9" (effects (font (size 1.27 1.27))))
          (number "10" (effects (font (size 1.27 1.27))))
        )
        (pin bidirectional line (at 21.59 0 180) (length 7.62)
          (name "D10/MOSI/A10" (effects (font (size 1.27 1.27))))
          (number "11" (effects (font (size 1.27 1.27))))
        )
        (pin power_out line (at 21.59 2.54 180) (length 7.62)
          (name "3.3V" (effects (font (size 1.27 1.27))))
          (number "12" (effects (font (size 1.27 1.27))))
        )
        (pin power_in line (at 21.59 5.08 180) (length 7.62)
          (name "GND" (effects (font (size 1.27 1.27))))
          (number "13" (effects (font (size 1.27 1.27))))
        )
        (pin power_in line (at 21.59 7.62 180) (length 7.62)
          (name "5V" (effects (font (size 1.27 1.27))))
          (number "14" (effects (font (size 1.27 1.27))))
        )
        (pin bidirectional line (at -22.86 5.08 0) (length 7.62)
          (name "D1/A1/AREF" (effects (font (size 1.27 1.27))))
          (number "2" (effects (font (size 1.27 1.27))))
        )
        (pin bidirectional line (at -22.86 2.54 0) (length 7.62)
          (name "D2/A2" (effects (font (size 1.27 1.27))))
          (number "3" (effects (font (size 1.27 1.27))))
        )
        (pin bidirectional line (at -22.86 0 0) (length 7.62)
          (name "D3/A3" (effects (font (size 1.27 1.27))))
          (number "4" (effects (font (size 1.27 1.27))))
        )
        (pin bidirectional line (at -22.86 -2.54 0) (length 7.62)
          (name "D4/SDA" (effects (font (size 1.27 1.27))))
          (number "5" (effects (font (size 1.27 1.27))))
        )
        (pin bidirectional line (at -22.86 -5.08 0) (length 7.62)
          (name "D5/SCL" (effects (font (size 1.27 1.27))))
          (number "6" (effects (font (size 1.27 1.27))))
        )
        (pin bidirectional line (at -22.86 -7.62 0) (length 7.62)
          (name "D6/TX/A6" (effects (font (size 1.27 1.27))))
          (number "7" (effects (font (size 1.27 1.27))))
        )
        (pin bidirectional line (at 21.59 -7.62 180) (length 7.62)
          (name "D7/RX/A7" (effects (font (size 1.27 1.27))))
          (number "8" (effects (font (size 1.27 1.27))))
        )
        (pin bidirectional line (at 21.59 -5.08 180) (length 7.62)
          (name "D8/SCK/A8" (effects (font (size 1.27 1.27))))
          (number "9" (effects (font (size 1.27 1.27))))
        )
      )
    )
    (symbol "power:+3.3V" (power) (pin_names (offset 0)) (in_bom yes) (on_board yes)
      (property "Reference" "#PWR" (id 0) (at 0 -3.81 0)
        (effects (font (size 1.27 1.27)) hide)
      )
      (property "Value" "+3.3V" (id 1) (at 0 3.556 0)
        (effects (font (size 1.27 1.27)))
      )
      (property "Footprint" "" (id 2) (at 0 0 0)
        (effects (font (size 1.27 1.27)) hide)
      )
      (property "Datasheet" "" (id 3) (at 0 0 0)
        (effects (font (size 1.27 1.27)) hide)
      )
      (property "ki_keywords" "power-flag" (id 4) (at 0 0 0)
        (effects (font (size 1.27 1.27)) hide)
      )
      (property "ki_description" "Power symbol creates a global label with name \"+3.3V\"" (id 5) (at 0 0 0)
        (effects (font (size 1.27 1.27)) hide)
      )
      (symbol "+3.3V_0_1"
        (polyline
          (pts
            (xy -0.762 1.27)
            (xy 0 2.54)
          )
          (stroke (width 0) (type default) (color 0 0 0 0))
          (fill (type none))
        )
        (polyline
          (pts
            (xy 0 0)
            (xy 0 2.54)
          )
          (stroke (width 0) (type default) (color 0 0 0 0))
          (fill (type none))
        )
        (polyline
          (pts
            (xy 0 2.54)
            (xy 0.762 1.27)
          )
          (stroke (width 0) (type default) (color 0 0 0 0))
          (fill (type none))
        )
      )
      (symbol "+3.3V_1_1"
        (pin power_in line (at 0 0 90) (length 0) hide
          (name "+3V3" (effects (font (size 1.27 1.27))))
          (number "1" (effects (font (size 1.27 1.27))))
        )
      )
    )
    (symbol "power:+5V" (power) (pin_names (offset 0)) (in_bom yes) (on_board yes)
      (property "Reference" "#PWR" (id 0) (at 0 -3.81 0)
        (effects (font (size 1.27 1.27)) hide)
      )
      (property "Value" "+5V" (id 1) (at 0 3.556 0)
        (effects (font (size 1.27 1.27)))
      )
      (property "Footprint" "" (id 2) (at 0 0 0)
        (effects (font (size 1.27 1.27)) hide)
      )
      (property "Datasheet" "" (id 3) (at 0 0 0)
        (effects (font (size 1.27 1.27)) hide)
      )
      (property "ki_keywords" "power-flag" (id 4) (at 0 0 0)
        (effects (font (size 1.27 1.27)) hide)
      )
      (property "ki_description" "Power symbol creates a global label with name \"+5V\"" (id 5) (at 0 0 0)
        (effects (font (size 1.27 1.27)) hide)
      )
      (symbol "+5V_0_1"
        (polyline
          (pts
            (xy -0.762 1.27)
            (xy 0 2.54)
          )
          (stroke (width 0) (type default) (color 0 0 0 0))
          (fill (type none))
        )
        (polyline
          (pts
            (xy 0 0)
            (xy 0 2.54)
          )
          (stroke (width 0) (type default) (color 0 0 0 0))
          (fill (type none))
        )
        (polyline
          (pts
            (xy 0 2.54)
            (xy 0.762 1.27)
          )
          (stroke (width 0) (type default) (color 0 0 0 0))
          (fill (type none))
        )
      )
      (symbol "+5V_1_1"
        (pin power_in line (at 0 0 90) (length 0) hide
          (name "+5V" (effects (font (size 1.27 1.27))))
          (number "1" (effects (font (size 1.27 1.27))))
        )
      )
    )
    (symbol "power:GND" (power) (pin_names (offset 0)) (in_bom yes) (on_board yes)
      (property "Reference" "#PWR" (id 0) (at 0 -6.35 0)
        (effects (font (size 1.27 1.27)) hide)
      )
      (property "Value" "GND" (id 1) (at 0 -3.81 0)
        (effects (font (size 1.27 1.27)))
      )
      (property "Footprint" "" (id 2) (at 0 0 0)
        (effects (font (size 1.27 1.27)) hide)
      )
      (property "Datasheet" "" (id 3) (at 0 0 0)
        (effects (font (size 1.27 1.27)) hide)
      )
      (property "ki_keywords" "power-flag" (id 4) (at 0 0 0)
        (effects (font (size 1.27 1.27)) hide)
      )
      (property "ki_description" "Power symbol creates a global label with name \"GND\" , ground" (id 5) (at 0 0 0)
        (effects (font (size 1.27 1.27)) hide)
      )
      (symbol "GND_0_1"
        (polyline
          (pts
            (xy 0 0)
            (xy 0 -1.27)
            (xy 1.27 -1.27)
            (xy 0 -2.54)
            (xy -1.27 -1.27)
            (xy 0 -1.27)
          )
          (stroke (width 0) (type default) (color 0 0 0 0))
          (fill (type none))
        )
      )
      (symbol "GND_1_1"
        (pin power_in line (at 0 0 270) (length 0) hide
          (name "GND" (effects (font (size 1.27 1.27))))
          (number "1" (effects (font (size 1.27 1.27))))
        )
      )
    )
  )

  (junction (at 200.66 114.3) (diameter 0) (color 0 0 0 0)
    (uuid 0283e81d-c3e6-41a4-9f69-b9a54cb0d915)
  )
  (junction (at 195.58 78.74) (diameter 0) (color 0 0 0 0)
    (uuid 0c50bab6-2cc9-47de-8fa7-29e520b57cac)
  )
  (junction (at 105.41 134.62) (diameter 0) (color 0 0 0 0)
    (uuid 320bc675-42ca-4be4-b49d-e0e76bb9aa9d)
  )
  (junction (at 50.8 149.86) (diameter 0) (color 0 0 0 0)
    (uuid 3aaee4c4-dbf7-49a5-a620-9465d8cc3ae7)
  )
  (junction (at 137.16 149.86) (diameter 0) (color 0 0 0 0)
    (uuid 3f2cb950-4c26-4b2c-8259-94048d226d63)
  )
  (junction (at 80.01 149.86) (diameter 0) (color 0 0 0 0)
    (uuid 639c0e59-e95c-4114-bccd-2e7277505454)
  )
  (junction (at 200.66 62.23) (diameter 0) (color 0 0 0 0)
    (uuid 666713b0-70f4-42df-8761-f65bc212d03b)
  )
  (junction (at 137.16 119.38) (diameter 0) (color 0 0 0 0)
    (uuid 675b2a1e-1d1e-4f5b-91f1-23d348015a92)
  )
  (junction (at 40.64 147.32) (diameter 0) (color 0 0 0 0)
    (uuid 6a14b137-13a1-4055-828c-e5b614856272)
  )
  (junction (at 195.58 64.77) (diameter 0) (color 0 0 0 0)
    (uuid 70e15522-1572-4451-9c0d-6d36ac70d8c6)
  )
  (junction (at 115.57 128.27) (diameter 0) (color 0 0 0 0)
    (uuid 75e9da40-7a58-4d8c-94eb-d6257f5c05ef)
  )
  (junction (at 64.77 92.71) (diameter 0) (color 0 0 0 0)
    (uuid 87f7a973-810d-415b-bdda-ed5637e0d859)
  )
  (junction (at 40.64 149.86) (diameter 0) (color 0 0 0 0)
    (uuid 8b53f781-44f9-48f7-a1b4-96d8ec42b339)
  )
  (junction (at 200.66 97.79) (diameter 0) (color 0 0 0 0)
    (uuid 9e202404-23e1-4cc5-9745-3c34013ed0ce)
  )
  (junction (at 50.8 135.89) (diameter 0) (color 0 0 0 0)
    (uuid a15a7506-eae4-4933-84da-9ad754258706)
  )
  (junction (at 195.58 50.8) (diameter 0) (color 0 0 0 0)
    (uuid aa14c3bd-4acc-4908-9d28-228585a22a9d)
  )
  (junction (at 137.16 128.27) (diameter 0) (color 0 0 0 0)
    (uuid b0fd585d-b771-410c-a7c4-d66f199582bb)
  )
  (junction (at 115.57 149.86) (diameter 0) (color 0 0 0 0)
    (uuid bee8faf4-7fd1-44ee-b0d7-cf8502cd88ec)
  )
  (junction (at 195.58 95.25) (diameter 0) (color 0 0 0 0)
    (uuid c6ff436e-83b4-49d5-bd64-f725c8542c40)
  )
  (junction (at 200.66 76.2) (diameter 0) (color 0 0 0 0)
    (uuid d6e68ac0-5c31-454d-95f1-0b80b6c06d4a)
  )
  (junction (at 43.18 135.89) (diameter 0) (color 0 0 0 0)
    (uuid e15d0572-29dc-481c-9c52-d88ad8ba90f4)
  )

  (no_connect (at 67.31 97.79) (uuid 89ed86ba-0d5e-4cd6-b47c-2ee73901683f))
  (no_connect (at 67.31 77.47) (uuid 89ed86ba-0d5e-4cd6-b47c-2ee739016840))
  (no_connect (at 113.03 90.17) (uuid aa5b463f-144f-4e11-9731-b9c59c439cd8))
  (no_connect (at 113.03 85.09) (uuid aa5b463f-144f-4e11-9731-b9c59c439cd9))
  (no_connect (at 113.03 82.55) (uuid aa5b463f-144f-4e11-9731-b9c59c439cda))
  (no_connect (at 113.03 92.71) (uuid aa5b463f-144f-4e11-9731-b9c59c439cdb))
  (no_connect (at 113.03 95.25) (uuid aa5b463f-144f-4e11-9731-b9c59c439cdc))
  (no_connect (at 113.03 97.79) (uuid aa5b463f-144f-4e11-9731-b9c59c439cdd))

  (wire (pts (xy 40.64 133.35) (xy 40.64 147.32))
    (stroke (width 0) (type default) (color 0 0 0 0))
    (uuid 008b01e2-6080-4308-b0d9-cf074b28d452)
  )
  (wire (pts (xy 50.8 149.86) (xy 80.01 149.86))
    (stroke (width 0) (type default) (color 0 0 0 0))
    (uuid 01657d30-6f8e-4bbd-a3dd-6a0742c69aca)
  )
  (wire (pts (xy 200.66 97.79) (xy 200.66 114.3))
    (stroke (width 0) (type default) (color 0 0 0 0))
    (uuid 05443b14-1005-44af-9533-78f03ee51b06)
  )
  (wire (pts (xy 33.02 34.29) (xy 50.8 34.29))
    (stroke (width 0) (type default) (color 0 0 0 0))
    (uuid 05708152-64bb-44cf-9e26-56091dd4bdc3)
  )
  (wire (pts (xy 95.25 39.37) (xy 113.03 39.37))
    (stroke (width 0) (type default) (color 0 0 0 0))
    (uuid 071602dc-e7b4-4e0c-bbed-643a1607fd67)
  )
  (wire (pts (xy 204.47 81.28) (xy 182.88 81.28))
    (stroke (width 0) (type default) (color 0 0 0 0))
    (uuid 0755aee5-bc01-4cb5-b830-583289df50a3)
  )
  (wire (pts (xy 33.02 36.83) (xy 50.8 36.83))
    (stroke (width 0) (type default) (color 0 0 0 0))
    (uuid 0ab9c6bb-017e-4c74-9dcb-bb85267ae4a0)
  )
  (wire (pts (xy 80.01 149.86) (xy 80.01 147.32))
    (stroke (width 0) (type default) (color 0 0 0 0))
    (uuid 0f54db53-a272-4955-88fb-d7ab00657bb0)
  )
  (wire (pts (xy 95.25 31.75) (xy 97.79 31.75))
    (stroke (width 0) (type default) (color 0 0 0 0))
    (uuid 125a1a53-a3f7-4e6e-8a91-621af13e2e66)
  )
  (wire (pts (xy 27.94 190.5) (xy 27.94 193.04))
    (stroke (width 0) (type default) (color 0 0 0 0))
    (uuid 1424abf2-72e0-482a-ae62-44f65b65caf0)
  )
  (wire (pts (xy 105.41 25.4) (xy 105.41 36.83))
    (stroke (width 0) (type default) (color 0 0 0 0))
    (uuid 16938cc0-f8f7-42f0-be23-7ef5882eb952)
  )
  (wire (pts (xy 33.02 80.01) (xy 67.31 80.01))
    (stroke (width 0) (type default) (color 0 0 0 0))
    (uuid 19e4ca0e-444b-4e6e-a1f2-a7cc7ff5326b)
  )
  (wire (pts (xy 204.47 90.17) (xy 182.88 90.17))
    (stroke (width 0) (type default) (color 0 0 0 0))
    (uuid 19ece760-3b02-4415-b26f-9762cb06f5a4)
  )
  (wire (pts (xy 115.57 128.27) (xy 119.38 128.27))
    (stroke (width 0) (type default) (color 0 0 0 0))
    (uuid 1b9e902f-4f54-45a2-92bf-fd3d20cafaaa)
  )
  (wire (pts (xy 95.25 134.62) (xy 105.41 134.62))
    (stroke (width 0) (type default) (color 0 0 0 0))
    (uuid 1bf544e3-5940-4576-9291-2464e95c0ee2)
  )
  (wire (pts (xy 204.47 106.68) (xy 182.88 106.68))
    (stroke (width 0) (type default) (color 0 0 0 0))
    (uuid 1d60758a-fa22-462c-bed8-78af505d0580)
  )
  (wire (pts (xy 43.18 130.81) (xy 43.18 135.89))
    (stroke (width 0) (type default) (color 0 0 0 0))
    (uuid 1e48ea65-c06c-4aae-b79b-36169614a597)
  )
  (wire (pts (xy 46.99 128.27) (xy 38.1 128.27))
    (stroke (width 0) (type default) (color 0 0 0 0))
    (uuid 21029bc5-ec40-4631-a1f1-024a4085a56f)
  )
  (wire (pts (xy 105.41 134.62) (xy 105.41 128.27))
    (stroke (width 0) (type default) (color 0 0 0 0))
    (uuid 260367c2-49ba-40e8-8c70-2402bd7fa9a1)
  )
  (wire (pts (xy 137.16 133.35) (xy 137.16 128.27))
    (stroke (width 0) (type default) (color 0 0 0 0))
    (uuid 29bb7297-26fb-4776-9266-2355d022bab0)
  )
  (wire (pts (xy 95.25 44.45) (xy 113.03 44.45))
    (stroke (width 0) (type default) (color 0 0 0 0))
    (uuid 2a7362eb-d8c1-43d7-aa2a-add288a8da5e)
  )
  (wire (pts (xy 97.79 34.29) (xy 97.79 52.07))
    (stroke (width 0) (type default) (color 0 0 0 0))
    (uuid 2b427fdb-3730-4ba2-8bea-c11c1fba66c9)
  )
  (wire (pts (xy 67.31 85.09) (xy 64.77 85.09))
    (stroke (width 0) (type default) (color 0 0 0 0))
    (uuid 31e37b55-b4fc-4af4-9761-b224deaed044)
  )
  (wire (pts (xy 38.1 144.78) (xy 43.18 144.78))
    (stroke (width 0) (type default) (color 0 0 0 0))
    (uuid 378af8b4-af3d-46e7-89ae-deff12ca9067)
  )
  (wire (pts (xy 50.8 135.89) (xy 66.04 135.89))
    (stroke (width 0) (type default) (color 0 0 0 0))
    (uuid 3aec5e23-e675-4bcf-9a9e-48cb59d51927)
  )
  (wire (pts (xy 195.58 78.74) (xy 195.58 95.25))
    (stroke (width 0) (type default) (color 0 0 0 0))
    (uuid 3c9e1e09-a7cb-4797-a96c-b1fda1328789)
  )
  (wire (pts (xy 33.02 41.91) (xy 50.8 41.91))
    (stroke (width 0) (type default) (color 0 0 0 0))
    (uuid 40b171f7-464e-4a6e-83ba-4b967681b17a)
  )
  (wire (pts (xy 33.02 39.37) (xy 50.8 39.37))
    (stroke (width 0) (type default) (color 0 0 0 0))
    (uuid 41349dce-cc1d-4c28-b6ec-9477fd397b4c)
  )
  (wire (pts (xy 43.18 135.89) (xy 50.8 135.89))
    (stroke (width 0) (type default) (color 0 0 0 0))
    (uuid 42713045-fffd-4b2d-ae1e-7232d705fb12)
  )
  (wire (pts (xy 200.66 62.23) (xy 200.66 76.2))
    (stroke (width 0) (type default) (color 0 0 0 0))
    (uuid 4641dd2b-8a78-420d-8cf9-d253cde42a58)
  )
  (wire (pts (xy 137.16 149.86) (xy 137.16 143.51))
    (stroke (width 0) (type default) (color 0 0 0 0))
    (uuid 4c843bdb-6c9e-40dd-85e2-0567846e18ba)
  )
  (wire (pts (xy 204.47 78.74) (xy 195.58 78.74))
    (stroke (width 0) (type default) (color 0 0 0 0))
    (uuid 4c8eb964-bdf4-44de-90e9-e2ab82dd5313)
  )
  (wire (pts (xy 204.47 53.34) (xy 182.88 53.34))
    (stroke (width 0) (type default) (color 0 0 0 0))
    (uuid 4fb21471-41be-4be8-9687-66030f97befc)
  )
  (wire (pts (xy 95.25 41.91) (xy 113.03 41.91))
    (stroke (width 0) (type default) (color 0 0 0 0))
    (uuid 57e4058b-82be-4d82-b9df-b60fc5911c7b)
  )
  (wire (pts (xy 200.66 97.79) (xy 204.47 97.79))
    (stroke (width 0) (type default) (color 0 0 0 0))
    (uuid 5ad5030b-8e94-4e93-8b72-5688d173e5d3)
  )
  (wire (pts (xy 195.58 43.18) (xy 195.58 50.8))
    (stroke (width 0) (type default) (color 0 0 0 0))
    (uuid 66116376-6967-4178-9f23-a26cdeafc400)
  )
  (wire (pts (xy 95.25 34.29) (xy 97.79 34.29))
    (stroke (width 0) (type default) (color 0 0 0 0))
    (uuid 66aaf9d0-1889-45d1-8a45-6444a53769dc)
  )
  (wire (pts (xy 95.25 36.83) (xy 105.41 36.83))
    (stroke (width 0) (type default) (color 0 0 0 0))
    (uuid 6ae6b70d-49d5-4996-87ca-29ad874cc68f)
  )
  (wire (pts (xy 46.99 119.38) (xy 46.99 128.27))
    (stroke (width 0) (type default) (color 0 0 0 0))
    (uuid 6c024c95-51fb-487b-814f-0e8912890c7e)
  )
  (wire (pts (xy 67.31 87.63) (xy 62.23 87.63))
    (stroke (width 0) (type default) (color 0 0 0 0))
    (uuid 6d9f9117-e9ad-4f86-a4c1-0b550506e98d)
  )
  (wire (pts (xy 115.57 128.27) (xy 115.57 133.35))
    (stroke (width 0) (type default) (color 0 0 0 0))
    (uuid 6eaa9290-07f5-4f17-b270-2480fb54ab6d)
  )
  (wire (pts (xy 27.94 177.8) (xy 27.94 180.34))
    (stroke (width 0) (type default) (color 0 0 0 0))
    (uuid 77ea6a45-fe0d-4e48-b615-8816554182c6)
  )
  (wire (pts (xy 200.66 114.3) (xy 204.47 114.3))
    (stroke (width 0) (type default) (color 0 0 0 0))
    (uuid 7dc1b684-c446-4a13-bafa-88334bc28b30)
  )
  (wire (pts (xy 200.66 62.23) (xy 204.47 62.23))
    (stroke (width 0) (type default) (color 0 0 0 0))
    (uuid 7dc880bc-e7eb-4cce-8d8c-0b65a9dd788e)
  )
  (wire (pts (xy 105.41 128.27) (xy 115.57 128.27))
    (stroke (width 0) (type default) (color 0 0 0 0))
    (uuid 82687984-36d4-4ed5-80b8-0f16c64a4885)
  )
  (wire (pts (xy 204.47 109.22) (xy 182.88 109.22))
    (stroke (width 0) (type default) (color 0 0 0 0))
    (uuid 827615ab-0b7b-4a59-a8df-0bd2b153aa13)
  )
  (wire (pts (xy 204.47 48.26) (xy 200.66 48.26))
    (stroke (width 0) (type default) (color 0 0 0 0))
    (uuid 8412992d-8754-44de-9e08-115cec1a3eff)
  )
  (wire (pts (xy 200.66 76.2) (xy 200.66 97.79))
    (stroke (width 0) (type default) (color 0 0 0 0))
    (uuid 85ba448d-8330-428b-896c-8368c4676e38)
  )
  (wire (pts (xy 95.25 46.99) (xy 113.03 46.99))
    (stroke (width 0) (type default) (color 0 0 0 0))
    (uuid 8606b64b-fd2c-46fb-9566-2f4e6503022b)
  )
  (wire (pts (xy 137.16 149.86) (xy 137.16 152.4))
    (stroke (width 0) (type default) (color 0 0 0 0))
    (uuid 8634edb8-50db-43d2-95bb-5918d2cd24cc)
  )
  (wire (pts (xy 97.79 25.4) (xy 97.79 31.75))
    (stroke (width 0) (type default) (color 0 0 0 0))
    (uuid 868ca2ec-8a6c-469b-a417-f240de05e059)
  )
  (wire (pts (xy 105.41 137.16) (xy 95.25 137.16))
    (stroke (width 0) (type default) (color 0 0 0 0))
    (uuid 8ca3e20d-bcc7-4c5e-9deb-562dfed9fecb)
  )
  (wire (pts (xy 195.58 111.76) (xy 204.47 111.76))
    (stroke (width 0) (type default) (color 0 0 0 0))
    (uuid 8dae8517-5eb0-477b-bbd1-4253a5203016)
  )
  (wire (pts (xy 33.02 95.25) (xy 67.31 95.25))
    (stroke (width 0) (type default) (color 0 0 0 0))
    (uuid 8f3ecacd-dd72-4dec-a677-60562c10093a)
  )
  (wire (pts (xy 33.02 31.75) (xy 50.8 31.75))
    (stroke (width 0) (type default) (color 0 0 0 0))
    (uuid 9383551a-c10b-4f5a-ad2a-e7c4e5f41feb)
  )
  (wire (pts (xy 137.16 119.38) (xy 137.16 128.27))
    (stroke (width 0) (type default) (color 0 0 0 0))
    (uuid 97823ebb-0711-4a96-9596-e1b6f4baec60)
  )
  (wire (pts (xy 204.47 50.8) (xy 195.58 50.8))
    (stroke (width 0) (type default) (color 0 0 0 0))
    (uuid 9bb20359-0f8b-45bc-9d38-6626ed3a939d)
  )
  (wire (pts (xy 115.57 149.86) (xy 137.16 149.86))
    (stroke (width 0) (type default) (color 0 0 0 0))
    (uuid 9ccefcb4-ae59-48d0-9e1b-0de64c0f0c08)
  )
  (wire (pts (xy 204.47 67.31) (xy 182.88 67.31))
    (stroke (width 0) (type default) (color 0 0 0 0))
    (uuid a1823eb2-fb0d-4ed8-8b96-04184ac3a9d5)
  )
  (wire (pts (xy 43.18 144.78) (xy 43.18 135.89))
    (stroke (width 0) (type default) (color 0 0 0 0))
    (uuid a27eb049-c992-4f11-a026-1e6a8d9d0160)
  )
  (wire (pts (xy 62.23 71.12) (xy 62.23 87.63))
    (stroke (width 0) (type default) (color 0 0 0 0))
    (uuid a8453a2d-211e-4205-b60f-55654742c71e)
  )
  (wire (pts (xy 38.1 130.81) (xy 43.18 130.81))
    (stroke (width 0) (type default) (color 0 0 0 0))
    (uuid a895f082-3324-4ab7-bfed-0cb56d34651d)
  )
  (wire (pts (xy 33.02 82.55) (xy 67.31 82.55))
    (stroke (width 0) (type default) (color 0 0 0 0))
    (uuid ae53b946-ceab-49bf-b1d0-d6f3172d7e34)
  )
  (wire (pts (xy 64.77 92.71) (xy 64.77 106.68))
    (stroke (width 0) (type default) (color 0 0 0 0))
    (uuid b83c0b65-9035-44f4-9939-bf63baaf6b52)
  )
  (wire (pts (xy 137.16 119.38) (xy 46.99 119.38))
    (stroke (width 0) (type default) (color 0 0 0 0))
    (uuid bbc86d48-5ce4-4ddd-b79b-6c45ad7d510b)
  )
  (wire (pts (xy 200.66 48.26) (xy 200.66 62.23))
    (stroke (width 0) (type default) (color 0 0 0 0))
    (uuid bca69a58-3f8f-4ac5-9ef0-70bfa6c247ee)
  )
  (wire (pts (xy 50.8 149.86) (xy 50.8 148.59))
    (stroke (width 0) (type default) (color 0 0 0 0))
    (uuid bdc7face-9f7c-4701-80bb-4cc144448db1)
  )
  (wire (pts (xy 64.77 85.09) (xy 64.77 92.71))
    (stroke (width 0) (type default) (color 0 0 0 0))
    (uuid be207d1a-0790-4021-8cd6-6ed4e93aea39)
  )
  (wire (pts (xy 200.66 114.3) (xy 200.66 120.65))
    (stroke (width 0) (type default) (color 0 0 0 0))
    (uuid be3610cd-c4e5-4eef-a19b-2490be584221)
  )
  (wire (pts (xy 40.64 149.86) (xy 50.8 149.86))
    (stroke (width 0) (type default) (color 0 0 0 0))
    (uuid c16b15bb-9d8a-4a68-9bfb-fca064145786)
  )
  (wire (pts (xy 204.47 76.2) (xy 200.66 76.2))
    (stroke (width 0) (type default) (color 0 0 0 0))
    (uuid c332fa55-4168-4f55-88a5-f82c7c21040b)
  )
  (wire (pts (xy 50.8 138.43) (xy 50.8 135.89))
    (stroke (width 0) (type default) (color 0 0 0 0))
    (uuid c8c79177-94d4-43e2-a654-f0a5554fbb68)
  )
  (wire (pts (xy 127 128.27) (xy 137.16 128.27))
    (stroke (width 0) (type default) (color 0 0 0 0))
    (uuid cb6062da-8dcd-4826-92fd-4071e9e97213)
  )
  (wire (pts (xy 38.1 147.32) (xy 40.64 147.32))
    (stroke (width 0) (type default) (color 0 0 0 0))
    (uuid ce72ea62-9343-4a4f-81bf-8ac601f5d005)
  )
  (wire (pts (xy 195.58 50.8) (xy 195.58 64.77))
    (stroke (width 0) (type default) (color 0 0 0 0))
    (uuid d2683b99-bb18-4d41-a0c5-df26e16e4210)
  )
  (wire (pts (xy 204.47 92.71) (xy 182.88 92.71))
    (stroke (width 0) (type default) (color 0 0 0 0))
    (uuid d38b8660-b201-4b8f-b524-2e781c6109e8)
  )
  (wire (pts (xy 38.1 149.86) (xy 40.64 149.86))
    (stroke (width 0) (type default) (color 0 0 0 0))
    (uuid d3c11c8f-a73d-4211-934b-a6da255728ad)
  )
  (wire (pts (xy 204.47 64.77) (xy 195.58 64.77))
    (stroke (width 0) (type default) (color 0 0 0 0))
    (uuid d3d7e298-1d39-4294-a3ab-c84cc0dc5e5a)
  )
  (wire (pts (xy 195.58 95.25) (xy 204.47 95.25))
    (stroke (width 0) (type default) (color 0 0 0 0))
    (uuid d3fa3241-79f3-4db9-8b2a-99b482a1dbd8)
  )
  (wire (pts (xy 195.58 95.25) (xy 195.58 111.76))
    (stroke (width 0) (type default) (color 0 0 0 0))
    (uuid d8f1d152-884c-4d52-ad02-5ffd7ebba858)
  )
  (wire (pts (xy 64.77 92.71) (xy 67.31 92.71))
    (stroke (width 0) (type default) (color 0 0 0 0))
    (uuid de51e245-a27c-4a43-a9d6-150e7ff82e45)
  )
  (wire (pts (xy 38.1 133.35) (xy 40.64 133.35))
    (stroke (width 0) (type default) (color 0 0 0 0))
    (uuid e1c74028-b86c-477d-a751-c4fc39844516)
  )
  (wire (pts (xy 33.02 44.45) (xy 50.8 44.45))
    (stroke (width 0) (type default) (color 0 0 0 0))
    (uuid e6dc44f7-eeb5-42cc-94e4-bd00c268a323)
  )
  (wire (pts (xy 137.16 118.11) (xy 137.16 119.38))
    (stroke (width 0) (type default) (color 0 0 0 0))
    (uuid e7935848-5c67-4140-a116-ada64ee9135f)
  )
  (wire (pts (xy 33.02 46.99) (xy 50.8 46.99))
    (stroke (width 0) (type default) (color 0 0 0 0))
    (uuid ed697aea-a86b-4c15-b4ef-b14cfda5b69a)
  )
  (wire (pts (xy 195.58 64.77) (xy 195.58 78.74))
    (stroke (width 0) (type default) (color 0 0 0 0))
    (uuid f368b66f-c8a4-4ccf-b925-3f03c13bf28f)
  )
  (wire (pts (xy 115.57 143.51) (xy 115.57 149.86))
    (stroke (width 0) (type default) (color 0 0 0 0))
    (uuid f746d735-61ba-40ba-917b-14ed2f9449be)
  )
  (wire (pts (xy 33.02 90.17) (xy 67.31 90.17))
    (stroke (width 0) (type default) (color 0 0 0 0))
    (uuid f9a6b437-43cb-442c-9363-26ffc6c55364)
  )
  (wire (pts (xy 40.64 147.32) (xy 40.64 149.86))
    (stroke (width 0) (type default) (color 0 0 0 0))
    (uuid fb30f9bb-6a0b-4d8a-82b0-266eab794bc6)
  )
  (wire (pts (xy 80.01 149.86) (xy 115.57 149.86))
    (stroke (width 0) (type default) (color 0 0 0 0))
    (uuid fc80fa5b-8c07-4dda-8002-331dcafd556b)
  )
  (wire (pts (xy 105.41 134.62) (xy 105.41 137.16))
    (stroke (width 0) (type default) (color 0 0 0 0))
    (uuid fea7c5d1-76d6-41a0-b5e3-29889dbb8ce0)
  )

  (text "SD Card" (at 74.93 113.03 0)
    (effects (font (size 3.175 3.175) (thickness 0.635) bold) (justify left bottom))
    (uuid 00cfca43-dc8b-4931-ac37-ed07cc74ff02)
  )
  (text "DIGITAL I/O" (at 191.77 129.54 0)
    (effects (font (size 3.175 3.175) (thickness 0.635) bold) (justify left bottom))
    (uuid 30c33e3e-fb78-498d-bffe-76273d527004)
  )
  (text "5V ON J1" (at 21.59 130.81 0)
    (effects (font (size 1.27 1.27)) (justify left bottom))
    (uuid 3ec0e338-24c6-446f-8726-49549a5d3812)
  )
  (text "VOLTAGE REGULATOR" (at 67.31 153.67 0)
    (effects (font (size 1.524 1.524)) (justify left bottom))
    (uuid f64497d1-1d62-44a4-8e5e-6fba4ebc969a)
  )

  (label "VIN" (at 54.61 135.89 0)
    (effects (font (size 1.524 1.524)) (justify left bottom))
    (uuid 065b9982-55f2-4822-977e-07e8a06e7b35)
  )
  (label "AD3" (at 185.42 81.28 0)
    (effects (font (size 1.524 1.524)) (justify left bottom))
    (uuid 101ef598-601d-400e-9ef6-d655fbb1dbfa)
  )
  (label "AD6_TX" (at 185.42 109.22 0)
    (effects (font (size 1.27 1.27)) (justify left bottom))
    (uuid 23c25c46-7af8-400d-ad32-dbd957b4b05a)
  )
  (label "D5_SCL" (at 185.42 90.17 0)
    (effects (font (size 1.27 1.27)) (justify left bottom))
    (uuid 28e994a8-3443-497e-894e-4f2476129f84)
  )
  (label "AD7_RX" (at 185.42 106.68 0)
    (effects (font (size 1.27 1.27)) (justify left bottom))
    (uuid 2b05b8b5-ed5d-457e-afb5-72dedd8f8fc2)
  )
  (label "AD8_SCK" (at 99.06 44.45 0)
    (effects (font (size 1.27 1.27)) (justify left bottom))
    (uuid 3f3371cf-819c-4024-87ab-75b6de94028c)
  )
  (label "AD8_SCK" (at 36.83 90.17 0)
    (effects (font (size 1.27 1.27)) (justify left bottom))
    (uuid 51f09328-e22c-4c1f-90e5-6300e02a2116)
  )
  (label "D4_SDA" (at 39.37 41.91 0)
    (effects (font (size 1.27 1.27)) (justify left bottom))
    (uuid 6576e77d-054a-48a5-803b-12f8c3e0b5cb)
  )
  (label "AD1" (at 185.42 53.34 0)
    (effects (font (size 1.524 1.524)) (justify left bottom))
    (uuid 6781326c-6e0d-4753-8f28-0f5c687e01f9)
  )
  (label "AD6_TX" (at 39.37 46.99 0)
    (effects (font (size 1.27 1.27)) (justify left bottom))
    (uuid 7e8c13e5-3107-493b-9424-6620fad95201)
  )
  (label "AD9_MISO" (at 36.83 95.25 0)
    (effects (font (size 1.27 1.27)) (justify left bottom))
    (uuid 7eb525f4-c9fd-4c61-9b22-fdd518f97c1c)
  )
  (label "AD2" (at 39.37 36.83 0)
    (effects (font (size 1.27 1.27)) (justify left bottom))
    (uuid 7ecbe384-7187-4bf3-8354-b8f9e11215b8)
  )
  (label "AD3" (at 39.37 39.37 0)
    (effects (font (size 1.27 1.27)) (justify left bottom))
    (uuid 91bfd35c-72e1-402f-b781-aea20983072f)
  )
  (label "VSYS" (at 54.61 119.38 0)
    (effects (font (size 1.524 1.524)) (justify left bottom))
    (uuid 920418c3-c219-44ea-8bea-fb3407c67f4c)
  )
  (label "AD10_MOSI" (at 36.83 82.55 0)
    (effects (font (size 1.27 1.27)) (justify left bottom))
    (uuid a6bfb149-b11f-4680-b3ab-80966f32f170)
  )
  (label "AD9_MISO" (at 99.06 41.91 0)
    (effects (font (size 1.27 1.27)) (justify left bottom))
    (uuid a9b62573-8f6d-4e7c-9ac7-4bd8f1a31f23)
  )
  (label "D4_SDA" (at 185.42 92.71 0)
    (effects (font (size 1.27 1.27)) (justify left bottom))
    (uuid b613b689-bf35-4606-a14e-a56d78e33c83)
  )
  (label "AD2" (at 185.42 67.31 0)
    (effects (font (size 1.524 1.524)) (justify left bottom))
    (uuid c8029a4c-945d-42ca-871a-dd73ff50a1a3)
  )
  (label "AD0" (at 36.83 80.01 0)
    (effects (font (size 1.27 1.27)) (justify left bottom))
    (uuid c8de168a-50a0-4b10-977e-9d2568c92af6)
  )
  (label "VREG" (at 97.79 134.62 0)
    (effects (font (size 1.27 1.27)) (justify left bottom))
    (uuid c94155e0-3137-484a-83d6-8b5905ceb8f2)
  )
  (label "D5_SCL" (at 39.37 44.45 0)
    (effects (font (size 1.27 1.27)) (justify left bottom))
    (uuid dc8219de-93f4-42b6-befd-c821e86398a1)
  )
  (label "AD7_RX" (at 99.06 46.99 0)
    (effects (font (size 1.27 1.27)) (justify left bottom))
    (uuid ec4b197d-fa4a-407d-a3c3-f23021c80a2a)
  )
  (label "AD1" (at 39.37 34.29 0)
    (effects (font (size 1.27 1.27)) (justify left bottom))
    (uuid f5d7b077-455d-4a41-9137-b7dc14ff9fd0)
  )
  (label "AD0" (at 39.37 31.75 0)
    (effects (font (size 1.27 1.27)) (justify left bottom))
    (uuid fc5ae794-6dda-4de2-b17f-68f134a7fac0)
  )
  (label "AD10_MOSI" (at 99.06 39.37 0)
    (effects (font (size 1.27 1.27)) (justify left bottom))
    (uuid fd0c6cd7-c382-4563-8473-40146f68a3a3)
  )

  (symbol (lib_id "QTPy49-rescue:AP1117") (at 82.55 134.62 0) (unit 1)
    (in_bom yes) (on_board yes)
    (uuid 00000000-0000-0000-0000-00004ff58dee)
    (property "Reference" "U2" (id 0) (at 85.09 130.81 0)
      (effects (font (size 1.524 1.524)))
    )
    (property "Value" "AP1117" (id 1) (at 88.9 140.97 0)
      (effects (font (size 1.524 1.524)))
    )
    (property "Footprint" "Package_TO_SOT_SMD:SOT-223" (id 2) (at 82.55 163.83 0)
      (effects (font (size 1.524 1.524)))
    )
    (property "Datasheet" "" (id 3) (at 82.55 134.62 0)
      (effects (font (size 1.524 1.524)) hide)
    )
    (pin "1" (uuid b121f1ff-8472-460b-ab2d-5110ddd1ca28))
    (pin "2" (uuid 2276ec6c-cdcc-4369-86b4-8267d991001e))
    (pin "3" (uuid 29987966-1d19-4068-93f6-a61cdfb40ffa))
    (pin "4" (uuid 6ba19f6c-fa3a-4bf3-8c57-119de0f02b65))
  )

  (symbol (lib_id "QTPy49-rescue:GND") (at 200.66 120.65 0) (unit 1)
    (in_bom yes) (on_board yes)
    (uuid 00000000-0000-0000-0000-00004ff81ff7)
    (property "Reference" "#PWR04" (id 0) (at 200.66 120.65 0)
      (effects (font (size 0.762 0.762)) hide)
    )
    (property "Value" "GND" (id 1) (at 200.66 122.428 0)
      (effects (font (size 0.762 0.762)) hide)
    )
    (property "Footprint" "" (id 2) (at 200.66 120.65 0)
      (effects (font (size 1.524 1.524)) hide)
    )
    (property "Datasheet" "" (id 3) (at 200.66 120.65 0)
      (effects (font (size 1.524 1.524)) hide)
    )
    (pin "1" (uuid 8aeda7bd-b078-427a-a185-d5bc595c6436))
  )

  (symbol (lib_id "QTPy49-rescue:DCJ0202") (at 30.48 147.32 0) (unit 1)
    (in_bom yes) (on_board yes)
    (uuid 00000000-0000-0000-0000-000052407574)
    (property "Reference" "J1" (id 0) (at 27.94 143.51 0)
      (effects (font (size 1.27 1.27)) (justify left bottom))
    )
    (property "Value" "DCJ0202" (id 1) (at 27.94 153.67 0)
      (effects (font (size 1.27 1.27)) (justify left bottom))
    )
    (property "Footprint" "LandBoards_Conns:DCJ-NEW-Slotted" (id 2) (at 30.48 161.29 0))
    (property "Datasheet" "~" (id 3) (at 30.48 147.32 0)
      (effects (font (size 1.524 1.524)))
    )
    (pin "1" (uuid 4b982f8b-ca29-4ebf-88fc-8a50b24e0802))
    (pin "2" (uuid e46ecd61-0bbe-4b9f-a151-a2cacac5967b))
    (pin "3" (uuid 6e77d4d6-0239-4c20-98f8-23ae4f71d638))
  )

  (symbol (lib_id "QTPy49-rescue:GND") (at 137.16 152.4 0) (unit 1)
    (in_bom yes) (on_board yes)
    (uuid 00000000-0000-0000-0000-0000524344f3)
    (property "Reference" "#PWR015" (id 0) (at 137.16 152.4 0)
      (effects (font (size 0.762 0.762)) hide)
    )
    (property "Value" "GND" (id 1) (at 137.16 154.178 0)
      (effects (font (size 0.762 0.762)) hide)
    )
    (property "Footprint" "" (id 2) (at 137.16 152.4 0)
      (effects (font (size 1.524 1.524)) hide)
    )
    (property "Datasheet" "" (id 3) (at 137.16 152.4 0)
      (effects (font (size 1.524 1.524)) hide)
    )
    (pin "1" (uuid ab34b936-8ca5-4be1-8599-504cb86609fc))
  )

  (symbol (lib_id "QTPy49-rescue:C") (at 137.16 138.43 0) (unit 1)
    (in_bom yes) (on_board yes)
    (uuid 00000000-0000-0000-0000-00005243451c)
    (property "Reference" "C5" (id 0) (at 138.43 135.89 0)
      (effects (font (size 1.27 1.27)) (justify left))
    )
    (property "Value" "0.1uF" (id 1) (at 138.43 140.97 0)
      (effects (font (size 1.27 1.27)) (justify left))
    )
    (property "Footprint" "Capacitor_THT:C_Rect_L7.0mm_W3.5mm_P5.00mm" (id 2) (at 137.16 158.75 0)
      (effects (font (size 1.524 1.524)))
    )
    (property "Datasheet" "~" (id 3) (at 137.16 138.43 0)
      (effects (font (size 1.524 1.524)))
    )
    (pin "1" (uuid 86143bb0-7899-4df8-b1df-baa3c0ac7889))
    (pin "2" (uuid 2ad4b4ba-3abd-4313-bed9-1edce936a95e))
  )

  (symbol (lib_id "Connector_Generic:Conn_01x03") (at 209.55 78.74 0) (unit 1)
    (in_bom yes) (on_board yes)
    (uuid 0249c163-32d8-4069-afc0-1f859e6f8de0)
    (property "Reference" "J6" (id 0) (at 208.28 73.66 0)
      (effects (font (size 1.27 1.27)) (justify left))
    )
    (property "Value" "Conn_01x03" (id 1) (at 204.47 83.82 0)
      (effects (font (size 1.27 1.27)) (justify left))
    )
    (property "Footprint" "Connector_PinHeader_2.54mm:PinHeader_1x03_P2.54mm_Vertical" (id 2) (at 209.55 85.09 0))
    (property "Datasheet" "~" (id 3) (at 209.55 78.74 0)
      (effects (font (size 1.27 1.27)) hide)
    )
    (pin "1" (uuid 9b88d7c4-d42a-49c4-bca3-29d9775dc351))
    (pin "2" (uuid 81d5abfc-8184-4b29-9786-04673fcc6e21))
    (pin "3" (uuid f85ca8ab-f9dd-4a23-9a67-af9c56608d7a))
  )

  (symbol (lib_id "Device:D_Schottky") (at 123.19 128.27 180) (unit 1)
    (in_bom yes) (on_board yes)
    (uuid 03b65061-4ad3-41f9-a17f-35d1e3ee1c74)
    (property "Reference" "D1" (id 0) (at 123.19 125.73 0))
    (property "Value" "1N5819" (id 1) (at 123.19 130.81 0))
    (property "Footprint" "Diode_THT:D_DO-41_SOD81_P10.16mm_Horizontal" (id 2) (at 123.19 128.27 0)
      (effects (font (size 1.27 1.27)) hide)
    )
    (property "Datasheet" "~" (id 3) (at 123.19 128.27 0)
      (effects (font (size 1.27 1.27)) hide)
    )
    (pin "1" (uuid 32ebb03d-91dc-492a-99ec-1b5e4a4028c0))
    (pin "2" (uuid f8c79a4d-fe3b-4c57-9988-11098c019c19))
  )

  (symbol (lib_id "Connector_Generic:Conn_01x04") (at 209.55 95.25 0) (mirror x) (unit 1)
    (in_bom yes) (on_board yes)
    (uuid 2160c3f5-97b9-4ff6-bbf2-fc6a1a2df5ad)
    (property "Reference" "J5" (id 0) (at 208.28 87.63 0)
      (effects (font (size 1.27 1.27)) (justify left))
    )
    (property "Value" "Conn_01x04" (id 1) (at 203.2 100.33 0)
      (effects (font (size 1.27 1.27)) (justify left))
    )
    (property "Footprint" "Connector_PinHeader_2.54mm:PinHeader_1x04_P2.54mm_Vertical" (id 2) (at 209.55 101.6 0))
    (property "Datasheet" "~" (id 3) (at 209.55 95.25 0)
      (effects (font (size 1.27 1.27)) hide)
    )
    (pin "1" (uuid 439f13b4-07ca-40b5-b86e-823b4ad3b039))
    (pin "2" (uuid 01b1e0ed-4e0d-466b-a3e6-d843b7176382))
    (pin "3" (uuid 31572c25-c687-4441-ae83-3e22d3adc12c))
    (pin "4" (uuid f5e17b1d-1b50-4d45-bb2b-b59f452e93d4))
  )

  (symbol (lib_id "LandBoards:MTG_HOLE") (at 91.44 186.69 0) (unit 1)
    (in_bom yes) (on_board yes)
    (uuid 2463c1c7-fd79-4c58-8b85-f04bf2c3ad2f)
    (property "Reference" "MTG1" (id 0) (at 93.345 185.6253 0)
      (effects (font (size 1.524 1.524)) (justify left))
    )
    (property "Value" "4-40_MTG_HOLE" (id 1) (at 93.345 188.9043 0)
      (effects (font (size 1.524 1.524)) (justify left))
    )
    (property "Footprint" "LandBoards_MountHoles:MTG-4-40" (id 2) (at 91.44 191.77 0)
      (effects (font (size 1.524 1.524)))
    )
    (property "Datasheet" "" (id 3) (at 91.44 186.69 0)
      (effects (font (size 1.524 1.524)))
    )
  )

  (symbol (lib_id "QTPy49-rescue:C") (at 115.57 138.43 0) (unit 1)
    (in_bom yes) (on_board yes)
    (uuid 547bb636-06af-4942-83f0-af7ef5925aa5)
    (property "Reference" "C4" (id 0) (at 116.84 135.89 0)
      (effects (font (size 1.27 1.27)) (justify left))
    )
    (property "Value" "0.1uF" (id 1) (at 116.84 140.97 0)
      (effects (font (size 1.27 1.27)) (justify left))
    )
    (property "Footprint" "Capacitor_THT:C_Rect_L7.0mm_W3.5mm_P5.00mm" (id 2) (at 115.57 156.21 0)
      (effects (font (size 1.524 1.524)))
    )
    (property "Datasheet" "~" (id 3) (at 115.57 138.43 0)
      (effects (font (size 1.524 1.524)))
    )
    (pin "1" (uuid 19f1a1be-6311-4575-82ed-b717b48f979f))
    (pin "2" (uuid 280a24d6-27e5-4de3-ba2a-797ed4d84261))
  )

  (symbol (lib_id "power:GND") (at 64.77 106.68 0) (unit 1)
    (in_bom yes) (on_board yes) (fields_autoplaced)
    (uuid 565327ff-a18a-4646-8329-44ec5e8c32a0)
    (property "Reference" "#PWR0109" (id 0) (at 64.77 113.03 0)
      (effects (font (size 1.27 1.27)) hide)
    )
    (property "Value" "GND" (id 1) (at 64.77 111.2425 0))
    (property "Footprint" "" (id 2) (at 64.77 106.68 0)
      (effects (font (size 1.27 1.27)) hide)
    )
    (property "Datasheet" "" (id 3) (at 64.77 106.68 0)
      (effects (font (size 1.27 1.27)) hide)
    )
    (pin "1" (uuid 990f1123-781d-410f-963a-266bf177d06c))
  )

  (symbol (lib_id "Connector_Generic:Conn_01x03") (at 33.02 130.81 0) (mirror y) (unit 1)
    (in_bom yes) (on_board yes) (fields_autoplaced)
    (uuid 570828c0-d606-41a0-b767-8b34cf9929e8)
    (property "Reference" "J2" (id 0) (at 33.02 123.0335 0))
    (property "Value" "Conn_01x03" (id 1) (at 33.02 125.8086 0))
    (property "Footprint" "Connector_PinHeader_2.54mm:PinHeader_1x03_P2.54mm_Vertical" (id 2) (at 33.02 130.81 0)
      (effects (font (size 1.27 1.27)) hide)
    )
    (property "Datasheet" "~" (id 3) (at 33.02 130.81 0)
      (effects (font (size 1.27 1.27)) hide)
    )
    (pin "1" (uuid 00f0d2a7-adac-4a52-8b0c-cb5abc901709))
    (pin "2" (uuid 15b49e6e-0e80-4708-8921-ba9c92cfe80d))
    (pin "3" (uuid cccb2227-9f9e-4532-b1f6-291ad9c9b584))
  )

  (symbol (lib_id "power:+3.3V") (at 195.58 43.18 0) (unit 1)
    (in_bom yes) (on_board yes) (fields_autoplaced)
    (uuid 58472849-b534-4b7e-9afb-8c0d6f0c717f)
    (property "Reference" "#PWR0104" (id 0) (at 195.58 46.99 0)
      (effects (font (size 1.27 1.27)) hide)
    )
    (property "Value" "+3.3V" (id 1) (at 195.58 39.5755 0))
    (property "Footprint" "" (id 2) (at 195.58 43.18 0)
      (effects (font (size 1.27 1.27)) hide)
    )
    (property "Datasheet" "" (id 3) (at 195.58 43.18 0)
      (effects (font (size 1.27 1.27)) hide)
    )
    (pin "1" (uuid 67408688-f154-463d-b206-2741d489282e))
  )

  (symbol (lib_name "QT_Py_1") (lib_id "LandBoards_Cards:QT_Py") (at 73.66 39.37 0) (unit 1)
    (in_bom yes) (on_board yes)
    (uuid 5861528f-ce16-49d7-bebe-d9c307b5d78e)
    (property "Reference" "BRD1" (id 0) (at 73.66 27.94 0)
      (effects (font (size 1.524 1.524)))
    )
    (property "Value" "QT_Py" (id 1) (at 73.66 50.8 0)
      (effects (font (size 1.524 1.524)))
    )
    (property "Footprint" "LandBoards_BoardOutlines:QT_Py" (id 2) (at 73.66 53.34 0)
      (effects (font (size 0.762 0.762)))
    )
    (property "Datasheet" "" (id 3) (at 77.47 39.37 0)
      (effects (font (size 1.524 1.524)))
    )
    (pin "1" (uuid 72e89aed-6947-4be5-be37-32359cddb851))
    (pin "10" (uuid 2b6c3b78-86b0-4fe9-acaa-9c5d44e0b0f5))
    (pin "11" (uuid 25807557-5bb5-4cce-9298-f6b8793c08ca))
    (pin "12" (uuid 763d87a7-b339-42c7-809c-66d6a55f9a8c))
    (pin "13" (uuid bcb90198-8f1d-4a5c-8075-86bb909113ac))
    (pin "14" (uuid 3c4c0984-64c4-47e9-84fb-5cc3a32811aa))
    (pin "2" (uuid 616fa28d-9722-4648-90e1-2987aed1adcf))
    (pin "3" (uuid 60a8c5ab-8f89-4557-8e45-f5fd725b295e))
    (pin "4" (uuid 3f7e1b17-dfc3-4d19-9413-0b4a3cbdaec5))
    (pin "5" (uuid 59068405-5d9d-438c-8c20-8c088fd7026f))
    (pin "6" (uuid ba8c62d3-f162-4793-9824-75b315d7bbb9))
    (pin "7" (uuid 262ee5cd-dd55-4883-8e5e-8ce980ebd84c))
    (pin "8" (uuid 15924c5a-71f0-4af3-b69c-b1ffd025f435))
    (pin "9" (uuid b5aec6e7-5a7f-4986-aadd-9e1db5a01d96))
  )

  (symbol (lib_id "power:+3.3V") (at 27.94 177.8 0) (unit 1)
    (in_bom yes) (on_board yes) (fields_autoplaced)
    (uuid 5d5c23e7-7d89-4ceb-aace-718088dac180)
    (property "Reference" "#PWR0107" (id 0) (at 27.94 181.61 0)
      (effects (font (size 1.27 1.27)) hide)
    )
    (property "Value" "+3.3V" (id 1) (at 27.94 174.1955 0))
    (property "Footprint" "" (id 2) (at 27.94 177.8 0)
      (effects (font (size 1.27 1.27)) hide)
    )
    (property "Datasheet" "" (id 3) (at 27.94 177.8 0)
      (effects (font (size 1.27 1.27)) hide)
    )
    (pin "1" (uuid 8a7e7276-ea14-47de-af85-62d068ac4326))
  )

  (symbol (lib_id "QTPy49-rescue:C") (at 50.8 143.51 0) (unit 1)
    (in_bom yes) (on_board yes)
    (uuid 61035a50-9e0d-40ec-8d60-6f257bd2d672)
    (property "Reference" "C1" (id 0) (at 52.07 139.7 0)
      (effects (font (size 1.27 1.27)) (justify left))
    )
    (property "Value" "0.1uF" (id 1) (at 52.07 146.05 0)
      (effects (font (size 1.27 1.27)) (justify left))
    )
    (property "Footprint" "Capacitor_THT:C_Rect_L7.0mm_W3.5mm_P5.00mm" (id 2) (at 50.8 156.21 0)
      (effects (font (size 1.524 1.524)))
    )
    (property "Datasheet" "" (id 3) (at 50.8 143.51 0)
      (effects (font (size 1.524 1.524)) hide)
    )
    (pin "1" (uuid f0f0a7ec-158e-455d-aa2c-8acbbbc60245))
    (pin "2" (uuid f2c4454a-c58c-4951-ae16-0c5e7062cd8b))
  )

  (symbol (lib_id "power:+3.3V") (at 105.41 25.4 0) (unit 1)
    (in_bom yes) (on_board yes) (fields_autoplaced)
    (uuid 63949760-81be-4a86-a4c3-693d97544866)
    (property "Reference" "#PWR0101" (id 0) (at 105.41 29.21 0)
      (effects (font (size 1.27 1.27)) hide)
    )
    (property "Value" "+3.3V" (id 1) (at 105.41 21.7955 0))
    (property "Footprint" "" (id 2) (at 105.41 25.4 0)
      (effects (font (size 1.27 1.27)) hide)
    )
    (property "Datasheet" "" (id 3) (at 105.41 25.4 0)
      (effects (font (size 1.27 1.27)) hide)
    )
    (pin "1" (uuid ba7e0af6-2d39-4ec6-8114-9d45d6464352))
  )

  (symbol (lib_id "power:+5V") (at 137.16 118.11 0) (unit 1)
    (in_bom yes) (on_board yes) (fields_autoplaced)
    (uuid 6efcd296-6954-4a91-a98f-e24e3571d112)
    (property "Reference" "#PWR0105" (id 0) (at 137.16 121.92 0)
      (effects (font (size 1.27 1.27)) hide)
    )
    (property "Value" "+5V" (id 1) (at 137.16 114.5055 0))
    (property "Footprint" "" (id 2) (at 137.16 118.11 0)
      (effects (font (size 1.27 1.27)) hide)
    )
    (property "Datasheet" "" (id 3) (at 137.16 118.11 0)
      (effects (font (size 1.27 1.27)) hide)
    )
    (pin "1" (uuid 8597e5e3-7634-4d60-8d7e-988b41c5121c))
  )

  (symbol (lib_id "Connector_Generic:Conn_01x03") (at 209.55 50.8 0) (unit 1)
    (in_bom yes) (on_board yes)
    (uuid 7372cf12-113c-476b-b9ef-3393d1180a55)
    (property "Reference" "J8" (id 0) (at 208.28 45.72 0)
      (effects (font (size 1.27 1.27)) (justify left))
    )
    (property "Value" "Conn_01x03" (id 1) (at 204.47 55.88 0)
      (effects (font (size 1.27 1.27)) (justify left))
    )
    (property "Footprint" "Connector_PinHeader_2.54mm:PinHeader_1x03_P2.54mm_Vertical" (id 2) (at 209.55 57.15 0))
    (property "Datasheet" "~" (id 3) (at 209.55 50.8 0)
      (effects (font (size 1.27 1.27)) hide)
    )
    (pin "1" (uuid 133ad705-a5d3-4f2c-9227-05692f7ed054))
    (pin "2" (uuid 98514632-99ca-4bc2-a944-1bca19987dc3))
    (pin "3" (uuid 05c66244-1222-4096-b986-8a11c79e07b7))
  )

  (symbol (lib_id "power:+3.3V") (at 62.23 71.12 0) (unit 1)
    (in_bom yes) (on_board yes) (fields_autoplaced)
    (uuid 8aca3dcb-f5fe-439e-b916-a46f8b7ca962)
    (property "Reference" "#PWR0108" (id 0) (at 62.23 74.93 0)
      (effects (font (size 1.27 1.27)) hide)
    )
    (property "Value" "+3.3V" (id 1) (at 62.23 67.5155 0))
    (property "Footprint" "" (id 2) (at 62.23 71.12 0)
      (effects (font (size 1.27 1.27)) hide)
    )
    (property "Datasheet" "" (id 3) (at 62.23 71.12 0)
      (effects (font (size 1.27 1.27)) hide)
    )
    (pin "1" (uuid 38603e22-0d29-4497-9568-d945bf2c02df))
  )

  (symbol (lib_id "LandBoards:COUPON") (at 49.53 194.31 0) (unit 1)
    (in_bom yes) (on_board yes)
    (uuid 8cacea2a-7b68-4132-bb19-b0bb2e1c6f76)
    (property "Reference" "TEST1" (id 0) (at 55.245 190.0703 0)
      (effects (font (size 1.524 1.524)) (justify left))
    )
    (property "Value" "TEST COUPON" (id 1) (at 55.245 193.3493 0)
      (effects (font (size 1.524 1.524)) (justify left))
    )
    (property "Footprint" "LandBoards_Marking:TEST_BLK-REAR" (id 2) (at 49.53 196.85 0)
      (effects (font (size 1.524 1.524)))
    )
    (property "Datasheet" "" (id 3) (at 49.53 194.31 0)
      (effects (font (size 1.524 1.524)))
    )
  )

  (symbol (lib_id "QTPy49-rescue:C") (at 27.94 185.42 0) (unit 1)
    (in_bom yes) (on_board yes)
    (uuid 8d0286c3-0217-4900-b501-e756c44ded99)
    (property "Reference" "C6" (id 0) (at 29.21 182.88 0)
      (effects (font (size 1.27 1.27)) (justify left))
    )
    (property "Value" "0.1uF" (id 1) (at 29.21 187.96 0)
      (effects (font (size 1.27 1.27)) (justify left))
    )
    (property "Footprint" "Capacitor_THT:C_Rect_L7.0mm_W3.5mm_P5.00mm" (id 2) (at 27.94 203.2 0)
      (effects (font (size 1.524 1.524)))
    )
    (property "Datasheet" "~" (id 3) (at 27.94 185.42 0)
      (effects (font (size 1.524 1.524)))
    )
    (pin "1" (uuid 3ddead6f-ef8b-41ab-bf26-93a0ed440064))
    (pin "2" (uuid c6f48361-b75a-4b94-9373-72cd319bb1dc))
  )

  (symbol (lib_id "Connector_Generic:Conn_01x03") (at 209.55 64.77 0) (unit 1)
    (in_bom yes) (on_board yes)
    (uuid 96d38b60-f73e-4b2a-977a-3fd1097da2eb)
    (property "Reference" "J7" (id 0) (at 208.28 59.69 0)
      (effects (font (size 1.27 1.27)) (justify left))
    )
    (property "Value" "Conn_01x03" (id 1) (at 204.47 69.85 0)
      (effects (font (size 1.27 1.27)) (justify left))
    )
    (property "Footprint" "Connector_PinHeader_2.54mm:PinHeader_1x03_P2.54mm_Vertical" (id 2) (at 209.55 71.12 0))
    (property "Datasheet" "~" (id 3) (at 209.55 64.77 0)
      (effects (font (size 1.27 1.27)) hide)
    )
    (pin "1" (uuid ef4b9efd-1b47-4db3-bcdf-65f440f60f9f))
    (pin "2" (uuid b2a4cb53-fe5c-4a75-898f-10248cf01e3c))
    (pin "3" (uuid 0c501bc0-c6fe-4adf-bd82-ba7db880e0aa))
  )

  (symbol (lib_id "LandBoards:MTG_HOLE") (at 135.89 195.58 0) (unit 1)
    (in_bom yes) (on_board yes)
    (uuid ac17f15e-4ba7-4c4b-b973-2c7f9d1a5fa9)
    (property "Reference" "MTG4" (id 0) (at 137.795 194.5153 0)
      (effects (font (size 1.524 1.524)) (justify left))
    )
    (property "Value" "4-40_MTG_HOLE" (id 1) (at 137.795 197.7943 0)
      (effects (font (size 1.524 1.524)) (justify left))
    )
    (property "Footprint" "LandBoards_MountHoles:MTG-4-40" (id 2) (at 135.89 200.66 0)
      (effects (font (size 1.524 1.524)))
    )
    (property "Datasheet" "" (id 3) (at 135.89 195.58 0)
      (effects (font (size 1.524 1.524)))
    )
  )

  (symbol (lib_id "LandBoards:MTG_HOLE") (at 135.89 186.69 0) (unit 1)
    (in_bom yes) (on_board yes)
    (uuid acc3657b-be98-443a-92ee-25490b9882d8)
    (property "Reference" "MTG3" (id 0) (at 137.795 185.6253 0)
      (effects (font (size 1.524 1.524)) (justify left))
    )
    (property "Value" "4-40_MTG_HOLE" (id 1) (at 137.795 188.9043 0)
      (effects (font (size 1.524 1.524)) (justify left))
    )
    (property "Footprint" "LandBoards_MountHoles:MTG-4-40" (id 2) (at 135.89 191.77 0)
      (effects (font (size 1.524 1.524)))
    )
    (property "Datasheet" "" (id 3) (at 135.89 186.69 0)
      (effects (font (size 1.524 1.524)))
    )
  )

  (symbol (lib_id "LandBoards_Conns:SD_Card-Connector") (at 90.17 87.63 0) (unit 1)
    (in_bom yes) (on_board yes)
    (uuid b61258a4-678b-4686-828f-c97b3a5705f5)
    (property "Reference" "J3" (id 0) (at 90.17 73.66 0))
    (property "Value" "SD_Card-Connector" (id 1) (at 90.17 101.6 0))
    (property "Footprint" "LandBoards_Conns:SD_CARD" (id 2) (at 90.17 104.14 0))
    (property "Datasheet" "http://portal.fciconnect.com/Comergent//fci/drawing/10067847.pdf" (id 3) (at 92.71 106.68 0)
      (effects (font (size 1.27 1.27)) hide)
    )
    (pin "1" (uuid 313404ca-abd2-404b-86c6-d82ed9d0212c))
    (pin "10" (uuid 5055347b-e1ae-4f0d-ae41-399ae14e779c))
    (pin "11" (uuid e3a53f53-9c1d-4356-8850-450818f9783a))
    (pin "12" (uuid ec039d09-0303-4137-b8f0-8245afac804f))
    (pin "13" (uuid fd6e278d-9fa1-429d-a58a-aca3fbc5c9e7))
    (pin "14" (uuid 38364f53-3746-4b6d-8366-9f1d5ba1aa9e))
    (pin "15" (uuid 892c6c38-bcad-4946-9811-82539492def0))
    (pin "2" (uuid e6f6005d-98a4-4ee1-96de-48e7041c8942))
    (pin "3" (uuid e2026642-705d-43ce-8e96-18350dc1b8e7))
    (pin "4" (uuid a0557093-2b67-46ab-b014-ba47957cd33b))
    (pin "5" (uuid ba3de27d-3842-463b-92eb-f9db8d1bd953))
    (pin "6" (uuid 4ca58826-6733-43c2-bc6c-04296f794e50))
    (pin "7" (uuid 2e317c35-9e82-41f5-b0c2-6ad8011b32bb))
    (pin "8" (uuid d0fff2ba-c8bc-4742-8d3d-90fe16cbe508))
    (pin "9" (uuid f7c7399e-d7a3-41df-afc4-9058372bf913))
  )

  (symbol (lib_id "LandBoards:MTG_HOLE") (at 91.44 195.58 0) (unit 1)
    (in_bom yes) (on_board yes)
    (uuid c34dda2f-d9cb-400c-b863-7432782a7751)
    (property "Reference" "MTG2" (id 0) (at 93.345 194.5153 0)
      (effects (font (size 1.524 1.524)) (justify left))
    )
    (property "Value" "4-40_MTG_HOLE" (id 1) (at 93.345 197.7943 0)
      (effects (font (size 1.524 1.524)) (justify left))
    )
    (property "Footprint" "LandBoards_MountHoles:MTG-4-40" (id 2) (at 91.44 200.66 0)
      (effects (font (size 1.524 1.524)))
    )
    (property "Datasheet" "" (id 3) (at 91.44 195.58 0)
      (effects (font (size 1.524 1.524)))
    )
  )

  (symbol (lib_id "Connector_Generic:Conn_01x04") (at 209.55 111.76 0) (mirror x) (unit 1)
    (in_bom yes) (on_board yes)
    (uuid de64a5e6-4438-4b48-be3e-49b67c231fad)
    (property "Reference" "J4" (id 0) (at 208.28 104.14 0)
      (effects (font (size 1.27 1.27)) (justify left))
    )
    (property "Value" "Conn_01x04" (id 1) (at 203.2 116.84 0)
      (effects (font (size 1.27 1.27)) (justify left))
    )
    (property "Footprint" "Connector_PinHeader_2.54mm:PinHeader_1x04_P2.54mm_Vertical" (id 2) (at 209.55 118.11 0))
    (property "Datasheet" "~" (id 3) (at 209.55 111.76 0)
      (effects (font (size 1.27 1.27)) hide)
    )
    (pin "1" (uuid e3d84951-2d71-4604-a6c7-04ffc0e2e795))
    (pin "2" (uuid 9a6a55de-a6b7-4d97-bec2-99f22c973b4e))
    (pin "3" (uuid c2f32b75-7f2e-4e4a-9dd1-d4435a197ae7))
    (pin "4" (uuid 10fe2ad1-8e01-48ca-85c4-e4f0a7ce5b3a))
  )

  (symbol (lib_id "power:+5V") (at 97.79 25.4 0) (unit 1)
    (in_bom yes) (on_board yes) (fields_autoplaced)
    (uuid ef5d9d20-6f55-4e9e-8ffe-1b71e7b463f4)
    (property "Reference" "#PWR0102" (id 0) (at 97.79 29.21 0)
      (effects (font (size 1.27 1.27)) hide)
    )
    (property "Value" "+5V" (id 1) (at 97.79 21.7955 0))
    (property "Footprint" "" (id 2) (at 97.79 25.4 0)
      (effects (font (size 1.27 1.27)) hide)
    )
    (property "Datasheet" "" (id 3) (at 97.79 25.4 0)
      (effects (font (size 1.27 1.27)) hide)
    )
    (pin "1" (uuid 08e88e31-12bb-40cd-bb49-b26e832e80ed))
  )

  (symbol (lib_id "power:GND") (at 97.79 52.07 0) (unit 1)
    (in_bom yes) (on_board yes) (fields_autoplaced)
    (uuid f1b0fcc7-585e-48da-adda-3a38e86a09f8)
    (property "Reference" "#PWR0103" (id 0) (at 97.79 58.42 0)
      (effects (font (size 1.27 1.27)) hide)
    )
    (property "Value" "GND" (id 1) (at 97.79 56.6325 0))
    (property "Footprint" "" (id 2) (at 97.79 52.07 0)
      (effects (font (size 1.27 1.27)) hide)
    )
    (property "Datasheet" "" (id 3) (at 97.79 52.07 0)
      (effects (font (size 1.27 1.27)) hide)
    )
    (pin "1" (uuid 536dcf65-08b4-4660-91e7-6a237cd71d9f))
  )

  (symbol (lib_id "power:GND") (at 27.94 193.04 0) (unit 1)
    (in_bom yes) (on_board yes) (fields_autoplaced)
    (uuid fef16bfc-b094-4595-bd39-b7e5968bdb00)
    (property "Reference" "#PWR0106" (id 0) (at 27.94 199.39 0)
      (effects (font (size 1.27 1.27)) hide)
    )
    (property "Value" "GND" (id 1) (at 27.94 197.6025 0))
    (property "Footprint" "" (id 2) (at 27.94 193.04 0)
      (effects (font (size 1.27 1.27)) hide)
    )
    (property "Datasheet" "" (id 3) (at 27.94 193.04 0)
      (effects (font (size 1.27 1.27)) hide)
    )
    (pin "1" (uuid 1178d305-c1b6-4d2c-82c9-ac1448b1a2f7))
  )

  (sheet_instances
    (path "/" (page "1"))
  )

  (symbol_instances
    (path "/00000000-0000-0000-0000-00004ff81ff7"
      (reference "#PWR04") (unit 1) (value "GND") (footprint "")
    )
    (path "/00000000-0000-0000-0000-0000524344f3"
      (reference "#PWR015") (unit 1) (value "GND") (footprint "")
    )
    (path "/63949760-81be-4a86-a4c3-693d97544866"
      (reference "#PWR0101") (unit 1) (value "+3.3V") (footprint "")
    )
    (path "/ef5d9d20-6f55-4e9e-8ffe-1b71e7b463f4"
      (reference "#PWR0102") (unit 1) (value "+5V") (footprint "")
    )
    (path "/f1b0fcc7-585e-48da-adda-3a38e86a09f8"
      (reference "#PWR0103") (unit 1) (value "GND") (footprint "")
    )
    (path "/58472849-b534-4b7e-9afb-8c0d6f0c717f"
      (reference "#PWR0104") (unit 1) (value "+3.3V") (footprint "")
    )
    (path "/6efcd296-6954-4a91-a98f-e24e3571d112"
      (reference "#PWR0105") (unit 1) (value "+5V") (footprint "")
    )
    (path "/fef16bfc-b094-4595-bd39-b7e5968bdb00"
      (reference "#PWR0106") (unit 1) (value "GND") (footprint "")
    )
    (path "/5d5c23e7-7d89-4ceb-aace-718088dac180"
      (reference "#PWR0107") (unit 1) (value "+3.3V") (footprint "")
    )
    (path "/8aca3dcb-f5fe-439e-b916-a46f8b7ca962"
      (reference "#PWR0108") (unit 1) (value "+3.3V") (footprint "")
    )
    (path "/565327ff-a18a-4646-8329-44ec5e8c32a0"
      (reference "#PWR0109") (unit 1) (value "GND") (footprint "")
    )
    (path "/5861528f-ce16-49d7-bebe-d9c307b5d78e"
      (reference "BRD1") (unit 1) (value "QT_Py") (footprint "LandBoards_BoardOutlines:QT_Py")
    )
    (path "/61035a50-9e0d-40ec-8d60-6f257bd2d672"
      (reference "C1") (unit 1) (value "0.1uF") (footprint "Capacitor_THT:C_Rect_L7.0mm_W3.5mm_P5.00mm")
    )
    (path "/547bb636-06af-4942-83f0-af7ef5925aa5"
      (reference "C4") (unit 1) (value "0.1uF") (footprint "Capacitor_THT:C_Rect_L7.0mm_W3.5mm_P5.00mm")
    )
    (path "/00000000-0000-0000-0000-00005243451c"
      (reference "C5") (unit 1) (value "0.1uF") (footprint "Capacitor_THT:C_Rect_L7.0mm_W3.5mm_P5.00mm")
    )
    (path "/8d0286c3-0217-4900-b501-e756c44ded99"
      (reference "C6") (unit 1) (value "0.1uF") (footprint "Capacitor_THT:C_Rect_L7.0mm_W3.5mm_P5.00mm")
    )
    (path "/03b65061-4ad3-41f9-a17f-35d1e3ee1c74"
      (reference "D1") (unit 1) (value "1N5819") (footprint "Diode_THT:D_DO-41_SOD81_P10.16mm_Horizontal")
    )
    (path "/00000000-0000-0000-0000-000052407574"
      (reference "J1") (unit 1) (value "DCJ0202") (footprint "LandBoards_Conns:DCJ-NEW-Slotted")
    )
    (path "/570828c0-d606-41a0-b767-8b34cf9929e8"
      (reference "J2") (unit 1) (value "Conn_01x03") (footprint "Connector_PinHeader_2.54mm:PinHeader_1x03_P2.54mm_Vertical")
    )
    (path "/b61258a4-678b-4686-828f-c97b3a5705f5"
      (reference "J3") (unit 1) (value "SD_Card-Connector") (footprint "LandBoards_Conns:SD_CARD")
    )
    (path "/de64a5e6-4438-4b48-be3e-49b67c231fad"
      (reference "J4") (unit 1) (value "Conn_01x04") (footprint "Connector_PinHeader_2.54mm:PinHeader_1x04_P2.54mm_Vertical")
    )
    (path "/2160c3f5-97b9-4ff6-bbf2-fc6a1a2df5ad"
      (reference "J5") (unit 1) (value "Conn_01x04") (footprint "Connector_PinHeader_2.54mm:PinHeader_1x04_P2.54mm_Vertical")
    )
    (path "/0249c163-32d8-4069-afc0-1f859e6f8de0"
      (reference "J6") (unit 1) (value "Conn_01x03") (footprint "Connector_PinHeader_2.54mm:PinHeader_1x03_P2.54mm_Vertical")
    )
    (path "/96d38b60-f73e-4b2a-977a-3fd1097da2eb"
      (reference "J7") (unit 1) (value "Conn_01x03") (footprint "Connector_PinHeader_2.54mm:PinHeader_1x03_P2.54mm_Vertical")
    )
    (path "/7372cf12-113c-476b-b9ef-3393d1180a55"
      (reference "J8") (unit 1) (value "Conn_01x03") (footprint "Connector_PinHeader_2.54mm:PinHeader_1x03_P2.54mm_Vertical")
    )
    (path "/2463c1c7-fd79-4c58-8b85-f04bf2c3ad2f"
      (reference "MTG1") (unit 1) (value "4-40_MTG_HOLE") (footprint "LandBoards_MountHoles:MTG-4-40")
    )
    (path "/c34dda2f-d9cb-400c-b863-7432782a7751"
      (reference "MTG2") (unit 1) (value "4-40_MTG_HOLE") (footprint "LandBoards_MountHoles:MTG-4-40")
    )
    (path "/acc3657b-be98-443a-92ee-25490b9882d8"
      (reference "MTG3") (unit 1) (value "4-40_MTG_HOLE") (footprint "LandBoards_MountHoles:MTG-4-40")
    )
    (path "/ac17f15e-4ba7-4c4b-b973-2c7f9d1a5fa9"
      (reference "MTG4") (unit 1) (value "4-40_MTG_HOLE") (footprint "LandBoards_MountHoles:MTG-4-40")
    )
    (path "/8cacea2a-7b68-4132-bb19-b0bb2e1c6f76"
      (reference "TEST1") (unit 1) (value "TEST COUPON") (footprint "LandBoards_Marking:TEST_BLK-REAR")
    )
    (path "/00000000-0000-0000-0000-00004ff58dee"
      (reference "U2") (unit 1) (value "AP1117") (footprint "Package_TO_SOT_SMD:SOT-223")
    )
  )
)
