(kicad_sch (version 20211123) (generator eeschema)

  (uuid aae6bc05-6036-4fc6-8be7-c70daf5c8932)

  (paper "A4")

  (title_block
    (title "vMIX20-Resyncer")
    (date "2020-11-23")
    (company "[ a n y m a ]")
  )

  (lib_symbols
    (symbol "4xxx:4053" (pin_names (offset 1.016)) (in_bom yes) (on_board yes)
      (property "Reference" "U" (id 0) (at -7.62 19.05 0)
        (effects (font (size 1.27 1.27)))
      )
      (property "Value" "4053" (id 1) (at -7.62 -19.05 0)
        (effects (font (size 1.27 1.27)))
      )
      (property "Footprint" "" (id 2) (at 0 0 0)
        (effects (font (size 1.27 1.27)) hide)
      )
      (property "Datasheet" "http://www.intersil.com/content/dam/Intersil/documents/cd40/cd4051bms-52bms-53bms.pdf" (id 3) (at 0 0 0)
        (effects (font (size 1.27 1.27)) hide)
      )
      (property "ki_locked" "" (id 4) (at 0 0 0)
        (effects (font (size 1.27 1.27)))
      )
      (property "ki_keywords" "CMOS MUX MUX2" (id 5) (at 0 0 0)
        (effects (font (size 1.27 1.27)) hide)
      )
      (property "ki_description" "Triple analog Multiplexer 2 to 1 line" (id 6) (at 0 0 0)
        (effects (font (size 1.27 1.27)) hide)
      )
      (property "ki_fp_filters" "DIP?16*" (id 7) (at 0 0 0)
        (effects (font (size 1.27 1.27)) hide)
      )
      (symbol "4053_1_0"
        (pin passive line (at -12.7 5.08 0) (length 5.08)
          (name "Y1" (effects (font (size 1.27 1.27))))
          (number "1" (effects (font (size 1.27 1.27))))
        )
        (pin input line (at -12.7 -12.7 0) (length 5.08)
          (name "B" (effects (font (size 1.27 1.27))))
          (number "10" (effects (font (size 1.27 1.27))))
        )
        (pin input line (at -12.7 -10.16 0) (length 5.08)
          (name "A" (effects (font (size 1.27 1.27))))
          (number "11" (effects (font (size 1.27 1.27))))
        )
        (pin passive line (at -12.7 15.24 0) (length 5.08)
          (name "X0" (effects (font (size 1.27 1.27))))
          (number "12" (effects (font (size 1.27 1.27))))
        )
        (pin passive line (at -12.7 12.7 0) (length 5.08)
          (name "X1" (effects (font (size 1.27 1.27))))
          (number "13" (effects (font (size 1.27 1.27))))
        )
        (pin passive line (at 12.7 15.24 180) (length 5.08)
          (name "X" (effects (font (size 1.27 1.27))))
          (number "14" (effects (font (size 1.27 1.27))))
        )
        (pin passive line (at 12.7 7.62 180) (length 5.08)
          (name "Y" (effects (font (size 1.27 1.27))))
          (number "15" (effects (font (size 1.27 1.27))))
        )
        (pin power_in line (at 0 22.86 270) (length 5.08)
          (name "VDD" (effects (font (size 1.27 1.27))))
          (number "16" (effects (font (size 1.27 1.27))))
        )
        (pin passive line (at -12.7 7.62 0) (length 5.08)
          (name "Y0" (effects (font (size 1.27 1.27))))
          (number "2" (effects (font (size 1.27 1.27))))
        )
        (pin passive line (at -12.7 -2.54 0) (length 5.08)
          (name "Z1" (effects (font (size 1.27 1.27))))
          (number "3" (effects (font (size 1.27 1.27))))
        )
        (pin passive line (at 12.7 0 180) (length 5.08)
          (name "Z" (effects (font (size 1.27 1.27))))
          (number "4" (effects (font (size 1.27 1.27))))
        )
        (pin passive line (at -12.7 0 0) (length 5.08)
          (name "Z0" (effects (font (size 1.27 1.27))))
          (number "5" (effects (font (size 1.27 1.27))))
        )
        (pin input line (at -12.7 -7.62 0) (length 5.08)
          (name "Inh" (effects (font (size 1.27 1.27))))
          (number "6" (effects (font (size 1.27 1.27))))
        )
        (pin power_in line (at 2.54 -22.86 90) (length 5.08)
          (name "VEE" (effects (font (size 1.27 1.27))))
          (number "7" (effects (font (size 1.27 1.27))))
        )
        (pin power_in line (at 0 -22.86 90) (length 5.08)
          (name "VSS" (effects (font (size 1.27 1.27))))
          (number "8" (effects (font (size 1.27 1.27))))
        )
        (pin input line (at -12.7 -15.24 0) (length 5.08)
          (name "C" (effects (font (size 1.27 1.27))))
          (number "9" (effects (font (size 1.27 1.27))))
        )
      )
      (symbol "4053_1_1"
        (rectangle (start -7.62 17.78) (end 7.62 -17.78)
          (stroke (width 0.254) (type default) (color 0 0 0 0))
          (fill (type background))
        )
      )
    )
    (symbol "Device:R_POT_Dual" (pin_names (offset 1.016) hide) (in_bom yes) (on_board yes)
      (property "Reference" "RV" (id 0) (at 0 3.81 0)
        (effects (font (size 1.27 1.27)))
      )
      (property "Value" "Device_R_POT_Dual" (id 1) (at 0 1.905 0)
        (effects (font (size 1.27 1.27)))
      )
      (property "Footprint" "" (id 2) (at 6.35 -1.905 0)
        (effects (font (size 1.27 1.27)) hide)
      )
      (property "Datasheet" "" (id 3) (at 6.35 -1.905 0)
        (effects (font (size 1.27 1.27)) hide)
      )
      (property "ki_fp_filters" "Potentiometer*" (id 4) (at 0 0 0)
        (effects (font (size 1.27 1.27)) hide)
      )
      (symbol "R_POT_Dual_0_1"
        (rectangle (start -8.89 -1.524) (end -3.81 -3.556)
          (stroke (width 0.254) (type default) (color 0 0 0 0))
          (fill (type none))
        )
        (polyline
          (pts
            (xy -6.35 0)
            (xy -6.35 -1.016)
          )
          (stroke (width 0) (type default) (color 0 0 0 0))
          (fill (type none))
        )
        (polyline
          (pts
            (xy -6.35 0)
            (xy -6.35 -1.016)
          )
          (stroke (width 0) (type default) (color 0 0 0 0))
          (fill (type none))
        )
        (polyline
          (pts
            (xy -6.35 0)
            (xy -5.842 0.508)
          )
          (stroke (width 0) (type default) (color 0 0 0 0))
          (fill (type none))
        )
        (polyline
          (pts
            (xy -5.588 0.508)
            (xy -5.08 0.508)
          )
          (stroke (width 0) (type default) (color 0 0 0 0))
          (fill (type none))
        )
        (polyline
          (pts
            (xy -4.572 0.508)
            (xy -4.064 0.508)
          )
          (stroke (width 0) (type default) (color 0 0 0 0))
          (fill (type none))
        )
        (polyline
          (pts
            (xy -3.556 0.508)
            (xy -3.048 0.508)
          )
          (stroke (width 0) (type default) (color 0 0 0 0))
          (fill (type none))
        )
        (polyline
          (pts
            (xy -2.54 0.508)
            (xy -2.032 0.508)
          )
          (stroke (width 0) (type default) (color 0 0 0 0))
          (fill (type none))
        )
        (polyline
          (pts
            (xy -1.524 0.508)
            (xy -1.016 0.508)
          )
          (stroke (width 0) (type default) (color 0 0 0 0))
          (fill (type none))
        )
        (polyline
          (pts
            (xy -0.508 0.508)
            (xy 0 0.508)
          )
          (stroke (width 0) (type default) (color 0 0 0 0))
          (fill (type none))
        )
        (polyline
          (pts
            (xy 0.508 0.508)
            (xy 1.016 0.508)
          )
          (stroke (width 0) (type default) (color 0 0 0 0))
          (fill (type none))
        )
        (polyline
          (pts
            (xy 1.524 0.508)
            (xy 2.032 0.508)
          )
          (stroke (width 0) (type default) (color 0 0 0 0))
          (fill (type none))
        )
        (polyline
          (pts
            (xy 2.54 0.508)
            (xy 3.048 0.508)
          )
          (stroke (width 0) (type default) (color 0 0 0 0))
          (fill (type none))
        )
        (polyline
          (pts
            (xy 3.556 0.508)
            (xy 4.064 0.508)
          )
          (stroke (width 0) (type default) (color 0 0 0 0))
          (fill (type none))
        )
        (polyline
          (pts
            (xy 4.572 0.508)
            (xy 5.08 0.508)
          )
          (stroke (width 0) (type default) (color 0 0 0 0))
          (fill (type none))
        )
        (polyline
          (pts
            (xy 5.588 0.508)
            (xy 6.096 0.508)
          )
          (stroke (width 0) (type default) (color 0 0 0 0))
          (fill (type none))
        )
        (polyline
          (pts
            (xy 6.35 0)
            (xy 6.35 -1.016)
          )
          (stroke (width 0) (type default) (color 0 0 0 0))
          (fill (type none))
        )
        (polyline
          (pts
            (xy 6.35 0)
            (xy 6.35 -1.016)
          )
          (stroke (width 0) (type default) (color 0 0 0 0))
          (fill (type none))
        )
        (polyline
          (pts
            (xy 6.604 0.508)
            (xy 6.858 0.508)
            (xy 6.35 0)
          )
          (stroke (width 0) (type default) (color 0 0 0 0))
          (fill (type none))
        )
        (polyline
          (pts
            (xy -6.35 -1.397)
            (xy -6.858 -0.254)
            (xy -5.842 -0.254)
            (xy -6.35 -1.397)
          )
          (stroke (width 0) (type default) (color 0 0 0 0))
          (fill (type outline))
        )
        (polyline
          (pts
            (xy 6.35 -1.397)
            (xy 5.842 -0.254)
            (xy 6.858 -0.254)
            (xy 6.35 -1.397)
          )
          (stroke (width 0) (type default) (color 0 0 0 0))
          (fill (type outline))
        )
        (rectangle (start 3.81 -1.524) (end 8.89 -3.556)
          (stroke (width 0.254) (type default) (color 0 0 0 0))
          (fill (type none))
        )
      )
      (symbol "R_POT_Dual_1_1"
        (pin passive line (at -10.16 -2.54 0) (length 1.27)
          (name "1" (effects (font (size 1.27 1.27))))
          (number "1" (effects (font (size 1.27 1.27))))
        )
        (pin passive line (at -6.35 2.54 270) (length 2.54)
          (name "2" (effects (font (size 1.27 1.27))))
          (number "2" (effects (font (size 1.27 1.27))))
        )
        (pin passive line (at -2.54 -2.54 180) (length 1.27)
          (name "3" (effects (font (size 1.27 1.27))))
          (number "3" (effects (font (size 1.27 1.27))))
        )
        (pin passive line (at 2.54 -2.54 0) (length 1.27)
          (name "4" (effects (font (size 1.27 1.27))))
          (number "4" (effects (font (size 1.27 1.27))))
        )
        (pin passive line (at 6.35 2.54 270) (length 2.54)
          (name "5" (effects (font (size 1.27 1.27))))
          (number "5" (effects (font (size 1.27 1.27))))
        )
        (pin passive line (at 10.16 -2.54 180) (length 1.27)
          (name "6" (effects (font (size 1.27 1.27))))
          (number "6" (effects (font (size 1.27 1.27))))
        )
      )
    )
    (symbol "synkie_symbols:+5V" (power) (pin_names (offset 0)) (in_bom yes) (on_board yes)
      (property "Reference" "#PWR" (id 0) (at 0 -3.81 0)
        (effects (font (size 1.27 1.27)) hide)
      )
      (property "Value" "+5V" (id 1) (at 0 3.556 0)
        (effects (font (size 1.27 1.27)))
      )
      (property "Footprint" "" (id 2) (at 0 0 0)
        (effects (font (size 1.27 1.27)) hide)
      )
      (property "Datasheet" "" (id 3) (at 0 0 0)
        (effects (font (size 1.27 1.27)) hide)
      )
      (property "ki_keywords" "power-flag" (id 4) (at 0 0 0)
        (effects (font (size 1.27 1.27)) hide)
      )
      (property "ki_description" "Power symbol creates a global label with name \"+5V\"" (id 5) (at 0 0 0)
        (effects (font (size 1.27 1.27)) hide)
      )
      (symbol "+5V_0_1"
        (polyline
          (pts
            (xy -0.762 1.27)
            (xy 0 2.54)
          )
          (stroke (width 0) (type default) (color 0 0 0 0))
          (fill (type none))
        )
        (polyline
          (pts
            (xy 0 0)
            (xy 0 2.54)
          )
          (stroke (width 0) (type default) (color 0 0 0 0))
          (fill (type none))
        )
        (polyline
          (pts
            (xy 0 2.54)
            (xy 0.762 1.27)
          )
          (stroke (width 0) (type default) (color 0 0 0 0))
          (fill (type none))
        )
      )
      (symbol "+5V_1_1"
        (pin power_in line (at 0 0 90) (length 0) hide
          (name "+5V" (effects (font (size 1.27 1.27))))
          (number "1" (effects (font (size 1.27 1.27))))
        )
      )
    )
    (symbol "synkie_symbols:-5V" (power) (pin_names (offset 0)) (in_bom yes) (on_board yes)
      (property "Reference" "#PWR" (id 0) (at 0 2.54 0)
        (effects (font (size 1.27 1.27)) hide)
      )
      (property "Value" "-5V" (id 1) (at 0 3.81 0)
        (effects (font (size 1.27 1.27)))
      )
      (property "Footprint" "" (id 2) (at 0 0 0)
        (effects (font (size 1.27 1.27)) hide)
      )
      (property "Datasheet" "" (id 3) (at 0 0 0)
        (effects (font (size 1.27 1.27)) hide)
      )
      (property "ki_keywords" "power-flag" (id 4) (at 0 0 0)
        (effects (font (size 1.27 1.27)) hide)
      )
      (property "ki_description" "Power symbol creates a global label with name \"-5V\"" (id 5) (at 0 0 0)
        (effects (font (size 1.27 1.27)) hide)
      )
      (symbol "-5V_0_0"
        (pin power_in line (at 0 0 90) (length 0) hide
          (name "-5V" (effects (font (size 1.27 1.27))))
          (number "1" (effects (font (size 1.27 1.27))))
        )
      )
      (symbol "-5V_0_1"
        (polyline
          (pts
            (xy 0 0)
            (xy 0 1.27)
            (xy 0.762 1.27)
            (xy 0 2.54)
            (xy -0.762 1.27)
            (xy 0 1.27)
          )
          (stroke (width 0) (type default) (color 0 0 0 0))
          (fill (type outline))
        )
      )
    )
    (symbol "synkie_symbols:C_Small" (pin_numbers hide) (pin_names (offset 0.254) hide) (in_bom yes) (on_board yes)
      (property "Reference" "C" (id 0) (at 0.254 1.778 0)
        (effects (font (size 1.27 1.27)) (justify left))
      )
      (property "Value" "C_Small" (id 1) (at 0.254 -2.032 0)
        (effects (font (size 1.27 1.27)) (justify left))
      )
      (property "Footprint" "" (id 2) (at 0 0 0)
        (effects (font (size 1.27 1.27)) hide)
      )
      (property "Datasheet" "~" (id 3) (at 0 0 0)
        (effects (font (size 1.27 1.27)) hide)
      )
      (property "ki_keywords" "capacitor cap" (id 4) (at 0 0 0)
        (effects (font (size 1.27 1.27)) hide)
      )
      (property "ki_description" "Unpolarized capacitor, small symbol" (id 5) (at 0 0 0)
        (effects (font (size 1.27 1.27)) hide)
      )
      (property "ki_fp_filters" "C_*" (id 6) (at 0 0 0)
        (effects (font (size 1.27 1.27)) hide)
      )
      (symbol "C_Small_0_1"
        (polyline
          (pts
            (xy -1.524 -0.508)
            (xy 1.524 -0.508)
          )
          (stroke (width 0.3302) (type default) (color 0 0 0 0))
          (fill (type none))
        )
        (polyline
          (pts
            (xy -1.524 0.508)
            (xy 1.524 0.508)
          )
          (stroke (width 0.3048) (type default) (color 0 0 0 0))
          (fill (type none))
        )
      )
      (symbol "C_Small_1_1"
        (pin passive line (at 0 2.54 270) (length 2.032)
          (name "~" (effects (font (size 1.27 1.27))))
          (number "1" (effects (font (size 1.27 1.27))))
        )
        (pin passive line (at 0 -2.54 90) (length 2.032)
          (name "~" (effects (font (size 1.27 1.27))))
          (number "2" (effects (font (size 1.27 1.27))))
        )
      )
    )
    (symbol "synkie_symbols:D" (pin_numbers hide) (pin_names (offset 1.016) hide) (in_bom yes) (on_board yes)
      (property "Reference" "D" (id 0) (at 0 2.54 0)
        (effects (font (size 1.27 1.27)))
      )
      (property "Value" "D" (id 1) (at 0 -2.54 0)
        (effects (font (size 1.27 1.27)))
      )
      (property "Footprint" "" (id 2) (at 0 0 0)
        (effects (font (size 1.27 1.27)) hide)
      )
      (property "Datasheet" "~" (id 3) (at 0 0 0)
        (effects (font (size 1.27 1.27)) hide)
      )
      (property "ki_keywords" "diode" (id 4) (at 0 0 0)
        (effects (font (size 1.27 1.27)) hide)
      )
      (property "ki_description" "Diode" (id 5) (at 0 0 0)
        (effects (font (size 1.27 1.27)) hide)
      )
      (property "ki_fp_filters" "TO-???* *_Diode_* *SingleDiode* D_*" (id 6) (at 0 0 0)
        (effects (font (size 1.27 1.27)) hide)
      )
      (symbol "D_0_1"
        (polyline
          (pts
            (xy -1.27 1.27)
            (xy -1.27 -1.27)
          )
          (stroke (width 0.254) (type default) (color 0 0 0 0))
          (fill (type none))
        )
        (polyline
          (pts
            (xy 1.27 0)
            (xy -1.27 0)
          )
          (stroke (width 0) (type default) (color 0 0 0 0))
          (fill (type none))
        )
        (polyline
          (pts
            (xy 1.27 1.27)
            (xy 1.27 -1.27)
            (xy -1.27 0)
            (xy 1.27 1.27)
          )
          (stroke (width 0.254) (type default) (color 0 0 0 0))
          (fill (type none))
        )
      )
      (symbol "D_1_1"
        (pin passive line (at -3.81 0 0) (length 2.54)
          (name "K" (effects (font (size 1.27 1.27))))
          (number "1" (effects (font (size 1.27 1.27))))
        )
        (pin passive line (at 3.81 0 180) (length 2.54)
          (name "A" (effects (font (size 1.27 1.27))))
          (number "2" (effects (font (size 1.27 1.27))))
        )
      )
    )
    (symbol "synkie_symbols:GND" (power) (pin_names (offset 0)) (in_bom yes) (on_board yes)
      (property "Reference" "#PWR" (id 0) (at 0 -6.35 0)
        (effects (font (size 1.27 1.27)) hide)
      )
      (property "Value" "GND" (id 1) (at 0 -3.81 0)
        (effects (font (size 1.27 1.27)))
      )
      (property "Footprint" "" (id 2) (at 0 0 0)
        (effects (font (size 1.27 1.27)) hide)
      )
      (property "Datasheet" "" (id 3) (at 0 0 0)
        (effects (font (size 1.27 1.27)) hide)
      )
      (property "ki_keywords" "power-flag" (id 4) (at 0 0 0)
        (effects (font (size 1.27 1.27)) hide)
      )
      (property "ki_description" "Power symbol creates a global label with name \"GND\" , ground" (id 5) (at 0 0 0)
        (effects (font (size 1.27 1.27)) hide)
      )
      (symbol "GND_0_1"
        (polyline
          (pts
            (xy 0 0)
            (xy 0 -1.27)
            (xy 1.27 -1.27)
            (xy 0 -2.54)
            (xy -1.27 -1.27)
            (xy 0 -1.27)
          )
          (stroke (width 0) (type default) (color 0 0 0 0))
          (fill (type none))
        )
      )
      (symbol "GND_1_1"
        (pin power_in line (at 0 0 270) (length 0) hide
          (name "GND" (effects (font (size 1.27 1.27))))
          (number "1" (effects (font (size 1.27 1.27))))
        )
      )
    )
    (symbol "synkie_symbols:Opamp_Dual_Generic" (in_bom yes) (on_board yes)
      (property "Reference" "U" (id 0) (at 0 5.08 0)
        (effects (font (size 1.27 1.27)) (justify left))
      )
      (property "Value" "Opamp_Dual_Generic" (id 1) (at 0 -5.08 0)
        (effects (font (size 1.27 1.27)) (justify left))
      )
      (property "Footprint" "" (id 2) (at 0 0 0)
        (effects (font (size 1.27 1.27)) hide)
      )
      (property "Datasheet" "~" (id 3) (at 0 0 0)
        (effects (font (size 1.27 1.27)) hide)
      )
      (property "ki_locked" "" (id 4) (at 0 0 0)
        (effects (font (size 1.27 1.27)))
      )
      (property "ki_keywords" "dual opamp" (id 5) (at 0 0 0)
        (effects (font (size 1.27 1.27)) hide)
      )
      (property "ki_description" "Dual operational amplifier" (id 6) (at 0 0 0)
        (effects (font (size 1.27 1.27)) hide)
      )
      (property "ki_fp_filters" "SOIC*3.9x4.9mm*P1.27mm* DIP*W7.62mm* MSOP*3x3mm*P0.65mm* SSOP*2.95x2.8mm*P0.65mm* TSSOP*3x3mm*P0.65mm* VSSOP*P0.5mm* TO?99*" (id 7) (at 0 0 0)
        (effects (font (size 1.27 1.27)) hide)
      )
      (symbol "Opamp_Dual_Generic_1_1"
        (polyline
          (pts
            (xy -5.08 5.08)
            (xy 5.08 0)
            (xy -5.08 -5.08)
            (xy -5.08 5.08)
          )
          (stroke (width 0.254) (type default) (color 0 0 0 0))
          (fill (type background))
        )
        (pin output line (at 7.62 0 180) (length 2.54)
          (name "~" (effects (font (size 1.27 1.27))))
          (number "1" (effects (font (size 1.27 1.27))))
        )
        (pin input line (at -7.62 -2.54 0) (length 2.54)
          (name "-" (effects (font (size 1.27 1.27))))
          (number "2" (effects (font (size 1.27 1.27))))
        )
        (pin input line (at -7.62 2.54 0) (length 2.54)
          (name "+" (effects (font (size 1.27 1.27))))
          (number "3" (effects (font (size 1.27 1.27))))
        )
      )
      (symbol "Opamp_Dual_Generic_2_1"
        (polyline
          (pts
            (xy -5.08 5.08)
            (xy 5.08 0)
            (xy -5.08 -5.08)
            (xy -5.08 5.08)
          )
          (stroke (width 0.254) (type default) (color 0 0 0 0))
          (fill (type background))
        )
        (pin input line (at -7.62 2.54 0) (length 2.54)
          (name "+" (effects (font (size 1.27 1.27))))
          (number "5" (effects (font (size 1.27 1.27))))
        )
        (pin input line (at -7.62 -2.54 0) (length 2.54)
          (name "-" (effects (font (size 1.27 1.27))))
          (number "6" (effects (font (size 1.27 1.27))))
        )
        (pin output line (at 7.62 0 180) (length 2.54)
          (name "~" (effects (font (size 1.27 1.27))))
          (number "7" (effects (font (size 1.27 1.27))))
        )
      )
      (symbol "Opamp_Dual_Generic_3_1"
        (pin power_in line (at -2.54 -7.62 90) (length 3.81)
          (name "V-" (effects (font (size 1.27 1.27))))
          (number "4" (effects (font (size 1.27 1.27))))
        )
        (pin power_in line (at -2.54 7.62 270) (length 3.81)
          (name "V+" (effects (font (size 1.27 1.27))))
          (number "8" (effects (font (size 1.27 1.27))))
        )
      )
    )
    (symbol "synkie_symbols:PEMX1" (pin_names (offset 0)) (in_bom yes) (on_board yes)
      (property "Reference" "Q" (id 0) (at -3.81 3.81 0)
        (effects (font (size 1.27 1.27)))
      )
      (property "Value" "PEMX1" (id 1) (at -3.81 -3.81 0)
        (effects (font (size 1.27 1.27)))
      )
      (property "Footprint" "" (id 2) (at -2.54 0.635 0)
        (effects (font (size 1.27 1.27)) hide)
      )
      (property "Datasheet" "" (id 3) (at -2.54 0.635 0)
        (effects (font (size 1.27 1.27)) hide)
      )
      (symbol "PEMX1_0_1"
        (polyline
          (pts
            (xy -1.27 0)
            (xy -0.635 0)
          )
          (stroke (width 0) (type default) (color 0 0 0 0))
          (fill (type none))
        )
        (polyline
          (pts
            (xy -0.635 0.635)
            (xy 1.27 2.54)
          )
          (stroke (width 0) (type default) (color 0 0 0 0))
          (fill (type none))
        )
        (polyline
          (pts
            (xy -0.635 1.905)
            (xy -0.635 -1.905)
          )
          (stroke (width 0.508) (type default) (color 0 0 0 0))
          (fill (type none))
        )
        (polyline
          (pts
            (xy 1.27 -2.54)
            (xy -0.635 -0.635)
          )
          (stroke (width 0) (type default) (color 0 0 0 0))
          (fill (type none))
        )
        (polyline
          (pts
            (xy 0 -1.905)
            (xy 0.635 -1.27)
            (xy 1.27 -2.54)
            (xy 0 -1.905)
          )
          (stroke (width 0) (type default) (color 0 0 0 0))
          (fill (type outline))
        )
      )
      (symbol "PEMX1_1_1"
        (pin passive line (at 1.27 -5.08 90) (length 2.54)
          (name "E" (effects (font (size 1.27 1.27))))
          (number "1" (effects (font (size 1.27 1.27))))
        )
        (pin input line (at -3.81 0 0) (length 2.54)
          (name "B" (effects (font (size 1.27 1.27))))
          (number "2" (effects (font (size 1.27 1.27))))
        )
        (pin passive line (at 1.27 5.08 270) (length 2.54)
          (name "C" (effects (font (size 1.27 1.27))))
          (number "6" (effects (font (size 1.27 1.27))))
        )
      )
      (symbol "PEMX1_2_1"
        (pin passive line (at 1.27 5.08 270) (length 2.54)
          (name "C" (effects (font (size 1.27 1.27))))
          (number "3" (effects (font (size 1.27 1.27))))
        )
        (pin passive line (at 1.27 -5.08 90) (length 2.54)
          (name "E" (effects (font (size 1.27 1.27))))
          (number "4" (effects (font (size 1.27 1.27))))
        )
        (pin input line (at -3.81 0 0) (length 2.54)
          (name "B" (effects (font (size 1.27 1.27))))
          (number "5" (effects (font (size 1.27 1.27))))
        )
      )
    )
    (symbol "synkie_symbols:PMBT3906YS" (pin_names (offset 0)) (in_bom yes) (on_board yes)
      (property "Reference" "Q" (id 0) (at -3.81 3.81 0)
        (effects (font (size 1.27 1.27)))
      )
      (property "Value" "PMBT3906YS" (id 1) (at 4.445 0 90)
        (effects (font (size 1.27 1.27)))
      )
      (property "Footprint" "" (id 2) (at -2.54 0.635 0)
        (effects (font (size 1.27 1.27)) hide)
      )
      (property "Datasheet" "" (id 3) (at -2.54 0.635 0)
        (effects (font (size 1.27 1.27)) hide)
      )
      (symbol "PMBT3906YS_0_1"
        (polyline
          (pts
            (xy -1.27 0)
            (xy -0.635 0)
          )
          (stroke (width 0) (type default) (color 0 0 0 0))
          (fill (type none))
        )
        (polyline
          (pts
            (xy -0.635 0.635)
            (xy 1.27 2.54)
          )
          (stroke (width 0) (type default) (color 0 0 0 0))
          (fill (type none))
        )
        (polyline
          (pts
            (xy -0.635 1.905)
            (xy -0.635 -1.905)
          )
          (stroke (width 0.508) (type default) (color 0 0 0 0))
          (fill (type none))
        )
        (polyline
          (pts
            (xy 1.27 -2.54)
            (xy -0.635 -0.635)
          )
          (stroke (width 0) (type default) (color 0 0 0 0))
          (fill (type none))
        )
        (polyline
          (pts
            (xy 0.635 -1.27)
            (xy 0 -1.905)
            (xy -0.635 -0.635)
            (xy 0.635 -1.27)
          )
          (stroke (width 0) (type default) (color 0 0 0 0))
          (fill (type outline))
        )
      )
      (symbol "PMBT3906YS_1_1"
        (pin passive line (at 1.27 -5.08 90) (length 2.54)
          (name "E" (effects (font (size 1.27 1.27))))
          (number "1" (effects (font (size 1.27 1.27))))
        )
        (pin input line (at -3.81 0 0) (length 2.54)
          (name "B" (effects (font (size 1.27 1.27))))
          (number "2" (effects (font (size 1.27 1.27))))
        )
        (pin passive line (at 1.27 5.08 270) (length 2.54)
          (name "C" (effects (font (size 1.27 1.27))))
          (number "6" (effects (font (size 1.27 1.27))))
        )
      )
      (symbol "PMBT3906YS_2_1"
        (pin passive line (at 1.27 5.08 270) (length 2.54)
          (name "C" (effects (font (size 1.27 1.27))))
          (number "3" (effects (font (size 1.27 1.27))))
        )
        (pin passive line (at 1.27 -5.08 90) (length 2.54)
          (name "E" (effects (font (size 1.27 1.27))))
          (number "4" (effects (font (size 1.27 1.27))))
        )
        (pin input line (at -3.81 0 0) (length 2.54)
          (name "B" (effects (font (size 1.27 1.27))))
          (number "5" (effects (font (size 1.27 1.27))))
        )
      )
    )
    (symbol "synkie_symbols:R" (pin_numbers hide) (pin_names (offset 0)) (in_bom yes) (on_board yes)
      (property "Reference" "R" (id 0) (at 2.032 0 90)
        (effects (font (size 1.27 1.27)))
      )
      (property "Value" "R" (id 1) (at 0 0 90)
        (effects (font (size 1.27 1.27)))
      )
      (property "Footprint" "" (id 2) (at -1.778 0 90)
        (effects (font (size 1.27 1.27)) hide)
      )
      (property "Datasheet" "~" (id 3) (at 0 0 0)
        (effects (font (size 1.27 1.27)) hide)
      )
      (property "ki_keywords" "R res resistor" (id 4) (at 0 0 0)
        (effects (font (size 1.27 1.27)) hide)
      )
      (property "ki_description" "Resistor" (id 5) (at 0 0 0)
        (effects (font (size 1.27 1.27)) hide)
      )
      (property "ki_fp_filters" "R_*" (id 6) (at 0 0 0)
        (effects (font (size 1.27 1.27)) hide)
      )
      (symbol "R_0_1"
        (rectangle (start -1.016 -2.54) (end 1.016 2.54)
          (stroke (width 0.254) (type default) (color 0 0 0 0))
          (fill (type none))
        )
      )
      (symbol "R_1_1"
        (pin passive line (at 0 3.81 270) (length 1.27)
          (name "~" (effects (font (size 1.27 1.27))))
          (number "1" (effects (font (size 1.27 1.27))))
        )
        (pin passive line (at 0 -3.81 90) (length 1.27)
          (name "~" (effects (font (size 1.27 1.27))))
          (number "2" (effects (font (size 1.27 1.27))))
        )
      )
    )
  )


  (junction (at 121.92 138.43) (diameter 0) (color 0 0 0 0)
    (uuid 003974b6-cb8f-491b-a226-fc7891eb9a62)
  )
  (junction (at 64.77 147.32) (diameter 0) (color 0 0 0 0)
    (uuid 004b7456-c25a-480f-88f6-723c1bcd9939)
  )
  (junction (at 49.53 173.99) (diameter 0) (color 0 0 0 0)
    (uuid 0fc912fd-5036-4a55-b598-a9af40810824)
  )
  (junction (at 100.33 135.89) (diameter 0) (color 0 0 0 0)
    (uuid 1b98de85-f9de-4825-baf2-c96991615275)
  )
  (junction (at 243.84 72.39) (diameter 0) (color 0 0 0 0)
    (uuid 2d16cb66-2809-411d-912c-d3db0f48bd04)
  )
  (junction (at 138.43 181.61) (diameter 0) (color 0 0 0 0)
    (uuid 36696ac6-2db1-4b52-ae3d-9f3c89d2042f)
  )
  (junction (at 87.63 80.01) (diameter 0) (color 0 0 0 0)
    (uuid 42bd0f96-a831-406e-abb7-03ed1bbd785f)
  )
  (junction (at 80.01 95.25) (diameter 0) (color 0 0 0 0)
    (uuid 59e09498-d26e-4ba7-b47d-fece2ea7c274)
  )
  (junction (at 214.63 90.17) (diameter 0) (color 0 0 0 0)
    (uuid 621c8eb9-ae87-439a-b350-badb5d559a5a)
  )
  (junction (at 101.6 95.25) (diameter 0) (color 0 0 0 0)
    (uuid 629fdb7a-7978-43d0-987e-b84465775826)
  )
  (junction (at 149.86 181.61) (diameter 0) (color 0 0 0 0)
    (uuid 6ba19f6c-fa3a-4bf3-8c57-119de0f02b65)
  )
  (junction (at 76.2 157.48) (diameter 0) (color 0 0 0 0)
    (uuid 6ce41a48-c5e2-4d5f-8548-1c7b5c309a8a)
  )
  (junction (at 88.9 147.32) (diameter 0) (color 0 0 0 0)
    (uuid 8220ba36-5fda-4461-95e2-49a5bc0c76af)
  )
  (junction (at 49.53 147.32) (diameter 0) (color 0 0 0 0)
    (uuid 843b53af-dd34-4db8-aa6b-5035b25affc7)
  )
  (junction (at 60.96 137.16) (diameter 0) (color 0 0 0 0)
    (uuid 8765371a-21c2-4fe3-a3af-88f5eb1f02a0)
  )
  (junction (at 95.25 73.66) (diameter 0) (color 0 0 0 0)
    (uuid 8aeda7bd-b078-427a-a185-d5bc595c6436)
  )
  (junction (at 81.28 68.58) (diameter 0) (color 0 0 0 0)
    (uuid 9bb406d9-c650-4e67-9a26-3195d4de542e)
  )
  (junction (at 152.4 189.23) (diameter 0) (color 0 0 0 0)
    (uuid 9e18f8b3-9e1a-4022-9224-10c12ca8a28d)
  )
  (junction (at 152.4 173.99) (diameter 0) (color 0 0 0 0)
    (uuid a12b751e-ae7a-468c-af3d-31ed4d501b01)
  )
  (junction (at 87.63 95.25) (diameter 0) (color 0 0 0 0)
    (uuid a6c7f556-10bb-4a6d-b61b-a732ec6fa5cc)
  )
  (junction (at 101.6 109.22) (diameter 0) (color 0 0 0 0)
    (uuid b4675fcd-90dd-499b-8feb-46b51a88378c)
  )
  (junction (at 106.68 147.32) (diameter 0) (color 0 0 0 0)
    (uuid c81031ca-cd56-4ea3-b0db-833cbbdd7b2e)
  )
  (junction (at 95.25 114.3) (diameter 0) (color 0 0 0 0)
    (uuid d53baa32-ba88-4646-9db3-0e9b0f0da4f0)
  )
  (junction (at 80.01 147.32) (diameter 0) (color 0 0 0 0)
    (uuid d8dc9b6c-67d0-4a0d-a791-6f7d43ef3652)
  )
  (junction (at 101.6 121.92) (diameter 0) (color 0 0 0 0)
    (uuid dc7523a5-4408-4a51-bc92-6a47a538c094)
  )
  (junction (at 49.53 189.23) (diameter 0) (color 0 0 0 0)
    (uuid e07e1653-d05d-4bf2-bea3-6515a06de065)
  )
  (junction (at 46.99 181.61) (diameter 0) (color 0 0 0 0)
    (uuid eb1b2aa2-a3cc-4a96-87ec-70fcae365f0f)
  )
  (junction (at 88.9 152.4) (diameter 0) (color 0 0 0 0)
    (uuid fbb5e77c-4b41-4796-ad13-1b9e2bbc3c81)
  )

  (wire (pts (xy 95.25 121.92) (xy 101.6 121.92))
    (stroke (width 0) (type default) (color 0 0 0 0))
    (uuid 01109662-12b4-48a3-b68d-624008909c2a)
  )
  (wire (pts (xy 121.92 138.43) (xy 127 138.43))
    (stroke (width 0) (type default) (color 0 0 0 0))
    (uuid 01c59306-91a3-452b-92b5-9af8f8f257d6)
  )
  (wire (pts (xy 138.43 181.61) (xy 138.43 179.07))
    (stroke (width 0) (type default) (color 0 0 0 0))
    (uuid 042fe62b-53aa-4e86-97d0-9ccb1e16a895)
  )
  (polyline (pts (xy 31.75 128.27) (xy 147.32 128.27))
    (stroke (width 0) (type default) (color 0 0 0 0))
    (uuid 0938c137-668b-4d2f-b92b-cadb1df72bdb)
  )

  (wire (pts (xy 152.4 173.99) (xy 154.94 173.99))
    (stroke (width 0) (type default) (color 0 0 0 0))
    (uuid 0d095387-710d-4633-a6c3-04eab60b585a)
  )
  (wire (pts (xy 101.6 119.38) (xy 101.6 121.92))
    (stroke (width 0) (type default) (color 0 0 0 0))
    (uuid 0e166909-afb5-4d70-a00b-dd78cd09b084)
  )
  (wire (pts (xy 50.8 160.02) (xy 83.82 160.02))
    (stroke (width 0) (type default) (color 0 0 0 0))
    (uuid 122b5574-57fe-4d2d-80bf-3cabd28e7128)
  )
  (polyline (pts (xy 31.75 54.61) (xy 31.75 127))
    (stroke (width 0) (type default) (color 0 0 0 0))
    (uuid 16d5bf81-590a-4149-97e0-64f3b3ad6f52)
  )

  (wire (pts (xy 87.63 109.22) (xy 87.63 95.25))
    (stroke (width 0) (type default) (color 0 0 0 0))
    (uuid 18cf1537-83e6-4374-a277-6e3e21479ab0)
  )
  (wire (pts (xy 64.77 92.71) (xy 57.15 92.71))
    (stroke (width 0) (type default) (color 0 0 0 0))
    (uuid 1b5a32e4-0b8e-4f38-b679-71dc277c2087)
  )
  (wire (pts (xy 149.86 181.61) (xy 149.86 179.07))
    (stroke (width 0) (type default) (color 0 0 0 0))
    (uuid 2276ec6c-cdcc-4369-86b4-8267d991001e)
  )
  (wire (pts (xy 95.25 80.01) (xy 95.25 73.66))
    (stroke (width 0) (type default) (color 0 0 0 0))
    (uuid 251669f2-aed1-46fe-b2e4-9582ff1e4084)
  )
  (wire (pts (xy 106.68 147.32) (xy 106.68 140.97))
    (stroke (width 0) (type default) (color 0 0 0 0))
    (uuid 2522909e-6f5c-4f36-9c3a-869dca14e50f)
  )
  (wire (pts (xy 149.86 184.15) (xy 149.86 181.61))
    (stroke (width 0) (type default) (color 0 0 0 0))
    (uuid 29987966-1d19-4068-93f6-a61cdfb40ffa)
  )
  (wire (pts (xy 49.53 173.99) (xy 52.07 173.99))
    (stroke (width 0) (type default) (color 0 0 0 0))
    (uuid 2a6ee718-8cdf-4fa6-be7c-8fe885d98fd7)
  )
  (wire (pts (xy 101.6 109.22) (xy 95.25 109.22))
    (stroke (width 0) (type default) (color 0 0 0 0))
    (uuid 2d0d333a-99a0-4575-9433-710c8cc7ac0b)
  )
  (polyline (pts (xy 147.32 127) (xy 147.32 54.61))
    (stroke (width 0) (type default) (color 0 0 0 0))
    (uuid 2d4d8c24-5b38-445b-8733-2a81ba21d33e)
  )

  (wire (pts (xy 76.2 152.4) (xy 76.2 157.48))
    (stroke (width 0) (type default) (color 0 0 0 0))
    (uuid 2d617fad-47fe-4db9-836a-4bceb9c31c3b)
  )
  (wire (pts (xy 80.01 152.4) (xy 76.2 152.4))
    (stroke (width 0) (type default) (color 0 0 0 0))
    (uuid 2e36ce87-4661-4b8f-956a-16dc559e1b50)
  )
  (wire (pts (xy 138.43 184.15) (xy 138.43 181.61))
    (stroke (width 0) (type default) (color 0 0 0 0))
    (uuid 2e6b1f7e-e4c3-43a1-ae90-c85aa40696d5)
  )
  (wire (pts (xy 87.63 78.74) (xy 87.63 80.01))
    (stroke (width 0) (type default) (color 0 0 0 0))
    (uuid 311665d9-0fab-4325-8b46-f3638bf521df)
  )
  (wire (pts (xy 87.63 80.01) (xy 95.25 80.01))
    (stroke (width 0) (type default) (color 0 0 0 0))
    (uuid 3198b8ca-7d11-4e0c-89a4-c173f9fcf724)
  )
  (wire (pts (xy 46.99 189.23) (xy 49.53 189.23))
    (stroke (width 0) (type default) (color 0 0 0 0))
    (uuid 341dde39-440e-4d05-8def-6a5cecefd88c)
  )
  (wire (pts (xy 88.9 152.4) (xy 88.9 147.32))
    (stroke (width 0) (type default) (color 0 0 0 0))
    (uuid 37728c8e-efcc-462c-a749-47b6bfcbaf37)
  )
  (wire (pts (xy 106.68 147.32) (xy 105.41 147.32))
    (stroke (width 0) (type default) (color 0 0 0 0))
    (uuid 3a45fb3b-7899-44f2-a78a-f676359df67b)
  )
  (wire (pts (xy 95.25 73.66) (xy 96.52 73.66))
    (stroke (width 0) (type default) (color 0 0 0 0))
    (uuid 3c646c61-400f-4f60-98b8-05ed5e632a3f)
  )
  (wire (pts (xy 130.81 106.68) (xy 115.57 106.68))
    (stroke (width 0) (type default) (color 0 0 0 0))
    (uuid 3f43c2dc-daa2-45ba-b8ca-7ae5aebed882)
  )
  (wire (pts (xy 121.92 138.43) (xy 121.92 147.32))
    (stroke (width 0) (type default) (color 0 0 0 0))
    (uuid 444b2eaf-241d-42e5-8717-27a83d099c5b)
  )
  (wire (pts (xy 76.2 157.48) (xy 49.53 157.48))
    (stroke (width 0) (type default) (color 0 0 0 0))
    (uuid 4688ff87-8262-46f4-ad96-b5f4e529cfa9)
  )
  (wire (pts (xy 80.01 147.32) (xy 88.9 147.32))
    (stroke (width 0) (type default) (color 0 0 0 0))
    (uuid 469f89fd-f629-46b7-b106-a0088168c9ec)
  )
  (wire (pts (xy 48.26 147.32) (xy 49.53 147.32))
    (stroke (width 0) (type default) (color 0 0 0 0))
    (uuid 4d3a1f72-d521-46ae-8fe1-3f8221038335)
  )
  (wire (pts (xy 152.4 189.23) (xy 154.94 189.23))
    (stroke (width 0) (type default) (color 0 0 0 0))
    (uuid 4d51bc15-1f84-46be-8e16-e836b10f854e)
  )
  (wire (pts (xy 50.8 137.16) (xy 60.96 137.16))
    (stroke (width 0) (type default) (color 0 0 0 0))
    (uuid 4f4bd227-fa4c-47f4-ad05-ee16ad4c58c2)
  )
  (wire (pts (xy 181.61 82.55) (xy 165.1 82.55))
    (stroke (width 0) (type default) (color 0 0 0 0))
    (uuid 524d7aa8-362f-459a-b2ae-4ca2a0b1612b)
  )
  (wire (pts (xy 46.99 173.99) (xy 49.53 173.99))
    (stroke (width 0) (type default) (color 0 0 0 0))
    (uuid 55cff608-ab38-48d9-ac09-2d0a877ceca1)
  )
  (wire (pts (xy 96.52 157.48) (xy 96.52 135.89))
    (stroke (width 0) (type default) (color 0 0 0 0))
    (uuid 5698a460-6e24-4857-84d8-4a43acd2325d)
  )
  (wire (pts (xy 101.6 68.58) (xy 105.41 68.58))
    (stroke (width 0) (type default) (color 0 0 0 0))
    (uuid 57543893-39bf-4d83-b4e0-8d020b4a6d48)
  )
  (wire (pts (xy 101.6 95.25) (xy 115.57 95.25))
    (stroke (width 0) (type default) (color 0 0 0 0))
    (uuid 5a889284-4c9f-49be-8f02-e43e18550914)
  )
  (wire (pts (xy 49.53 147.32) (xy 52.07 147.32))
    (stroke (width 0) (type default) (color 0 0 0 0))
    (uuid 5b70b09b-6762-4725-9d48-805300c0bdc8)
  )
  (polyline (pts (xy 148.59 54.61) (xy 265.43 54.61))
    (stroke (width 0) (type default) (color 0 0 0 0))
    (uuid 5fe7a4eb-9f04-4df6-a1fa-36c071e280d7)
  )

  (wire (pts (xy 100.33 140.97) (xy 100.33 142.24))
    (stroke (width 0) (type default) (color 0 0 0 0))
    (uuid 6133fb54-5524-482e-9ae2-adbf29aced9e)
  )
  (wire (pts (xy 59.69 147.32) (xy 64.77 147.32))
    (stroke (width 0) (type default) (color 0 0 0 0))
    (uuid 6316acb7-63a1-40e7-8695-2822d4a240b5)
  )
  (polyline (pts (xy 265.43 54.61) (xy 265.43 127))
    (stroke (width 0) (type default) (color 0 0 0 0))
    (uuid 64256223-cf3b-4a78-97d3-f1dca769968f)
  )

  (wire (pts (xy 63.5 97.79) (xy 64.77 97.79))
    (stroke (width 0) (type default) (color 0 0 0 0))
    (uuid 70abf340-8b3e-403e-a5e2-d8f35caa2f87)
  )
  (wire (pts (xy 228.6 90.17) (xy 214.63 90.17))
    (stroke (width 0) (type default) (color 0 0 0 0))
    (uuid 72cc7949-68f8-4ef8-adcb-a65c1d042672)
  )
  (polyline (pts (xy 147.32 128.27) (xy 147.32 163.83))
    (stroke (width 0) (type default) (color 0 0 0 0))
    (uuid 74096bdc-b668-408c-af3a-b048c20bd605)
  )

  (wire (pts (xy 243.84 72.39) (xy 251.46 72.39))
    (stroke (width 0) (type default) (color 0 0 0 0))
    (uuid 7806469b-c133-4e19-b2d5-f2b690b4b2f3)
  )
  (wire (pts (xy 80.01 147.32) (xy 74.93 147.32))
    (stroke (width 0) (type default) (color 0 0 0 0))
    (uuid 7c0866b5-b180-4be6-9e62-43f5b191d6d4)
  )
  (wire (pts (xy 95.25 109.22) (xy 95.25 114.3))
    (stroke (width 0) (type default) (color 0 0 0 0))
    (uuid 7c6e532b-1afd-48d4-9389-2942dcbc7c3c)
  )
  (wire (pts (xy 63.5 102.87) (xy 63.5 97.79))
    (stroke (width 0) (type default) (color 0 0 0 0))
    (uuid 7de6564c-7ad6-4d57-a54c-8d2835ff5cdc)
  )
  (wire (pts (xy 92.71 73.66) (xy 95.25 73.66))
    (stroke (width 0) (type default) (color 0 0 0 0))
    (uuid 7eb32ed1-4320-49ba-8487-1c88e4824fe3)
  )
  (wire (pts (xy 167.64 59.69) (xy 167.64 85.09))
    (stroke (width 0) (type default) (color 0 0 0 0))
    (uuid 8313e187-c805-4927-8002-313a51839243)
  )
  (wire (pts (xy 88.9 157.48) (xy 88.9 152.4))
    (stroke (width 0) (type default) (color 0 0 0 0))
    (uuid 848c6095-3966-404d-9f2a-51150fd8dc54)
  )
  (polyline (pts (xy 31.75 163.83) (xy 31.75 128.27))
    (stroke (width 0) (type default) (color 0 0 0 0))
    (uuid 89df70f4-3579-42b9-861e-6beb04a3b25e)
  )

  (wire (pts (xy 81.28 68.58) (xy 81.28 69.85))
    (stroke (width 0) (type default) (color 0 0 0 0))
    (uuid 8cb5a828-8cef-4784-b78d-175b49646952)
  )
  (wire (pts (xy 213.36 82.55) (xy 213.36 58.42))
    (stroke (width 0) (type default) (color 0 0 0 0))
    (uuid 8fd0b33a-45bf-4216-9d7e-a62e1c071730)
  )
  (wire (pts (xy 207.01 82.55) (xy 213.36 82.55))
    (stroke (width 0) (type default) (color 0 0 0 0))
    (uuid 90d503cf-92b2-4120-a4b0-03a2eddde893)
  )
  (wire (pts (xy 49.53 157.48) (xy 49.53 147.32))
    (stroke (width 0) (type default) (color 0 0 0 0))
    (uuid 92bd1111-b941-4c03-b7ec-a08a9359bc50)
  )
  (wire (pts (xy 63.5 102.87) (xy 80.01 102.87))
    (stroke (width 0) (type default) (color 0 0 0 0))
    (uuid 9505be36-b21c-4db8-9484-dd0861395d26)
  )
  (wire (pts (xy 101.6 78.74) (xy 101.6 95.25))
    (stroke (width 0) (type default) (color 0 0 0 0))
    (uuid 9c5933cf-1535-4465-90dd-da9b75afcdcf)
  )
  (polyline (pts (xy 31.75 54.61) (xy 147.32 54.61))
    (stroke (width 0) (type default) (color 0 0 0 0))
    (uuid a10b569c-d672-485d-9c05-2cb4795deeca)
  )

  (wire (pts (xy 166.37 92.71) (xy 181.61 92.71))
    (stroke (width 0) (type default) (color 0 0 0 0))
    (uuid a4911204-1308-4d17-90a9-1ff5f9c57c9b)
  )
  (wire (pts (xy 87.63 68.58) (xy 81.28 68.58))
    (stroke (width 0) (type default) (color 0 0 0 0))
    (uuid a5e6f7cb-0a81-4357-a11f-231d23300342)
  )
  (wire (pts (xy 110.49 147.32) (xy 106.68 147.32))
    (stroke (width 0) (type default) (color 0 0 0 0))
    (uuid a647641f-bf16-4177-91ee-b01f347ff91c)
  )
  (wire (pts (xy 46.99 184.15) (xy 46.99 181.61))
    (stroke (width 0) (type default) (color 0 0 0 0))
    (uuid a67dbe3b-ec7d-4ea5-b0e5-715c5263d8da)
  )
  (polyline (pts (xy 148.59 127) (xy 265.43 127))
    (stroke (width 0) (type default) (color 0 0 0 0))
    (uuid b21625e3-a75b-41d7-9f13-4c0e12ba16cb)
  )

  (wire (pts (xy 64.77 142.24) (xy 64.77 147.32))
    (stroke (width 0) (type default) (color 0 0 0 0))
    (uuid b55dabdc-b790-4740-9349-75159cff975a)
  )
  (wire (pts (xy 167.64 85.09) (xy 181.61 85.09))
    (stroke (width 0) (type default) (color 0 0 0 0))
    (uuid b5cea0b5-192f-476b-a3c8-0c26e2231699)
  )
  (wire (pts (xy 207.01 74.93) (xy 212.09 74.93))
    (stroke (width 0) (type default) (color 0 0 0 0))
    (uuid bc01f3e7-a131-4f66-8abc-cc13e855d5e5)
  )
  (wire (pts (xy 46.99 181.61) (xy 46.99 179.07))
    (stroke (width 0) (type default) (color 0 0 0 0))
    (uuid bc1d5740-b0c7-4566-95b0-470ac47a1fb3)
  )
  (wire (pts (xy 83.82 119.38) (xy 83.82 116.84))
    (stroke (width 0) (type default) (color 0 0 0 0))
    (uuid c8072c34-0f81-4552-9fbe-4bfe60c53e21)
  )
  (wire (pts (xy 149.86 189.23) (xy 152.4 189.23))
    (stroke (width 0) (type default) (color 0 0 0 0))
    (uuid cd48b13f-c989-4ac1-a7f0-053afcd77527)
  )
  (wire (pts (xy 80.01 139.7) (xy 80.01 147.32))
    (stroke (width 0) (type default) (color 0 0 0 0))
    (uuid d1817a81-d444-4cd9-95f6-174ec9e2a60e)
  )
  (wire (pts (xy 88.9 152.4) (xy 92.71 152.4))
    (stroke (width 0) (type default) (color 0 0 0 0))
    (uuid d4e4ffa8-e3e2-4590-b9df-630d1880f3e4)
  )
  (wire (pts (xy 83.82 160.02) (xy 83.82 157.48))
    (stroke (width 0) (type default) (color 0 0 0 0))
    (uuid da337fe1-c322-4637-ad26-2622b82ac8ee)
  )
  (polyline (pts (xy 31.75 127) (xy 147.32 127))
    (stroke (width 0) (type default) (color 0 0 0 0))
    (uuid db902262-2864-4997-aeff-8abaa132424a)
  )
  (polyline (pts (xy 147.32 163.83) (xy 31.75 163.83))
    (stroke (width 0) (type default) (color 0 0 0 0))
    (uuid dc628a9d-67e8-4a03-b99f-8cc7a42af6ef)
  )

  (wire (pts (xy 96.52 135.89) (xy 100.33 135.89))
    (stroke (width 0) (type default) (color 0 0 0 0))
    (uuid dde4c43d-f33e-48ba-86f3-779fdfce00c2)
  )
  (polyline (pts (xy 148.59 54.61) (xy 148.59 127))
    (stroke (width 0) (type default) (color 0 0 0 0))
    (uuid df93f76b-86da-45ae-87e2-4b691af12b00)
  )

  (wire (pts (xy 92.71 114.3) (xy 95.25 114.3))
    (stroke (width 0) (type default) (color 0 0 0 0))
    (uuid df9a1242-2d73-4343-b170-237bc9a8080f)
  )
  (wire (pts (xy 212.09 59.69) (xy 167.64 59.69))
    (stroke (width 0) (type default) (color 0 0 0 0))
    (uuid e002a979-85bc-451a-a77b-29ce2a8f19f9)
  )
  (wire (pts (xy 115.57 106.68) (xy 115.57 100.33))
    (stroke (width 0) (type default) (color 0 0 0 0))
    (uuid e1fe6230-75c5-4750-aaea-24a9b80589d8)
  )
  (wire (pts (xy 106.68 135.89) (xy 100.33 135.89))
    (stroke (width 0) (type default) (color 0 0 0 0))
    (uuid e42fd0d4-9927-4308-81d9-4cca814c8ea9)
  )
  (wire (pts (xy 49.53 189.23) (xy 52.07 189.23))
    (stroke (width 0) (type default) (color 0 0 0 0))
    (uuid e7893166-2c2c-41b4-bd84-76ebc2e06551)
  )
  (wire (pts (xy 80.01 102.87) (xy 80.01 95.25))
    (stroke (width 0) (type default) (color 0 0 0 0))
    (uuid ea4f0afc-785b-40cf-8ef1-cbe20404c18b)
  )
  (wire (pts (xy 149.86 173.99) (xy 152.4 173.99))
    (stroke (width 0) (type default) (color 0 0 0 0))
    (uuid ea7c53f9-3aa8-4198-9879-de95a5257915)
  )
  (wire (pts (xy 67.31 147.32) (xy 64.77 147.32))
    (stroke (width 0) (type default) (color 0 0 0 0))
    (uuid eafb53d1-7486-4935-b154-2efbffbed6ca)
  )
  (wire (pts (xy 50.8 160.02) (xy 50.8 137.16))
    (stroke (width 0) (type default) (color 0 0 0 0))
    (uuid ed952427-2217-4500-9bbc-0c2746b198ad)
  )
  (wire (pts (xy 130.81 97.79) (xy 130.81 106.68))
    (stroke (width 0) (type default) (color 0 0 0 0))
    (uuid ef3a2f4c-5879-4e98-ad30-6b8614410fba)
  )
  (wire (pts (xy 95.25 114.3) (xy 96.52 114.3))
    (stroke (width 0) (type default) (color 0 0 0 0))
    (uuid ef3dded2-639c-45d4-8076-84cfb5189592)
  )
  (wire (pts (xy 64.77 137.16) (xy 60.96 137.16))
    (stroke (width 0) (type default) (color 0 0 0 0))
    (uuid f08895dc-4dcb-4aef-a39b-5a08864cdaaf)
  )
  (wire (pts (xy 166.37 58.42) (xy 166.37 92.71))
    (stroke (width 0) (type default) (color 0 0 0 0))
    (uuid f240e733-157e-4a15-812f-78f42d8a8322)
  )
  (wire (pts (xy 213.36 58.42) (xy 166.37 58.42))
    (stroke (width 0) (type default) (color 0 0 0 0))
    (uuid fc13962a-a464-4fa2-b9a6-4c26667104ee)
  )
  (wire (pts (xy 212.09 74.93) (xy 212.09 59.69))
    (stroke (width 0) (type default) (color 0 0 0 0))
    (uuid fd34aa56-ded2-4e97-965a-a39457716f0c)
  )
  (wire (pts (xy 121.92 147.32) (xy 118.11 147.32))
    (stroke (width 0) (type default) (color 0 0 0 0))
    (uuid fd4dd248-3e78-4985-a4fc-58bc05b74cbf)
  )
  (wire (pts (xy 88.9 147.32) (xy 97.79 147.32))
    (stroke (width 0) (type default) (color 0 0 0 0))
    (uuid fdc57161-f7f8-4584-b0ec-8c1aa24339c6)
  )
  (wire (pts (xy 87.63 95.25) (xy 101.6 95.25))
    (stroke (width 0) (type default) (color 0 0 0 0))
    (uuid fec6f717-d723-4676-89ef-8ea691e209c2)
  )
  (wire (pts (xy 87.63 119.38) (xy 83.82 119.38))
    (stroke (width 0) (type default) (color 0 0 0 0))
    (uuid ff2f00dc-dff2-4a19-af27-f5c793a8d261)
  )

  (text "PHASE-SHIFTER" (at 33.02 130.81 0)
    (effects (font (size 1.27 1.27)) (justify left bottom))
    (uuid 2c488362-c230-4f6d-82f9-a229b1171a23)
  )
  (text "CLIPPER" (at 33.02 57.15 0)
    (effects (font (size 1.27 1.27)) (justify left bottom))
    (uuid 90fa0465-7fe5-474b-8e7c-9f955c02a0f6)
  )
  (text "RESYNCER" (at 149.86 57.15 0)
    (effects (font (size 1.27 1.27)) (justify left bottom))
    (uuid a6891c49-3648-41ce-811e-fccb4c4653af)
  )
  (text "from vm003eq-scabi-out" (at 41.91 85.09 0)
    (effects (font (size 1.27 1.27)) (justify left bottom))
    (uuid eb7e294c-b398-413b-8b78-85a66ed5f3ea)
  )

  (label "clipper_out" (at 130.81 97.79 0)
    (effects (font (size 1.27 1.27)) (justify left bottom))
    (uuid 42f10020-b50a-4739-a546-6b63e441c980)
  )
  (label "synctip" (at 181.61 90.17 180)
    (effects (font (size 1.27 1.27)) (justify right bottom))
    (uuid 45a58c23-3e6d-4df0-af01-6d5948b0075c)
  )
  (label "clipper_out" (at 181.61 74.93 180)
    (effects (font (size 1.27 1.27)) (justify right bottom))
    (uuid 5641be26-f5e9-482f-8616-297f17f4eae2)
  )
  (label "synctip" (at 251.46 72.39 0)
    (effects (font (size 1.27 1.27)) (justify left bottom))
    (uuid 7943ed8c-e760-4ace-9c5f-baf5589fae39)
  )

  (global_label "preview_burst" (shape input) (at 165.1 82.55 180) (fields_autoplaced)
    (effects (font (size 1.27 1.27)) (justify right))
    (uuid 86143bb0-7899-4df8-b1df-baa3c0ac7889)
    (property "Intersheet References" "${INTERSHEET_REFS}" (id 0) (at 0 0 0)
      (effects (font (size 1.27 1.27)) hide)
    )
  )
  (global_label "porch" (shape input) (at 181.61 102.87 180) (fields_autoplaced)
    (effects (font (size 1.27 1.27)) (justify right))
    (uuid 93afd2e8-e16c-4e06-b872-cf0e624aee35)
    (property "Intersheet References" "${INTERSHEET_REFS}" (id 0) (at 0 0 0)
      (effects (font (size 1.27 1.27)) hide)
    )
  )
  (global_label "dry~{wet}" (shape input) (at 181.61 100.33 180) (fields_autoplaced)
    (effects (font (size 1.27 1.27)) (justify right))
    (uuid ab34b936-8ca5-4be1-8599-504cb86609fc)
    (property "Intersheet References" "${INTERSHEET_REFS}" (id 0) (at 0 0 0)
      (effects (font (size 1.27 1.27)) hide)
    )
  )
  (global_label "dry" (shape input) (at 181.61 77.47 180) (fields_autoplaced)
    (effects (font (size 1.2446 1.2446)) (justify right))
    (uuid be118b00-015b-445a-8fc5-7bf35350fda8)
    (property "Intersheet References" "${INTERSHEET_REFS}" (id 0) (at 0 0 0)
      (effects (font (size 1.27 1.27)) hide)
    )
  )
  (global_label "colorburst" (shape input) (at 48.26 147.32 180) (fields_autoplaced)
    (effects (font (size 1.27 1.27)) (justify right))
    (uuid c38f28b6-5bd4-4cf9-b273-1e7b230f6b42)
    (property "Intersheet References" "${INTERSHEET_REFS}" (id 0) (at 0 0 0)
      (effects (font (size 1.27 1.27)) hide)
    )
  )
  (global_label "delayed_burst" (shape input) (at 127 138.43 0) (fields_autoplaced)
    (effects (font (size 1.27 1.27)) (justify left))
    (uuid cd2580a0-9e4c-4895-a13c-3b2ee33bafc4)
    (property "Intersheet References" "${INTERSHEET_REFS}" (id 0) (at 0 0 0)
      (effects (font (size 1.27 1.27)) hide)
    )
  )
  (global_label "hsync" (shape input) (at 181.61 105.41 180) (fields_autoplaced)
    (effects (font (size 1.27 1.27)) (justify right))
    (uuid dd3da890-32ef-4a5a-aea4-e5d2141f1ff1)
    (property "Intersheet References" "${INTERSHEET_REFS}" (id 0) (at 0 0 0)
      (effects (font (size 1.27 1.27)) hide)
    )
  )

  (hierarchical_label "INPUT" (shape input) (at 57.15 92.71 180)
    (effects (font (size 1.27 1.27)) (justify right))
    (uuid a311f3c6-42e3-4584-9725-4a62ff91b6e3)
  )
  (hierarchical_label "OUTPUT" (shape input) (at 228.6 90.17 0)
    (effects (font (size 1.27 1.27)) (justify left))
    (uuid d5c86a84-6c8b-48b5-b583-2fe7052421ab)
  )

  (symbol (lib_id "4xxx:4053") (at 194.31 90.17 0) (unit 1)
    (in_bom yes) (on_board yes)
    (uuid 00000000-0000-0000-0000-00005fef2495)
    (property "Reference" "U?" (id 0) (at 189.23 71.12 0))
    (property "Value" "" (id 1) (at 199.39 71.12 0))
    (property "Footprint" "" (id 2) (at 194.31 90.17 0)
      (effects (font (size 1.27 1.27)) hide)
    )
    (property "Datasheet" "http://www.intersil.com/content/dam/Intersil/documents/cd40/cd4051bms-52bms-53bms.pdf" (id 3) (at 194.31 90.17 0)
      (effects (font (size 1.27 1.27)) hide)
    )
    (pin "1" (uuid c2e13317-b684-4969-a18b-b75b6e14f6f0))
    (pin "10" (uuid f3a28fc5-baf2-49b6-a0ed-4f8730843758))
    (pin "11" (uuid 80516a04-fa47-4ae2-84e7-78a64dcccb3b))
    (pin "12" (uuid ab15b4c5-dece-4be9-bcb5-8d6e56f4ee03))
    (pin "13" (uuid 02c2dbd4-c58e-429e-8e54-b37d12fc394c))
    (pin "14" (uuid efe31ccf-d385-4a54-b774-65dc309731e4))
    (pin "15" (uuid d51aa5a0-26b9-41a4-a0c8-02fd7546d8f1))
    (pin "16" (uuid e82b823a-5b55-49e6-9a44-5102986d165f))
    (pin "2" (uuid 7ef6b4b4-5840-405b-bf96-cdb17a805b7c))
    (pin "3" (uuid d2633f90-4154-48ef-b70b-05fcb216d61c))
    (pin "4" (uuid 6f6a487d-0897-4d01-95a7-b0dad6218609))
    (pin "5" (uuid abac3a55-6600-44a7-a541-4ce5bf073843))
    (pin "6" (uuid 51b36f8c-c953-41fe-b26c-8c76653d1002))
    (pin "7" (uuid 023f3048-77a6-4e0a-8e8e-656da0abcebc))
    (pin "8" (uuid 9c14be63-2444-4572-a893-d77148da1797))
    (pin "9" (uuid cff28408-2b4f-4e58-9533-5a52fd44c1db))
  )

  (symbol (lib_id "synkie_symbols:Opamp_Dual_Generic") (at 72.39 139.7 0) (unit 2)
    (in_bom yes) (on_board yes)
    (uuid 00000000-0000-0000-0000-00005fef249d)
    (property "Reference" "U?" (id 0) (at 72.39 130.3782 0))
    (property "Value" "" (id 1) (at 72.39 132.6896 0))
    (property "Footprint" "" (id 2) (at 72.39 139.7 0)
      (effects (font (size 1.27 1.27)) hide)
    )
    (property "Datasheet" "~" (id 3) (at 72.39 139.7 0)
      (effects (font (size 1.27 1.27)) hide)
    )
    (pin "1" (uuid ec8dbdb4-e549-443e-9493-7a91aa47e8b9))
    (pin "2" (uuid 9f53bff1-8cf9-4c54-a83b-d9366b4d3a7a))
    (pin "3" (uuid dd5a7337-837a-41d9-8bdf-af2462189290))
    (pin "5" (uuid 2b7abfc9-fc61-4caf-953d-364fb3ccb940))
    (pin "6" (uuid 71da24ae-09e0-4a7d-a7f7-da4993c7e2e3))
    (pin "7" (uuid 57c9b9ec-4e90-41ec-acdd-34663c499852))
    (pin "4" (uuid 85b08132-fbfb-483c-9607-f351e2072cd0))
    (pin "8" (uuid f9ac9be1-0b48-47be-a244-101d92e84eb7))
  )

  (symbol (lib_id "synkie_symbols:Opamp_Dual_Generic") (at 114.3 138.43 0) (unit 1)
    (in_bom yes) (on_board yes)
    (uuid 00000000-0000-0000-0000-00005fef24a3)
    (property "Reference" "U?" (id 0) (at 114.3 130.81 0))
    (property "Value" "" (id 1) (at 116.84 133.35 0))
    (property "Footprint" "" (id 2) (at 114.3 138.43 0)
      (effects (font (size 1.27 1.27)) hide)
    )
    (property "Datasheet" "~" (id 3) (at 114.3 138.43 0)
      (effects (font (size 1.27 1.27)) hide)
    )
    (pin "1" (uuid e941d576-fe80-4c04-969c-5e8c3f0be1d3))
    (pin "2" (uuid 78c0ec90-698d-486f-a25f-7df7e21b78b1))
    (pin "3" (uuid 85323ef2-f3a8-4276-a383-fc3f64b7abba))
    (pin "5" (uuid 1591bfdd-2016-4120-8e95-bd6cec5d242d))
    (pin "6" (uuid c15216e5-a7bc-4d20-9456-b502e4902254))
    (pin "7" (uuid 7519deb1-065b-4464-bff9-134748eb35ab))
    (pin "4" (uuid cb795b4d-3dc6-46cf-8c9d-c9752d236de7))
    (pin "8" (uuid 88197a39-67f3-44c5-9003-82be8b1cc818))
  )

  (symbol (lib_id "synkie_symbols:R") (at 71.12 147.32 270) (unit 1)
    (in_bom yes) (on_board yes)
    (uuid 00000000-0000-0000-0000-00005fef24a9)
    (property "Reference" "R?" (id 0) (at 71.12 147.32 90))
    (property "Value" "" (id 1) (at 71.12 149.86 90))
    (property "Footprint" "" (id 2) (at 71.12 145.542 90)
      (effects (font (size 1.27 1.27)) hide)
    )
    (property "Datasheet" "~" (id 3) (at 71.12 147.32 0)
      (effects (font (size 1.27 1.27)) hide)
    )
    (pin "1" (uuid 517c5935-51f5-4194-a9f3-1e1a5a9450fa))
    (pin "2" (uuid 86bc24c6-329c-47a3-b931-7a0cad996dce))
  )

  (symbol (lib_id "synkie_symbols:C_Small") (at 60.96 139.7 0) (unit 1)
    (in_bom yes) (on_board yes)
    (uuid 00000000-0000-0000-0000-00005fef24af)
    (property "Reference" "C?" (id 0) (at 57.15 133.35 0)
      (effects (font (size 1.27 1.27)) (justify left))
    )
    (property "Value" "" (id 1) (at 57.15 135.89 0)
      (effects (font (size 1.27 1.27)) (justify left))
    )
    (property "Footprint" "" (id 2) (at 61.9252 143.51 0)
      (effects (font (size 1.27 1.27)) hide)
    )
    (property "Datasheet" "~" (id 3) (at 60.96 139.7 0)
      (effects (font (size 1.27 1.27)) hide)
    )
    (pin "1" (uuid a6b36c9f-b964-489e-a093-3510930923cc))
    (pin "2" (uuid 8fd872fd-3e21-402c-b674-c02d04aed59a))
  )

  (symbol (lib_id "synkie_symbols:C_Small") (at 100.33 138.43 0) (unit 1)
    (in_bom yes) (on_board yes)
    (uuid 00000000-0000-0000-0000-00005fef24b5)
    (property "Reference" "C?" (id 0) (at 100.33 137.16 0)
      (effects (font (size 1.27 1.27)) (justify left))
    )
    (property "Value" "" (id 1) (at 96.52 140.97 0)
      (effects (font (size 1.27 1.27)) (justify left))
    )
    (property "Footprint" "" (id 2) (at 101.2952 142.24 0)
      (effects (font (size 1.27 1.27)) hide)
    )
    (property "Datasheet" "~" (id 3) (at 100.33 138.43 0)
      (effects (font (size 1.27 1.27)) hide)
    )
    (pin "1" (uuid d6ab2963-6935-4109-8d78-3a64c0bf6236))
    (pin "2" (uuid 3862e6dc-2e6a-4bab-9541-47768de16765))
  )

  (symbol (lib_id "synkie_symbols:GND") (at 60.96 142.24 0) (unit 1)
    (in_bom yes) (on_board yes)
    (uuid 00000000-0000-0000-0000-00005fef24bb)
    (property "Reference" "#PWR?" (id 0) (at 60.96 148.59 0)
      (effects (font (size 1.27 1.27)) hide)
    )
    (property "Value" "" (id 1) (at 61.087 146.6342 0)
      (effects (font (size 1.27 1.27)) hide)
    )
    (property "Footprint" "" (id 2) (at 60.96 142.24 0)
      (effects (font (size 1.27 1.27)) hide)
    )
    (property "Datasheet" "" (id 3) (at 60.96 142.24 0)
      (effects (font (size 1.27 1.27)) hide)
    )
    (pin "1" (uuid 71ae60d0-9891-4404-abcf-51479b68f069))
  )

  (symbol (lib_id "synkie_symbols:GND") (at 100.33 142.24 0) (unit 1)
    (in_bom yes) (on_board yes)
    (uuid 00000000-0000-0000-0000-00005fef24c1)
    (property "Reference" "#PWR?" (id 0) (at 100.33 148.59 0)
      (effects (font (size 1.27 1.27)) hide)
    )
    (property "Value" "" (id 1) (at 100.457 146.6342 0)
      (effects (font (size 1.27 1.27)) hide)
    )
    (property "Footprint" "" (id 2) (at 100.33 142.24 0)
      (effects (font (size 1.27 1.27)) hide)
    )
    (property "Datasheet" "" (id 3) (at 100.33 142.24 0)
      (effects (font (size 1.27 1.27)) hide)
    )
    (pin "1" (uuid 608cb15b-3e44-469b-9cc1-275927e278e8))
  )

  (symbol (lib_id "Device:R_POT_Dual") (at 86.36 154.94 0) (unit 1)
    (in_bom yes) (on_board yes)
    (uuid 00000000-0000-0000-0000-00005fef24c9)
    (property "Reference" "RV?" (id 0) (at 90.17 161.29 0)
      (effects (font (size 1.27 1.27)) (justify right))
    )
    (property "Value" "" (id 1) (at 83.82 161.29 0)
      (effects (font (size 1.27 1.27)) (justify right))
    )
    (property "Footprint" "" (id 2) (at 92.71 156.845 0)
      (effects (font (size 1.27 1.27)) hide)
    )
    (property "Datasheet" "~" (id 3) (at 92.71 156.845 0)
      (effects (font (size 1.27 1.27)) hide)
    )
    (pin "1" (uuid 96e0996a-47aa-4ebf-a288-943ab871828f))
    (pin "2" (uuid 6fb990fe-658f-4da7-80d0-f140565a3e81))
    (pin "3" (uuid 42a58ef8-d2f4-41d6-baf5-56816da1c62a))
    (pin "4" (uuid 1e98d48f-6b68-45dc-9a3f-688540c444f6))
    (pin "5" (uuid beb6559a-de78-4960-98d3-8f53602b1830))
    (pin "6" (uuid 4f7ea4a8-8301-4901-932a-b6880e260ab7))
  )

  (symbol (lib_id "synkie_symbols:GND") (at 194.31 113.03 0) (unit 1)
    (in_bom yes) (on_board yes)
    (uuid 00000000-0000-0000-0000-00005fef24cf)
    (property "Reference" "#PWR?" (id 0) (at 194.31 119.38 0)
      (effects (font (size 1.27 1.27)) hide)
    )
    (property "Value" "" (id 1) (at 194.437 117.4242 0))
    (property "Footprint" "" (id 2) (at 194.31 113.03 0)
      (effects (font (size 1.27 1.27)) hide)
    )
    (property "Datasheet" "" (id 3) (at 194.31 113.03 0)
      (effects (font (size 1.27 1.27)) hide)
    )
    (pin "1" (uuid c0997918-4b97-468c-9079-fc790e31e5c3))
  )

  (symbol (lib_id "synkie_symbols:-5V") (at 196.85 113.03 180) (unit 1)
    (in_bom yes) (on_board yes)
    (uuid 00000000-0000-0000-0000-00005fef24d5)
    (property "Reference" "#PWR?" (id 0) (at 196.85 115.57 0)
      (effects (font (size 1.27 1.27)) hide)
    )
    (property "Value" "" (id 1) (at 196.469 117.4242 0))
    (property "Footprint" "" (id 2) (at 196.85 113.03 0)
      (effects (font (size 1.27 1.27)) hide)
    )
    (property "Datasheet" "" (id 3) (at 196.85 113.03 0)
      (effects (font (size 1.27 1.27)) hide)
    )
    (pin "1" (uuid e021a158-728c-4b77-9d5e-24b1cc82482b))
  )

  (symbol (lib_id "synkie_symbols:+5V") (at 194.31 67.31 0) (unit 1)
    (in_bom yes) (on_board yes)
    (uuid 00000000-0000-0000-0000-00005fef24db)
    (property "Reference" "#PWR?" (id 0) (at 194.31 71.12 0)
      (effects (font (size 1.27 1.27)) hide)
    )
    (property "Value" "" (id 1) (at 194.691 62.9158 0))
    (property "Footprint" "" (id 2) (at 194.31 67.31 0)
      (effects (font (size 1.27 1.27)) hide)
    )
    (property "Datasheet" "" (id 3) (at 194.31 67.31 0)
      (effects (font (size 1.27 1.27)) hide)
    )
    (pin "1" (uuid b0a6fb7c-ab1b-4fb7-9913-d98b537af53d))
  )

  (symbol (lib_id "synkie_symbols:GND") (at 181.61 97.79 270) (unit 1)
    (in_bom yes) (on_board yes)
    (uuid 00000000-0000-0000-0000-00005fef24e1)
    (property "Reference" "#PWR?" (id 0) (at 175.26 97.79 0)
      (effects (font (size 1.27 1.27)) hide)
    )
    (property "Value" "" (id 1) (at 177.2158 97.917 0)
      (effects (font (size 1.27 1.27)) hide)
    )
    (property "Footprint" "" (id 2) (at 181.61 97.79 0)
      (effects (font (size 1.27 1.27)) hide)
    )
    (property "Datasheet" "" (id 3) (at 181.61 97.79 0)
      (effects (font (size 1.27 1.27)) hide)
    )
    (pin "1" (uuid 3925a8ef-dac1-45fc-9489-81bfb9b95c6a))
  )

  (symbol (lib_id "synkie_symbols:Opamp_Dual_Generic") (at 123.19 97.79 0) (unit 2)
    (in_bom yes) (on_board yes)
    (uuid 00000000-0000-0000-0000-00005fef24e7)
    (property "Reference" "U?" (id 0) (at 123.19 88.4682 0))
    (property "Value" "" (id 1) (at 123.19 90.7796 0))
    (property "Footprint" "" (id 2) (at 123.19 97.79 0)
      (effects (font (size 1.27 1.27)) hide)
    )
    (property "Datasheet" "~" (id 3) (at 123.19 97.79 0)
      (effects (font (size 1.27 1.27)) hide)
    )
    (pin "1" (uuid 127c591d-0db7-4f62-b868-42b35bdd3b35))
    (pin "2" (uuid 58aa2d3c-9f87-445b-8b99-8ae14894c0ec))
    (pin "3" (uuid f2a4a698-8517-4c5b-be20-cdf0256af570))
    (pin "5" (uuid f06643c1-9fc7-49c7-8af0-9f731d92ebe7))
    (pin "6" (uuid d1e58ecf-d6dc-4fec-9834-f310d8af5bb6))
    (pin "7" (uuid 699f1292-22f1-48a9-adda-d6413e24f783))
    (pin "4" (uuid 4e73c585-c4cf-429b-a23c-0053acff3386))
    (pin "8" (uuid 42ae51b0-a406-4756-beb8-614183b6025e))
  )

  (symbol (lib_id "synkie_symbols:R") (at 243.84 68.58 0) (unit 1)
    (in_bom yes) (on_board yes)
    (uuid 00000000-0000-0000-0000-00005fef2521)
    (property "Reference" "R?" (id 0) (at 249.0978 68.58 90))
    (property "Value" "" (id 1) (at 246.7864 68.58 90))
    (property "Footprint" "" (id 2) (at 242.062 68.58 90)
      (effects (font (size 1.27 1.27)) hide)
    )
    (property "Datasheet" "~" (id 3) (at 243.84 68.58 0)
      (effects (font (size 1.27 1.27)) hide)
    )
    (pin "1" (uuid 109db71b-62f4-4966-b26b-c26fe054e6e6))
    (pin "2" (uuid 221ae83d-ce4b-4b7b-a1bd-0faa5cebf97e))
  )

  (symbol (lib_id "synkie_symbols:GND") (at 243.84 64.77 180) (unit 1)
    (in_bom yes) (on_board yes)
    (uuid 00000000-0000-0000-0000-00005fef2527)
    (property "Reference" "#PWR?" (id 0) (at 243.84 58.42 0)
      (effects (font (size 1.27 1.27)) hide)
    )
    (property "Value" "" (id 1) (at 243.713 60.3758 0))
    (property "Footprint" "" (id 2) (at 243.84 64.77 0)
      (effects (font (size 1.27 1.27)) hide)
    )
    (property "Datasheet" "" (id 3) (at 243.84 64.77 0)
      (effects (font (size 1.27 1.27)) hide)
    )
    (pin "1" (uuid 3609542e-1083-40d3-8e8e-4eb5f418e3c0))
  )

  (symbol (lib_id "synkie_symbols:R") (at 243.84 76.2 0) (unit 1)
    (in_bom yes) (on_board yes)
    (uuid 00000000-0000-0000-0000-00005fef252d)
    (property "Reference" "R?" (id 0) (at 249.0978 76.2 90))
    (property "Value" "" (id 1) (at 246.7864 76.2 90))
    (property "Footprint" "" (id 2) (at 242.062 76.2 90)
      (effects (font (size 1.27 1.27)) hide)
    )
    (property "Datasheet" "~" (id 3) (at 243.84 76.2 0)
      (effects (font (size 1.27 1.27)) hide)
    )
    (pin "1" (uuid 067c4925-da08-4bce-a655-3213f615493b))
    (pin "2" (uuid b5e69404-ce60-4f9a-87fc-8f420cb91fe0))
  )

  (symbol (lib_id "synkie_symbols:-5V") (at 243.84 80.01 180) (unit 1)
    (in_bom yes) (on_board yes)
    (uuid 00000000-0000-0000-0000-00005fef2533)
    (property "Reference" "#PWR?" (id 0) (at 243.84 82.55 0)
      (effects (font (size 1.27 1.27)) hide)
    )
    (property "Value" "" (id 1) (at 243.459 84.4042 0))
    (property "Footprint" "" (id 2) (at 243.84 80.01 0)
      (effects (font (size 1.27 1.27)) hide)
    )
    (property "Datasheet" "" (id 3) (at 243.84 80.01 0)
      (effects (font (size 1.27 1.27)) hide)
    )
    (pin "1" (uuid bf696a15-9c84-450f-851b-b7383604588d))
  )

  (symbol (lib_id "synkie_symbols:-5V") (at 105.41 68.58 180) (unit 1)
    (in_bom yes) (on_board yes)
    (uuid 00000000-0000-0000-0000-00005fef253f)
    (property "Reference" "#PWR?" (id 0) (at 105.41 71.12 0)
      (effects (font (size 1.27 1.27)) hide)
    )
    (property "Value" "" (id 1) (at 105.41 72.39 0))
    (property "Footprint" "" (id 2) (at 105.41 68.58 0)
      (effects (font (size 1.27 1.27)) hide)
    )
    (property "Datasheet" "" (id 3) (at 105.41 68.58 0)
      (effects (font (size 1.27 1.27)) hide)
    )
    (pin "1" (uuid 03ebeb00-1a5f-42bf-8ce7-d81003f8af45))
  )

  (symbol (lib_id "synkie_symbols:R") (at 87.63 83.82 180) (unit 1)
    (in_bom yes) (on_board yes)
    (uuid 00000000-0000-0000-0000-00005fef254a)
    (property "Reference" "R?" (id 0) (at 89.408 82.6516 0)
      (effects (font (size 1.27 1.27)) (justify right))
    )
    (property "Value" "" (id 1) (at 89.408 84.963 0)
      (effects (font (size 1.27 1.27)) (justify right))
    )
    (property "Footprint" "" (id 2) (at 89.408 83.82 90)
      (effects (font (size 1.27 1.27)) hide)
    )
    (property "Datasheet" "~" (id 3) (at 87.63 83.82 0)
      (effects (font (size 1.27 1.27)) hide)
    )
    (pin "1" (uuid edcb5997-6bc9-4ea2-977d-60a7bf4d83c2))
    (pin "2" (uuid f5bc825d-4ea2-4768-b5a7-e8185d7c45b9))
  )

  (symbol (lib_id "synkie_symbols:-5V") (at 87.63 87.63 180) (unit 1)
    (in_bom yes) (on_board yes)
    (uuid 00000000-0000-0000-0000-00005fef2551)
    (property "Reference" "#PWR?" (id 0) (at 87.63 90.17 0)
      (effects (font (size 1.27 1.27)) hide)
    )
    (property "Value" "" (id 1) (at 87.63 91.44 0))
    (property "Footprint" "" (id 2) (at 87.63 87.63 0)
      (effects (font (size 1.27 1.27)) hide)
    )
    (property "Datasheet" "" (id 3) (at 87.63 87.63 0)
      (effects (font (size 1.27 1.27)) hide)
    )
    (pin "1" (uuid 8612b84d-1ced-469a-969a-410415824355))
  )

  (symbol (lib_id "synkie_symbols:GND") (at 81.28 77.47 0) (unit 1)
    (in_bom yes) (on_board yes)
    (uuid 00000000-0000-0000-0000-00005fef2557)
    (property "Reference" "#PWR?" (id 0) (at 81.28 83.82 0)
      (effects (font (size 1.27 1.27)) hide)
    )
    (property "Value" "" (id 1) (at 81.407 81.8642 0)
      (effects (font (size 1.27 1.27)) hide)
    )
    (property "Footprint" "" (id 2) (at 81.28 77.47 0)
      (effects (font (size 1.27 1.27)) hide)
    )
    (property "Datasheet" "" (id 3) (at 81.28 77.47 0)
      (effects (font (size 1.27 1.27)) hide)
    )
    (pin "1" (uuid 0de2bef3-9424-41d8-942f-93b4f3079ae5))
  )

  (symbol (lib_id "synkie_symbols:+5V") (at 81.28 60.96 0) (unit 1)
    (in_bom yes) (on_board yes)
    (uuid 00000000-0000-0000-0000-00005fef255d)
    (property "Reference" "#PWR?" (id 0) (at 81.28 64.77 0)
      (effects (font (size 1.27 1.27)) hide)
    )
    (property "Value" "" (id 1) (at 81.28 57.15 0))
    (property "Footprint" "" (id 2) (at 81.28 60.96 0)
      (effects (font (size 1.27 1.27)) hide)
    )
    (property "Datasheet" "" (id 3) (at 81.28 60.96 0)
      (effects (font (size 1.27 1.27)) hide)
    )
    (pin "1" (uuid 964f7e2a-dabd-4cb1-831c-da39b8429c50))
  )

  (symbol (lib_id "synkie_symbols:R") (at 81.28 64.77 180) (unit 1)
    (in_bom yes) (on_board yes)
    (uuid 00000000-0000-0000-0000-00005fef2563)
    (property "Reference" "R?" (id 0) (at 83.058 63.6016 0)
      (effects (font (size 1.27 1.27)) (justify right))
    )
    (property "Value" "" (id 1) (at 83.058 65.913 0)
      (effects (font (size 1.27 1.27)) (justify right))
    )
    (property "Footprint" "" (id 2) (at 83.058 64.77 90)
      (effects (font (size 1.27 1.27)) hide)
    )
    (property "Datasheet" "~" (id 3) (at 81.28 64.77 0)
      (effects (font (size 1.27 1.27)) hide)
    )
    (pin "1" (uuid a580030d-3dff-4816-bd41-4e0a83559424))
    (pin "2" (uuid 0dc7e8dc-d373-4344-8471-49b0ac457e22))
  )

  (symbol (lib_id "synkie_symbols:D") (at 81.28 73.66 90) (unit 1)
    (in_bom yes) (on_board yes)
    (uuid 00000000-0000-0000-0000-00005fef2569)
    (property "Reference" "D?" (id 0) (at 83.312 72.4916 90)
      (effects (font (size 1.27 1.27)) (justify right))
    )
    (property "Value" "" (id 1) (at 83.312 74.803 90)
      (effects (font (size 1.27 1.27)) (justify right))
    )
    (property "Footprint" "" (id 2) (at 81.28 73.66 0)
      (effects (font (size 1.27 1.27)) hide)
    )
    (property "Datasheet" "~" (id 3) (at 81.28 73.66 0)
      (effects (font (size 1.27 1.27)) hide)
    )
    (pin "1" (uuid b0e767f2-d50e-45fa-a043-03ee3562e223))
    (pin "2" (uuid 426559ac-df1a-47bd-8757-fd461a7fb2ff))
  )

  (symbol (lib_id "synkie_symbols:PMBT3906YS") (at 88.9 73.66 180) (unit 1)
    (in_bom yes) (on_board yes)
    (uuid 00000000-0000-0000-0000-00005fef256f)
    (property "Reference" "Q?" (id 0) (at 93.98 69.85 0)
      (effects (font (size 1.27 1.27)) (justify left))
    )
    (property "Value" "" (id 1) (at 85.3948 74.803 0)
      (effects (font (size 1.27 1.27)) (justify left) hide)
    )
    (property "Footprint" "" (id 2) (at 91.44 74.295 0)
      (effects (font (size 1.27 1.27)) hide)
    )
    (property "Datasheet" "" (id 3) (at 91.44 74.295 0)
      (effects (font (size 1.27 1.27)) hide)
    )
    (pin "1" (uuid fae8b949-f43d-4780-829d-7db94422b7d2))
    (pin "2" (uuid e9f7cf70-8480-4203-b437-88d3b7e55c5a))
    (pin "6" (uuid f2487a1a-aaeb-4fee-9de5-2d6ef16b59ce))
    (pin "3" (uuid 8e462b8e-d37d-4d30-8d44-46cb4f7b3fd5))
    (pin "4" (uuid 9549893c-84bd-4916-8439-dea2a08d04de))
    (pin "5" (uuid a36ba7fc-236d-48f0-86c8-92c85d182415))
  )

  (symbol (lib_id "synkie_symbols:PMBT3906YS") (at 100.33 73.66 0) (unit 2)
    (in_bom yes) (on_board yes)
    (uuid 00000000-0000-0000-0000-00005fef2575)
    (property "Reference" "Q?" (id 0) (at 95.25 69.85 0)
      (effects (font (size 1.27 1.27)) (justify left))
    )
    (property "Value" "" (id 1) (at 104.14 78.74 0)
      (effects (font (size 1.27 1.27)) (justify left))
    )
    (property "Footprint" "" (id 2) (at 97.79 73.025 0)
      (effects (font (size 1.27 1.27)) hide)
    )
    (property "Datasheet" "" (id 3) (at 97.79 73.025 0)
      (effects (font (size 1.27 1.27)) hide)
    )
    (pin "1" (uuid 5e83de6f-d15c-46dd-9674-af376b3be11d))
    (pin "2" (uuid 025cdd95-c5ec-46ed-aeeb-7778a85f39f2))
    (pin "6" (uuid 2f1515da-d4bd-4cb6-a6a8-5138eefdd48d))
    (pin "3" (uuid 282927a1-2e13-4048-889d-b77acfb0880c))
    (pin "4" (uuid df3618ed-50d3-4863-9208-ee380341c922))
    (pin "5" (uuid a629829c-4635-4918-a0bb-0fe7d0cf6afd))
  )

  (symbol (lib_id "synkie_symbols:GND") (at 101.6 121.92 0) (unit 1)
    (in_bom yes) (on_board yes)
    (uuid 00000000-0000-0000-0000-00005fef257b)
    (property "Reference" "#PWR?" (id 0) (at 101.6 128.27 0)
      (effects (font (size 1.27 1.27)) hide)
    )
    (property "Value" "" (id 1) (at 101.727 126.3142 0))
    (property "Footprint" "" (id 2) (at 101.6 121.92 0)
      (effects (font (size 1.27 1.27)) hide)
    )
    (property "Datasheet" "" (id 3) (at 101.6 121.92 0)
      (effects (font (size 1.27 1.27)) hide)
    )
    (pin "1" (uuid 71de0d02-0888-4b6a-b86c-835eb86b1e06))
  )

  (symbol (lib_id "synkie_symbols:+5V") (at 101.6 101.6 0) (unit 1)
    (in_bom yes) (on_board yes)
    (uuid 00000000-0000-0000-0000-00005fef2581)
    (property "Reference" "#PWR?" (id 0) (at 101.6 105.41 0)
      (effects (font (size 1.27 1.27)) hide)
    )
    (property "Value" "" (id 1) (at 101.6 97.79 0))
    (property "Footprint" "" (id 2) (at 101.6 101.6 0)
      (effects (font (size 1.27 1.27)) hide)
    )
    (property "Datasheet" "" (id 3) (at 101.6 101.6 0)
      (effects (font (size 1.27 1.27)) hide)
    )
    (pin "1" (uuid 76a7f044-0146-482a-8976-ba82aac9c5a2))
  )

  (symbol (lib_id "synkie_symbols:R") (at 83.82 95.25 270) (unit 1)
    (in_bom yes) (on_board yes)
    (uuid 00000000-0000-0000-0000-00005fef2587)
    (property "Reference" "R?" (id 0) (at 83.82 89.9922 90))
    (property "Value" "" (id 1) (at 83.82 92.3036 90))
    (property "Footprint" "" (id 2) (at 83.82 93.472 90)
      (effects (font (size 1.27 1.27)) hide)
    )
    (property "Datasheet" "~" (id 3) (at 83.82 95.25 0)
      (effects (font (size 1.27 1.27)) hide)
    )
    (pin "1" (uuid c848d8db-d038-4fcb-93a1-8ab48cd92367))
    (pin "2" (uuid 6afd3ca0-2ed0-49ce-948a-086db75d14a0))
  )

  (symbol (lib_id "synkie_symbols:R") (at 101.6 105.41 0) (unit 1)
    (in_bom yes) (on_board yes)
    (uuid 00000000-0000-0000-0000-00005fef258d)
    (property "Reference" "R?" (id 0) (at 103.378 104.2416 0)
      (effects (font (size 1.27 1.27)) (justify left))
    )
    (property "Value" "" (id 1) (at 103.378 106.553 0)
      (effects (font (size 1.27 1.27)) (justify left))
    )
    (property "Footprint" "" (id 2) (at 99.822 105.41 90)
      (effects (font (size 1.27 1.27)) hide)
    )
    (property "Datasheet" "~" (id 3) (at 101.6 105.41 0)
      (effects (font (size 1.27 1.27)) hide)
    )
    (pin "1" (uuid 58a3361c-00e4-4d3a-83ef-5abab0e8bbe8))
    (pin "2" (uuid 0338a205-35ae-48fe-a655-58cf8a1ef94e))
  )

  (symbol (lib_id "synkie_symbols:+5V") (at 83.82 116.84 0) (unit 1)
    (in_bom yes) (on_board yes)
    (uuid 00000000-0000-0000-0000-00005fef2593)
    (property "Reference" "#PWR?" (id 0) (at 83.82 120.65 0)
      (effects (font (size 1.27 1.27)) hide)
    )
    (property "Value" "" (id 1) (at 83.82 113.03 0))
    (property "Footprint" "" (id 2) (at 83.82 116.84 0)
      (effects (font (size 1.27 1.27)) hide)
    )
    (property "Datasheet" "" (id 3) (at 83.82 116.84 0)
      (effects (font (size 1.27 1.27)) hide)
    )
    (pin "1" (uuid 87f910dc-7a65-411e-ab82-ed8dd25758bd))
  )

  (symbol (lib_id "synkie_symbols:PEMX1") (at 100.33 114.3 0) (unit 2)
    (in_bom yes) (on_board yes)
    (uuid 00000000-0000-0000-0000-00005fef2599)
    (property "Reference" "Q?" (id 0) (at 95.25 110.49 0)
      (effects (font (size 1.27 1.27)) (justify left))
    )
    (property "Value" "" (id 1) (at 101.6 114.3 0)
      (effects (font (size 1.27 1.27)) (justify left))
    )
    (property "Footprint" "" (id 2) (at 97.79 113.665 0)
      (effects (font (size 1.27 1.27)) hide)
    )
    (property "Datasheet" "" (id 3) (at 97.79 113.665 0)
      (effects (font (size 1.27 1.27)) hide)
    )
    (pin "1" (uuid 5b346d11-35c4-4749-9433-02d6447521e9))
    (pin "2" (uuid 071f39fa-b93e-47b7-b7b4-1497cf59ffff))
    (pin "6" (uuid 22299197-8029-40f5-915f-3094ea3c3317))
    (pin "3" (uuid 7cccbfb0-35d7-412b-8247-25e45bc1b7e7))
    (pin "4" (uuid fec8b33c-1a2c-4600-a72f-34dc74101b84))
    (pin "5" (uuid 008bf9f3-d57f-4f3f-a019-2e1f922a1b75))
  )

  (symbol (lib_id "synkie_symbols:PEMX1") (at 88.9 114.3 180) (unit 1)
    (in_bom yes) (on_board yes)
    (uuid 00000000-0000-0000-0000-00005fef259f)
    (property "Reference" "Q?" (id 0) (at 93.98 110.49 0)
      (effects (font (size 1.27 1.27)) (justify left))
    )
    (property "Value" "" (id 1) (at 85.3948 115.443 0)
      (effects (font (size 1.27 1.27)) (justify left) hide)
    )
    (property "Footprint" "" (id 2) (at 91.44 114.935 0)
      (effects (font (size 1.27 1.27)) hide)
    )
    (property "Datasheet" "" (id 3) (at 91.44 114.935 0)
      (effects (font (size 1.27 1.27)) hide)
    )
    (pin "1" (uuid 741fab1f-cde2-474e-9e02-15fded3e38f5))
    (pin "2" (uuid e4a6f726-36a7-46f4-ba44-217d92ab0296))
    (pin "6" (uuid 2227dcb9-1b8b-4d34-b8c4-c7df523b7c54))
    (pin "3" (uuid 7bd6c32c-f008-4822-b4f8-af4663e8ccb7))
    (pin "4" (uuid 014a9a3f-8219-4806-bdbd-0f32c69c16e7))
    (pin "5" (uuid 61e5f5f5-d638-4eb3-b518-de1a993cfaa2))
  )

  (symbol (lib_id "synkie_symbols:Opamp_Dual_Generic") (at 72.39 95.25 0) (unit 1)
    (in_bom yes) (on_board yes)
    (uuid 00000000-0000-0000-0000-00005fef25a7)
    (property "Reference" "U?" (id 0) (at 76.2 99.06 0))
    (property "Value" "" (id 1) (at 74.93 101.6 0))
    (property "Footprint" "" (id 2) (at 72.39 95.25 0)
      (effects (font (size 1.27 1.27)) hide)
    )
    (property "Datasheet" "~" (id 3) (at 72.39 95.25 0)
      (effects (font (size 1.27 1.27)) hide)
    )
    (pin "1" (uuid 9f12acea-7e2a-40f1-9528-3fb8e92f02de))
    (pin "2" (uuid 135d42e7-68df-4b57-b85d-22500875612c))
    (pin "3" (uuid 7d9c46f3-d7fb-47ed-a475-d259881ceffb))
    (pin "5" (uuid 16dcbf71-ab0f-4ab3-be05-fdef0a42a90c))
    (pin "6" (uuid e9fd36cc-f870-4837-8e0c-5aae5a1b7c0f))
    (pin "7" (uuid 2aa28437-da13-49d0-b3ef-1e32aece2ed2))
    (pin "4" (uuid b2bbd843-ae11-4dd8-bbcc-36878ee16b82))
    (pin "8" (uuid ca14b4e0-9da1-4c25-bcf2-64fba28c2aee))
  )

  (symbol (lib_id "synkie_symbols:R") (at 55.88 147.32 270) (unit 1)
    (in_bom yes) (on_board yes)
    (uuid 00000000-0000-0000-0000-00005fef25c3)
    (property "Reference" "R?" (id 0) (at 55.88 147.32 90))
    (property "Value" "" (id 1) (at 55.88 149.86 90))
    (property "Footprint" "" (id 2) (at 55.88 145.542 90)
      (effects (font (size 1.27 1.27)) hide)
    )
    (property "Datasheet" "~" (id 3) (at 55.88 147.32 0)
      (effects (font (size 1.27 1.27)) hide)
    )
    (pin "1" (uuid 37e24b65-62c8-4030-bef4-b6f152e26d77))
    (pin "2" (uuid 5c0709c6-fa7b-425f-83dc-985f6292cac0))
  )

  (symbol (lib_id "synkie_symbols:R") (at 114.3 147.32 270) (unit 1)
    (in_bom yes) (on_board yes)
    (uuid 00000000-0000-0000-0000-00005fef25e7)
    (property "Reference" "R?" (id 0) (at 114.3 147.32 90))
    (property "Value" "" (id 1) (at 114.3 149.86 90))
    (property "Footprint" "" (id 2) (at 114.3 145.542 90)
      (effects (font (size 1.27 1.27)) hide)
    )
    (property "Datasheet" "~" (id 3) (at 114.3 147.32 0)
      (effects (font (size 1.27 1.27)) hide)
    )
    (pin "1" (uuid 14145b49-ae7c-45c0-ac72-7ca9b7f3c00d))
    (pin "2" (uuid 2d99672a-7b54-47f9-b2d9-ae9840c061ad))
  )

  (symbol (lib_id "synkie_symbols:R") (at 101.6 147.32 270) (unit 1)
    (in_bom yes) (on_board yes)
    (uuid 00000000-0000-0000-0000-00005fef25ed)
    (property "Reference" "R?" (id 0) (at 101.6 147.32 90))
    (property "Value" "" (id 1) (at 101.6 149.86 90))
    (property "Footprint" "" (id 2) (at 101.6 145.542 90)
      (effects (font (size 1.27 1.27)) hide)
    )
    (property "Datasheet" "~" (id 3) (at 101.6 147.32 0)
      (effects (font (size 1.27 1.27)) hide)
    )
    (pin "1" (uuid 763bbb42-ce36-4639-bc27-bde7ad4ec3ed))
    (pin "2" (uuid cf52ccca-3590-4142-8475-4b76ccfb6429))
  )

  (symbol (lib_id "synkie_symbols:R") (at 210.82 90.17 270) (unit 1)
    (in_bom yes) (on_board yes)
    (uuid 00000000-0000-0000-0000-00005fef2634)
    (property "Reference" "R?" (id 0) (at 210.82 84.9122 90))
    (property "Value" "" (id 1) (at 210.82 87.2236 90))
    (property "Footprint" "" (id 2) (at 210.82 88.392 90)
      (effects (font (size 1.27 1.27)) hide)
    )
    (property "Datasheet" "~" (id 3) (at 210.82 90.17 0)
      (effects (font (size 1.27 1.27)) hide)
    )
    (pin "1" (uuid f2228272-90ce-4713-b248-85601fbf1b3f))
    (pin "2" (uuid 0de135b5-3e36-474e-90a1-1d4ac6b48097))
  )

  (symbol (lib_id "synkie_symbols:C_Small") (at 214.63 92.71 0) (unit 1)
    (in_bom yes) (on_board yes)
    (uuid 00000000-0000-0000-0000-00005fef263a)
    (property "Reference" "C?" (id 0) (at 217.17 92.71 0)
      (effects (font (size 1.27 1.27)) (justify left))
    )
    (property "Value" "" (id 1) (at 208.28 95.25 0)
      (effects (font (size 1.27 1.27)) (justify left))
    )
    (property "Footprint" "" (id 2) (at 215.5952 96.52 0)
      (effects (font (size 1.27 1.27)) hide)
    )
    (property "Datasheet" "~" (id 3) (at 214.63 92.71 0)
      (effects (font (size 1.27 1.27)) hide)
    )
    (pin "1" (uuid f634e481-acf6-4e12-8fe1-ef99863719f7))
    (pin "2" (uuid 2c361645-512c-482b-99e6-ba485a1c3eeb))
  )

  (symbol (lib_id "synkie_symbols:GND") (at 214.63 95.25 0) (unit 1)
    (in_bom yes) (on_board yes)
    (uuid 00000000-0000-0000-0000-00005fef2640)
    (property "Reference" "#PWR?" (id 0) (at 214.63 101.6 0)
      (effects (font (size 1.27 1.27)) hide)
    )
    (property "Value" "" (id 1) (at 214.757 99.6442 0))
    (property "Footprint" "" (id 2) (at 214.63 95.25 0)
      (effects (font (size 1.27 1.27)) hide)
    )
    (property "Datasheet" "" (id 3) (at 214.63 95.25 0)
      (effects (font (size 1.27 1.27)) hide)
    )
    (pin "1" (uuid 755e8dc4-6b2f-458e-9b8e-c31436ffa0c5))
  )

  (symbol (lib_id "synkie_symbols:D") (at 95.25 118.11 270) (unit 1)
    (in_bom yes) (on_board yes)
    (uuid 00000000-0000-0000-0000-00005fef2648)
    (property "Reference" "D?" (id 0) (at 91.44 120.65 90)
      (effects (font (size 1.27 1.27)) (justify left))
    )
    (property "Value" "" (id 1) (at 88.9 123.19 90)
      (effects (font (size 1.27 1.27)) (justify left))
    )
    (property "Footprint" "" (id 2) (at 95.25 118.11 0)
      (effects (font (size 1.27 1.27)) hide)
    )
    (property "Datasheet" "~" (id 3) (at 95.25 118.11 0)
      (effects (font (size 1.27 1.27)) hide)
    )
    (pin "1" (uuid ce8b937d-8faa-4f2e-984e-76aae5d49d43))
    (pin "2" (uuid 4f11d2ae-7a01-448d-a4fd-0c72cf8cd420))
  )

  (symbol (lib_id "synkie_symbols:Opamp_Dual_Generic") (at 54.61 181.61 0) (unit 3)
    (in_bom yes) (on_board yes)
    (uuid 00000000-0000-0000-0000-00005fefec12)
    (property "Reference" "U?" (id 0) (at 54.61 175.26 0)
      (effects (font (size 1.27 1.27)) (justify left))
    )
    (property "Value" "" (id 1) (at 54.61 177.8 0)
      (effects (font (size 1.27 1.27)) (justify left))
    )
    (property "Footprint" "" (id 2) (at 54.61 181.61 0)
      (effects (font (size 1.27 1.27)) hide)
    )
    (property "Datasheet" "~" (id 3) (at 54.61 181.61 0)
      (effects (font (size 1.27 1.27)) hide)
    )
    (pin "1" (uuid 60330e06-a31f-4263-a188-511bfa782020))
    (pin "2" (uuid 98f01e19-beb9-4d14-84ba-66238c5375e1))
    (pin "3" (uuid 6a684b66-0bfb-4eec-93cd-cc5d07c35047))
    (pin "5" (uuid 02bea34e-f900-44be-92a0-d546a5060253))
    (pin "6" (uuid 6e84e845-1fa6-45c7-9ffe-9c568abe3070))
    (pin "7" (uuid 6e7a183b-c830-4b10-ae62-3dd416f8e02b))
    (pin "4" (uuid 510ad7c1-1cb5-4786-9824-aa95d5e3afb3))
    (pin "8" (uuid 94d140ee-8282-4dc9-8f1a-add1edb699a4))
  )

  (symbol (lib_id "synkie_symbols:GND") (at 46.99 181.61 270) (unit 1)
    (in_bom yes) (on_board yes)
    (uuid 00000000-0000-0000-0000-00005fefec1b)
    (property "Reference" "#PWR?" (id 0) (at 40.64 181.61 0)
      (effects (font (size 1.27 1.27)) hide)
    )
    (property "Value" "" (id 1) (at 42.5958 181.737 0)
      (effects (font (size 1.27 1.27)) hide)
    )
    (property "Footprint" "" (id 2) (at 46.99 181.61 0)
      (effects (font (size 1.27 1.27)) hide)
    )
    (property "Datasheet" "" (id 3) (at 46.99 181.61 0)
      (effects (font (size 1.27 1.27)) hide)
    )
    (pin "1" (uuid 8e0ad9c7-5a73-4932-8d65-8d52405c308b))
  )

  (symbol (lib_id "synkie_symbols:+5V") (at 49.53 173.99 0) (unit 1)
    (in_bom yes) (on_board yes)
    (uuid 00000000-0000-0000-0000-00005fefec24)
    (property "Reference" "#PWR?" (id 0) (at 49.53 177.8 0)
      (effects (font (size 1.27 1.27)) hide)
    )
    (property "Value" "" (id 1) (at 49.53 170.18 0))
    (property "Footprint" "" (id 2) (at 49.53 173.99 0)
      (effects (font (size 1.27 1.27)) hide)
    )
    (property "Datasheet" "" (id 3) (at 49.53 173.99 0)
      (effects (font (size 1.27 1.27)) hide)
    )
    (pin "1" (uuid ad1ab9be-ab04-4e8f-856a-5531c17f5326))
  )

  (symbol (lib_id "synkie_symbols:-5V") (at 49.53 189.23 180) (unit 1)
    (in_bom yes) (on_board yes)
    (uuid 00000000-0000-0000-0000-00005fefec2d)
    (property "Reference" "#PWR?" (id 0) (at 49.53 191.77 0)
      (effects (font (size 1.27 1.27)) hide)
    )
    (property "Value" "" (id 1) (at 49.53 193.04 0))
    (property "Footprint" "" (id 2) (at 49.53 189.23 0)
      (effects (font (size 1.27 1.27)) hide)
    )
    (property "Datasheet" "" (id 3) (at 49.53 189.23 0)
      (effects (font (size 1.27 1.27)) hide)
    )
    (pin "1" (uuid 9d0c1229-6e8d-4117-8ebe-46c759d2e4e2))
  )

  (symbol (lib_id "synkie_symbols:C_Small") (at 46.99 186.69 180) (unit 1)
    (in_bom yes) (on_board yes)
    (uuid 00000000-0000-0000-0000-00005fefec33)
    (property "Reference" "C?" (id 0) (at 44.45 186.69 90))
    (property "Value" "" (id 1) (at 50.4952 186.69 90)
      (effects (font (size 1.27 1.27)) hide)
    )
    (property "Footprint" "" (id 2) (at 46.99 186.69 0)
      (effects (font (size 1.27 1.27)) hide)
    )
    (property "Datasheet" "~" (id 3) (at 46.99 186.69 0)
      (effects (font (size 1.27 1.27)) hide)
    )
    (pin "1" (uuid 8e20cb6f-fe19-4a44-a0a6-3c5e32797009))
    (pin "2" (uuid d10c5232-4237-4c2a-895a-1f55828f1482))
  )

  (symbol (lib_id "synkie_symbols:C_Small") (at 46.99 176.53 180) (unit 1)
    (in_bom yes) (on_board yes)
    (uuid 00000000-0000-0000-0000-00005fefec39)
    (property "Reference" "C?" (id 0) (at 44.45 176.53 90))
    (property "Value" "" (id 1) (at 50.4952 176.53 90)
      (effects (font (size 1.27 1.27)) hide)
    )
    (property "Footprint" "" (id 2) (at 46.99 176.53 0)
      (effects (font (size 1.27 1.27)) hide)
    )
    (property "Datasheet" "~" (id 3) (at 46.99 176.53 0)
      (effects (font (size 1.27 1.27)) hide)
    )
    (pin "1" (uuid 8a6271e4-b2f8-4d3a-a7a8-af6d5cd16a55))
    (pin "2" (uuid 4bf9e631-bbf0-4251-b37e-55448f6756bf))
  )

  (symbol (lib_id "synkie_symbols:GND") (at 138.43 181.61 270) (unit 1)
    (in_bom yes) (on_board yes)
    (uuid 00000000-0000-0000-0000-00005fefec42)
    (property "Reference" "#PWR?" (id 0) (at 132.08 181.61 0)
      (effects (font (size 1.27 1.27)) hide)
    )
    (property "Value" "" (id 1) (at 134.0358 181.737 0)
      (effects (font (size 1.27 1.27)) hide)
    )
    (property "Footprint" "" (id 2) (at 138.43 181.61 0)
      (effects (font (size 1.27 1.27)) hide)
    )
    (property "Datasheet" "" (id 3) (at 138.43 181.61 0)
      (effects (font (size 1.27 1.27)) hide)
    )
    (pin "1" (uuid 0af6405d-36c8-4205-b267-bf1bbe25df57))
  )

  (symbol (lib_id "synkie_symbols:C_Small") (at 138.43 186.69 180) (unit 1)
    (in_bom yes) (on_board yes)
    (uuid 00000000-0000-0000-0000-00005fefec48)
    (property "Reference" "C?" (id 0) (at 135.89 186.69 90))
    (property "Value" "" (id 1) (at 141.9352 186.69 90)
      (effects (font (size 1.27 1.27)) hide)
    )
    (property "Footprint" "" (id 2) (at 138.43 186.69 0)
      (effects (font (size 1.27 1.27)) hide)
    )
    (property "Datasheet" "~" (id 3) (at 138.43 186.69 0)
      (effects (font (size 1.27 1.27)) hide)
    )
    (pin "1" (uuid 08f03d48-5d1d-4097-9d61-3170add7380c))
    (pin "2" (uuid 0c8b3767-0a26-4908-ac8c-0fec22079f05))
  )

  (symbol (lib_id "synkie_symbols:C_Small") (at 138.43 176.53 180) (unit 1)
    (in_bom yes) (on_board yes)
    (uuid 00000000-0000-0000-0000-00005fefec4e)
    (property "Reference" "C?" (id 0) (at 135.89 176.53 90))
    (property "Value" "" (id 1) (at 141.9352 176.53 90)
      (effects (font (size 1.27 1.27)) hide)
    )
    (property "Footprint" "" (id 2) (at 138.43 176.53 0)
      (effects (font (size 1.27 1.27)) hide)
    )
    (property "Datasheet" "~" (id 3) (at 138.43 176.53 0)
      (effects (font (size 1.27 1.27)) hide)
    )
    (pin "1" (uuid f88acd13-7fd1-4d36-92b3-526b6221ca2e))
    (pin "2" (uuid b31ebd17-263d-401b-8d2a-e11c1231e65f))
  )

  (symbol (lib_id "synkie_symbols:+5V") (at 138.43 173.99 0) (unit 1)
    (in_bom yes) (on_board yes)
    (uuid 00000000-0000-0000-0000-00005fefec54)
    (property "Reference" "#PWR?" (id 0) (at 138.43 177.8 0)
      (effects (font (size 1.27 1.27)) hide)
    )
    (property "Value" "" (id 1) (at 138.43 170.18 0))
    (property "Footprint" "" (id 2) (at 138.43 173.99 0)
      (effects (font (size 1.27 1.27)) hide)
    )
    (property "Datasheet" "" (id 3) (at 138.43 173.99 0)
      (effects (font (size 1.27 1.27)) hide)
    )
    (pin "1" (uuid 31f60579-87d1-4ffa-906a-f03d380d10b7))
  )

  (symbol (lib_id "synkie_symbols:-5V") (at 138.43 189.23 180) (unit 1)
    (in_bom yes) (on_board yes)
    (uuid 00000000-0000-0000-0000-00005fefec5a)
    (property "Reference" "#PWR?" (id 0) (at 138.43 191.77 0)
      (effects (font (size 1.27 1.27)) hide)
    )
    (property "Value" "" (id 1) (at 138.43 193.04 0))
    (property "Footprint" "" (id 2) (at 138.43 189.23 0)
      (effects (font (size 1.27 1.27)) hide)
    )
    (property "Datasheet" "" (id 3) (at 138.43 189.23 0)
      (effects (font (size 1.27 1.27)) hide)
    )
    (pin "1" (uuid a642193c-7898-45b2-9beb-cecbf18f8319))
  )

  (symbol (lib_id "synkie_symbols:Opamp_Dual_Generic") (at 154.94 181.61 0) (unit 3)
    (in_bom yes) (on_board yes)
    (uuid 00000000-0000-0000-0000-00005fefec60)
    (property "Reference" "U?" (id 0) (at 154.94 172.2882 0))
    (property "Value" "" (id 1) (at 154.94 174.5996 0))
    (property "Footprint" "" (id 2) (at 154.94 181.61 0)
      (effects (font (size 1.27 1.27)) hide)
    )
    (property "Datasheet" "~" (id 3) (at 154.94 181.61 0)
      (effects (font (size 1.27 1.27)) hide)
    )
    (pin "1" (uuid 5be98e4e-f178-4c54-814f-b2b426919d7d))
    (pin "2" (uuid d072f22d-c9db-4baf-8717-6933222b4209))
    (pin "3" (uuid 1bf738d6-7d5c-404d-895a-a2a1643a3495))
    (pin "5" (uuid b3986963-6e07-4e92-b966-6595ef5e1bfa))
    (pin "6" (uuid 2459e140-0462-437e-95aa-77ba1a2adf15))
    (pin "7" (uuid 99d8b21d-265b-4bcc-9a16-816cb7b8dee7))
    (pin "4" (uuid 5d94d76f-cb39-496a-bb80-d7bffdc67a41))
    (pin "8" (uuid d97a2ced-313f-4e17-85e5-2b165e2bbab7))
  )

  (symbol (lib_id "synkie_symbols:GND") (at 149.86 181.61 270) (unit 1)
    (in_bom yes) (on_board yes)
    (uuid 00000000-0000-0000-0000-00005fefec69)
    (property "Reference" "#PWR?" (id 0) (at 143.51 181.61 0)
      (effects (font (size 1.27 1.27)) hide)
    )
    (property "Value" "" (id 1) (at 145.4658 181.737 0)
      (effects (font (size 1.27 1.27)) hide)
    )
    (property "Footprint" "" (id 2) (at 149.86 181.61 0)
      (effects (font (size 1.27 1.27)) hide)
    )
    (property "Datasheet" "" (id 3) (at 149.86 181.61 0)
      (effects (font (size 1.27 1.27)) hide)
    )
    (pin "1" (uuid b44f3367-92ff-41da-96f7-1a7603b07f5d))
  )

  (symbol (lib_id "synkie_symbols:+5V") (at 152.4 173.99 0) (unit 1)
    (in_bom yes) (on_board yes)
    (uuid 00000000-0000-0000-0000-00005fefec72)
    (property "Reference" "#PWR?" (id 0) (at 152.4 177.8 0)
      (effects (font (size 1.27 1.27)) hide)
    )
    (property "Value" "" (id 1) (at 152.4 170.18 0))
    (property "Footprint" "" (id 2) (at 152.4 173.99 0)
      (effects (font (size 1.27 1.27)) hide)
    )
    (property "Datasheet" "" (id 3) (at 152.4 173.99 0)
      (effects (font (size 1.27 1.27)) hide)
    )
    (pin "1" (uuid c25cacb2-18a1-4e75-8415-fd1cc4e04b92))
  )

  (symbol (lib_id "synkie_symbols:-5V") (at 152.4 189.23 180) (unit 1)
    (in_bom yes) (on_board yes)
    (uuid 00000000-0000-0000-0000-00005fefec7b)
    (property "Reference" "#PWR?" (id 0) (at 152.4 191.77 0)
      (effects (font (size 1.27 1.27)) hide)
    )
    (property "Value" "" (id 1) (at 152.4 193.04 0))
    (property "Footprint" "" (id 2) (at 152.4 189.23 0)
      (effects (font (size 1.27 1.27)) hide)
    )
    (property "Datasheet" "" (id 3) (at 152.4 189.23 0)
      (effects (font (size 1.27 1.27)) hide)
    )
    (pin "1" (uuid e97caf71-113a-4dcd-87b4-c72eb16fd14c))
  )

  (symbol (lib_id "synkie_symbols:C_Small") (at 149.86 186.69 180) (unit 1)
    (in_bom yes) (on_board yes)
    (uuid 00000000-0000-0000-0000-00005fefec81)
    (property "Reference" "C?" (id 0) (at 147.32 186.69 90))
    (property "Value" "" (id 1) (at 153.3652 186.69 90)
      (effects (font (size 1.27 1.27)) hide)
    )
    (property "Footprint" "" (id 2) (at 149.86 186.69 0)
      (effects (font (size 1.27 1.27)) hide)
    )
    (property "Datasheet" "~" (id 3) (at 149.86 186.69 0)
      (effects (font (size 1.27 1.27)) hide)
    )
    (pin "1" (uuid c0542793-1b1d-461e-8db2-dd298ff05cd0))
    (pin "2" (uuid 0d490a03-3c94-48a1-b3b7-e5df239f39a4))
  )

  (symbol (lib_id "synkie_symbols:C_Small") (at 149.86 176.53 180) (unit 1)
    (in_bom yes) (on_board yes)
    (uuid 00000000-0000-0000-0000-00005fefec87)
    (property "Reference" "C?" (id 0) (at 147.32 176.53 90))
    (property "Value" "" (id 1) (at 153.3652 176.53 90)
      (effects (font (size 1.27 1.27)) hide)
    )
    (property "Footprint" "" (id 2) (at 149.86 176.53 0)
      (effects (font (size 1.27 1.27)) hide)
    )
    (property "Datasheet" "~" (id 3) (at 149.86 176.53 0)
      (effects (font (size 1.27 1.27)) hide)
    )
    (pin "1" (uuid d01cdc92-b24b-4f19-abb6-7d7db267bcea))
    (pin "2" (uuid 8717ffcc-b048-498a-bb1b-194296d1ea40))
  )
)
