{
  "board": {
    "design_settings": {
      "defaults": {
        "board_outline_line_width": 0.09999999999999999,
        "copper_line_width": 0.19999999999999998,
        "copper_text_italic": false,
        "copper_text_size_h": 1.5,
        "copper_text_size_v": 1.5,
        "copper_text_thickness": 0.3,
        "copper_text_upright": false,
        "courtyard_line_width": 0.049999999999999996,
        "dimension_precision": 4,
        "dimension_units": 3,
        "dimensions": {
          "arrow_length": 1270000,
          "extension_offset": 500000,
          "keep_text_aligned": true,
          "suppress_zeroes": false,
          "text_position": 0,
          "units_format": 1
        },
        "fab_line_width": 0.09999999999999999,
        "fab_text_italic": false,
        "fab_text_size_h": 1.0,
        "fab_text_size_v": 1.0,
        "fab_text_thickness": 0.15,
        "fab_text_upright": false,
        "other_line_width": 0.15,
        "other_text_italic": false,
        "other_text_size_h": 1.0,
        "other_text_size_v": 1.0,
        "other_text_thickness": 0.15,
        "other_text_upright": false,
        "pads": {
          "drill": 1.7,
          "height": 2.25,
          "width": 2.25
        },
        "silk_line_width": 0.15,
        "silk_text_italic": false,
        "silk_text_size_h": 1.0,
        "silk_text_size_v": 1.0,
        "silk_text_thickness": 0.15,
        "silk_text_upright": false,
        "zones": {
          "45_degree_only": false,
          "min_clearance": 0.508
        }
      },
      "diff_pair_dimensions": [
        {
          "gap": 0.0,
          "via_gap": 0.0,
          "width": 0.0
        }
      ],
      "drc_exclusions": [
        "clearance|193488518|93191017|7f2eefac-7654-4f66-b788-d8785612de0c|aa3ddf83-8831-4672-9c00-77877a85320a",
        "courtyards_overlap|175234999|94870001|667ee80f-32fe-4348-972a-764752c48276|f66f4aa4-daab-4329-8b51-325c170eb265",
        "courtyards_overlap|176800000|123210001|6defc347-3247-473e-af4b-444768c3c610|e0e8ec28-70ea-4992-afad-bde46f2d3ac4",
        "courtyards_overlap|177840001|86400001|20f36977-653e-4a59-9036-2386ebccfdee|c642ed24-f1c9-4f33-80d6-ba452a378d04",
        "courtyards_overlap|191562501|101286606|c33a1c40-6151-4016-bb1f-2bbc4c34248a|369bbf0c-68c2-4cab-9b93-0592a984e902",
        "courtyards_overlap|191567130|103204999|4915862a-1906-4c03-8295-80cf89a77a84|369bbf0c-68c2-4cab-9b93-0592a984e902",
        "courtyards_overlap|193297501|93000001|30af6815-8c70-4fec-ad03-c65fe071c81b|d45b4a9d-a402-4f4d-9ecc-51488f4a1b24",
        "courtyards_overlap|193297501|93000001|d45b4a9d-a402-4f4d-9ecc-51488f4a1b24|30af6815-8c70-4fec-ad03-c65fe071c81b",
        "courtyards_overlap|195322499|103171858|369bbf0c-68c2-4cab-9b93-0592a984e902|17ba1b59-bb0d-404b-83f3-baf14ae8f984",
        "courtyards_overlap|196533468|92365001|7a5ab14c-2dc0-4036-98d1-9ab6eec6af9b|30af6815-8c70-4fec-ad03-c65fe071c81b",
        "courtyards_overlap|198128650|93960183|7a5ab14c-2dc0-4036-98d1-9ab6eec6af9b|e86c212e-a8af-487d-aec2-589649e08d80",
        "courtyards_overlap|200310593|106089160|2055d59b-a74c-4a61-9230-8b83308e360a|4e676c6e-91f2-4d6a-93c2-794e12fc1e2c",
        "courtyards_overlap|200310771|105385044|2055d59b-a74c-4a61-9230-8b83308e360a|4e676c6e-91f2-4d6a-93c2-794e12fc1e2c",
        "courtyards_overlap|201179984|109878316|4e676c6e-91f2-4d6a-93c2-794e12fc1e2c|a309cfb9-e2fa-4165-a545-daff083a9ac6",
        "courtyards_overlap|201317564|110202965|4e676c6e-91f2-4d6a-93c2-794e12fc1e2c|a309cfb9-e2fa-4165-a545-daff083a9ac6",
        "courtyards_overlap|202124503|99127040|4e676c6e-91f2-4d6a-93c2-794e12fc1e2c|e86c212e-a8af-487d-aec2-589649e08d80",
        "courtyards_overlap|202855001|103530001|4e676c6e-91f2-4d6a-93c2-794e12fc1e2c|77805a26-bd32-4806-a76e-5a0a525da93a",
        "courtyards_overlap|204252933|96607474|e86c212e-a8af-487d-aec2-589649e08d80|4e676c6e-91f2-4d6a-93c2-794e12fc1e2c",
        "courtyards_overlap|207980000|89610835|4e676c6e-91f2-4d6a-93c2-794e12fc1e2c|77805a26-bd32-4806-a76e-5a0a525da93a",
        "courtyards_overlap|208039999|121859999|4e676c6e-91f2-4d6a-93c2-794e12fc1e2c|8eecd6e8-70e0-40be-86b8-bf6c38cc40dc",
        "courtyards_overlap|215945122|91691305|1b33b6a4-4539-4879-802e-46f89b7ac13a|4e676c6e-91f2-4d6a-93c2-794e12fc1e2c",
        "courtyards_overlap|219350010|96131543|4e676c6e-91f2-4d6a-93c2-794e12fc1e2c|6c20d71f-2141-44ac-9590-4a23985fcb0b",
        "courtyards_overlap|223298001|101766154|4e676c6e-91f2-4d6a-93c2-794e12fc1e2c|6c20d71f-2141-44ac-9590-4a23985fcb0b",
        "courtyards_overlap|223298001|101766154|6c20d71f-2141-44ac-9590-4a23985fcb0b|4e676c6e-91f2-4d6a-93c2-794e12fc1e2c",
        "courtyards_overlap|223317824|90083751|2eb3033c-3924-483f-acf6-21acc314e7fd|6c20d71f-2141-44ac-9590-4a23985fcb0b",
        "silk_over_copper|223553866|73645866|4669e56d-ba7a-401b-a915-1dfd6c3cc0ea|24df80c7-c63b-4267-8f24-fda34a7c2f95",
        "silk_over_copper|225004500|75169478|132a82af-c05e-4b12-90af-910507c2ca6a|99aa6317-f01f-44d2-9417-10b74e282a70",
        "silk_over_copper|225050691|86318691|132a82af-c05e-4b12-90af-910507c2ca6a|4eb7d33a-7622-4ae1-8018-bf5f09b8adff",
        "silk_over_copper|227544500|123102500|cedb63d0-d6e5-45cf-9748-1c0d358136d4|47a021a6-7e17-4aca-93f1-7f57e4b27cf5"
      ],
      "meta": {
        "version": 2
      },
      "rule_severities": {
        "annular_width": "error",
        "clearance": "error",
        "copper_edge_clearance": "error",
        "courtyards_overlap": "error",
        "diff_pair_gap_out_of_range": "error",
        "diff_pair_uncoupled_length_too_long": "error",
        "drill_out_of_range": "error",
        "duplicate_footprints": "warning",
        "extra_footprint": "warning",
        "footprint_type_mismatch": "error",
        "hole_clearance": "error",
        "hole_near_hole": "error",
        "invalid_outline": "error",
        "item_on_disabled_layer": "error",
        "items_not_allowed": "error",
        "length_out_of_range": "error",
        "malformed_courtyard": "error",
        "microvia_drill_out_of_range": "error",
        "missing_courtyard": "ignore",
        "missing_footprint": "warning",
        "net_conflict": "warning",
        "npth_inside_courtyard": "ignore",
        "padstack": "error",
        "pth_inside_courtyard": "ignore",
        "shorting_items": "error",
        "silk_over_copper": "warning",
        "silk_overlap": "warning",
        "skew_out_of_range": "error",
        "through_hole_pad_without_hole": "error",
        "too_many_vias": "error",
        "track_dangling": "warning",
        "track_width": "error",
        "tracks_crossing": "error",
        "unconnected_items": "error",
        "unresolved_variable": "error",
        "via_dangling": "warning",
        "zone_has_empty_net": "error",
        "zones_intersect": "error"
      },
      "rules": {
        "allow_blind_buried_vias": false,
        "allow_microvias": false,
        "max_error": 0.005,
        "min_clearance": 0.0,
        "min_copper_edge_clearance": 0.0,
        "min_hole_clearance": 0.25,
        "min_hole_to_hole": 0.25,
        "min_microvia_diameter": 0.19999999999999998,
        "min_microvia_drill": 0.09999999999999999,
        "min_silk_clearance": 0.0,
        "min_through_hole_diameter": 0.3,
        "min_track_width": 0.19999999999999998,
        "min_via_annular_width": 0.049999999999999996,
        "min_via_diameter": 0.39999999999999997,
        "solder_mask_clearance": 0.0,
        "solder_mask_min_width": 0.0,
        "use_height_for_length_calcs": true
      },
      "track_widths": [
        0.0
      ],
      "via_dimensions": [
        {
          "diameter": 0.0,
          "drill": 0.0
        }
      ],
      "zones_allow_external_fillets": false,
      "zones_use_no_outline": true
    },
    "layer_presets": []
  },
  "boards": [],
  "cvpcb": {
    "equivalence_files": []
  },
  "erc": {
    "erc_exclusions": [
      "lib_symbol_issues|1498600|1790700|430f62dd-1c90-4901-ac6f-9bfd3ec9895f|00000000-0000-0000-0000-000000000000",
      "lib_symbol_issues|1930400|1219200|fc3fa986-afa5-4346-90f9-0933c4e59115|00000000-0000-0000-0000-000000000000",
      "lib_symbol_issues|2146300|495300|719bdf59-8cb5-49c9-a684-367e0f6835f9|00000000-0000-0000-0000-000000000000",
      "lib_symbol_issues|2171700|1473200|eefd883e-0173-44d1-86a7-860f1056cf2b|00000000-0000-0000-0000-000000000000",
      "lib_symbol_issues|2565400|762000|86b7ab14-3a39-44f5-9bcf-76c4837d59e0|00000000-0000-0000-0000-000000000000",
      "lib_symbol_issues|381000|1092200|082774aa-0d48-4a06-977f-f157d72ac209|00000000-0000-0000-0000-000000000000",
      "lib_symbol_issues|546100|1778000|10d5b179-d11a-4248-8a76-1dcbf0a57abc|00000000-0000-0000-0000-000000000000",
      "lib_symbol_issues|571500|355600|a228a09c-4f8f-461d-94e2-0fb7ea7e5cb4|00000000-0000-0000-0000-000000000000",
      "lib_symbol_issues|647700|393700|3589c26d-9a04-4339-94e9-ce4b2221d6be|00000000-0000-0000-0000-000000000000",
      "pin_to_pin|2476500|762000|b2844adf-7815-40a1-ae5d-025dbb1655a8|929f88b9-af22-4461-8c2b-8465c3271b10",
      "power_pin_not_driven|1816100|635000|2dcb97d8-90fa-48cb-9b2a-6ef8e8bd9b4c|00000000-0000-0000-0000-000000000000",
      "power_pin_not_driven|1816100|736600|2269879d-ca2d-475d-82d8-2865af3b171b|00000000-0000-0000-0000-000000000000"
    ],
    "meta": {
      "version": 0
    },
    "pin_map": [
      [
        0,
        0,
        0,
        0,
        0,
        0,
        1,
        0,
        0,
        0,
        0,
        2
      ],
      [
        0,
        2,
        0,
        1,
        0,
        0,
        1,
        0,
        2,
        2,
        2,
        2
      ],
      [
        0,
        0,
        0,
        0,
        0,
        0,
        1,
        0,
        1,
        0,
        1,
        2
      ],
      [
        0,
        1,
        0,
        0,
        0,
        0,
        1,
        1,
        2,
        1,
        1,
        2
      ],
      [
        0,
        0,
        0,
        0,
        0,
        0,
        1,
        0,
        0,
        0,
        0,
        2
      ],
      [
        0,
        0,
        0,
        0,
        0,
        0,
        0,
        0,
        0,
        0,
        0,
        2
      ],
      [
        1,
        1,
        1,
        1,
        1,
        0,
        1,
        1,
        1,
        1,
        1,
        2
      ],
      [
        0,
        0,
        0,
        1,
        0,
        0,
        1,
        0,
        0,
        0,
        0,
        2
      ],
      [
        0,
        2,
        1,
        2,
        0,
        0,
        1,
        0,
        2,
        2,
        2,
        2
      ],
      [
        0,
        2,
        0,
        1,
        0,
        0,
        1,
        0,
        2,
        0,
        0,
        2
      ],
      [
        0,
        2,
        1,
        1,
        0,
        0,
        1,
        0,
        2,
        0,
        0,
        2
      ],
      [
        2,
        2,
        2,
        2,
        2,
        2,
        2,
        2,
        2,
        2,
        2,
        2
      ]
    ],
    "rule_severities": {
      "bus_definition_conflict": "error",
      "bus_entry_needed": "error",
      "bus_label_syntax": "error",
      "bus_to_bus_conflict": "error",
      "bus_to_net_conflict": "error",
      "different_unit_footprint": "error",
      "different_unit_net": "error",
      "duplicate_reference": "error",
      "duplicate_sheet_names": "error",
      "extra_units": "error",
      "global_label_dangling": "warning",
      "hier_label_mismatch": "error",
      "label_dangling": "error",
      "lib_symbol_issues": "warning",
      "multiple_net_names": "warning",
      "net_not_bus_member": "warning",
      "no_connect_connected": "warning",
      "no_connect_dangling": "warning",
      "pin_not_connected": "error",
      "pin_not_driven": "error",
      "pin_to_pin": "warning",
      "power_pin_not_driven": "error",
      "similar_labels": "warning",
      "unannotated": "error",
      "unit_value_mismatch": "error",
      "unresolved_variable": "error",
      "wire_dangling": "error"
    }
  },
  "libraries": {
    "pinned_footprint_libs": [],
    "pinned_symbol_libs": []
  },
  "meta": {
    "filename": "RTK1010Board.kicad_pro",
    "version": 1
  },
  "net_settings": {
    "classes": [
      {
        "bus_width": 12.0,
        "clearance": 0.2,
        "diff_pair_gap": 0.25,
        "diff_pair_via_gap": 0.25,
        "diff_pair_width": 0.2,
        "line_style": 0,
        "microvia_diameter": 0.3,
        "microvia_drill": 0.1,
        "name": "Default",
        "pcb_color": "rgba(0, 0, 0, 0.000)",
        "schematic_color": "rgba(0, 0, 0, 0.000)",
        "track_width": 0.25,
        "via_diameter": 0.8,
        "via_drill": 0.4,
        "wire_width": 6.0
      },
      {
        "bus_width": 12.0,
        "clearance": 0.2,
        "diff_pair_gap": 0.25,
        "diff_pair_via_gap": 0.25,
        "diff_pair_width": 0.2,
        "line_style": 0,
        "microvia_diameter": 0.3,
        "microvia_drill": 0.1,
        "name": "Power",
        "nets": [
          "+3V3",
          "ULNA"
        ],
        "pcb_color": "rgba(0, 0, 0, 0.000)",
        "schematic_color": "rgba(0, 0, 0, 0.000)",
        "track_width": 0.5,
        "via_diameter": 0.8,
        "via_drill": 0.4,
        "wire_width": 6.0
      }
    ],
    "meta": {
      "version": 2
    },
    "net_colors": null
  },
  "pcbnew": {
    "last_paths": {
      "gencad": "",
      "idf": "",
      "netlist": "",
      "specctra_dsn": "",
      "step": "",
      "vrml": ""
    },
    "page_layout_descr_file": ""
  },
  "schematic": {
    "annotate_start_num": 0,
    "drawing": {
      "default_line_thickness": 6.0,
      "default_text_size": 50.0,
      "field_names": [],
      "intersheets_ref_own_page": false,
      "intersheets_ref_prefix": "",
      "intersheets_ref_short": false,
      "intersheets_ref_show": false,
      "intersheets_ref_suffix": "",
      "junction_size_choice": 3,
      "label_size_ratio": 0.375,
      "pin_symbol_size": 25.0,
      "text_offset_ratio": 0.15
    },
    "legacy_lib_dir": "",
    "legacy_lib_list": [],
    "meta": {
      "version": 1
    },
    "net_format_name": "",
    "ngspice": {
      "fix_include_paths": true,
      "fix_passive_vals": false,
      "meta": {
        "version": 0
      },
      "model_mode": 0,
      "workbook_filename": ""
    },
    "page_layout_descr_file": "",
    "plot_directory": "",
    "spice_adjust_passive_values": false,
    "spice_external_command": "spice \"%I\"",
    "subpart_first_id": 65,
    "subpart_id_separator": 0
  },
  "sheets": [
    [
      "b88f03c3-e7a2-4128-a067-c856e23f1086",
      ""
    ]
  ],
  "text_variables": {}
}
