(kicad_sch (version 20211123) (generator eeschema)

  (uuid afdbdf56-2a30-4ddd-abda-d58f8239d8df)

  (paper "A4")

  (title_block
    (title "Open MOtor DRiver Initiative (OMODRI)")
    (date "2020-12-16")
    (rev "2.0")
    (company "LAAS/CNRS")
  )

  (lib_symbols
    (symbol "omodri_lib:ADM6_ADF6" (pin_names (offset 1.016)) (in_bom yes) (on_board yes)
      (property "Reference" "J" (id 0) (at 2.54 13.97 0)
        (effects (font (size 1.27 1.27)))
      )
      (property "Value" "ADM6_ADF6" (id 1) (at 2.54 -13.97 0)
        (effects (font (size 1.27 1.27)))
      )
      (property "Footprint" "" (id 2) (at 0 0 0)
        (effects (font (size 1.27 1.27)) hide)
      )
      (property "Datasheet" "" (id 3) (at 0 0 0)
        (effects (font (size 1.27 1.27)) hide)
      )
      (property "ki_keywords" "https://www.samtec.com/products/adm6#technicalSeries" (id 4) (at 0 0 0)
        (effects (font (size 1.27 1.27)) hide)
      )
      (property "ki_description" "0.635 mm pitch, High-Density, 4-Row Terminal, low profile, ultra-slim surface mount header & socket." (id 5) (at 0 0 0)
        (effects (font (size 1.27 1.27)) hide)
      )
      (symbol "ADM6_ADF6_0_1"
        (rectangle (start 0 12.7) (end 6.35 -12.7)
          (stroke (width 0) (type default) (color 0 0 0 0))
          (fill (type background))
        )
      )
      (symbol "ADM6_ADF6_1_1"
        (pin passive line (at -5.08 11.43 0) (length 5.08)
          (name "A01" (effects (font (size 1.27 1.27))))
          (number "A01" (effects (font (size 1.27 1.27))))
        )
        (pin passive line (at -5.08 8.89 0) (length 5.08)
          (name "A02" (effects (font (size 1.27 1.27))))
          (number "A02" (effects (font (size 1.27 1.27))))
        )
        (pin passive line (at -5.08 6.35 0) (length 5.08)
          (name "A03" (effects (font (size 1.27 1.27))))
          (number "A03" (effects (font (size 1.27 1.27))))
        )
        (pin passive line (at -5.08 3.81 0) (length 5.08)
          (name "A04" (effects (font (size 1.27 1.27))))
          (number "A04" (effects (font (size 1.27 1.27))))
        )
        (pin passive line (at -5.08 1.27 0) (length 5.08)
          (name "A05" (effects (font (size 1.27 1.27))))
          (number "A05" (effects (font (size 1.27 1.27))))
        )
        (pin passive line (at -5.08 -1.27 0) (length 5.08)
          (name "A06" (effects (font (size 1.27 1.27))))
          (number "A06" (effects (font (size 1.27 1.27))))
        )
        (pin passive line (at -5.08 -3.81 0) (length 5.08)
          (name "A07" (effects (font (size 1.27 1.27))))
          (number "A07" (effects (font (size 1.27 1.27))))
        )
        (pin passive line (at -5.08 -6.35 0) (length 5.08)
          (name "A08" (effects (font (size 1.27 1.27))))
          (number "A08" (effects (font (size 1.27 1.27))))
        )
        (pin passive line (at -5.08 -8.89 0) (length 5.08)
          (name "A09" (effects (font (size 1.27 1.27))))
          (number "A09" (effects (font (size 1.27 1.27))))
        )
        (pin passive line (at -5.08 -11.43 0) (length 5.08)
          (name "A10" (effects (font (size 1.27 1.27))))
          (number "A10" (effects (font (size 1.27 1.27))))
        )
      )
      (symbol "ADM6_ADF6_2_1"
        (pin passive line (at -5.08 11.43 0) (length 5.08)
          (name "B01" (effects (font (size 1.27 1.27))))
          (number "B01" (effects (font (size 1.27 1.27))))
        )
        (pin passive line (at -5.08 8.89 0) (length 5.08)
          (name "B02" (effects (font (size 1.27 1.27))))
          (number "B02" (effects (font (size 1.27 1.27))))
        )
        (pin passive line (at -5.08 6.35 0) (length 5.08)
          (name "B03" (effects (font (size 1.27 1.27))))
          (number "B03" (effects (font (size 1.27 1.27))))
        )
        (pin passive line (at -5.08 3.81 0) (length 5.08)
          (name "B04" (effects (font (size 1.27 1.27))))
          (number "B04" (effects (font (size 1.27 1.27))))
        )
        (pin passive line (at -5.08 1.27 0) (length 5.08)
          (name "B05" (effects (font (size 1.27 1.27))))
          (number "B05" (effects (font (size 1.27 1.27))))
        )
        (pin passive line (at -5.08 -1.27 0) (length 5.08)
          (name "B06" (effects (font (size 1.27 1.27))))
          (number "B06" (effects (font (size 1.27 1.27))))
        )
        (pin passive line (at -5.08 -3.81 0) (length 5.08)
          (name "B07" (effects (font (size 1.27 1.27))))
          (number "B07" (effects (font (size 1.27 1.27))))
        )
        (pin passive line (at -5.08 -6.35 0) (length 5.08)
          (name "B08" (effects (font (size 1.27 1.27))))
          (number "B08" (effects (font (size 1.27 1.27))))
        )
        (pin passive line (at -5.08 -8.89 0) (length 5.08)
          (name "B09" (effects (font (size 1.27 1.27))))
          (number "B09" (effects (font (size 1.27 1.27))))
        )
        (pin passive line (at -5.08 -11.43 0) (length 5.08)
          (name "B10" (effects (font (size 1.27 1.27))))
          (number "B10" (effects (font (size 1.27 1.27))))
        )
      )
      (symbol "ADM6_ADF6_3_1"
        (pin passive line (at -5.08 11.43 0) (length 5.08)
          (name "C01" (effects (font (size 1.27 1.27))))
          (number "C01" (effects (font (size 1.27 1.27))))
        )
        (pin passive line (at -5.08 8.89 0) (length 5.08)
          (name "C02" (effects (font (size 1.27 1.27))))
          (number "C02" (effects (font (size 1.27 1.27))))
        )
        (pin passive line (at -5.08 6.35 0) (length 5.08)
          (name "C03" (effects (font (size 1.27 1.27))))
          (number "C03" (effects (font (size 1.27 1.27))))
        )
        (pin passive line (at -5.08 3.81 0) (length 5.08)
          (name "C04" (effects (font (size 1.27 1.27))))
          (number "C04" (effects (font (size 1.27 1.27))))
        )
        (pin passive line (at -5.08 1.27 0) (length 5.08)
          (name "C05" (effects (font (size 1.27 1.27))))
          (number "C05" (effects (font (size 1.27 1.27))))
        )
        (pin passive line (at -5.08 -1.27 0) (length 5.08)
          (name "C06" (effects (font (size 1.27 1.27))))
          (number "C06" (effects (font (size 1.27 1.27))))
        )
        (pin passive line (at -5.08 -3.81 0) (length 5.08)
          (name "C07" (effects (font (size 1.27 1.27))))
          (number "C07" (effects (font (size 1.27 1.27))))
        )
        (pin passive line (at -5.08 -6.35 0) (length 5.08)
          (name "C08" (effects (font (size 1.27 1.27))))
          (number "C08" (effects (font (size 1.27 1.27))))
        )
        (pin passive line (at -5.08 -8.89 0) (length 5.08)
          (name "C09" (effects (font (size 1.27 1.27))))
          (number "C09" (effects (font (size 1.27 1.27))))
        )
        (pin passive line (at -5.08 -11.43 0) (length 5.08)
          (name "C10" (effects (font (size 1.27 1.27))))
          (number "C10" (effects (font (size 1.27 1.27))))
        )
      )
      (symbol "ADM6_ADF6_4_1"
        (pin passive line (at -5.08 11.43 0) (length 5.08)
          (name "D01" (effects (font (size 1.27 1.27))))
          (number "D01" (effects (font (size 1.27 1.27))))
        )
        (pin passive line (at -5.08 8.89 0) (length 5.08)
          (name "D02" (effects (font (size 1.27 1.27))))
          (number "D02" (effects (font (size 1.27 1.27))))
        )
        (pin passive line (at -5.08 6.35 0) (length 5.08)
          (name "D03" (effects (font (size 1.27 1.27))))
          (number "D03" (effects (font (size 1.27 1.27))))
        )
        (pin passive line (at -5.08 3.81 0) (length 5.08)
          (name "D04" (effects (font (size 1.27 1.27))))
          (number "D04" (effects (font (size 1.27 1.27))))
        )
        (pin passive line (at -5.08 1.27 0) (length 5.08)
          (name "D05" (effects (font (size 1.27 1.27))))
          (number "D05" (effects (font (size 1.27 1.27))))
        )
        (pin passive line (at -5.08 -1.27 0) (length 5.08)
          (name "D06" (effects (font (size 1.27 1.27))))
          (number "D06" (effects (font (size 1.27 1.27))))
        )
        (pin passive line (at -5.08 -3.81 0) (length 5.08)
          (name "D07" (effects (font (size 1.27 1.27))))
          (number "D07" (effects (font (size 1.27 1.27))))
        )
        (pin passive line (at -5.08 -6.35 0) (length 5.08)
          (name "D08" (effects (font (size 1.27 1.27))))
          (number "D08" (effects (font (size 1.27 1.27))))
        )
        (pin passive line (at -5.08 -8.89 0) (length 5.08)
          (name "D09" (effects (font (size 1.27 1.27))))
          (number "D09" (effects (font (size 1.27 1.27))))
        )
        (pin passive line (at -5.08 -11.43 0) (length 5.08)
          (name "D10" (effects (font (size 1.27 1.27))))
          (number "D10" (effects (font (size 1.27 1.27))))
        )
      )
    )
    (symbol "power:GND" (power) (pin_names (offset 0)) (in_bom yes) (on_board yes)
      (property "Reference" "#PWR" (id 0) (at 0 -6.35 0)
        (effects (font (size 1.27 1.27)) hide)
      )
      (property "Value" "GND" (id 1) (at 0 -3.81 0)
        (effects (font (size 1.27 1.27)))
      )
      (property "Footprint" "" (id 2) (at 0 0 0)
        (effects (font (size 1.27 1.27)) hide)
      )
      (property "Datasheet" "" (id 3) (at 0 0 0)
        (effects (font (size 1.27 1.27)) hide)
      )
      (property "ki_keywords" "power-flag" (id 4) (at 0 0 0)
        (effects (font (size 1.27 1.27)) hide)
      )
      (property "ki_description" "Power symbol creates a global label with name \"GND\" , ground" (id 5) (at 0 0 0)
        (effects (font (size 1.27 1.27)) hide)
      )
      (symbol "GND_0_1"
        (polyline
          (pts
            (xy 0 0)
            (xy 0 -1.27)
            (xy 1.27 -1.27)
            (xy 0 -2.54)
            (xy -1.27 -1.27)
            (xy 0 -1.27)
          )
          (stroke (width 0) (type default) (color 0 0 0 0))
          (fill (type none))
        )
      )
      (symbol "GND_1_1"
        (pin power_in line (at 0 0 270) (length 0) hide
          (name "GND" (effects (font (size 1.27 1.27))))
          (number "1" (effects (font (size 1.27 1.27))))
        )
      )
    )
  )

  (junction (at 72.39 124.46) (diameter 0) (color 0 0 0 0)
    (uuid 062d92bb-f458-437a-821e-138a1542db71)
  )
  (junction (at 150.495 78.74) (diameter 0) (color 0 0 0 0)
    (uuid 0a1cc76e-68e1-488f-afe2-abcfd4cc0ba5)
  )
  (junction (at 188.595 127) (diameter 0) (color 0 0 0 0)
    (uuid 12616994-bdf3-433e-9c6e-e535bb9c5419)
  )
  (junction (at 188.595 83.82) (diameter 0) (color 0 0 0 0)
    (uuid 1a4ed5b5-b9c0-4cf9-bd12-08403256af33)
  )
  (junction (at 72.39 81.28) (diameter 0) (color 0 0 0 0)
    (uuid 1a56a2f5-c7e2-4ef9-a9fe-960759da6e37)
  )
  (junction (at 188.595 88.9) (diameter 0) (color 0 0 0 0)
    (uuid 302590ef-f931-48ed-99ee-eeb55849537a)
  )
  (junction (at 150.495 88.9) (diameter 0) (color 0 0 0 0)
    (uuid 424e3a03-28b7-4e71-9a65-d49bb004b1ea)
  )
  (junction (at 150.495 127) (diameter 0) (color 0 0 0 0)
    (uuid 42d6849f-7be6-4cbb-aed2-516c7715d8a9)
  )
  (junction (at 110.49 91.44) (diameter 0) (color 0 0 0 0)
    (uuid 6c6ac473-12bb-48c2-8ac4-c0f004d70bda)
  )
  (junction (at 110.49 119.38) (diameter 0) (color 0 0 0 0)
    (uuid 77ba7ff9-5cd5-4185-bdd7-d1d97bfb8efe)
  )
  (junction (at 72.39 129.54) (diameter 0) (color 0 0 0 0)
    (uuid 77c250c3-5640-4234-b0bf-b2dd4eedd33c)
  )
  (junction (at 110.49 129.54) (diameter 0) (color 0 0 0 0)
    (uuid 874b33d3-0e2d-4924-82d0-b371a08030a9)
  )
  (junction (at 188.595 121.92) (diameter 0) (color 0 0 0 0)
    (uuid 97b4138f-35c8-4141-81d9-61295078da5e)
  )
  (junction (at 150.495 116.84) (diameter 0) (color 0 0 0 0)
    (uuid 9d548b48-3526-40f8-ad18-6c1e1a6d3391)
  )
  (junction (at 150.495 83.82) (diameter 0) (color 0 0 0 0)
    (uuid a6aa1d4b-386a-46c2-85ca-21949388d85e)
  )
  (junction (at 188.595 78.74) (diameter 0) (color 0 0 0 0)
    (uuid acd0ed41-4415-4037-8b80-292a47f72693)
  )
  (junction (at 72.39 91.44) (diameter 0) (color 0 0 0 0)
    (uuid b152d1b2-180a-4a26-aca6-0de9ce5c4081)
  )
  (junction (at 110.49 124.46) (diameter 0) (color 0 0 0 0)
    (uuid c0cffd61-64aa-4fb9-9478-4a8e827f5f48)
  )
  (junction (at 188.595 116.84) (diameter 0) (color 0 0 0 0)
    (uuid ccb6a221-97a9-4b0c-ac0b-6b151b6b0b39)
  )
  (junction (at 110.49 81.28) (diameter 0) (color 0 0 0 0)
    (uuid d52bcffd-601e-4e2c-aa99-4dda0c4daa3b)
  )
  (junction (at 150.495 121.92) (diameter 0) (color 0 0 0 0)
    (uuid e151addb-aa96-4560-b7e8-4cd8b6309579)
  )
  (junction (at 72.39 86.36) (diameter 0) (color 0 0 0 0)
    (uuid e83e45cb-c08f-4a81-bf02-6dee2f6d74ef)
  )
  (junction (at 72.39 119.38) (diameter 0) (color 0 0 0 0)
    (uuid ed2656ba-1ce5-42f5-87c1-c9a45fdcd3c5)
  )
  (junction (at 110.49 86.36) (diameter 0) (color 0 0 0 0)
    (uuid fcb246a9-c971-45ad-9d1c-3e56bde2590d)
  )

  (wire (pts (xy 74.93 127) (xy 70.485 127))
    (stroke (width 0) (type default) (color 0 0 0 0))
    (uuid 0133a207-4260-4353-b137-8422824c4c79)
  )
  (wire (pts (xy 153.035 76.2) (xy 148.59 76.2))
    (stroke (width 0) (type default) (color 0 0 0 0))
    (uuid 02545f0c-fea5-4234-ab31-465a4a940602)
  )
  (wire (pts (xy 150.495 73.66) (xy 150.495 78.74))
    (stroke (width 0) (type default) (color 0 0 0 0))
    (uuid 0257c155-cd2f-45d1-b87b-9c25a8986f9f)
  )
  (wire (pts (xy 153.035 132.08) (xy 148.59 132.08))
    (stroke (width 0) (type default) (color 0 0 0 0))
    (uuid 02b27555-5f36-4eb7-be64-baedfad99489)
  )
  (wire (pts (xy 153.035 73.66) (xy 150.495 73.66))
    (stroke (width 0) (type default) (color 0 0 0 0))
    (uuid 054b9446-7e0f-4d0c-9a6b-6c79f174da50)
  )
  (wire (pts (xy 148.59 109.22) (xy 153.035 109.22))
    (stroke (width 0) (type default) (color 0 0 0 0))
    (uuid 085d3372-a3db-432f-a0b9-e3d5f912a7b4)
  )
  (wire (pts (xy 153.035 86.36) (xy 148.59 86.36))
    (stroke (width 0) (type default) (color 0 0 0 0))
    (uuid 0b5f4046-2d61-41b8-9ced-08bba003eca0)
  )
  (wire (pts (xy 186.69 76.2) (xy 191.135 76.2))
    (stroke (width 0) (type default) (color 0 0 0 0))
    (uuid 0bf6db47-a5f7-45bd-967c-fb1e15e74e1e)
  )
  (wire (pts (xy 110.49 76.2) (xy 113.03 76.2))
    (stroke (width 0) (type default) (color 0 0 0 0))
    (uuid 0d613291-0cd6-47b1-b366-e38afff5095e)
  )
  (wire (pts (xy 186.69 119.38) (xy 191.135 119.38))
    (stroke (width 0) (type default) (color 0 0 0 0))
    (uuid 0dfe99b4-fe72-4cec-b7a2-24272923f994)
  )
  (wire (pts (xy 113.03 93.98) (xy 108.585 93.98))
    (stroke (width 0) (type default) (color 0 0 0 0))
    (uuid 0f9a1e08-9f34-4ca5-9050-923e0d33e64c)
  )
  (wire (pts (xy 191.135 71.12) (xy 186.69 71.12))
    (stroke (width 0) (type default) (color 0 0 0 0))
    (uuid 11a9bd65-a075-4373-9348-5f87531ffe87)
  )
  (wire (pts (xy 191.135 121.92) (xy 188.595 121.92))
    (stroke (width 0) (type default) (color 0 0 0 0))
    (uuid 14397b54-bb60-4ada-a164-7b26e8f9c79f)
  )
  (wire (pts (xy 113.03 129.54) (xy 110.49 129.54))
    (stroke (width 0) (type default) (color 0 0 0 0))
    (uuid 14bb7fc9-34da-4c59-b196-0a9c5c2b78fd)
  )
  (wire (pts (xy 188.595 111.76) (xy 188.595 116.84))
    (stroke (width 0) (type default) (color 0 0 0 0))
    (uuid 15dc013a-d7af-48e6-b33a-721970cbc35d)
  )
  (wire (pts (xy 191.135 81.28) (xy 186.69 81.28))
    (stroke (width 0) (type default) (color 0 0 0 0))
    (uuid 182879bc-594a-4760-9277-37ec093af939)
  )
  (wire (pts (xy 74.93 116.84) (xy 70.485 116.84))
    (stroke (width 0) (type default) (color 0 0 0 0))
    (uuid 1bcc3a21-0b6c-49e6-95da-30ce5c06e2d7)
  )
  (wire (pts (xy 191.135 83.82) (xy 188.595 83.82))
    (stroke (width 0) (type default) (color 0 0 0 0))
    (uuid 236d3a5b-6fbb-4a90-8e41-fa6cb7b12366)
  )
  (wire (pts (xy 72.39 81.28) (xy 74.93 81.28))
    (stroke (width 0) (type default) (color 0 0 0 0))
    (uuid 2c1411ff-0185-4ce2-a4ee-64653c3a7329)
  )
  (wire (pts (xy 153.035 71.12) (xy 148.59 71.12))
    (stroke (width 0) (type default) (color 0 0 0 0))
    (uuid 2d455094-a721-4697-a4a8-e182216caaf3)
  )
  (wire (pts (xy 70.485 111.76) (xy 74.93 111.76))
    (stroke (width 0) (type default) (color 0 0 0 0))
    (uuid 2e67f649-3c88-428d-aa6b-24d7f75581c6)
  )
  (wire (pts (xy 150.495 116.84) (xy 150.495 121.92))
    (stroke (width 0) (type default) (color 0 0 0 0))
    (uuid 2fc60367-03f3-43a0-81d7-2003bf71c18c)
  )
  (wire (pts (xy 186.69 91.44) (xy 191.135 91.44))
    (stroke (width 0) (type default) (color 0 0 0 0))
    (uuid 32504c97-aaf6-4b02-bc3d-67da8a38d255)
  )
  (wire (pts (xy 150.495 88.9) (xy 150.495 95.25))
    (stroke (width 0) (type default) (color 0 0 0 0))
    (uuid 353c7520-3fbb-4269-ba36-5a86306ce2d3)
  )
  (wire (pts (xy 110.49 124.46) (xy 110.49 129.54))
    (stroke (width 0) (type default) (color 0 0 0 0))
    (uuid 372573fb-9b07-4e01-b616-96e671bb54ff)
  )
  (wire (pts (xy 110.49 119.38) (xy 110.49 124.46))
    (stroke (width 0) (type default) (color 0 0 0 0))
    (uuid 3804bc9a-e057-4414-a374-dfd61cb0215a)
  )
  (wire (pts (xy 72.39 129.54) (xy 72.39 133.35))
    (stroke (width 0) (type default) (color 0 0 0 0))
    (uuid 38852e84-64d3-4d89-9b73-53a97eb47a8f)
  )
  (wire (pts (xy 110.49 95.25) (xy 110.49 91.44))
    (stroke (width 0) (type default) (color 0 0 0 0))
    (uuid 3948c9c8-91d3-4b4f-9207-3ad0206e81ef)
  )
  (wire (pts (xy 74.93 129.54) (xy 72.39 129.54))
    (stroke (width 0) (type default) (color 0 0 0 0))
    (uuid 3bfb5954-586e-4cb2-9de5-3af446a86c5b)
  )
  (wire (pts (xy 72.39 86.36) (xy 72.39 81.28))
    (stroke (width 0) (type default) (color 0 0 0 0))
    (uuid 3d908c24-d8c5-47c5-9d20-fe42cbd3194e)
  )
  (wire (pts (xy 72.39 124.46) (xy 72.39 129.54))
    (stroke (width 0) (type default) (color 0 0 0 0))
    (uuid 3d9b4625-ad74-4150-afc7-6b776ec88858)
  )
  (wire (pts (xy 153.035 88.9) (xy 150.495 88.9))
    (stroke (width 0) (type default) (color 0 0 0 0))
    (uuid 42b3757c-7a95-41a9-b22a-67ef81b20c7a)
  )
  (wire (pts (xy 74.93 93.98) (xy 70.485 93.98))
    (stroke (width 0) (type default) (color 0 0 0 0))
    (uuid 48bacfaa-0e26-4006-bc90-2a92304b17e7)
  )
  (wire (pts (xy 153.035 127) (xy 150.495 127))
    (stroke (width 0) (type default) (color 0 0 0 0))
    (uuid 4c3d1a4e-6001-40b2-abfe-bc87c4234e2b)
  )
  (wire (pts (xy 70.485 109.22) (xy 74.93 109.22))
    (stroke (width 0) (type default) (color 0 0 0 0))
    (uuid 4c46f655-6c0b-49a9-a9de-74d4805aed19)
  )
  (wire (pts (xy 113.03 78.74) (xy 108.585 78.74))
    (stroke (width 0) (type default) (color 0 0 0 0))
    (uuid 5884bad4-ea33-43da-ad4c-fab9a079b5e0)
  )
  (wire (pts (xy 188.595 121.92) (xy 188.595 127))
    (stroke (width 0) (type default) (color 0 0 0 0))
    (uuid 62878fd9-7a61-4c82-93b1-e2cb53d73a33)
  )
  (wire (pts (xy 188.595 116.84) (xy 188.595 121.92))
    (stroke (width 0) (type default) (color 0 0 0 0))
    (uuid 65d413fc-c91a-4867-9a4a-7be081b4924c)
  )
  (wire (pts (xy 72.39 95.25) (xy 72.39 91.44))
    (stroke (width 0) (type default) (color 0 0 0 0))
    (uuid 66be02c7-c02c-44e8-9fbb-31792522c1b4)
  )
  (wire (pts (xy 188.595 111.76) (xy 191.135 111.76))
    (stroke (width 0) (type default) (color 0 0 0 0))
    (uuid 688f60fc-a78a-46f5-b290-c6e3f9cea7f9)
  )
  (wire (pts (xy 150.495 111.76) (xy 150.495 116.84))
    (stroke (width 0) (type default) (color 0 0 0 0))
    (uuid 69fd2798-b812-42e9-9516-1c9966ce9b80)
  )
  (wire (pts (xy 74.93 121.92) (xy 70.485 121.92))
    (stroke (width 0) (type default) (color 0 0 0 0))
    (uuid 6c43a78f-927e-4035-8067-ef8d23e88a15)
  )
  (wire (pts (xy 191.135 114.3) (xy 186.69 114.3))
    (stroke (width 0) (type default) (color 0 0 0 0))
    (uuid 6dd6cf52-8a3f-4af9-bae7-2f244d4d967f)
  )
  (wire (pts (xy 110.49 86.36) (xy 110.49 81.28))
    (stroke (width 0) (type default) (color 0 0 0 0))
    (uuid 6def0a5c-007a-466f-a123-f21a30f448cc)
  )
  (wire (pts (xy 72.39 76.2) (xy 74.93 76.2))
    (stroke (width 0) (type default) (color 0 0 0 0))
    (uuid 70dc3434-371e-466a-85a3-6778e2723c73)
  )
  (wire (pts (xy 148.59 119.38) (xy 153.035 119.38))
    (stroke (width 0) (type default) (color 0 0 0 0))
    (uuid 71009c43-fa36-45ab-8856-cc234371874d)
  )
  (wire (pts (xy 188.595 127) (xy 188.595 133.35))
    (stroke (width 0) (type default) (color 0 0 0 0))
    (uuid 72ebdae0-eeba-439b-84c8-e19c06107cda)
  )
  (wire (pts (xy 108.585 71.12) (xy 113.03 71.12))
    (stroke (width 0) (type default) (color 0 0 0 0))
    (uuid 73be1082-cb01-47d1-99fc-e45a0fefca05)
  )
  (wire (pts (xy 110.49 114.3) (xy 110.49 119.38))
    (stroke (width 0) (type default) (color 0 0 0 0))
    (uuid 743bdf51-213d-4189-8608-b2baac11eeb9)
  )
  (wire (pts (xy 74.93 86.36) (xy 72.39 86.36))
    (stroke (width 0) (type default) (color 0 0 0 0))
    (uuid 7b0c1a72-8490-4a5d-b091-68a3dfc3ed6b)
  )
  (wire (pts (xy 191.135 127) (xy 188.595 127))
    (stroke (width 0) (type default) (color 0 0 0 0))
    (uuid 7d69a184-03f5-49b1-8f60-9533685b88a9)
  )
  (wire (pts (xy 74.93 114.3) (xy 72.39 114.3))
    (stroke (width 0) (type default) (color 0 0 0 0))
    (uuid 84bf6eac-f11e-4d9d-bc42-9e0654556339)
  )
  (wire (pts (xy 72.39 91.44) (xy 72.39 86.36))
    (stroke (width 0) (type default) (color 0 0 0 0))
    (uuid 8b8715de-11bf-41b7-bdd6-4377b2264b7f)
  )
  (wire (pts (xy 188.595 88.9) (xy 188.595 83.82))
    (stroke (width 0) (type default) (color 0 0 0 0))
    (uuid 8ca2c261-7074-474d-b82a-a0a2ab701106)
  )
  (wire (pts (xy 113.03 124.46) (xy 110.49 124.46))
    (stroke (width 0) (type default) (color 0 0 0 0))
    (uuid 925dacb8-7dd0-47e4-8f11-0a11aabceb28)
  )
  (wire (pts (xy 108.585 111.76) (xy 113.03 111.76))
    (stroke (width 0) (type default) (color 0 0 0 0))
    (uuid 92a49744-7263-4d7a-8dcb-ecee111b7575)
  )
  (wire (pts (xy 148.59 93.98) (xy 153.035 93.98))
    (stroke (width 0) (type default) (color 0 0 0 0))
    (uuid 934cbfeb-dfed-4438-8213-91f7650f8ff6)
  )
  (wire (pts (xy 113.03 88.9) (xy 108.585 88.9))
    (stroke (width 0) (type default) (color 0 0 0 0))
    (uuid 9771134c-89ec-4f20-affc-921b937d8568)
  )
  (wire (pts (xy 186.69 93.98) (xy 191.135 93.98))
    (stroke (width 0) (type default) (color 0 0 0 0))
    (uuid 9ce6f0ea-2be2-4d82-bcfd-2ceaefb91ff3)
  )
  (wire (pts (xy 150.495 78.74) (xy 150.495 83.82))
    (stroke (width 0) (type default) (color 0 0 0 0))
    (uuid 9fc73a45-b5e0-4cff-98f3-7c8c1c9b18e4)
  )
  (wire (pts (xy 110.49 86.36) (xy 110.49 91.44))
    (stroke (width 0) (type default) (color 0 0 0 0))
    (uuid a26f871a-dde8-4965-bfcb-0f52f7582501)
  )
  (wire (pts (xy 113.03 81.28) (xy 110.49 81.28))
    (stroke (width 0) (type default) (color 0 0 0 0))
    (uuid a49f6321-c544-40cb-9442-7d53387ec2c7)
  )
  (wire (pts (xy 113.03 127) (xy 108.585 127))
    (stroke (width 0) (type default) (color 0 0 0 0))
    (uuid a4db0fed-8783-4291-a267-d1b29332268c)
  )
  (wire (pts (xy 72.39 114.3) (xy 72.39 119.38))
    (stroke (width 0) (type default) (color 0 0 0 0))
    (uuid a5865523-b18a-4fc7-a7c4-0ca61d96433e)
  )
  (wire (pts (xy 191.135 78.74) (xy 188.595 78.74))
    (stroke (width 0) (type default) (color 0 0 0 0))
    (uuid ac8f92aa-464a-4fb7-81c9-79eea9b757d8)
  )
  (wire (pts (xy 72.39 91.44) (xy 74.93 91.44))
    (stroke (width 0) (type default) (color 0 0 0 0))
    (uuid aefdd5c0-0487-4e1d-b034-22fc4a757f9a)
  )
  (wire (pts (xy 113.03 121.92) (xy 108.585 121.92))
    (stroke (width 0) (type default) (color 0 0 0 0))
    (uuid afe643c1-5eb1-4eb3-8993-716efc67aa14)
  )
  (wire (pts (xy 113.03 83.82) (xy 108.585 83.82))
    (stroke (width 0) (type default) (color 0 0 0 0))
    (uuid b46a8fb9-ed00-4c6e-bfdf-d06be6c0ff6c)
  )
  (wire (pts (xy 110.49 81.28) (xy 110.49 76.2))
    (stroke (width 0) (type default) (color 0 0 0 0))
    (uuid b47ce7b9-3ad3-45ea-9db0-bbf7163c1215)
  )
  (wire (pts (xy 150.495 83.82) (xy 150.495 88.9))
    (stroke (width 0) (type default) (color 0 0 0 0))
    (uuid b6aa70e9-7dc1-4579-9056-d95b5f8ba33e)
  )
  (wire (pts (xy 186.69 124.46) (xy 191.135 124.46))
    (stroke (width 0) (type default) (color 0 0 0 0))
    (uuid b77dd9d6-962b-4f80-aba0-6b96affc8224)
  )
  (wire (pts (xy 74.93 124.46) (xy 72.39 124.46))
    (stroke (width 0) (type default) (color 0 0 0 0))
    (uuid bc901f84-5cd5-4343-b584-a4c1a7494686)
  )
  (wire (pts (xy 74.93 73.66) (xy 70.485 73.66))
    (stroke (width 0) (type default) (color 0 0 0 0))
    (uuid bf169417-25b8-45a2-b7c8-0f4ae738c8dd)
  )
  (wire (pts (xy 188.595 88.9) (xy 188.595 95.25))
    (stroke (width 0) (type default) (color 0 0 0 0))
    (uuid c13da3de-fb7f-4be4-ac6a-3793a6ee1906)
  )
  (wire (pts (xy 74.93 78.74) (xy 70.485 78.74))
    (stroke (width 0) (type default) (color 0 0 0 0))
    (uuid c1ee2fa1-2234-4515-a1fd-2db3c6820bff)
  )
  (wire (pts (xy 191.135 132.08) (xy 186.69 132.08))
    (stroke (width 0) (type default) (color 0 0 0 0))
    (uuid c23cb90f-796b-4429-b361-3a382e5c7df9)
  )
  (wire (pts (xy 153.035 121.92) (xy 150.495 121.92))
    (stroke (width 0) (type default) (color 0 0 0 0))
    (uuid c3941311-ad05-4daa-825c-5bfe31d5041f)
  )
  (wire (pts (xy 186.69 129.54) (xy 191.135 129.54))
    (stroke (width 0) (type default) (color 0 0 0 0))
    (uuid c8448163-f60f-4c01-b906-8abac67672b9)
  )
  (wire (pts (xy 188.595 78.74) (xy 188.595 73.66))
    (stroke (width 0) (type default) (color 0 0 0 0))
    (uuid ca05d604-873b-4405-92c5-cd06e63e5172)
  )
  (wire (pts (xy 108.585 109.22) (xy 113.03 109.22))
    (stroke (width 0) (type default) (color 0 0 0 0))
    (uuid cb68e02e-a7c4-4048-91e2-b05020e01201)
  )
  (wire (pts (xy 188.595 83.82) (xy 188.595 78.74))
    (stroke (width 0) (type default) (color 0 0 0 0))
    (uuid ccfb140c-cdda-4c67-83c0-d4e1bd4b952b)
  )
  (wire (pts (xy 188.595 73.66) (xy 191.135 73.66))
    (stroke (width 0) (type default) (color 0 0 0 0))
    (uuid cd1824c8-49ca-454b-a2c3-7dd320f8b517)
  )
  (wire (pts (xy 72.39 81.28) (xy 72.39 76.2))
    (stroke (width 0) (type default) (color 0 0 0 0))
    (uuid cd4ca69d-5e13-40f3-8ee0-15f49bf87723)
  )
  (wire (pts (xy 148.59 114.3) (xy 153.035 114.3))
    (stroke (width 0) (type default) (color 0 0 0 0))
    (uuid cf6323a5-b755-4bd3-b4ef-03eebfb5b027)
  )
  (wire (pts (xy 113.03 114.3) (xy 110.49 114.3))
    (stroke (width 0) (type default) (color 0 0 0 0))
    (uuid d1d345e4-0612-40a7-aef8-4fa091168527)
  )
  (wire (pts (xy 74.93 83.82) (xy 70.485 83.82))
    (stroke (width 0) (type default) (color 0 0 0 0))
    (uuid d22db75e-f7ec-4828-a4a9-a02747fac130)
  )
  (wire (pts (xy 108.585 73.66) (xy 113.03 73.66))
    (stroke (width 0) (type default) (color 0 0 0 0))
    (uuid d244392d-2742-431d-a2d5-63874d64fa17)
  )
  (wire (pts (xy 186.69 109.22) (xy 191.135 109.22))
    (stroke (width 0) (type default) (color 0 0 0 0))
    (uuid d3afe4cd-ebb1-406c-b31f-ac39e9b6766d)
  )
  (wire (pts (xy 150.495 121.92) (xy 150.495 127))
    (stroke (width 0) (type default) (color 0 0 0 0))
    (uuid d8c8bbed-1699-4957-8a91-2f8aa3ebe976)
  )
  (wire (pts (xy 113.03 132.08) (xy 108.585 132.08))
    (stroke (width 0) (type default) (color 0 0 0 0))
    (uuid d9d825a9-7136-4e3d-90a1-f99b7410485a)
  )
  (wire (pts (xy 191.135 88.9) (xy 188.595 88.9))
    (stroke (width 0) (type default) (color 0 0 0 0))
    (uuid d9e1f2df-1279-476d-80a0-87d6caec90c3)
  )
  (wire (pts (xy 153.035 83.82) (xy 150.495 83.82))
    (stroke (width 0) (type default) (color 0 0 0 0))
    (uuid dab079bc-934b-47aa-ab98-b45cedc9e4ff)
  )
  (wire (pts (xy 110.49 129.54) (xy 110.49 133.35))
    (stroke (width 0) (type default) (color 0 0 0 0))
    (uuid dab36a3d-5194-4cd9-8039-8da8b5033dd0)
  )
  (wire (pts (xy 113.03 116.84) (xy 108.585 116.84))
    (stroke (width 0) (type default) (color 0 0 0 0))
    (uuid e07a0227-3a46-4068-b7a2-bbf113cce44d)
  )
  (wire (pts (xy 153.035 91.44) (xy 148.59 91.44))
    (stroke (width 0) (type default) (color 0 0 0 0))
    (uuid e67960d5-d7ab-4920-9163-114cb867b4d7)
  )
  (wire (pts (xy 148.59 129.54) (xy 153.035 129.54))
    (stroke (width 0) (type default) (color 0 0 0 0))
    (uuid e7676348-43f3-46e4-84e2-0c0348c8a5b0)
  )
  (wire (pts (xy 74.93 132.08) (xy 70.485 132.08))
    (stroke (width 0) (type default) (color 0 0 0 0))
    (uuid e7690db6-296b-4631-89d3-e9d9379f3e3c)
  )
  (wire (pts (xy 72.39 119.38) (xy 72.39 124.46))
    (stroke (width 0) (type default) (color 0 0 0 0))
    (uuid eae3f0ed-1740-455c-ad3a-9995ae50b3e3)
  )
  (wire (pts (xy 74.93 119.38) (xy 72.39 119.38))
    (stroke (width 0) (type default) (color 0 0 0 0))
    (uuid edb9035a-635a-4d18-96e6-3c0ec2563428)
  )
  (wire (pts (xy 113.03 119.38) (xy 110.49 119.38))
    (stroke (width 0) (type default) (color 0 0 0 0))
    (uuid edefb20d-b8c1-49ef-a323-3bfbae157870)
  )
  (wire (pts (xy 186.69 86.36) (xy 191.135 86.36))
    (stroke (width 0) (type default) (color 0 0 0 0))
    (uuid ef31ad81-b49c-4aeb-986a-e2b2313a0f20)
  )
  (wire (pts (xy 191.135 116.84) (xy 188.595 116.84))
    (stroke (width 0) (type default) (color 0 0 0 0))
    (uuid f0f94633-78e6-4847-a5d4-59efc078ef54)
  )
  (wire (pts (xy 153.035 78.74) (xy 150.495 78.74))
    (stroke (width 0) (type default) (color 0 0 0 0))
    (uuid f181ae2d-9a8e-4bf9-9638-5fc7777b9620)
  )
  (wire (pts (xy 70.485 88.9) (xy 74.93 88.9))
    (stroke (width 0) (type default) (color 0 0 0 0))
    (uuid f24705b2-00fb-4886-84fd-6667414faae8)
  )
  (wire (pts (xy 150.495 111.76) (xy 153.035 111.76))
    (stroke (width 0) (type default) (color 0 0 0 0))
    (uuid f2ba58a5-0928-4089-b945-776d88763ace)
  )
  (wire (pts (xy 153.035 116.84) (xy 150.495 116.84))
    (stroke (width 0) (type default) (color 0 0 0 0))
    (uuid f8c3108d-13fb-4b8a-85cb-ce066859453a)
  )
  (wire (pts (xy 153.035 81.28) (xy 148.59 81.28))
    (stroke (width 0) (type default) (color 0 0 0 0))
    (uuid f9e7b756-e4c0-459c-a01f-40c3c9979b9d)
  )
  (wire (pts (xy 150.495 127) (xy 150.495 133.35))
    (stroke (width 0) (type default) (color 0 0 0 0))
    (uuid fb7d066a-c543-4744-b32f-80229d74c62c)
  )
  (wire (pts (xy 148.59 124.46) (xy 153.035 124.46))
    (stroke (width 0) (type default) (color 0 0 0 0))
    (uuid fc1e832a-3df7-47c6-8378-348e0b73f50d)
  )
  (wire (pts (xy 110.49 91.44) (xy 113.03 91.44))
    (stroke (width 0) (type default) (color 0 0 0 0))
    (uuid fe312084-c283-4d2f-8d05-958f53c074ba)
  )
  (wire (pts (xy 113.03 86.36) (xy 110.49 86.36))
    (stroke (width 0) (type default) (color 0 0 0 0))
    (uuid fec8959e-879e-4494-af9e-343735de77e0)
  )
  (wire (pts (xy 70.485 71.12) (xy 74.93 71.12))
    (stroke (width 0) (type default) (color 0 0 0 0))
    (uuid fefba33e-f88e-4971-9958-c84e97e2505b)
  )

  (global_label "5V0" (shape input) (at 186.69 93.98 180) (fields_autoplaced)
    (effects (font (size 1.27 1.27)) (justify right))
    (uuid 34ae6a1e-e14f-4c27-9568-ca42bc6df696)
    (property "Références Inter-Feuilles" "${INTERSHEET_REFS}" (id 0) (at 0 0 0)
      (effects (font (size 1.27 1.27)) hide)
    )
  )
  (global_label "VDD_3V3" (shape input) (at 150.495 133.35 270) (fields_autoplaced)
    (effects (font (size 1.27 1.27)) (justify right))
    (uuid 563fe45e-895d-4bc0-9851-610dedc14b86)
    (property "Références Inter-Feuilles" "${INTERSHEET_REFS}" (id 0) (at 0 0 0)
      (effects (font (size 1.27 1.27)) hide)
    )
  )
  (global_label "VDD_3V3" (shape input) (at 110.49 95.25 270) (fields_autoplaced)
    (effects (font (size 1.27 1.27)) (justify right))
    (uuid 658a836f-7584-4e0d-9b37-0bd529c0d651)
    (property "Références Inter-Feuilles" "${INTERSHEET_REFS}" (id 0) (at 0 0 0)
      (effects (font (size 1.27 1.27)) hide)
    )
  )
  (global_label "5V0" (shape input) (at 148.59 93.98 180) (fields_autoplaced)
    (effects (font (size 1.27 1.27)) (justify right))
    (uuid 978e0b6d-7c25-4dd8-b6f0-77e02a9ea3d0)
    (property "Références Inter-Feuilles" "${INTERSHEET_REFS}" (id 0) (at 0 0 0)
      (effects (font (size 1.27 1.27)) hide)
    )
  )
  (global_label "VDD_3V3" (shape input) (at 188.595 133.35 270) (fields_autoplaced)
    (effects (font (size 1.27 1.27)) (justify right))
    (uuid f331fc88-845e-4523-9401-300d5df0c203)
    (property "Références Inter-Feuilles" "${INTERSHEET_REFS}" (id 0) (at 0 0 0)
      (effects (font (size 1.27 1.27)) hide)
    )
  )
  (global_label "VDD_3V3" (shape input) (at 72.39 95.25 270) (fields_autoplaced)
    (effects (font (size 1.27 1.27)) (justify right))
    (uuid f6b28db2-665b-4afa-a68b-aa8be25c5a30)
    (property "Références Inter-Feuilles" "${INTERSHEET_REFS}" (id 0) (at 0 0 0)
      (effects (font (size 1.27 1.27)) hide)
    )
  )

  (hierarchical_label "ESC_LED_ERR" (shape input) (at 108.585 109.22 180)
    (effects (font (size 1.27 1.27)) (justify right))
    (uuid 0234436a-321f-4983-b262-86f14cd35e80)
  )
  (hierarchical_label "SPI_SOMI" (shape output) (at 186.69 91.44 180)
    (effects (font (size 1.27 1.27)) (justify right))
    (uuid 05e34183-fd9e-451f-b5c7-edad700bccc2)
  )
  (hierarchical_label "ESC_TX0_D1" (shape input) (at 70.485 127 180)
    (effects (font (size 1.27 1.27)) (justify right))
    (uuid 07307aa9-39bc-4e77-bcaa-e6c8eb350a7f)
  )
  (hierarchical_label "ESC_TX1_D1" (shape input) (at 186.69 71.12 180)
    (effects (font (size 1.27 1.27)) (justify right))
    (uuid 0791c793-fd77-4bda-b9ec-3bd9e46dc039)
  )
  (hierarchical_label "ESC_RX0_D1" (shape output) (at 108.585 132.08 180)
    (effects (font (size 1.27 1.27)) (justify right))
    (uuid 09741983-6b5a-4817-bd19-e0b5b11d7270)
  )
  (hierarchical_label "ESC_RX1_D1" (shape output) (at 108.585 83.82 180)
    (effects (font (size 1.27 1.27)) (justify right))
    (uuid 11f4cd63-02fe-40e1-98b2-e584df0cb141)
  )
  (hierarchical_label "ESC_RX1_D3" (shape output) (at 148.59 86.36 180)
    (effects (font (size 1.27 1.27)) (justify right))
    (uuid 12a2ca48-231a-4a44-b25a-becb1f9890dd)
  )
  (hierarchical_label "ECAT1_INT" (shape input) (at 70.485 83.82 180)
    (effects (font (size 1.27 1.27)) (justify right))
    (uuid 1324b89a-f112-4c1e-8b86-640bb8cfa038)
  )
  (hierarchical_label "ESC_TX1_D3" (shape input) (at 108.585 71.12 180)
    (effects (font (size 1.27 1.27)) (justify right))
    (uuid 1a576e01-bff5-4d8d-a9db-7fb7c04492df)
  )
  (hierarchical_label "ESC_TX1_CLK" (shape output) (at 70.485 78.74 180)
    (effects (font (size 1.27 1.27)) (justify right))
    (uuid 255af8d7-ebe4-47a4-afba-9753a358eeb4)
  )
  (hierarchical_label "ESC_RX0_D2" (shape output) (at 148.59 132.08 180)
    (effects (font (size 1.27 1.27)) (justify right))
    (uuid 325c3fd6-a4e7-4c1f-8b8a-150b2c66b387)
  )
  (hierarchical_label "SPI_CLK" (shape input) (at 108.585 93.98 180)
    (effects (font (size 1.27 1.27)) (justify right))
    (uuid 3e79e751-1f27-4e1e-a914-5edff6690754)
  )
  (hierarchical_label "ESC_LED_LINK1_ACT" (shape input) (at 70.485 111.76 180)
    (effects (font (size 1.27 1.27)) (justify right))
    (uuid 3f3fdfa6-3947-452f-a109-4c1c4c0fb01a)
  )
  (hierarchical_label "ESC_PHY0_LINKSTATUS" (shape output) (at 148.59 114.3 180)
    (effects (font (size 1.27 1.27)) (justify right))
    (uuid 40fef266-5930-46b1-8bfe-7ec207de4f23)
  )
  (hierarchical_label "ESC_RX0_CLK" (shape output) (at 148.59 129.54 180)
    (effects (font (size 1.27 1.27)) (justify right))
    (uuid 4197ec80-6a1b-4314-9cc7-aea7d762ad49)
  )
  (hierarchical_label "ANALOG_IN" (shape output) (at 70.485 88.9 180)
    (effects (font (size 1.27 1.27)) (justify right))
    (uuid 41ee30d7-d814-45ac-a4a8-60c51f15622a)
  )
  (hierarchical_label "ESC_I2C_SDA" (shape bidirectional) (at 186.69 109.22 180)
    (effects (font (size 1.27 1.27)) (justify right))
    (uuid 42d5e217-fd07-45d3-9b97-be53a8eb9df8)
  )
  (hierarchical_label "ESC_RX0_ERR" (shape output) (at 186.69 129.54 180)
    (effects (font (size 1.27 1.27)) (justify right))
    (uuid 5170dfae-33b6-4d6d-8654-93abaf6da43a)
  )
  (hierarchical_label "ESC_LED_RUN" (shape input) (at 70.485 109.22 180)
    (effects (font (size 1.27 1.27)) (justify right))
    (uuid 529a0a99-d99a-4d43-acb8-d49837a7fcff)
  )
  (hierarchical_label "ESC_RX1_DV" (shape output) (at 186.69 76.2 180)
    (effects (font (size 1.27 1.27)) (justify right))
    (uuid 5a04d0aa-088c-4ea8-878a-ca06dd2c0643)
  )
  (hierarchical_label "ESC_PHY_MDIO_CLK" (shape input) (at 186.69 114.3 180)
    (effects (font (size 1.27 1.27)) (justify right))
    (uuid 5b46866f-d2fd-48b3-a07d-843708d4a3a6)
  )
  (hierarchical_label "ESC_TX1_D0" (shape input) (at 108.585 78.74 180)
    (effects (font (size 1.27 1.27)) (justify right))
    (uuid 654ba364-0de3-4cdb-a917-0438ee18958b)
  )
  (hierarchical_label "ESC_TX1_ENA" (shape input) (at 186.69 81.28 180)
    (effects (font (size 1.27 1.27)) (justify right))
    (uuid 6bc437ee-8d5a-4f2f-b04b-aa67ae22040f)
  )
  (hierarchical_label "ESC_TX1_D2" (shape input) (at 148.59 71.12 180)
    (effects (font (size 1.27 1.27)) (justify right))
    (uuid 76e8ea89-2a70-4bca-be48-5f5044566224)
  )
  (hierarchical_label "ESC_I2C_SCL" (shape input) (at 148.59 109.22 180)
    (effects (font (size 1.27 1.27)) (justify right))
    (uuid 7cf56f80-919d-4410-ba25-ec89a3e9ff42)
  )
  (hierarchical_label "ESC_TX0_D3" (shape input) (at 108.585 127 180)
    (effects (font (size 1.27 1.27)) (justify right))
    (uuid 7e699c25-9254-49f3-8d11-cd5fb30573e8)
  )
  (hierarchical_label "ESC_PHY1_LINKSTATUS" (shape output) (at 70.485 73.66 180)
    (effects (font (size 1.27 1.27)) (justify right))
    (uuid 8184af9c-24d3-447f-bb96-d472eb2c1c22)
  )
  (hierarchical_label "ESC_RX0_DV" (shape output) (at 186.69 124.46 180)
    (effects (font (size 1.27 1.27)) (justify right))
    (uuid 81c49c33-e7d0-4a3e-b017-c90cdc8b38ae)
  )
  (hierarchical_label "~{SPI_CS1n}" (shape input) (at 148.59 91.44 180)
    (effects (font (size 1.27 1.27)) (justify right))
    (uuid 956aea1a-e162-436a-9994-66e97136eddf)
  )
  (hierarchical_label "ESC_RX1_CLK" (shape output) (at 108.585 73.66 180)
    (effects (font (size 1.27 1.27)) (justify right))
    (uuid 991d0b73-08e4-4d14-a7ae-f06218093f45)
  )
  (hierarchical_label "ESC_TX0_CLK" (shape output) (at 186.69 119.38 180)
    (effects (font (size 1.27 1.27)) (justify right))
    (uuid 9ae2b717-cbbb-4a2f-9848-28a0a22e32f4)
  )
  (hierarchical_label "ESC_RX1_D2" (shape output) (at 186.69 86.36 180)
    (effects (font (size 1.27 1.27)) (justify right))
    (uuid 9cd55f3c-64b7-40ff-89a2-1170823bf15c)
  )
  (hierarchical_label "ESC_TX0_ENA" (shape input) (at 148.59 119.38 180)
    (effects (font (size 1.27 1.27)) (justify right))
    (uuid a1827951-a386-4154-860d-96b7f8490dc5)
  )
  (hierarchical_label "ESC_RX0_D3" (shape output) (at 70.485 132.08 180)
    (effects (font (size 1.27 1.27)) (justify right))
    (uuid a6e9c7b8-31ae-478a-87fc-3bccd507ad87)
  )
  (hierarchical_label "25MHz_OSC_CLK" (shape input) (at 148.59 76.2 180)
    (effects (font (size 1.27 1.27)) (justify right))
    (uuid a723c9ad-9210-42ab-875d-49c77c38ef2c)
  )
  (hierarchical_label "ESC_TX0_D2" (shape input) (at 148.59 124.46 180)
    (effects (font (size 1.27 1.27)) (justify right))
    (uuid a9ae4b17-3949-4cd7-985c-4d554aba2582)
  )
  (hierarchical_label "ESC_TX0_D0" (shape input) (at 108.585 121.92 180)
    (effects (font (size 1.27 1.27)) (justify right))
    (uuid b6a88ff4-2fd8-49f6-a663-0cd036df7acb)
  )
  (hierarchical_label "ESC_PHY_MDIO_DATA" (shape bidirectional) (at 108.585 116.84 180)
    (effects (font (size 1.27 1.27)) (justify right))
    (uuid ba6390bb-dba3-43a3-98f2-8149c67ad0be)
  )
  (hierarchical_label "~{SPI_CS2n}" (shape input) (at 108.585 88.9 180)
    (effects (font (size 1.27 1.27)) (justify right))
    (uuid c0883a79-9660-4b67-a009-bfdd89e37438)
  )
  (hierarchical_label "ESC_RX1_D0" (shape output) (at 148.59 81.28 180)
    (effects (font (size 1.27 1.27)) (justify right))
    (uuid c08da308-dad2-4fd9-8953-18653922b1f7)
  )
  (hierarchical_label "ESC_LED_LINK0_ACT" (shape input) (at 108.585 111.76 180)
    (effects (font (size 1.27 1.27)) (justify right))
    (uuid ca5b3b14-5bf7-4a31-b312-29f02d02bdfa)
  )
  (hierarchical_label "~{ESC_PHY_RESETn}" (shape input) (at 70.485 116.84 180)
    (effects (font (size 1.27 1.27)) (justify right))
    (uuid d55e88de-35e9-4ff8-b58c-5770b9ac7b7d)
  )
  (hierarchical_label "ECAT0_INT" (shape input) (at 70.485 121.92 180)
    (effects (font (size 1.27 1.27)) (justify right))
    (uuid e7b1ca49-d1bc-4d87-90e8-b21ad91e341d)
  )
  (hierarchical_label "SPI_SIMO" (shape input) (at 70.485 93.98 180)
    (effects (font (size 1.27 1.27)) (justify right))
    (uuid ea47ce03-e841-4a71-a52a-a8a699caab65)
  )
  (hierarchical_label "ESC_RX1_ERR" (shape output) (at 70.485 71.12 180)
    (effects (font (size 1.27 1.27)) (justify right))
    (uuid f510138c-6d00-429f-a80f-8d4153b51a3c)
  )
  (hierarchical_label "ESC_RX0_D0" (shape output) (at 186.69 132.08 180)
    (effects (font (size 1.27 1.27)) (justify right))
    (uuid f79d32fc-08b8-43c2-8317-5dd50ce2f468)
  )

  (symbol (lib_id "power:GND") (at 150.495 95.25 0) (unit 1)
    (in_bom yes) (on_board yes)
    (uuid 00000000-0000-0000-0000-00005fa14e90)
    (property "Reference" "#PWR0155" (id 0) (at 150.495 101.6 0)
      (effects (font (size 1.27 1.27)) hide)
    )
    (property "Value" "GND" (id 1) (at 150.622 99.6442 0))
    (property "Footprint" "" (id 2) (at 150.495 95.25 0)
      (effects (font (size 1.27 1.27)) hide)
    )
    (property "Datasheet" "" (id 3) (at 150.495 95.25 0)
      (effects (font (size 1.27 1.27)) hide)
    )
    (pin "1" (uuid 489e703d-2b49-4829-8b00-e2903748afae))
  )

  (symbol (lib_id "power:GND") (at 188.595 95.25 0) (unit 1)
    (in_bom yes) (on_board yes)
    (uuid 00000000-0000-0000-0000-00005fa166ea)
    (property "Reference" "#PWR0156" (id 0) (at 188.595 101.6 0)
      (effects (font (size 1.27 1.27)) hide)
    )
    (property "Value" "GND" (id 1) (at 188.722 99.6442 0))
    (property "Footprint" "" (id 2) (at 188.595 95.25 0)
      (effects (font (size 1.27 1.27)) hide)
    )
    (property "Datasheet" "" (id 3) (at 188.595 95.25 0)
      (effects (font (size 1.27 1.27)) hide)
    )
    (pin "1" (uuid 6492ccc0-3428-474d-b5a3-e50a19f4fd3b))
  )

  (symbol (lib_id "omodri_lib:ADM6_ADF6") (at 80.01 82.55 0) (unit 1)
    (in_bom yes) (on_board yes)
    (uuid 00000000-0000-0000-0000-00005fa3e1d7)
    (property "Reference" "J16" (id 0) (at 80.01 68.58 0)
      (effects (font (size 1.27 1.27)) (justify left))
    )
    (property "Value" "ADM6_ADF6" (id 1) (at 80.01 96.52 0)
      (effects (font (size 1.27 1.27)) (justify left))
    )
    (property "Footprint" "udriver3:ADF6-10-XX.X-XXX-4-X-A-XR" (id 2) (at 80.01 82.55 0)
      (effects (font (size 1.27 1.27)) hide)
    )
    (property "Datasheet" "http://suddendocs.samtec.com/prints/adf6-xxx-xx.x-xxx-4-x-x-xr-mkt.pdf" (id 3) (at 80.01 82.55 0)
      (effects (font (size 1.27 1.27)) hide)
    )
    (property "DigiKey" "612-ADF6-10-03.5-L-4-2-A-TR-ND" (id 4) (at 80.01 82.55 0)
      (effects (font (size 1.27 1.27)) hide)
    )
    (property "Farnell" "3462763" (id 5) (at 80.01 82.55 0)
      (effects (font (size 1.27 1.27)) hide)
    )
    (property "Mouser" "200-ADF6-10-3.5-L42A" (id 6) (at 80.01 82.55 0)
      (effects (font (size 1.27 1.27)) hide)
    )
    (property "Part No" "ADF6-10-03.5-L-4-2-A" (id 7) (at 80.01 82.55 0)
      (effects (font (size 1.27 1.27)) hide)
    )
    (property "RS" "202-7885" (id 8) (at 80.01 82.55 0)
      (effects (font (size 1.27 1.27)) hide)
    )
    (pin "A01" (uuid 81c13cdf-8866-4898-8d69-2bc1645332fe))
    (pin "A02" (uuid 0e202c69-5a6c-4db2-a9b0-028e072fec7e))
    (pin "A03" (uuid 84064b4b-780a-4ca2-b1aa-ec079fa58cf0))
    (pin "A04" (uuid 0e14139f-fcf0-4dfb-8a79-1d4b5ab06a5c))
    (pin "A05" (uuid 95044c8b-b53e-4962-9317-ddec639edbe4))
    (pin "A06" (uuid 63d303d8-7cd5-4681-9378-b95af10026f2))
    (pin "A07" (uuid 94d9bdf6-6dc9-4c12-8d4a-c700cbac0819))
    (pin "A08" (uuid 41f455fa-ed09-492b-ae7c-5798206bd923))
    (pin "A09" (uuid 13e461c6-42e5-4881-9295-11beb5075afc))
    (pin "A10" (uuid c672c4e3-49b2-43b2-825c-4cf0e61398f0))
    (pin "B01" (uuid 5f677411-1658-44dd-bbae-094781775ba6))
    (pin "B02" (uuid 92bd2eea-8eeb-4e9a-b040-daccc80715f4))
    (pin "B03" (uuid 966079d9-d4ae-4dc6-a6b9-90013420e678))
    (pin "B04" (uuid 807820c0-6372-46fd-9a4f-a6443e90ccef))
    (pin "B05" (uuid 253e185d-b658-46d6-b69e-139ec347f142))
    (pin "B06" (uuid b95e5bd4-6c2a-4979-b0e7-0e9e875447e9))
    (pin "B07" (uuid edd72ee4-00e1-401a-b9fa-1348fec106a1))
    (pin "B08" (uuid 62364669-575f-4124-88d9-7d37870f6adc))
    (pin "B09" (uuid edf866ce-d9fd-4c29-8656-c04eb3c5595e))
    (pin "B10" (uuid 189965e3-3472-4d4c-8767-c648e8590237))
    (pin "C01" (uuid b37c66cd-2f4a-4c33-bb3b-2f88fc6244ab))
    (pin "C02" (uuid 20aa4713-c2c1-451f-ab7f-4c7a586ff3a4))
    (pin "C03" (uuid e531f62d-d176-4a0c-b726-ca7407cb579a))
    (pin "C04" (uuid ed66b69a-8641-4e41-ae4f-0345c53a42b3))
    (pin "C05" (uuid 3db17a31-6375-41b8-95ee-ea4c645dedc1))
    (pin "C06" (uuid 980b2e0c-c6c8-409b-b27d-6a7aa8857448))
    (pin "C07" (uuid 706e51f9-ec1e-42b0-aa03-e9378f3a3dfa))
    (pin "C08" (uuid e59c7347-c4e4-47a5-9cb9-f90783f40c40))
    (pin "C09" (uuid a557cf0e-42ad-465c-9e84-3e58eb6adcc9))
    (pin "C10" (uuid 2693fd36-e4e8-4fb3-93f3-23b042d424b8))
    (pin "D01" (uuid ae940695-cc52-4904-936c-88fa8b17a1cd))
    (pin "D02" (uuid f8aeb18b-4c30-4264-8407-246a6d12ca65))
    (pin "D03" (uuid 82dbaa2c-45b5-4a99-a9d7-56462f484c3f))
    (pin "D04" (uuid 90f7e6b0-ae9c-4f33-bbe3-4d2e6c9e73ae))
    (pin "D05" (uuid e15f6654-e3ac-46a6-8b5f-0594a1c5d835))
    (pin "D06" (uuid 47caf62a-100e-457c-b7bc-18ca9f315fdd))
    (pin "D07" (uuid 5139e4c1-b1fe-4bf2-b1ef-d7bd1cb7c743))
    (pin "D08" (uuid 7d3ca49a-ecea-46d2-b15e-980f66e3626a))
    (pin "D09" (uuid 2e1362b8-edc8-4e69-b8bc-6c8a9db6bb6a))
    (pin "D10" (uuid 303caff4-6c39-424e-a818-f136046676d2))
  )

  (symbol (lib_id "omodri_lib:ADM6_ADF6") (at 118.11 82.55 0) (unit 2)
    (in_bom yes) (on_board yes)
    (uuid 00000000-0000-0000-0000-00005fa3e1dd)
    (property "Reference" "J16" (id 0) (at 118.11 68.58 0)
      (effects (font (size 1.27 1.27)) (justify left))
    )
    (property "Value" "ADM6_ADF6" (id 1) (at 118.11 96.52 0)
      (effects (font (size 1.27 1.27)) (justify left))
    )
    (property "Footprint" "udriver3:ADF6-10-XX.X-XXX-4-X-A-XR" (id 2) (at 118.11 82.55 0)
      (effects (font (size 1.27 1.27)) hide)
    )
    (property "Datasheet" "http://suddendocs.samtec.com/prints/adf6-xxx-xx.x-xxx-4-x-x-xr-mkt.pdf" (id 3) (at 118.11 82.55 0)
      (effects (font (size 1.27 1.27)) hide)
    )
    (property "DigiKey" "612-ADF6-10-03.5-L-4-2-A-TR-ND" (id 4) (at 118.11 82.55 0)
      (effects (font (size 1.27 1.27)) hide)
    )
    (property "Farnell" "3462763" (id 5) (at 118.11 82.55 0)
      (effects (font (size 1.27 1.27)) hide)
    )
    (property "Mouser" "200-ADF6-10-3.5-L42A" (id 6) (at 118.11 82.55 0)
      (effects (font (size 1.27 1.27)) hide)
    )
    (property "Part No" "ADF6-10-03.5-L-4-2-A" (id 7) (at 118.11 82.55 0)
      (effects (font (size 1.27 1.27)) hide)
    )
    (property "RS" "202-7885" (id 8) (at 118.11 82.55 0)
      (effects (font (size 1.27 1.27)) hide)
    )
    (pin "A01" (uuid 2ff535a7-5c39-49be-b34b-2196107321fc))
    (pin "A02" (uuid 1dee37a2-dac7-4494-addf-5a0c170da513))
    (pin "A03" (uuid a8965ff9-56f6-4215-837b-e6f32f331b94))
    (pin "A04" (uuid 01c2d760-90d6-48e1-bce6-60c851d76e9d))
    (pin "A05" (uuid 01969ab7-79ef-4dae-9eb2-73e1720cebbd))
    (pin "A06" (uuid caffabab-6e0c-40fb-a6f8-2e464bd1a374))
    (pin "A07" (uuid 53406a7f-dd63-47db-bdca-8cff8f8a918a))
    (pin "A08" (uuid 309bc16e-1bfe-4972-a334-66bc552bf4e3))
    (pin "A09" (uuid dfe80b9b-f7eb-49e6-ad99-f91651ee0b98))
    (pin "A10" (uuid daf040f8-b2a3-4f5b-ac06-bf667fd1cbb0))
    (pin "B01" (uuid 7f58de0b-895d-4587-adeb-8152749ec6a8))
    (pin "B02" (uuid cb8c24fa-d716-48a5-990c-16f77f6139e0))
    (pin "B03" (uuid 0f2a2afa-e3aa-4fc7-8beb-a7a7e2c78f25))
    (pin "B04" (uuid f1500f3b-8590-42e6-b97f-4eccf2e11470))
    (pin "B05" (uuid 7bebf156-33c3-4d76-9cb6-18c8295e50ba))
    (pin "B06" (uuid aa20d2cb-8d12-4762-ad99-ae454b51af9d))
    (pin "B07" (uuid cbc8eb80-3f72-42f3-a502-9002f0eeeb98))
    (pin "B08" (uuid 9a69528e-fc88-49ec-add6-d5e2d9b46410))
    (pin "B09" (uuid 0554c08e-58c7-4daf-87ba-02547a357479))
    (pin "B10" (uuid ded0c478-8ac1-4784-9964-127c3fd176d8))
    (pin "C01" (uuid cc7663ad-15c3-440a-928c-4fbc4e0638bb))
    (pin "C02" (uuid b800cc2d-90b0-4a5d-887c-17c6dafafb48))
    (pin "C03" (uuid 1ef4f62a-0334-44c7-b337-bcf1fce506e5))
    (pin "C04" (uuid c9b409a9-d4fa-444c-8a36-7bcec107ea37))
    (pin "C05" (uuid 296570f7-fc85-4589-b1fe-c95dd440d692))
    (pin "C06" (uuid 95b5baaa-89df-42f5-8ad9-6828958d6341))
    (pin "C07" (uuid 1533fd79-d6b7-45de-9bc0-f6fb13534434))
    (pin "C08" (uuid 5440811c-59ce-47e6-9261-ef82d46942fe))
    (pin "C09" (uuid 09da7faf-2077-4d35-a809-3a62f75daabd))
    (pin "C10" (uuid ac0caf1b-6d82-466d-aee5-bb7b95564388))
    (pin "D01" (uuid c1df1028-e8a6-41e3-8bf8-4e036e9527a9))
    (pin "D02" (uuid 37589f2c-14f6-4fe7-9b11-2a8ffcdfda0e))
    (pin "D03" (uuid 63ec45c9-530d-488e-980b-0d6338750471))
    (pin "D04" (uuid f04ccd57-6f5f-4b05-b840-18d7d2cb9b45))
    (pin "D05" (uuid bb29c5e4-c25f-4ef9-ad86-0cc85475f283))
    (pin "D06" (uuid 9d84e22a-0758-46bc-9646-2720965e75ca))
    (pin "D07" (uuid f51720b0-838d-4922-af79-52c1defb18df))
    (pin "D08" (uuid de3425f9-6676-44aa-be83-a6a81e6fba75))
    (pin "D09" (uuid 3bd0e14c-527e-4bc6-884c-b172bdfe6ddb))
    (pin "D10" (uuid e92bd6d9-7bfa-4cb7-acdf-7d409d0dad37))
  )

  (symbol (lib_id "omodri_lib:ADM6_ADF6") (at 158.115 82.55 0) (unit 3)
    (in_bom yes) (on_board yes)
    (uuid 00000000-0000-0000-0000-00005fa3e1e3)
    (property "Reference" "J16" (id 0) (at 158.115 68.58 0)
      (effects (font (size 1.27 1.27)) (justify left))
    )
    (property "Value" "ADM6_ADF6" (id 1) (at 158.115 96.52 0)
      (effects (font (size 1.27 1.27)) (justify left))
    )
    (property "Footprint" "udriver3:ADF6-10-XX.X-XXX-4-X-A-XR" (id 2) (at 158.115 82.55 0)
      (effects (font (size 1.27 1.27)) hide)
    )
    (property "Datasheet" "http://suddendocs.samtec.com/prints/adf6-xxx-xx.x-xxx-4-x-x-xr-mkt.pdf" (id 3) (at 158.115 82.55 0)
      (effects (font (size 1.27 1.27)) hide)
    )
    (property "DigiKey" "612-ADF6-10-03.5-L-4-2-A-TR-ND" (id 4) (at 158.115 82.55 0)
      (effects (font (size 1.27 1.27)) hide)
    )
    (property "Farnell" "3462763" (id 5) (at 158.115 82.55 0)
      (effects (font (size 1.27 1.27)) hide)
    )
    (property "Mouser" "200-ADF6-10-3.5-L42A" (id 6) (at 158.115 82.55 0)
      (effects (font (size 1.27 1.27)) hide)
    )
    (property "Part No" "ADF6-10-03.5-L-4-2-A" (id 7) (at 158.115 82.55 0)
      (effects (font (size 1.27 1.27)) hide)
    )
    (property "RS" "202-7885" (id 8) (at 158.115 82.55 0)
      (effects (font (size 1.27 1.27)) hide)
    )
    (pin "A01" (uuid 37b3d1dc-e195-41da-a489-5b94f765f8c1))
    (pin "A02" (uuid a87b6715-d95b-4dde-8132-c18eec3efd8d))
    (pin "A03" (uuid f4ef5bf7-0968-41b1-9bb4-593511dfcaaf))
    (pin "A04" (uuid e39cc344-948d-414b-b7e2-869868e8667c))
    (pin "A05" (uuid 8e13a81f-5737-4f57-a4e4-cb53b3dad15f))
    (pin "A06" (uuid f945cedb-69b4-49e1-9bf8-7b88c5fd2cd3))
    (pin "A07" (uuid 0d5a7170-703d-47d0-9832-9bb6a3947afe))
    (pin "A08" (uuid 942625d8-5c02-4b34-bb61-b5e78d5d049c))
    (pin "A09" (uuid 812b8426-492f-448a-8717-f804d8d216f8))
    (pin "A10" (uuid d9dd007a-1446-4f6a-8c4f-71ba9ec8eb0f))
    (pin "B01" (uuid c1971ad8-83e6-47b9-8aef-9ea29ed9c1fa))
    (pin "B02" (uuid 2e250c42-dd14-4761-8a03-978fd3cd8158))
    (pin "B03" (uuid 2e58130b-8a7c-4397-8b5f-69cf9dbcb573))
    (pin "B04" (uuid b76991cb-b91c-471c-9ca1-b2e55f4fc690))
    (pin "B05" (uuid c842f93c-1efa-43cc-8d71-2314f90bc25c))
    (pin "B06" (uuid 09e79d93-2285-469a-8184-2ed49c15c9c0))
    (pin "B07" (uuid a8735bfb-08a4-461e-ae03-6c7822bb461e))
    (pin "B08" (uuid e8315445-9eaa-48bf-a6c1-57dbe51d8486))
    (pin "B09" (uuid 30274d2d-1a22-4dcc-8dc4-114e61c65043))
    (pin "B10" (uuid ef23a97e-a89d-4805-8706-f01022324170))
    (pin "C01" (uuid 8fce8b92-307a-448c-a114-6ec0372307f2))
    (pin "C02" (uuid c6b68e50-040a-4fec-8e4f-96e90ee03fe9))
    (pin "C03" (uuid e0e80b4c-a894-425c-b62a-a9dc355b74a7))
    (pin "C04" (uuid c845e11d-78df-4d79-b286-89fc783af744))
    (pin "C05" (uuid 9973c57c-f427-4965-976b-c0901425406c))
    (pin "C06" (uuid be983cba-2e0d-43e4-9d8f-8b811265f556))
    (pin "C07" (uuid 4eae56fd-8e3b-4e3e-b141-52c04b1d7b52))
    (pin "C08" (uuid 85cd15fc-4775-4936-bab9-98a889345283))
    (pin "C09" (uuid aa1a1225-1896-472f-ac30-6269394f1193))
    (pin "C10" (uuid 608578a0-41d6-4331-bfd6-8dd052c979d3))
    (pin "D01" (uuid eb7398f3-c6b5-4943-9c63-274e57dd1a4d))
    (pin "D02" (uuid 7c94ecc2-802a-429d-a74c-97761f4445fb))
    (pin "D03" (uuid d3f37b17-5e9d-4bf2-8fe6-4e5793ba6caa))
    (pin "D04" (uuid 7e15c2ae-b81c-4764-960a-5ececfbaf7a1))
    (pin "D05" (uuid 3e33736b-b530-4dbb-9eee-ce7ca16d1dad))
    (pin "D06" (uuid 95cf4856-6c16-4cb5-9ad2-13258f38114f))
    (pin "D07" (uuid 57cf5ae8-3f49-4881-b540-eabec0ae32b9))
    (pin "D08" (uuid e258d59e-2da8-4536-a5c5-2634443f603b))
    (pin "D09" (uuid 1ebdb10d-7f42-402f-a066-67e85cf88e78))
    (pin "D10" (uuid 7fb247ed-ad71-497a-a257-89851d78db67))
  )

  (symbol (lib_id "omodri_lib:ADM6_ADF6") (at 196.215 82.55 0) (unit 4)
    (in_bom yes) (on_board yes)
    (uuid 00000000-0000-0000-0000-00005fa3e1e9)
    (property "Reference" "J16" (id 0) (at 196.215 68.58 0)
      (effects (font (size 1.27 1.27)) (justify left))
    )
    (property "Value" "ADM6_ADF6" (id 1) (at 196.215 96.52 0)
      (effects (font (size 1.27 1.27)) (justify left))
    )
    (property "Footprint" "udriver3:ADF6-10-XX.X-XXX-4-X-A-XR" (id 2) (at 196.215 82.55 0)
      (effects (font (size 1.27 1.27)) hide)
    )
    (property "Datasheet" "http://suddendocs.samtec.com/prints/adf6-xxx-xx.x-xxx-4-x-x-xr-mkt.pdf" (id 3) (at 196.215 82.55 0)
      (effects (font (size 1.27 1.27)) hide)
    )
    (property "DigiKey" "612-ADF6-10-03.5-L-4-2-A-TR-ND" (id 4) (at 196.215 82.55 0)
      (effects (font (size 1.27 1.27)) hide)
    )
    (property "Farnell" "3462763" (id 5) (at 196.215 82.55 0)
      (effects (font (size 1.27 1.27)) hide)
    )
    (property "Mouser" "200-ADF6-10-3.5-L42A" (id 6) (at 196.215 82.55 0)
      (effects (font (size 1.27 1.27)) hide)
    )
    (property "Part No" "ADF6-10-03.5-L-4-2-A" (id 7) (at 196.215 82.55 0)
      (effects (font (size 1.27 1.27)) hide)
    )
    (property "RS" "202-7885" (id 8) (at 196.215 82.55 0)
      (effects (font (size 1.27 1.27)) hide)
    )
    (pin "A01" (uuid 96aea121-08af-4d06-b1fd-f4b1e5cb02dc))
    (pin "A02" (uuid dbea7d6d-cc01-4a6b-8474-a046df6cfbe6))
    (pin "A03" (uuid e8ea0af6-d3ec-443a-889f-f7e4b6f1213e))
    (pin "A04" (uuid 30d29f97-6459-457f-9057-fe00cee9fa91))
    (pin "A05" (uuid 2f29b586-ecc6-4525-85f6-2c302cb3c439))
    (pin "A06" (uuid d3d2549a-f59b-4ffd-9629-b999e20d30a7))
    (pin "A07" (uuid efdb2b16-81f2-4ed8-84cf-cba3e065aee2))
    (pin "A08" (uuid 3c5c73da-de19-4778-ba98-9c53c2ccc954))
    (pin "A09" (uuid 0bfa87b4-d526-41f0-ab9c-877fd546aca4))
    (pin "A10" (uuid fbc7dbb6-1787-45f4-8d8e-4762818ebcfd))
    (pin "B01" (uuid ba5cb02d-27dc-4578-bc82-718627db0b21))
    (pin "B02" (uuid 7a6a2289-96bd-4776-affb-68f46f1a544e))
    (pin "B03" (uuid 7b4c07f4-460b-416b-97dd-536e9dc88b62))
    (pin "B04" (uuid 1e60d1b8-424e-405d-a530-5a38a00e0c55))
    (pin "B05" (uuid c5d4377d-579e-41bb-ba09-9f11e86ad1af))
    (pin "B06" (uuid c6c75939-d028-4119-9217-f9fa0d168723))
    (pin "B07" (uuid 410fd00e-ca70-425b-8ab6-f70e4ddd02c1))
    (pin "B08" (uuid 70f1620c-fe0f-4789-9669-4ac0aa30cfc4))
    (pin "B09" (uuid a79ebc1c-d451-43f9-b185-ef5db8486adf))
    (pin "B10" (uuid 92b8daa1-53aa-4a57-8be2-99f3b8634564))
    (pin "C01" (uuid dc7b6dc4-eff8-47b9-967b-5a58fd57850e))
    (pin "C02" (uuid afac12ba-876b-4b4b-9286-f153cae2c475))
    (pin "C03" (uuid a48d651d-bca7-4dac-b8cf-7a036036fa9b))
    (pin "C04" (uuid 07430be7-3177-4f11-8ae2-aefcd81a790a))
    (pin "C05" (uuid 245cfa0b-f871-40ee-8224-639fb00c1fb7))
    (pin "C06" (uuid eb2c416b-639f-46df-8e8e-1c4502dc2546))
    (pin "C07" (uuid a99c1b8b-aa30-4fc0-ac5d-b0a28113eda3))
    (pin "C08" (uuid 9269b5b6-be92-431f-a55f-9c713ec90af3))
    (pin "C09" (uuid ad1cd88a-9255-4e13-9d43-5489fddf56bd))
    (pin "C10" (uuid 7815a6b8-2895-4e74-8517-219320bf21ab))
    (pin "D01" (uuid c7772182-376c-4f5f-bee7-9b6a40ea86bc))
    (pin "D02" (uuid 4ce1e342-8b17-47bb-936f-f82cd172a043))
    (pin "D03" (uuid c2e31e16-c877-4ac0-bca4-b27237cd01a7))
    (pin "D04" (uuid dcb8a337-b516-4724-8104-123aa90d7d25))
    (pin "D05" (uuid 1d4cdde6-abd7-43bb-b70c-f776423f4331))
    (pin "D06" (uuid 82bcdcf6-304d-4c93-bdcf-5eb515bbd27e))
    (pin "D07" (uuid 2a6a6645-3e87-4d4a-bc9c-d657d199b910))
    (pin "D08" (uuid 1a86d274-6380-400d-a793-509b6e825347))
    (pin "D09" (uuid 5d377770-bd02-42d2-812b-bc5e23580072))
    (pin "D10" (uuid 933dfa20-cc0a-4d78-a9fc-bfdf3eaf88e3))
  )

  (symbol (lib_id "omodri_lib:ADM6_ADF6") (at 80.01 120.65 0) (unit 1)
    (in_bom yes) (on_board yes)
    (uuid 00000000-0000-0000-0000-00005fa472e1)
    (property "Reference" "J15" (id 0) (at 80.01 106.68 0)
      (effects (font (size 1.27 1.27)) (justify left))
    )
    (property "Value" "ADM6_ADF6" (id 1) (at 80.01 134.62 0)
      (effects (font (size 1.27 1.27)) (justify left))
    )
    (property "Footprint" "udriver3:ADF6-10-XX.X-XXX-4-X-A-XR" (id 2) (at 80.01 120.65 0)
      (effects (font (size 1.27 1.27)) hide)
    )
    (property "Datasheet" "http://suddendocs.samtec.com/prints/adf6-xxx-xx.x-xxx-4-x-x-xr-mkt.pdf" (id 3) (at 80.01 120.65 0)
      (effects (font (size 1.27 1.27)) hide)
    )
    (property "DigiKey" "612-ADF6-10-03.5-L-4-2-A-TR-ND" (id 4) (at 80.01 120.65 0)
      (effects (font (size 1.27 1.27)) hide)
    )
    (property "Farnell" "3462763" (id 5) (at 80.01 120.65 0)
      (effects (font (size 1.27 1.27)) hide)
    )
    (property "Mouser" "200-ADF6-10-3.5-L42A" (id 6) (at 80.01 120.65 0)
      (effects (font (size 1.27 1.27)) hide)
    )
    (property "Part No" "ADF6-10-03.5-L-4-2-A" (id 7) (at 80.01 120.65 0)
      (effects (font (size 1.27 1.27)) hide)
    )
    (property "RS" "202-7885" (id 8) (at 80.01 120.65 0)
      (effects (font (size 1.27 1.27)) hide)
    )
    (pin "A01" (uuid bcb0f0f3-9202-4c96-8cd4-a3d9ae1c1bfd))
    (pin "A02" (uuid 98330797-10b7-4f4c-afda-803317b2a4c3))
    (pin "A03" (uuid 4d832d47-7ac2-4f4b-b122-f22fcdda5b07))
    (pin "A04" (uuid 112526b4-7c06-4fc6-bcab-1835cfb9a4d5))
    (pin "A05" (uuid ffa43af7-ff42-428a-987f-d45107ba595a))
    (pin "A06" (uuid 9ffb69f3-5493-4f8d-b811-5cb142eb071c))
    (pin "A07" (uuid c343803b-95bc-4232-b4ad-f374f6343a13))
    (pin "A08" (uuid ea91c927-6eaa-430a-99c2-5eda8f1f683f))
    (pin "A09" (uuid 0462598b-e9b9-43b1-b5ad-6acfdb7718a9))
    (pin "A10" (uuid f98e4f38-11c9-4a7f-9dee-b4cd80b1c59d))
    (pin "B01" (uuid 1bacc481-9167-4a89-b39c-bd08faf11c42))
    (pin "B02" (uuid faab2dbe-7814-4a6e-95c3-4f84d319ee44))
    (pin "B03" (uuid f40c0bd5-3296-490d-9659-b84dc061589d))
    (pin "B04" (uuid 70b60193-ca14-43dc-a0c6-a57b77f347ae))
    (pin "B05" (uuid 98561ed6-a69e-4e4e-a8ff-c2d08622cf50))
    (pin "B06" (uuid a60d1e25-18b3-4c94-a663-f59e88e024fe))
    (pin "B07" (uuid 2551c58e-0921-4d55-8192-6974530b9212))
    (pin "B08" (uuid 78be1691-d1ba-4c7e-bfec-6c6f8a7b9e12))
    (pin "B09" (uuid 9cfc041f-7538-4c12-a6fe-3cbe2fade490))
    (pin "B10" (uuid 662f5dc0-950b-4193-b65c-5e3defcb0a29))
    (pin "C01" (uuid 61b83549-b87c-4dc3-a150-d77359b3b03d))
    (pin "C02" (uuid e3d56b20-0da7-4b25-bc45-070c3ea323ea))
    (pin "C03" (uuid 977e58fc-ad65-4780-8d18-ecfeb0eb4ab1))
    (pin "C04" (uuid 0cc6d64a-d2b1-460c-96a5-cdee9bcb1e3b))
    (pin "C05" (uuid a9074037-23c4-4a00-9bf0-17315cb74ea6))
    (pin "C06" (uuid e608f212-d984-465c-988d-d35c4f47ce72))
    (pin "C07" (uuid 0d7255bc-63c5-4df7-8ab0-c5d9aa68d501))
    (pin "C08" (uuid be6ec400-a28f-4335-812f-6efa36aa21dc))
    (pin "C09" (uuid ff029d89-a493-41de-a57c-8b96d1ab9845))
    (pin "C10" (uuid 15fc174a-9ef5-4f6b-b79f-2e294765fa9c))
    (pin "D01" (uuid b19d9ee4-dc78-4e8d-bb4e-2eefddda5f2a))
    (pin "D02" (uuid c1842017-f83a-4a99-a7bb-6a3159a02232))
    (pin "D03" (uuid f826044e-c216-4518-b86c-99e562ced9d0))
    (pin "D04" (uuid 9f30ad64-5f25-4b43-a8a3-e56b0f76e28d))
    (pin "D05" (uuid 95a7a4f6-f160-4b18-b77e-279b60618c95))
    (pin "D06" (uuid f36e2094-cb08-467d-a067-f6a064162beb))
    (pin "D07" (uuid ac4cd03f-8509-4a7e-b375-3244265262c5))
    (pin "D08" (uuid 349e7ce8-86fd-4dad-ad03-4c12efcf194a))
    (pin "D09" (uuid 191ee860-0c40-4c3c-9ed6-4846a3e981a2))
    (pin "D10" (uuid 859d694a-4e99-4a3d-a9a5-dab8409d19f7))
  )

  (symbol (lib_id "omodri_lib:ADM6_ADF6") (at 118.11 120.65 0) (unit 2)
    (in_bom yes) (on_board yes)
    (uuid 00000000-0000-0000-0000-00005fa472e7)
    (property "Reference" "J15" (id 0) (at 118.11 106.68 0)
      (effects (font (size 1.27 1.27)) (justify left))
    )
    (property "Value" "ADM6_ADF6" (id 1) (at 118.11 134.62 0)
      (effects (font (size 1.27 1.27)) (justify left))
    )
    (property "Footprint" "udriver3:ADF6-10-XX.X-XXX-4-X-A-XR" (id 2) (at 118.11 120.65 0)
      (effects (font (size 1.27 1.27)) hide)
    )
    (property "Datasheet" "http://suddendocs.samtec.com/prints/adf6-xxx-xx.x-xxx-4-x-x-xr-mkt.pdf" (id 3) (at 118.11 120.65 0)
      (effects (font (size 1.27 1.27)) hide)
    )
    (property "DigiKey" "612-ADF6-10-03.5-L-4-2-A-TR-ND" (id 4) (at 118.11 120.65 0)
      (effects (font (size 1.27 1.27)) hide)
    )
    (property "Farnell" "3462763" (id 5) (at 118.11 120.65 0)
      (effects (font (size 1.27 1.27)) hide)
    )
    (property "Mouser" "200-ADF6-10-3.5-L42A" (id 6) (at 118.11 120.65 0)
      (effects (font (size 1.27 1.27)) hide)
    )
    (property "Part No" "ADF6-10-03.5-L-4-2-A" (id 7) (at 118.11 120.65 0)
      (effects (font (size 1.27 1.27)) hide)
    )
    (property "RS" "202-7885" (id 8) (at 118.11 120.65 0)
      (effects (font (size 1.27 1.27)) hide)
    )
    (pin "A01" (uuid d2faf795-e1ea-4ef5-9aa5-4b703bafb524))
    (pin "A02" (uuid a78968c2-8d32-42ec-b44f-abc29e24f47f))
    (pin "A03" (uuid d25ddcab-d068-4ac2-9fab-10a049437062))
    (pin "A04" (uuid 704c112f-9925-4419-9621-510724d18819))
    (pin "A05" (uuid adc7c17f-648c-40e3-a729-45fb33d2f205))
    (pin "A06" (uuid 743ded83-3e32-4c9b-9dac-01300b578276))
    (pin "A07" (uuid 278d1f7d-9b6c-40fd-9a8c-4f38396469ce))
    (pin "A08" (uuid 2af74ae6-a41b-4f29-9d94-459eba06a447))
    (pin "A09" (uuid c39a3f9e-9317-48bc-8b34-08f12b033920))
    (pin "A10" (uuid 6000e33a-17bc-4f31-aa10-5a067e07a6f9))
    (pin "B01" (uuid 5680d540-301d-4129-9b7d-5dd92f13d4d7))
    (pin "B02" (uuid 940c7f95-988e-4690-9ff1-171f95acb006))
    (pin "B03" (uuid f976d7fc-c06c-4ba8-a4e0-d2a2c31ca35f))
    (pin "B04" (uuid 44851714-3951-4bbf-8a28-1cb2ab727966))
    (pin "B05" (uuid 6b7c2c47-35cd-426d-8f50-a822f76edb70))
    (pin "B06" (uuid 8cb57f4e-e249-4d66-92b8-a03d45406e61))
    (pin "B07" (uuid 6851cbdd-aade-4551-81ba-8ce3964db335))
    (pin "B08" (uuid 756d9df0-e300-4b81-a38f-1e833c21ff24))
    (pin "B09" (uuid 16e8b0ea-4f4f-479c-9e6d-7a25bbbb8c95))
    (pin "B10" (uuid c6af9f54-25da-4ec8-98cd-d8706821d4b0))
    (pin "C01" (uuid 65074865-b3ba-4ed1-a9a8-e69f944dafcf))
    (pin "C02" (uuid d7771c2a-ef35-4cf6-91f6-1b8ab8f40771))
    (pin "C03" (uuid 96fcaee8-1dc5-4948-81a7-5dcb91ae9029))
    (pin "C04" (uuid ebe91893-de77-4c02-b7db-c9aab9883605))
    (pin "C05" (uuid c2f7816b-01f1-4af3-87d6-34f520909d75))
    (pin "C06" (uuid b6db5502-8d6a-41d9-ad32-72b8f952faff))
    (pin "C07" (uuid 71efbdab-b075-47c9-9ad9-ec0f564eeb7a))
    (pin "C08" (uuid 8f7e6f0c-04df-4626-83a1-bc3ba3a1f25c))
    (pin "C09" (uuid d16b906c-fff0-4b90-be9b-e54e106a2ff0))
    (pin "C10" (uuid dc5747ee-c11a-455a-91d3-3200c7bbec9e))
    (pin "D01" (uuid 8dc83ad6-1c41-4d85-99c8-f1981d3fc402))
    (pin "D02" (uuid a3cab885-57e1-4bf4-b45b-89d465797f52))
    (pin "D03" (uuid 058b779b-74e0-412b-8c97-47e9377e32ca))
    (pin "D04" (uuid 69f557c0-33b3-466f-b6ee-20c990abe6ad))
    (pin "D05" (uuid 9d527873-7231-48c1-8d8b-48983a022605))
    (pin "D06" (uuid 36ed0e64-4da8-4a63-b844-c5d5c162de61))
    (pin "D07" (uuid aa127158-1916-4597-9a01-dd6d32ec4a6d))
    (pin "D08" (uuid e73d81a8-9835-4daa-b0fa-a5789707a375))
    (pin "D09" (uuid 7113bfb0-3212-40c9-889f-09cb5b42c0ea))
    (pin "D10" (uuid 3330930c-b00f-41f2-b9e6-3438fd69ced6))
  )

  (symbol (lib_id "omodri_lib:ADM6_ADF6") (at 158.115 120.65 0) (unit 3)
    (in_bom yes) (on_board yes)
    (uuid 00000000-0000-0000-0000-00005fa472ed)
    (property "Reference" "J15" (id 0) (at 158.115 106.68 0)
      (effects (font (size 1.27 1.27)) (justify left))
    )
    (property "Value" "ADM6_ADF6" (id 1) (at 158.115 134.62 0)
      (effects (font (size 1.27 1.27)) (justify left))
    )
    (property "Footprint" "udriver3:ADF6-10-XX.X-XXX-4-X-A-XR" (id 2) (at 158.115 120.65 0)
      (effects (font (size 1.27 1.27)) hide)
    )
    (property "Datasheet" "http://suddendocs.samtec.com/prints/adf6-xxx-xx.x-xxx-4-x-x-xr-mkt.pdf" (id 3) (at 158.115 120.65 0)
      (effects (font (size 1.27 1.27)) hide)
    )
    (property "DigiKey" "612-ADF6-10-03.5-L-4-2-A-TR-ND" (id 4) (at 158.115 120.65 0)
      (effects (font (size 1.27 1.27)) hide)
    )
    (property "Farnell" "3462763" (id 5) (at 158.115 120.65 0)
      (effects (font (size 1.27 1.27)) hide)
    )
    (property "Mouser" "200-ADF6-10-3.5-L42A" (id 6) (at 158.115 120.65 0)
      (effects (font (size 1.27 1.27)) hide)
    )
    (property "Part No" "ADF6-10-03.5-L-4-2-A" (id 7) (at 158.115 120.65 0)
      (effects (font (size 1.27 1.27)) hide)
    )
    (property "RS" "202-7885" (id 8) (at 158.115 120.65 0)
      (effects (font (size 1.27 1.27)) hide)
    )
    (pin "A01" (uuid fdc12b42-76aa-4a2e-8546-8595e6682329))
    (pin "A02" (uuid 1f276c71-072f-4ba5-8a67-b8f423a47894))
    (pin "A03" (uuid 23856652-5a64-4ebf-9fc5-93cbfa536ce8))
    (pin "A04" (uuid afa5d480-024f-4662-a8ff-8ddf5853664f))
    (pin "A05" (uuid 90b91fab-4865-4dae-9576-b08897aadc9a))
    (pin "A06" (uuid 6b27f23b-4476-4e42-a5a6-c767f6d35bfe))
    (pin "A07" (uuid dbeb0ad8-2c2e-4961-8f86-0ad5cd876179))
    (pin "A08" (uuid 192a858a-8cf0-40d3-ad14-f23904fd7338))
    (pin "A09" (uuid 10831a15-8a91-4738-837c-86b1feb80c64))
    (pin "A10" (uuid 5f67e38a-880c-4647-897e-98f9adf88f02))
    (pin "B01" (uuid 2e557ef2-7e15-4cf5-87ed-b1afdf84ee8f))
    (pin "B02" (uuid 5a8f16cb-bafc-452a-94b8-7a3d2e13ba42))
    (pin "B03" (uuid fa12ca70-b1a0-421f-a13d-6a2617708be0))
    (pin "B04" (uuid fbd2a9fb-fc7b-4e0e-b217-7e39b15966cb))
    (pin "B05" (uuid 8f469a68-337f-4775-a02b-0e611e7387a7))
    (pin "B06" (uuid 3bc81594-f31d-40c8-8fde-0e29fad6fb15))
    (pin "B07" (uuid 2a4d3de4-2af8-47a7-b1b5-04931ac14375))
    (pin "B08" (uuid 657f4efb-69cc-4e62-b166-8f41facb544f))
    (pin "B09" (uuid a9ff7f01-a1a4-4c8c-8463-fa0da81b5c3c))
    (pin "B10" (uuid 0a2415f0-3ce4-4c5f-8f92-2fbaa7df4a49))
    (pin "C01" (uuid 26de89b9-921a-44aa-9805-48ae49ccd8be))
    (pin "C02" (uuid c1d925aa-b73a-4a95-8853-251883311a57))
    (pin "C03" (uuid 29523296-1fc1-4386-a174-9577a34c91cc))
    (pin "C04" (uuid 7f64497f-540a-466f-b5d0-d576ca49982a))
    (pin "C05" (uuid 6a66bd65-69f6-46e0-8f9d-0bfbba76524c))
    (pin "C06" (uuid 22f4713b-b2fe-4b9c-8f35-e82cd9fee8d1))
    (pin "C07" (uuid 7397a2d5-28cf-47ec-a170-28ebfc61c2c1))
    (pin "C08" (uuid 90049244-085d-4a92-9c80-d19278780726))
    (pin "C09" (uuid 2cc9e88e-b9e3-42f9-9bc6-bee34f37b539))
    (pin "C10" (uuid 3cf787b8-a90f-471c-a39b-b1310840386b))
    (pin "D01" (uuid eadd55cd-a235-428a-b79b-e6cc5bcb0a73))
    (pin "D02" (uuid 2cb276f8-3426-4018-b067-0df437fb68fa))
    (pin "D03" (uuid e5379990-8624-4f36-8819-13013be87aae))
    (pin "D04" (uuid 747cb882-8bb2-4ce6-ab19-d10042e469f5))
    (pin "D05" (uuid 98ba6383-639a-4663-a590-7a9fde049ac3))
    (pin "D06" (uuid 5d17ef5f-2324-4e33-93f2-263ee84f8466))
    (pin "D07" (uuid 69f62dcd-b026-447b-a965-491c8aebb30b))
    (pin "D08" (uuid 45846fae-99db-498d-bd91-706130b48b0d))
    (pin "D09" (uuid 27048c0a-8343-4a2a-89a7-c771d3166bbd))
    (pin "D10" (uuid 56c3ab78-77b7-4f07-821f-3062cb1db3ba))
  )

  (symbol (lib_id "omodri_lib:ADM6_ADF6") (at 196.215 120.65 0) (unit 4)
    (in_bom yes) (on_board yes)
    (uuid 00000000-0000-0000-0000-00005fa472f3)
    (property "Reference" "J15" (id 0) (at 196.215 106.68 0)
      (effects (font (size 1.27 1.27)) (justify left))
    )
    (property "Value" "ADM6_ADF6" (id 1) (at 196.215 134.62 0)
      (effects (font (size 1.27 1.27)) (justify left))
    )
    (property "Footprint" "udriver3:ADF6-10-XX.X-XXX-4-X-A-XR" (id 2) (at 196.215 120.65 0)
      (effects (font (size 1.27 1.27)) hide)
    )
    (property "Datasheet" "http://suddendocs.samtec.com/prints/adf6-xxx-xx.x-xxx-4-x-x-xr-mkt.pdf" (id 3) (at 196.215 120.65 0)
      (effects (font (size 1.27 1.27)) hide)
    )
    (property "DigiKey" "612-ADF6-10-03.5-L-4-2-A-TR-ND" (id 4) (at 196.215 120.65 0)
      (effects (font (size 1.27 1.27)) hide)
    )
    (property "Farnell" "3462763" (id 5) (at 196.215 120.65 0)
      (effects (font (size 1.27 1.27)) hide)
    )
    (property "Mouser" "200-ADF6-10-3.5-L42A" (id 6) (at 196.215 120.65 0)
      (effects (font (size 1.27 1.27)) hide)
    )
    (property "Part No" "ADF6-10-03.5-L-4-2-A" (id 7) (at 196.215 120.65 0)
      (effects (font (size 1.27 1.27)) hide)
    )
    (property "RS" "202-7885" (id 8) (at 196.215 120.65 0)
      (effects (font (size 1.27 1.27)) hide)
    )
    (pin "A01" (uuid 7216dfba-f089-4e84-94b4-c296b5fda744))
    (pin "A02" (uuid 6e4cf200-6e3e-4557-bff3-465cd2caa521))
    (pin "A03" (uuid 7534b4f1-0adb-4121-9e96-3f0a121c59f9))
    (pin "A04" (uuid c40e1c06-c2cb-4bff-981b-12b3e2ea3a55))
    (pin "A05" (uuid 5e616f4a-f208-42e3-bb9f-8b8b86ad9e8f))
    (pin "A06" (uuid 7dba6468-dce9-42aa-876e-569692cdb44b))
    (pin "A07" (uuid 6e250898-ada9-41f0-996e-514802856e9a))
    (pin "A08" (uuid aa1e3496-6cb0-4ac2-bc63-f473a7f970a9))
    (pin "A09" (uuid 77ca84e9-2a89-4ef5-9cf3-4e1d6ede6f04))
    (pin "A10" (uuid 4421c571-b51a-43d5-9e91-901cf4784e41))
    (pin "B01" (uuid 7254ab79-d1a7-49cc-8eab-bf47dbb476e5))
    (pin "B02" (uuid 7bf96c5c-d21b-4f1a-8455-aefbb6abfa1c))
    (pin "B03" (uuid cc826c47-d3bd-47c8-82a9-1c5b17802a53))
    (pin "B04" (uuid 3c102a27-7c66-44f4-aaf3-2d025d0e78b3))
    (pin "B05" (uuid f586ca42-a88a-41c8-b544-fd5da1c00f78))
    (pin "B06" (uuid 5f676b55-bf59-47f2-8d85-dc90b6614311))
    (pin "B07" (uuid 02f977a0-6fcd-43b5-839d-dfbac7c20f22))
    (pin "B08" (uuid 1b93075a-c27e-44ff-8ae0-ee37034e8c03))
    (pin "B09" (uuid c2f31cd7-bac9-485b-958d-8dc2710db2a4))
    (pin "B10" (uuid 3bb96b57-2b65-4129-b8fd-66ead93a379c))
    (pin "C01" (uuid 0556ff2a-baf0-4af6-84ab-e038c7e9a179))
    (pin "C02" (uuid 7d6e04e4-8940-469b-825b-6a1cbbbbfca1))
    (pin "C03" (uuid ed5facdf-a1a0-433b-a06a-5a6c724cdba4))
    (pin "C04" (uuid 668ff010-376a-4d77-9e73-a74503d8a362))
    (pin "C05" (uuid d19ba432-c0b8-4e25-a764-bbee33653af5))
    (pin "C06" (uuid b569eff9-2542-4e3a-903d-a41ea8dc6f03))
    (pin "C07" (uuid 24192587-7435-4a10-9387-88886f534fd4))
    (pin "C08" (uuid c2dea669-605a-490f-94b6-580bf6122658))
    (pin "C09" (uuid 7d30f9df-24c1-4876-9dd5-ba5830490b3e))
    (pin "C10" (uuid 2aa39396-1f76-4186-840c-97d5bb1b80ba))
    (pin "D01" (uuid 3547eb8d-002b-4346-ad49-d9487cdbfb9e))
    (pin "D02" (uuid fbd678c6-5437-482d-8274-18b3cfc85302))
    (pin "D03" (uuid 91ed94a7-a1cd-48f3-b33e-b6d6f94f24e6))
    (pin "D04" (uuid 54bc52e5-6d55-4041-8708-d8c0411eaa7f))
    (pin "D05" (uuid 6f31dea2-80d5-4bc1-8b04-55c783add456))
    (pin "D06" (uuid 6da447a8-d219-426a-9b82-fbd2520ed579))
    (pin "D07" (uuid 3147da29-0b95-409e-8b5c-702b3a0ea80f))
    (pin "D08" (uuid c57bff53-9fb0-494c-ba24-f8667507b3de))
    (pin "D09" (uuid 14624fef-6bd0-4da0-a2ae-11fd163b4127))
    (pin "D10" (uuid f4575d13-0e9a-4591-9d27-5bd869c1c541))
  )

  (symbol (lib_id "power:GND") (at 110.49 133.35 0) (unit 1)
    (in_bom yes) (on_board yes)
    (uuid 00000000-0000-0000-0000-00005faa1789)
    (property "Reference" "#PWR0161" (id 0) (at 110.49 139.7 0)
      (effects (font (size 1.27 1.27)) hide)
    )
    (property "Value" "GND" (id 1) (at 110.617 137.7442 0))
    (property "Footprint" "" (id 2) (at 110.49 133.35 0)
      (effects (font (size 1.27 1.27)) hide)
    )
    (property "Datasheet" "" (id 3) (at 110.49 133.35 0)
      (effects (font (size 1.27 1.27)) hide)
    )
    (pin "1" (uuid 9eb25cde-2fb7-4c61-b3f3-8ba9a8152b49))
  )

  (symbol (lib_id "power:GND") (at 72.39 133.35 0) (unit 1)
    (in_bom yes) (on_board yes)
    (uuid 00000000-0000-0000-0000-00005ffea329)
    (property "Reference" "#PWR0160" (id 0) (at 72.39 139.7 0)
      (effects (font (size 1.27 1.27)) hide)
    )
    (property "Value" "GND" (id 1) (at 72.517 137.7442 0))
    (property "Footprint" "" (id 2) (at 72.39 133.35 0)
      (effects (font (size 1.27 1.27)) hide)
    )
    (property "Datasheet" "" (id 3) (at 72.39 133.35 0)
      (effects (font (size 1.27 1.27)) hide)
    )
    (pin "1" (uuid 8bdf6076-4497-4864-b78a-49fe74625212))
  )
)
