(kicad_sch (version 20211123) (generator eeschema)

  (uuid bc44c88c-b123-45dd-b92e-fca9507da466)

  (paper "A4")

  (title_block
    (title "AC current measurement")
    (date "2016-03-12")
    (rev "0.1")
    (company "Open Source Solar Inverter Project")
  )

  (lib_symbols
    (symbol "OSSI_standard_components:+3V3" (power) (pin_names (offset 0)) (in_bom yes) (on_board yes)
      (property "Reference" "#PWR" (id 0) (at 0 6.985 0)
        (effects (font (size 1.524 1.524)) hide)
      )
      (property "Value" "+3V3" (id 1) (at 0 5.08 0)
        (effects (font (size 1.1938 1.1938) bold))
      )
      (property "Footprint" "" (id 2) (at 0 0 0)
        (effects (font (size 1.524 1.524)))
      )
      (property "Datasheet" "" (id 3) (at 0 0 0)
        (effects (font (size 1.524 1.524)))
      )
      (symbol "+3V3_1_0"
        (polyline
          (pts
            (xy -0.635 2.54)
            (xy 0.635 2.54)
          )
          (stroke (width 0.3048) (type default) (color 0 0 0 0))
          (fill (type none))
        )
        (polyline
          (pts
            (xy 0 1.27)
            (xy 0 0)
          )
          (stroke (width 0.3048) (type default) (color 0 0 0 0))
          (fill (type none))
        )
        (polyline
          (pts
            (xy 0 3.175)
            (xy 0 1.905)
          )
          (stroke (width 0.3048) (type default) (color 0 0 0 0))
          (fill (type none))
        )
        (circle (center 0 2.54) (radius 1.27)
          (stroke (width 0.3048) (type default) (color 0 0 0 0))
          (fill (type none))
        )
        (pin power_in line (at 0 0 90) (length 0) hide
          (name "+3V3" (effects (font (size 1.27 1.27))))
          (number "1" (effects (font (size 1.27 1.27))))
        )
      )
    )
    (symbol "OSSI_standard_components:AGND" (power) (pin_names (offset 0)) (in_bom yes) (on_board yes)
      (property "Reference" "#AGND" (id 0) (at 0 -5.08 0)
        (effects (font (size 0.9906 0.9906)) hide)
      )
      (property "Value" "AGND" (id 1) (at 0 -3.81 0)
        (effects (font (size 1.1938 1.1938) bold))
      )
      (property "Footprint" "" (id 2) (at 0 0 0)
        (effects (font (size 1.524 1.524)))
      )
      (property "Datasheet" "" (id 3) (at 0 0 0)
        (effects (font (size 1.524 1.524)))
      )
      (symbol "AGND_0_0"
        (polyline
          (pts
            (xy -1.27 -1.27)
            (xy 1.27 -1.27)
          )
          (stroke (width 0.3048) (type default) (color 0 0 0 0))
          (fill (type none))
        )
        (polyline
          (pts
            (xy 0 -1.27)
            (xy 0 0)
          )
          (stroke (width 0.3048) (type default) (color 0 0 0 0))
          (fill (type none))
        )
        (polyline
          (pts
            (xy 1.27 -1.27)
            (xy 0 -2.54)
            (xy -1.27 -1.27)
          )
          (stroke (width 0.3048) (type default) (color 0 0 0 0))
          (fill (type none))
        )
        (pin power_in line (at 0 0 270) (length 0) hide
          (name "AGND" (effects (font (size 1.27 1.27))))
          (number "1" (effects (font (size 1.27 1.27))))
        )
      )
    )
    (symbol "OSSI_standard_components:Capacitor" (pin_numbers hide) (pin_names (offset 1.016) hide) (in_bom yes) (on_board yes)
      (property "Reference" "C" (id 0) (at 1.524 -2.54 0)
        (effects (font (size 0.9906 0.9906)) (justify left))
      )
      (property "Value" "Capacitor" (id 1) (at 1.524 2.032 0)
        (effects (font (size 0.9906 0.9906)) (justify left))
      )
      (property "Footprint" "" (id 2) (at -1.27 -2.286 0)
        (effects (font (size 0.9906 0.9906)) (justify right) hide)
      )
      (property "Datasheet" "" (id 3) (at 0 0 90)
        (effects (font (size 1.524 1.524)))
      )
      (property "Tolerance" "%" (id 4) (at -1.27 2.032 0)
        (effects (font (size 0.9906 0.9906)) (justify right) hide)
      )
      (property "Manufacturer" "M" (id 5) (at 1.524 4.953 0)
        (effects (font (size 0.889 0.889)) (justify left) hide)
      )
      (property "Partnumber" "P" (id 6) (at 1.524 3.556 0)
        (effects (font (size 0.889 0.889)) (justify left) hide)
      )
      (property "Supplier" "S" (id 7) (at 1.524 6.477 0)
        (effects (font (size 0.889 0.889)) (justify left) hide)
      )
      (property "Order No." "O.No." (id 8) (at 1.524 7.747 0)
        (effects (font (size 0.889 0.889)) (justify left) hide)
      )
      (symbol "Capacitor_0_0"
        (polyline
          (pts
            (xy -2.032 -0.508)
            (xy 2.032 -0.508)
          )
          (stroke (width 0.508) (type default) (color 0 0 0 0))
          (fill (type none))
        )
        (polyline
          (pts
            (xy -2.032 0.508)
            (xy 2.032 0.508)
          )
          (stroke (width 0.508) (type default) (color 0 0 0 0))
          (fill (type none))
        )
        (polyline
          (pts
            (xy 0 -2.54)
            (xy 0 -0.635)
          )
          (stroke (width 0.3048) (type default) (color 0 0 0 0))
          (fill (type none))
        )
        (polyline
          (pts
            (xy 0 0.635)
            (xy 0 2.54)
          )
          (stroke (width 0.3048) (type default) (color 0 0 0 0))
          (fill (type none))
        )
        (pin passive line (at 0 -2.54 90) (length 0)
          (name "1" (effects (font (size 1.27 1.27))))
          (number "1" (effects (font (size 1.27 1.27))))
        )
        (pin passive line (at 0 2.54 270) (length 0)
          (name "2" (effects (font (size 1.27 1.27))))
          (number "2" (effects (font (size 1.27 1.27))))
        )
      )
    )
    (symbol "OSSI_standard_components:DUAL_OPAMP" (pin_names (offset 1.016) hide) (in_bom yes) (on_board yes)
      (property "Reference" "U" (id 0) (at -1.27 -6.223 0)
        (effects (font (size 0.9906 0.9906)) (justify right))
      )
      (property "Value" "DUAL_OPAMP" (id 1) (at 3.556 -2.286 0)
        (effects (font (size 0.9906 0.9906)) (justify left))
      )
      (property "Footprint" "" (id 2) (at -1.27 0 0)
        (effects (font (size 1.524 1.524)))
      )
      (property "Datasheet" "" (id 3) (at -1.27 0 0)
        (effects (font (size 1.524 1.524)))
      )
      (property "Manufacturer" "M" (id 4) (at 4.445 4.064 0)
        (effects (font (size 0.889 0.889)) (justify left) hide)
      )
      (property "Partnumber" "P" (id 5) (at 4.445 2.54 0)
        (effects (font (size 0.889 0.889)) (justify left) hide)
      )
      (property "Supplier" "S" (id 6) (at 4.445 5.461 0)
        (effects (font (size 0.889 0.889)) (justify left) hide)
      )
      (property "Order No." "O.No." (id 7) (at 4.445 6.858 0)
        (effects (font (size 0.889 0.889)) (justify left) hide)
      )
      (property "ki_locked" "" (id 8) (at 0 0 0)
        (effects (font (size 1.27 1.27)))
      )
      (property "ki_keywords" "OP, Opamp" (id 9) (at 0 0 0)
        (effects (font (size 1.27 1.27)) hide)
      )
      (property "ki_description" "Dual Operational Amplifier" (id 10) (at 0 0 0)
        (effects (font (size 1.27 1.27)) hide)
      )
      (symbol "DUAL_OPAMP_0_0"
        (polyline
          (pts
            (xy -2.54 -2.54)
            (xy -5.08 -2.54)
          )
          (stroke (width 0.3048) (type default) (color 0 0 0 0))
          (fill (type none))
        )
        (polyline
          (pts
            (xy -2.54 2.54)
            (xy -5.08 2.54)
          )
          (stroke (width 0.3048) (type default) (color 0 0 0 0))
          (fill (type none))
        )
        (polyline
          (pts
            (xy -1.905 -2.54)
            (xy -0.635 -2.54)
          )
          (stroke (width 0.3048) (type default) (color 0 0 0 0))
          (fill (type none))
        )
        (polyline
          (pts
            (xy -1.905 2.54)
            (xy -0.635 2.54)
          )
          (stroke (width 0.3048) (type default) (color 0 0 0 0))
          (fill (type none))
        )
        (polyline
          (pts
            (xy -1.27 -1.905)
            (xy -1.27 -3.175)
          )
          (stroke (width 0.3048) (type default) (color 0 0 0 0))
          (fill (type none))
        )
        (polyline
          (pts
            (xy 7.62 0)
            (xy 5.08 0)
          )
          (stroke (width 0.3048) (type default) (color 0 0 0 0))
          (fill (type outline))
        )
        (polyline
          (pts
            (xy 5.08 0)
            (xy -2.54 5.08)
            (xy -2.54 -5.08)
            (xy 5.08 0)
          )
          (stroke (width 0.3048) (type default) (color 0 0 0 0))
          (fill (type background))
        )
      )
      (symbol "DUAL_OPAMP_1_0"
        (polyline
          (pts
            (xy 1.27 -2.54)
            (xy 1.27 -6.35)
          )
          (stroke (width 0.3048) (type default) (color 0 0 0 0))
          (fill (type none))
        )
        (polyline
          (pts
            (xy 1.27 2.54)
            (xy 1.27 6.35)
          )
          (stroke (width 0.3048) (type default) (color 0 0 0 0))
          (fill (type none))
        )
        (text "+V" (at 1.397 3.81 0)
          (effects (font (size 0.9906 0.9906)) (justify left))
        )
        (text "-V" (at 1.397 -3.683 0)
          (effects (font (size 0.9906 0.9906)) (justify left))
        )
        (pin output line (at 7.62 0 180) (length 2.54)
          (name "1" (effects (font (size 0.7874 0.7874))))
          (number "1" (effects (font (size 0.7874 0.7874))))
        )
        (pin input line (at -5.08 2.54 0) (length 2.54)
          (name "2" (effects (font (size 0.7874 0.7874))))
          (number "2" (effects (font (size 0.7874 0.7874))))
        )
        (pin input line (at -5.08 -2.54 0) (length 2.54)
          (name "3" (effects (font (size 0.7874 0.7874))))
          (number "3" (effects (font (size 0.7874 0.7874))))
        )
        (pin power_in line (at 1.27 -6.35 90) (length 2.54)
          (name "4" (effects (font (size 0.7874 0.7874))))
          (number "4" (effects (font (size 0.7874 0.7874))))
        )
        (pin power_in line (at 1.27 6.35 270) (length 2.4384)
          (name "8" (effects (font (size 0.7874 0.7874))))
          (number "8" (effects (font (size 0.7874 0.7874))))
        )
      )
      (symbol "DUAL_OPAMP_2_0"
        (pin input line (at -5.08 -2.54 0) (length 2.54)
          (name "5" (effects (font (size 0.7874 0.7874))))
          (number "5" (effects (font (size 0.7874 0.7874))))
        )
        (pin input line (at -5.08 2.54 0) (length 2.54)
          (name "6" (effects (font (size 0.7874 0.7874))))
          (number "6" (effects (font (size 0.7874 0.7874))))
        )
        (pin output line (at 7.62 0 180) (length 2.54)
          (name "7" (effects (font (size 0.7874 0.7874))))
          (number "7" (effects (font (size 0.7874 0.7874))))
        )
      )
    )
    (symbol "OSSI_standard_components:PNP" (pin_names (offset 1.016) hide) (in_bom yes) (on_board yes)
      (property "Reference" "Q" (id 0) (at 0 -5.08 0)
        (effects (font (size 0.9906 0.9906)) (justify right))
      )
      (property "Value" "PNP" (id 1) (at 0 5.08 0)
        (effects (font (size 0.9906 0.9906)) (justify right))
      )
      (property "Footprint" "" (id 2) (at -2.54 -7.62 0)
        (effects (font (size 1.524 1.524)))
      )
      (property "Datasheet" "" (id 3) (at 0 -5.08 0)
        (effects (font (size 1.524 1.524)))
      )
      (property "Manufacturer" "M" (id 4) (at 5.08 3.175 0)
        (effects (font (size 0.889 0.889)) (justify left) hide)
      )
      (property "Partnumber" "P" (id 5) (at 5.08 1.905 0)
        (effects (font (size 0.889 0.889)) (justify left) hide)
      )
      (property "Supplier" "S" (id 6) (at 5.08 4.445 0)
        (effects (font (size 0.889 0.889)) (justify left) hide)
      )
      (property "Order No." "O.No." (id 7) (at 5.08 5.715 0)
        (effects (font (size 0.889 0.889)) (justify left) hide)
      )
      (symbol "PNP_0_0"
        (polyline
          (pts
            (xy 0 0)
            (xy -3.81 0)
          )
          (stroke (width 0.3048) (type default) (color 0 0 0 0))
          (fill (type none))
        )
        (polyline
          (pts
            (xy 0 2.54)
            (xy 0 -2.54)
          )
          (stroke (width 0.508) (type default) (color 0 0 0 0))
          (fill (type none))
        )
        (polyline
          (pts
            (xy 0 -1.27)
            (xy 2.54 -2.54)
            (xy 2.54 -5.08)
          )
          (stroke (width 0.3048) (type default) (color 0 0 0 0))
          (fill (type none))
        )
        (polyline
          (pts
            (xy 0 1.27)
            (xy 2.54 2.54)
            (xy 2.54 5.08)
          )
          (stroke (width 0.3048) (type default) (color 0 0 0 0))
          (fill (type none))
        )
        (polyline
          (pts
            (xy 1.905 1.651)
            (xy 1.397 2.54)
            (xy 0.508 1.524)
            (xy 1.905 1.651)
          )
          (stroke (width 0) (type default) (color 0 0 0 0))
          (fill (type outline))
        )
        (circle (center 1.27 0) (radius 3.81)
          (stroke (width 0.3048) (type default) (color 0 0 0 0))
          (fill (type none))
        )
        (pin input line (at -3.81 0 0) (length 1.27)
          (name "B" (effects (font (size 0.7874 0.7874))))
          (number "B" (effects (font (size 0.7874 0.7874))))
        )
      )
      (symbol "PNP_1_0"
        (pin passive line (at 2.54 -5.08 90) (length 1.27)
          (name "C" (effects (font (size 0.7874 0.7874))))
          (number "C" (effects (font (size 0.7874 0.7874))))
        )
        (pin passive line (at 2.54 5.08 270) (length 1.27)
          (name "E" (effects (font (size 0.7874 0.7874))))
          (number "E" (effects (font (size 0.7874 0.7874))))
        )
      )
    )
    (symbol "OSSI_standard_components:Resistor" (pin_numbers hide) (pin_names (offset 1.016) hide) (in_bom yes) (on_board yes)
      (property "Reference" "R" (id 0) (at 0 -2.032 0)
        (effects (font (size 0.9906 0.9906)))
      )
      (property "Value" "Resistor" (id 1) (at 0 0 0)
        (effects (font (size 0.9906 0.9906)))
      )
      (property "Footprint" "" (id 2) (at 0 1.778 0)
        (effects (font (size 0.889 0.889)))
      )
      (property "Datasheet" "" (id 3) (at 0 0 0)
        (effects (font (size 1.524 1.524)))
      )
      (property "Tolerance" "%" (id 4) (at 0 3.175 0)
        (effects (font (size 0.889 0.889)) hide)
      )
      (property "Manufacturer" "M" (id 5) (at 3.175 3.175 0)
        (effects (font (size 0.889 0.889)) (justify left) hide)
      )
      (property "Partnumber" "P" (id 6) (at 3.175 1.905 0)
        (effects (font (size 0.889 0.889)) (justify left) hide)
      )
      (property "Supplier" "S" (id 7) (at 3.175 4.445 0)
        (effects (font (size 0.889 0.889)) (justify left) hide)
      )
      (property "Order No." "O.No." (id 8) (at 3.175 5.715 0)
        (effects (font (size 0.889 0.889)) (justify left) hide)
      )
      (property "ki_keywords" "Resistor" (id 9) (at 0 0 0)
        (effects (font (size 1.27 1.27)) hide)
      )
      (symbol "Resistor_0_0"
        (rectangle (start -2.54 0.889) (end 2.54 -0.889)
          (stroke (width 0.3048) (type default) (color 0 0 0 0))
          (fill (type none))
        )
        (polyline
          (pts
            (xy -2.54 0)
            (xy -5.08 0)
          )
          (stroke (width 0.3048) (type default) (color 0 0 0 0))
          (fill (type none))
        )
        (polyline
          (pts
            (xy 5.08 0)
            (xy 2.54 0)
          )
          (stroke (width 0.3048) (type default) (color 0 0 0 0))
          (fill (type none))
        )
      )
      (symbol "Resistor_1_1"
        (pin passive line (at -5.08 0 0) (length 0)
          (name "1" (effects (font (size 1.27 1.27))))
          (number "1" (effects (font (size 1.27 1.27))))
        )
        (pin passive line (at 5.08 0 180) (length 0)
          (name "2" (effects (font (size 1.27 1.27))))
          (number "2" (effects (font (size 1.27 1.27))))
        )
      )
    )
    (symbol "acs722:ACS722" (pin_names (offset 1.016)) (in_bom yes) (on_board yes)
      (property "Reference" "U" (id 0) (at 0 -8.89 0)
        (effects (font (size 0.9906 0.9906)))
      )
      (property "Value" "ACS722" (id 1) (at 0 8.89 0)
        (effects (font (size 0.9906 0.9906) bold))
      )
      (property "Footprint" "" (id 2) (at 0 10.795 0)
        (effects (font (size 0.9906 0.9906)))
      )
      (property "Datasheet" "http://www.allegromicro.com/~/media/Files/Datasheets/ACS722-Datasheet.ashx?la=en" (id 3) (at 0 1.27 0)
        (effects (font (size 1.524 1.524)))
      )
      (property "Manufacturer" "M" (id 4) (at 8.255 9.525 0)
        (effects (font (size 0.889 0.889)) (justify left) hide)
      )
      (property "Partnumber" "P" (id 5) (at 8.255 10.795 0)
        (effects (font (size 0.889 0.889)) (justify left) hide)
      )
      (property "Supplier" "S" (id 6) (at 8.255 12.065 0)
        (effects (font (size 0.889 0.889)) (justify left) hide)
      )
      (property "Order No." "O.No." (id 7) (at 8.255 13.335 0)
        (effects (font (size 0.889 0.889)) (justify left) hide)
      )
      (property "ki_keywords" "current sensor" (id 8) (at 0 0 0)
        (effects (font (size 1.27 1.27)) hide)
      )
      (property "ki_description" "Allegro ACS722 current sensor SO8 package" (id 9) (at 0 0 0)
        (effects (font (size 1.27 1.27)) hide)
      )
      (symbol "ACS722_0_1"
        (arc (start -1.27 3.81) (mid -1.905 4.445) (end -2.54 3.81)
          (stroke (width 0.2032) (type default) (color 0 0 0 0))
          (fill (type none))
        )
        (polyline
          (pts
            (xy -12.7 -6.35)
            (xy -10.16 -6.35)
          )
          (stroke (width 0.3048) (type default) (color 0 0 0 0))
          (fill (type none))
        )
        (polyline
          (pts
            (xy -12.7 -1.27)
            (xy -10.16 -1.27)
          )
          (stroke (width 0.3048) (type default) (color 0 0 0 0))
          (fill (type none))
        )
        (polyline
          (pts
            (xy -12.7 3.81)
            (xy -10.16 3.81)
          )
          (stroke (width 0.3048) (type default) (color 0 0 0 0))
          (fill (type none))
        )
        (polyline
          (pts
            (xy -12.7 6.35)
            (xy -10.16 6.35)
          )
          (stroke (width 0.3048) (type default) (color 0 0 0 0))
          (fill (type none))
        )
        (polyline
          (pts
            (xy -4.445 5.08)
            (xy 4.445 5.08)
          )
          (stroke (width 0.2032) (type default) (color 0 0 0 0))
          (fill (type none))
        )
        (polyline
          (pts
            (xy 0.254 -1.651)
            (xy 0.508 -1.651)
          )
          (stroke (width 0.1016) (type default) (color 0 0 0 0))
          (fill (type none))
        )
        (polyline
          (pts
            (xy 0.254 -0.889)
            (xy 0.508 -0.889)
          )
          (stroke (width 0.1016) (type default) (color 0 0 0 0))
          (fill (type none))
        )
        (polyline
          (pts
            (xy 0.381 -1.524)
            (xy 0.381 -1.778)
          )
          (stroke (width 0.1016) (type default) (color 0 0 0 0))
          (fill (type none))
        )
        (polyline
          (pts
            (xy 4.445 -1.27)
            (xy 1.905 -1.27)
          )
          (stroke (width 0.2032) (type default) (color 0 0 0 0))
          (fill (type none))
        )
        (polyline
          (pts
            (xy 10.16 -6.35)
            (xy 12.7 -6.35)
          )
          (stroke (width 0.3048) (type default) (color 0 0 0 0))
          (fill (type none))
        )
        (polyline
          (pts
            (xy 10.16 -1.27)
            (xy 12.7 -1.27)
          )
          (stroke (width 0.3048) (type default) (color 0 0 0 0))
          (fill (type none))
        )
        (polyline
          (pts
            (xy 10.16 3.81)
            (xy 12.7 3.81)
          )
          (stroke (width 0.3048) (type default) (color 0 0 0 0))
          (fill (type none))
        )
        (polyline
          (pts
            (xy 10.16 6.35)
            (xy 12.7 6.35)
          )
          (stroke (width 0.3048) (type default) (color 0 0 0 0))
          (fill (type none))
        )
        (polyline
          (pts
            (xy 0.762 -2.159)
            (xy 0.762 -6.35)
            (xy 3.175 -6.35)
          )
          (stroke (width 0.2032) (type default) (color 0 0 0 0))
          (fill (type none))
        )
        (polyline
          (pts
            (xy -5.715 6.35)
            (xy -4.445 6.35)
            (xy -4.445 3.81)
            (xy -5.715 3.81)
          )
          (stroke (width 0.2032) (type default) (color 0 0 0 0))
          (fill (type none))
        )
        (polyline
          (pts
            (xy 0.762 -2.159)
            (xy 0.508 -3.048)
            (xy 1.016 -3.048)
            (xy 0.762 -2.159)
          )
          (stroke (width 0) (type default) (color 0 0 0 0))
          (fill (type outline))
        )
        (polyline
          (pts
            (xy 1.905 -1.27)
            (xy 0 0)
            (xy 0 -2.54)
            (xy 1.905 -1.27)
          )
          (stroke (width 0.2032) (type default) (color 0 0 0 0))
          (fill (type background))
        )
        (polyline
          (pts
            (xy 5.715 6.35)
            (xy 4.445 6.35)
            (xy 4.445 3.81)
            (xy 5.715 3.81)
          )
          (stroke (width 0.2032) (type default) (color 0 0 0 0))
          (fill (type none))
        )
        (polyline
          (pts
            (xy -10.16 7.62)
            (xy 10.16 7.62)
            (xy 10.16 -7.62)
            (xy -10.16 -7.62)
            (xy -10.16 7.62)
          )
          (stroke (width 0.3048) (type default) (color 0 0 0 0))
          (fill (type background))
        )
        (polyline
          (pts
            (xy -2.54 3.81)
            (xy -2.54 2.921)
            (xy -1.651 2.921)
            (xy -1.651 -1.651)
            (xy 0 -1.651)
          )
          (stroke (width 0.2032) (type default) (color 0 0 0 0))
          (fill (type none))
        )
        (polyline
          (pts
            (xy 2.54 3.81)
            (xy 2.54 2.921)
            (xy -0.889 2.921)
            (xy -0.889 -0.889)
            (xy 0 -0.889)
          )
          (stroke (width 0.2032) (type default) (color 0 0 0 0))
          (fill (type none))
        )
        (arc (start 0 3.81) (mid -0.635 4.445) (end -1.27 3.81)
          (stroke (width 0.2032) (type default) (color 0 0 0 0))
          (fill (type none))
        )
        (arc (start 1.27 3.81) (mid 0.635 4.445) (end 0 3.81)
          (stroke (width 0.2032) (type default) (color 0 0 0 0))
          (fill (type none))
        )
        (arc (start 2.54 3.81) (mid 1.905 4.445) (end 1.27 3.81)
          (stroke (width 0.2032) (type default) (color 0 0 0 0))
          (fill (type none))
        )
      )
      (symbol "ACS722_1_1"
        (pin input line (at -12.7 6.35 0) (length 2.54)
          (name "IP+" (effects (font (size 0.9906 0.9906))))
          (number "1" (effects (font (size 0.7874 0.7874))))
        )
        (pin input line (at -12.7 3.81 0) (length 2.54)
          (name "IP+" (effects (font (size 0.9906 0.9906))))
          (number "2" (effects (font (size 0.7874 0.7874))))
        )
        (pin input line (at 12.7 6.35 180) (length 2.54)
          (name "IP-" (effects (font (size 0.9906 0.9906))))
          (number "3" (effects (font (size 0.7874 0.7874))))
        )
        (pin input line (at 12.7 3.81 180) (length 2.54)
          (name "IP-" (effects (font (size 0.9906 0.9906))))
          (number "4" (effects (font (size 0.7874 0.7874))))
        )
        (pin power_in line (at -12.7 -6.35 0) (length 2.54)
          (name "GND" (effects (font (size 0.9906 0.9906))))
          (number "5" (effects (font (size 0.7874 0.7874))))
        )
        (pin input line (at 12.7 -6.35 180) (length 2.54)
          (name "BW_SEL" (effects (font (size 0.9906 0.9906))))
          (number "6" (effects (font (size 0.7874 0.7874))))
        )
        (pin output line (at 12.7 -1.27 180) (length 2.54)
          (name "VIOUT" (effects (font (size 0.9906 0.9906))))
          (number "7" (effects (font (size 0.7874 0.7874))))
        )
        (pin power_in line (at -12.7 -1.27 0) (length 2.54)
          (name "VCC" (effects (font (size 0.9906 0.9906))))
          (number "8" (effects (font (size 0.7874 0.7874))))
        )
      )
    )
  )

  (junction (at 66.04 46.99) (diameter 0) (color 0 0 0 0)
    (uuid 0aa7aa02-a841-4499-be36-25e00f1868e4)
  )
  (junction (at 129.54 105.41) (diameter 0) (color 0 0 0 0)
    (uuid 0d6c6a38-246b-475b-9341-c52a29497d5c)
  )
  (junction (at 105.41 99.06) (diameter 0) (color 0 0 0 0)
    (uuid 0f21e373-a355-4dea-8f78-c80cd4694790)
  )
  (junction (at 224.79 119.38) (diameter 0) (color 0 0 0 0)
    (uuid 17739182-1f6b-4296-adee-eeee626683cb)
  )
  (junction (at 115.57 29.21) (diameter 0) (color 0 0 0 0)
    (uuid 1ce4ef57-815e-40f4-8f29-cf5a47a98f63)
  )
  (junction (at 115.57 44.45) (diameter 0) (color 0 0 0 0)
    (uuid 1f8e39e2-38ee-40e4-b4ab-ee48ed36a095)
  )
  (junction (at 135.89 29.21) (diameter 0) (color 0 0 0 0)
    (uuid 249324f7-f47d-4981-9943-b2932aad7f2f)
  )
  (junction (at 67.31 105.41) (diameter 0) (color 0 0 0 0)
    (uuid 321009fe-f9b0-46d2-bb39-a492048333a9)
  )
  (junction (at 198.12 152.4) (diameter 0) (color 0 0 0 0)
    (uuid 45d19556-34d5-40d2-ac6d-54d993925785)
  )
  (junction (at 207.01 121.92) (diameter 0) (color 0 0 0 0)
    (uuid 46d94139-7221-4226-965d-148bd087bcd7)
  )
  (junction (at 97.79 29.21) (diameter 0) (color 0 0 0 0)
    (uuid 8588a814-abc9-4481-8eba-3eccab52ed56)
  )
  (junction (at 48.26 41.91) (diameter 0) (color 0 0 0 0)
    (uuid af0ec6cf-c773-438d-9c7c-2f9a17961aa6)
  )
  (junction (at 73.66 116.84) (diameter 0) (color 0 0 0 0)
    (uuid b952ab69-0a29-4b2c-8e8a-f91c89254528)
  )
  (junction (at 76.2 46.99) (diameter 0) (color 0 0 0 0)
    (uuid d2e3ab9e-1a14-4484-990a-b3205bcffba5)
  )
  (junction (at 90.17 29.21) (diameter 0) (color 0 0 0 0)
    (uuid d3197f2b-1cf8-4ef5-966a-f9753a8f8f1d)
  )
  (junction (at 198.12 121.92) (diameter 0) (color 0 0 0 0)
    (uuid dcf2d6ff-aad0-4678-9778-685d03fb866e)
  )
  (junction (at 72.39 99.06) (diameter 0) (color 0 0 0 0)
    (uuid ef2a892e-b6b6-4ac9-8dae-7a076e2d94ac)
  )

  (wire (pts (xy 90.17 29.21) (xy 90.17 38.1))
    (stroke (width 0) (type default) (color 0 0 0 0))
    (uuid 034b2e04-19f7-480f-b0d6-90055c2b569d)
  )
  (wire (pts (xy 207.01 121.92) (xy 208.28 121.92))
    (stroke (width 0) (type default) (color 0 0 0 0))
    (uuid 04be3c82-a4e3-4a98-b383-78ac9a7b2ae6)
  )
  (wire (pts (xy 198.12 119.38) (xy 198.12 121.92))
    (stroke (width 0) (type default) (color 0 0 0 0))
    (uuid 05e73c58-7b46-4b21-9ef9-7d9e6bc3caf5)
  )
  (wire (pts (xy 130.81 29.21) (xy 135.89 29.21))
    (stroke (width 0) (type default) (color 0 0 0 0))
    (uuid 07ed1c68-7e18-43db-93b0-6a404d24ae6b)
  )
  (wire (pts (xy 66.04 19.05) (xy 66.04 26.67))
    (stroke (width 0) (type default) (color 0 0 0 0))
    (uuid 0a010eed-e4ed-4ed0-94d8-837c5b6453f6)
  )
  (wire (pts (xy 101.6 105.41) (xy 129.54 105.41))
    (stroke (width 0) (type default) (color 0 0 0 0))
    (uuid 0d8cc9ea-34d4-4025-a9d6-8990abc80099)
  )
  (wire (pts (xy 67.31 116.84) (xy 73.66 116.84))
    (stroke (width 0) (type default) (color 0 0 0 0))
    (uuid 0e2cf863-8ee5-4a10-bd9a-256cf030f517)
  )
  (wire (pts (xy 66.04 46.99) (xy 76.2 46.99))
    (stroke (width 0) (type default) (color 0 0 0 0))
    (uuid 126e0765-581a-47fe-92c0-bd3962ec5549)
  )
  (wire (pts (xy 97.79 30.48) (xy 97.79 29.21))
    (stroke (width 0) (type default) (color 0 0 0 0))
    (uuid 12f46b51-d0f7-4248-8bad-8a8f3ec02bb2)
  )
  (wire (pts (xy 207.01 134.62) (xy 207.01 121.92))
    (stroke (width 0) (type default) (color 0 0 0 0))
    (uuid 187b4091-9a98-44f0-9671-d0bc185eb7bb)
  )
  (wire (pts (xy 90.17 27.94) (xy 90.17 29.21))
    (stroke (width 0) (type default) (color 0 0 0 0))
    (uuid 1b9ef300-3478-439c-98b9-7fa1d0d48656)
  )
  (wire (pts (xy 48.26 41.91) (xy 83.82 41.91))
    (stroke (width 0) (type default) (color 0 0 0 0))
    (uuid 1d530af0-c85d-49cf-ab15-955dfd726852)
  )
  (wire (pts (xy 66.04 73.66) (xy 66.04 76.2))
    (stroke (width 0) (type default) (color 0 0 0 0))
    (uuid 1e853af2-deb5-4f45-a63d-f3e967cedaf4)
  )
  (wire (pts (xy 90.17 50.8) (xy 90.17 52.07))
    (stroke (width 0) (type default) (color 0 0 0 0))
    (uuid 2064e7f2-cbf1-4755-b3d8-37300718b98c)
  )
  (wire (pts (xy 97.79 29.21) (xy 115.57 29.21))
    (stroke (width 0) (type default) (color 0 0 0 0))
    (uuid 23396427-5066-49af-97fd-a3d67395b66f)
  )
  (wire (pts (xy 105.41 99.06) (xy 105.41 100.33))
    (stroke (width 0) (type default) (color 0 0 0 0))
    (uuid 2f2ab958-9282-4bb3-9543-ec7b1906543e)
  )
  (wire (pts (xy 207.01 139.7) (xy 207.01 152.4))
    (stroke (width 0) (type default) (color 0 0 0 0))
    (uuid 3490bdaa-d502-46f7-9867-0cbb25678ed3)
  )
  (wire (pts (xy 198.12 105.41) (xy 198.12 109.22))
    (stroke (width 0) (type default) (color 0 0 0 0))
    (uuid 40646c8a-57c3-47b3-9da9-1f3c484b36ef)
  )
  (wire (pts (xy 76.2 46.99) (xy 83.82 46.99))
    (stroke (width 0) (type default) (color 0 0 0 0))
    (uuid 48204399-0efc-40fb-8ce9-4de1332df088)
  )
  (wire (pts (xy 66.04 59.69) (xy 66.04 63.5))
    (stroke (width 0) (type default) (color 0 0 0 0))
    (uuid 4b4a31a3-1c01-4a61-af32-24db6b1dd8c4)
  )
  (wire (pts (xy 73.66 110.49) (xy 73.66 116.84))
    (stroke (width 0) (type default) (color 0 0 0 0))
    (uuid 542ede33-eb64-42a2-95ae-d42faa506818)
  )
  (wire (pts (xy 72.39 99.06) (xy 66.04 99.06))
    (stroke (width 0) (type default) (color 0 0 0 0))
    (uuid 54cfb0a7-2920-46c5-b039-0b73c2a4c00f)
  )
  (wire (pts (xy 76.2 46.99) (xy 76.2 48.26))
    (stroke (width 0) (type default) (color 0 0 0 0))
    (uuid 553e19fa-12b3-41d6-9d0a-1e4c29fcd365)
  )
  (wire (pts (xy 90.17 29.21) (xy 97.79 29.21))
    (stroke (width 0) (type default) (color 0 0 0 0))
    (uuid 57b23664-a8f3-4c1b-968d-808f32ef6c86)
  )
  (wire (pts (xy 129.54 116.84) (xy 129.54 114.3))
    (stroke (width 0) (type default) (color 0 0 0 0))
    (uuid 596dbe91-be3d-4b69-92d4-6e3d60c1b311)
  )
  (wire (pts (xy 220.98 119.38) (xy 224.79 119.38))
    (stroke (width 0) (type default) (color 0 0 0 0))
    (uuid 598a70a8-0ed5-4a5b-bb7e-8a0da0deab19)
  )
  (wire (pts (xy 135.89 29.21) (xy 146.05 29.21))
    (stroke (width 0) (type default) (color 0 0 0 0))
    (uuid 61c89dd7-1ea8-4b93-a2f5-cbb0c5ecd413)
  )
  (wire (pts (xy 73.66 110.49) (xy 76.2 110.49))
    (stroke (width 0) (type default) (color 0 0 0 0))
    (uuid 64b9315b-f501-4610-befa-8f74c4b06bcb)
  )
  (wire (pts (xy 73.66 116.84) (xy 73.66 118.11))
    (stroke (width 0) (type default) (color 0 0 0 0))
    (uuid 65fb8f09-faa1-4cae-8437-85ff9dda0f8d)
  )
  (wire (pts (xy 76.2 53.34) (xy 76.2 54.61))
    (stroke (width 0) (type default) (color 0 0 0 0))
    (uuid 6731887f-c1ef-48d1-bb80-e98b5d3cb9d9)
  )
  (wire (pts (xy 224.79 119.38) (xy 228.6 119.38))
    (stroke (width 0) (type default) (color 0 0 0 0))
    (uuid 6a799258-c8fa-4cca-a4c4-a1e513d4d088)
  )
  (wire (pts (xy 66.04 19.05) (xy 135.89 19.05))
    (stroke (width 0) (type default) (color 0 0 0 0))
    (uuid 6b320efd-aa11-40de-ab7a-952f4f1058e5)
  )
  (wire (pts (xy 43.18 41.91) (xy 48.26 41.91))
    (stroke (width 0) (type default) (color 0 0 0 0))
    (uuid 6e3b7761-a328-448c-b658-b03f2745374b)
  )
  (wire (pts (xy 105.41 97.79) (xy 105.41 99.06))
    (stroke (width 0) (type default) (color 0 0 0 0))
    (uuid 6f775ea9-4719-411b-be1d-47eda9ac6731)
  )
  (wire (pts (xy 72.39 97.79) (xy 76.2 97.79))
    (stroke (width 0) (type default) (color 0 0 0 0))
    (uuid 76c9553a-36a0-40f9-a511-3b5ef16b6d31)
  )
  (wire (pts (xy 73.66 116.84) (xy 91.44 116.84))
    (stroke (width 0) (type default) (color 0 0 0 0))
    (uuid 7c6e5841-f7dc-41b5-9d74-f5409987ebbb)
  )
  (wire (pts (xy 207.01 109.22) (xy 207.01 116.84))
    (stroke (width 0) (type default) (color 0 0 0 0))
    (uuid 807ae92c-531d-4df9-8f72-ce2d68c5c683)
  )
  (wire (pts (xy 96.52 44.45) (xy 100.33 44.45))
    (stroke (width 0) (type default) (color 0 0 0 0))
    (uuid 819281cb-bc7a-431c-ac6b-dc9318e87ff7)
  )
  (wire (pts (xy 198.12 152.4) (xy 198.12 153.67))
    (stroke (width 0) (type default) (color 0 0 0 0))
    (uuid 83ad1885-b19a-4ca6-9642-aff7b45586b0)
  )
  (wire (pts (xy 101.6 97.79) (xy 105.41 97.79))
    (stroke (width 0) (type default) (color 0 0 0 0))
    (uuid 89e6c031-50ef-4425-8814-1019c6a3542c)
  )
  (wire (pts (xy 48.26 52.07) (xy 48.26 50.8))
    (stroke (width 0) (type default) (color 0 0 0 0))
    (uuid 8bae8dfe-3841-428e-b9b5-77a1718bd052)
  )
  (wire (pts (xy 115.57 41.91) (xy 115.57 44.45))
    (stroke (width 0) (type default) (color 0 0 0 0))
    (uuid 9113a25a-7cf7-4ab2-8286-e7f3b82a3b48)
  )
  (wire (pts (xy 224.79 109.22) (xy 224.79 119.38))
    (stroke (width 0) (type default) (color 0 0 0 0))
    (uuid 91cd0715-0258-4e07-a917-dceb53e4de93)
  )
  (wire (pts (xy 67.31 113.03) (xy 67.31 116.84))
    (stroke (width 0) (type default) (color 0 0 0 0))
    (uuid 93c5d325-806f-406e-b64d-792e09ae4253)
  )
  (wire (pts (xy 72.39 100.33) (xy 76.2 100.33))
    (stroke (width 0) (type default) (color 0 0 0 0))
    (uuid 94694e65-80b4-48d9-97bc-6928fae12402)
  )
  (wire (pts (xy 97.79 35.56) (xy 97.79 36.83))
    (stroke (width 0) (type default) (color 0 0 0 0))
    (uuid 9788e5e4-f273-45aa-be04-8ad8c0337773)
  )
  (wire (pts (xy 66.04 36.83) (xy 66.04 46.99))
    (stroke (width 0) (type default) (color 0 0 0 0))
    (uuid 982cd50c-7b6a-474a-a3fe-2b2c50c0f071)
  )
  (wire (pts (xy 67.31 107.95) (xy 67.31 105.41))
    (stroke (width 0) (type default) (color 0 0 0 0))
    (uuid 9a24eef1-0973-44a5-a499-a618dee8c605)
  )
  (wire (pts (xy 72.39 97.79) (xy 72.39 99.06))
    (stroke (width 0) (type default) (color 0 0 0 0))
    (uuid 9a878664-fac1-4875-937a-e663b2e42099)
  )
  (wire (pts (xy 198.12 121.92) (xy 198.12 125.73))
    (stroke (width 0) (type default) (color 0 0 0 0))
    (uuid a518c3d2-a7d8-40f9-bde0-e8b2e77e2f82)
  )
  (wire (pts (xy 198.12 121.92) (xy 207.01 121.92))
    (stroke (width 0) (type default) (color 0 0 0 0))
    (uuid a8f77c17-de59-4deb-b3a9-be984191511c)
  )
  (wire (pts (xy 198.12 149.86) (xy 198.12 152.4))
    (stroke (width 0) (type default) (color 0 0 0 0))
    (uuid a977ae8e-6af4-486b-a068-220077ad55f7)
  )
  (wire (pts (xy 105.41 116.84) (xy 101.6 116.84))
    (stroke (width 0) (type default) (color 0 0 0 0))
    (uuid aa808987-21f7-42e0-8380-a9ccd5c335f4)
  )
  (wire (pts (xy 66.04 46.99) (xy 66.04 49.53))
    (stroke (width 0) (type default) (color 0 0 0 0))
    (uuid aa9f7a3f-5ec4-4668-aa14-1345a3c53bad)
  )
  (wire (pts (xy 115.57 29.21) (xy 115.57 31.75))
    (stroke (width 0) (type default) (color 0 0 0 0))
    (uuid af4189f9-71b8-45a7-9531-d20de5b94d5a)
  )
  (wire (pts (xy 48.26 45.72) (xy 48.26 41.91))
    (stroke (width 0) (type default) (color 0 0 0 0))
    (uuid b547a3ae-53f4-4a75-a3b0-0695f964786c)
  )
  (wire (pts (xy 105.41 99.06) (xy 114.3 99.06))
    (stroke (width 0) (type default) (color 0 0 0 0))
    (uuid b5ed3e80-d433-4d0d-91ac-c3d1cf8b80c9)
  )
  (wire (pts (xy 115.57 29.21) (xy 120.65 29.21))
    (stroke (width 0) (type default) (color 0 0 0 0))
    (uuid bb4bbf92-9fcc-420c-85ec-aaa08f5a4f6d)
  )
  (wire (pts (xy 72.39 99.06) (xy 72.39 100.33))
    (stroke (width 0) (type default) (color 0 0 0 0))
    (uuid c1b81356-1982-4d32-b95d-1787919b705b)
  )
  (wire (pts (xy 207.01 116.84) (xy 208.28 116.84))
    (stroke (width 0) (type default) (color 0 0 0 0))
    (uuid c2d0b4bc-3c1f-495a-8259-df8c16d01358)
  )
  (wire (pts (xy 105.41 100.33) (xy 101.6 100.33))
    (stroke (width 0) (type default) (color 0 0 0 0))
    (uuid c5a01f2e-1140-4a6b-ad76-77ed17c2c8ff)
  )
  (wire (pts (xy 110.49 44.45) (xy 115.57 44.45))
    (stroke (width 0) (type default) (color 0 0 0 0))
    (uuid c5e88951-f98e-4a5b-b4e3-ad96011c68a2)
  )
  (wire (pts (xy 125.73 44.45) (xy 125.73 35.56))
    (stroke (width 0) (type default) (color 0 0 0 0))
    (uuid c6f3ddb8-347e-4ecc-89cd-bf389216d64e)
  )
  (wire (pts (xy 129.54 109.22) (xy 129.54 105.41))
    (stroke (width 0) (type default) (color 0 0 0 0))
    (uuid d31ece53-041c-416a-b0a7-d0ca5e8f682e)
  )
  (wire (pts (xy 198.12 135.89) (xy 198.12 139.7))
    (stroke (width 0) (type default) (color 0 0 0 0))
    (uuid d86edfb9-cd5d-4f08-b5e2-e7123762adff)
  )
  (wire (pts (xy 67.31 105.41) (xy 76.2 105.41))
    (stroke (width 0) (type default) (color 0 0 0 0))
    (uuid d93452a5-668d-413d-b2b4-4344cd52d596)
  )
  (wire (pts (xy 101.6 110.49) (xy 105.41 110.49))
    (stroke (width 0) (type default) (color 0 0 0 0))
    (uuid dd311536-9571-4bc8-8efa-94320202fa70)
  )
  (wire (pts (xy 105.41 110.49) (xy 105.41 116.84))
    (stroke (width 0) (type default) (color 0 0 0 0))
    (uuid df85acb9-e7f8-43ee-bd31-1587a441c957)
  )
  (wire (pts (xy 45.72 105.41) (xy 67.31 105.41))
    (stroke (width 0) (type default) (color 0 0 0 0))
    (uuid e0072cb2-c71b-48ae-822b-a8a22d6414d4)
  )
  (wire (pts (xy 238.76 119.38) (xy 248.92 119.38))
    (stroke (width 0) (type default) (color 0 0 0 0))
    (uuid e2188675-da2b-4bf4-86fc-52e57012ca2d)
  )
  (wire (pts (xy 129.54 105.41) (xy 198.12 105.41))
    (stroke (width 0) (type default) (color 0 0 0 0))
    (uuid e2c23f5c-de5e-4874-a862-08d28c9502d1)
  )
  (wire (pts (xy 135.89 19.05) (xy 135.89 29.21))
    (stroke (width 0) (type default) (color 0 0 0 0))
    (uuid e2c5058e-9f9e-4b54-a35e-c248e3444483)
  )
  (wire (pts (xy 224.79 109.22) (xy 207.01 109.22))
    (stroke (width 0) (type default) (color 0 0 0 0))
    (uuid e4631479-52f9-4a58-bff8-8c262705c8f5)
  )
  (wire (pts (xy 115.57 44.45) (xy 125.73 44.45))
    (stroke (width 0) (type default) (color 0 0 0 0))
    (uuid eff3bc9e-df33-4cb3-9467-9ac7324024e3)
  )
  (wire (pts (xy 27.94 41.91) (xy 33.02 41.91))
    (stroke (width 0) (type default) (color 0 0 0 0))
    (uuid f66db6e7-32a9-4856-9fba-e742b7f336ee)
  )
  (wire (pts (xy 207.01 152.4) (xy 198.12 152.4))
    (stroke (width 0) (type default) (color 0 0 0 0))
    (uuid f78d888b-ce65-4c25-8e12-82a042d88529)
  )

  (text "Scale 3.1 V signal amplitude to 2.5 V" (at 191.77 151.13 90)
    (effects (font (size 1.524 1.524)) (justify left bottom))
    (uuid 4210b37a-f62f-45f7-8618-1a73a887c00d)
  )
  (text "specified output voltage 3.01 V\nmaximum allowed capacity 110 nF,\nmaximum current 15 mA"
    (at 133.35 36.83 0)
    (effects (font (size 1.524 1.524)) (justify left bottom))
    (uuid 5c1ac950-3b86-47b4-9c21-6599252183b5)
  )
  (text "simulated circuit.\nwhen changing components: redo simulation!"
    (at 99.06 55.88 0)
    (effects (font (size 1.524 1.524) (thickness 0.3048) bold) (justify left bottom))
    (uuid b65baba1-fc9d-437f-804b-bde7cd58faa2)
  )

  (label "AC_Sensor_Supply" (at 45.72 105.41 180)
    (effects (font (size 1.524 1.524)) (justify right bottom))
    (uuid ee9b12a4-87ac-4411-9fd7-bc9847a1acc0)
  )
  (label "AC_Sensor_Supply" (at 146.05 29.21 0)
    (effects (font (size 1.524 1.524)) (justify left bottom))
    (uuid f6a39658-b60c-4f71-b751-96a15f290b71)
  )

  (hierarchical_label "AC_Current" (shape output) (at 248.92 119.38 0)
    (effects (font (size 1.524 1.524)) (justify left))
    (uuid bb96df3e-5dbd-4fb8-ae99-8351486b7302)
  )
  (hierarchical_label "1V25_Ref" (shape input) (at 27.94 41.91 180)
    (effects (font (size 1.524 1.524)) (justify right))
    (uuid d2aaf0e8-db16-4708-9dee-e7b84b279a0a)
  )
  (hierarchical_label "AC_Cur_In" (shape input) (at 66.04 99.06 180)
    (effects (font (size 1.524 1.524)) (justify right))
    (uuid d9b6d072-0d2d-4f74-b82a-4c2eb47e8a1b)
  )
  (hierarchical_label "AC_Cur_Out" (shape output) (at 114.3 99.06 0)
    (effects (font (size 1.524 1.524)) (justify left))
    (uuid f4a940ec-930e-44d7-bcc4-82d7bd7abad6)
  )

  (symbol (lib_id "OSSI_standard_components:Resistor") (at 38.1 41.91 0) (unit 1)
    (in_bom yes) (on_board yes)
    (uuid 00000000-0000-0000-0000-000058dd9eae)
    (property "Reference" "R?" (id 0) (at 38.1 43.942 0)
      (effects (font (size 0.9906 0.9906)))
    )
    (property "Value" "220" (id 1) (at 38.1 41.91 0)
      (effects (font (size 0.9906 0.9906)))
    )
    (property "Footprint" "" (id 2) (at 38.1 40.132 0)
      (effects (font (size 0.889 0.889)))
    )
    (property "Datasheet" "" (id 3) (at 38.1 41.91 0)
      (effects (font (size 1.524 1.524)))
    )
    (property "Tolerance" "%" (id 4) (at 38.1 38.735 0)
      (effects (font (size 0.889 0.889)) hide)
    )
    (property "Manufacturer" "M" (id 5) (at 41.275 38.735 0)
      (effects (font (size 0.889 0.889)) (justify left) hide)
    )
    (property "Partnumber" "P" (id 6) (at 41.275 40.005 0)
      (effects (font (size 0.889 0.889)) (justify left) hide)
    )
    (property "Supplier" "S" (id 7) (at 41.275 37.465 0)
      (effects (font (size 0.889 0.889)) (justify left) hide)
    )
    (property "Order No." "O.No." (id 8) (at 41.275 36.195 0)
      (effects (font (size 0.889 0.889)) (justify left) hide)
    )
    (pin "1" (uuid 64c53cd6-2a0d-41ec-8aa6-4cccc161b28b))
    (pin "2" (uuid c9739174-54f5-4dd0-a404-72e80393f01f))
  )

  (symbol (lib_id "OSSI_standard_components:Capacitor") (at 48.26 48.26 0) (unit 1)
    (in_bom yes) (on_board yes)
    (uuid 00000000-0000-0000-0000-000058dda0ee)
    (property "Reference" "C?" (id 0) (at 49.784 50.8 0)
      (effects (font (size 0.9906 0.9906)) (justify left))
    )
    (property "Value" "1n" (id 1) (at 49.784 46.228 0)
      (effects (font (size 0.9906 0.9906)) (justify left))
    )
    (property "Footprint" "" (id 2) (at 46.99 50.546 0)
      (effects (font (size 0.9906 0.9906)) (justify right) hide)
    )
    (property "Datasheet" "" (id 3) (at 48.26 48.26 90)
      (effects (font (size 1.524 1.524)))
    )
    (property "Tolerance" "%" (id 4) (at 46.99 46.228 0)
      (effects (font (size 0.9906 0.9906)) (justify right) hide)
    )
    (property "Manufacturer" "M" (id 5) (at 49.784 43.307 0)
      (effects (font (size 0.889 0.889)) (justify left) hide)
    )
    (property "Partnumber" "P" (id 6) (at 49.784 44.704 0)
      (effects (font (size 0.889 0.889)) (justify left) hide)
    )
    (property "Supplier" "S" (id 7) (at 49.784 41.783 0)
      (effects (font (size 0.889 0.889)) (justify left) hide)
    )
    (property "Order No." "O.No." (id 8) (at 49.784 40.513 0)
      (effects (font (size 0.889 0.889)) (justify left) hide)
    )
    (pin "1" (uuid c5471b69-ed6b-49d8-b115-828cf4c931e9))
    (pin "2" (uuid 480e6c08-6a5b-4d2f-9ba0-05fcb018109e))
  )

  (symbol (lib_id "OSSI_standard_components:Resistor") (at 66.04 31.75 90) (mirror x) (unit 1)
    (in_bom yes) (on_board yes)
    (uuid 00000000-0000-0000-0000-000058dda6b2)
    (property "Reference" "R?" (id 0) (at 68.072 31.75 0)
      (effects (font (size 0.9906 0.9906)))
    )
    (property "Value" "2k37" (id 1) (at 66.04 31.75 0)
      (effects (font (size 0.9906 0.9906)))
    )
    (property "Footprint" "" (id 2) (at 64.262 31.75 0)
      (effects (font (size 0.889 0.889)))
    )
    (property "Datasheet" "" (id 3) (at 66.04 31.75 0)
      (effects (font (size 1.524 1.524)))
    )
    (property "Tolerance" "0.1%" (id 4) (at 62.865 31.75 0)
      (effects (font (size 0.889 0.889)))
    )
    (property "Manufacturer" "M" (id 5) (at 62.865 34.925 0)
      (effects (font (size 0.889 0.889)) (justify left) hide)
    )
    (property "Partnumber" "P" (id 6) (at 64.135 34.925 0)
      (effects (font (size 0.889 0.889)) (justify left) hide)
    )
    (property "Supplier" "S" (id 7) (at 61.595 34.925 0)
      (effects (font (size 0.889 0.889)) (justify left) hide)
    )
    (property "Order No." "O.No." (id 8) (at 60.325 34.925 0)
      (effects (font (size 0.889 0.889)) (justify left) hide)
    )
    (pin "1" (uuid 20000b1a-2b73-469f-864e-f5cc1f10bee5))
    (pin "2" (uuid c35692d9-4c3b-475d-b90b-a747d7cb615b))
  )

  (symbol (lib_id "OSSI_standard_components:Resistor") (at 66.04 68.58 90) (mirror x) (unit 1)
    (in_bom yes) (on_board yes)
    (uuid 00000000-0000-0000-0000-000058dda916)
    (property "Reference" "R?" (id 0) (at 68.072 68.58 0)
      (effects (font (size 0.9906 0.9906)))
    )
    (property "Value" "1k6" (id 1) (at 66.04 68.58 0)
      (effects (font (size 0.9906 0.9906)))
    )
    (property "Footprint" "" (id 2) (at 64.262 68.58 0)
      (effects (font (size 0.889 0.889)))
    )
    (property "Datasheet" "" (id 3) (at 66.04 68.58 0)
      (effects (font (size 1.524 1.524)))
    )
    (property "Tolerance" "0.1%" (id 4) (at 62.865 68.58 0)
      (effects (font (size 0.889 0.889)))
    )
    (property "Manufacturer" "M" (id 5) (at 62.865 71.755 0)
      (effects (font (size 0.889 0.889)) (justify left) hide)
    )
    (property "Partnumber" "P" (id 6) (at 64.135 71.755 0)
      (effects (font (size 0.889 0.889)) (justify left) hide)
    )
    (property "Supplier" "S" (id 7) (at 61.595 71.755 0)
      (effects (font (size 0.889 0.889)) (justify left) hide)
    )
    (property "Order No." "O.No." (id 8) (at 60.325 71.755 0)
      (effects (font (size 0.889 0.889)) (justify left) hide)
    )
    (pin "1" (uuid 22518d87-3929-43cc-be2c-a32dac069865))
    (pin "2" (uuid c2b0f29f-f71a-4e02-920b-d432259cf5a9))
  )

  (symbol (lib_id "OSSI_standard_components:Resistor") (at 66.04 54.61 90) (mirror x) (unit 1)
    (in_bom yes) (on_board yes)
    (uuid 00000000-0000-0000-0000-000058dda9e0)
    (property "Reference" "R?" (id 0) (at 68.072 54.61 0)
      (effects (font (size 0.9906 0.9906)))
    )
    (property "Value" "1R8" (id 1) (at 66.04 54.61 0)
      (effects (font (size 0.9906 0.9906)))
    )
    (property "Footprint" "" (id 2) (at 64.262 54.61 0)
      (effects (font (size 0.889 0.889)))
    )
    (property "Datasheet" "" (id 3) (at 66.04 54.61 0)
      (effects (font (size 1.524 1.524)))
    )
    (property "Tolerance" "1%" (id 4) (at 62.865 54.61 0)
      (effects (font (size 0.889 0.889)))
    )
    (property "Manufacturer" "M" (id 5) (at 62.865 57.785 0)
      (effects (font (size 0.889 0.889)) (justify left) hide)
    )
    (property "Partnumber" "P" (id 6) (at 64.135 57.785 0)
      (effects (font (size 0.889 0.889)) (justify left) hide)
    )
    (property "Supplier" "S" (id 7) (at 61.595 57.785 0)
      (effects (font (size 0.889 0.889)) (justify left) hide)
    )
    (property "Order No." "O.No." (id 8) (at 60.325 57.785 0)
      (effects (font (size 0.889 0.889)) (justify left) hide)
    )
    (pin "1" (uuid 29640c65-9738-4364-840e-7e08c6862bb5))
    (pin "2" (uuid 37f0f11c-2ef2-46a4-9004-ea9772e3428b))
  )

  (symbol (lib_id "OSSI_standard_components:Capacitor") (at 76.2 50.8 0) (unit 1)
    (in_bom yes) (on_board yes)
    (uuid 00000000-0000-0000-0000-000058ddac9e)
    (property "Reference" "C?" (id 0) (at 77.724 53.34 0)
      (effects (font (size 0.9906 0.9906)) (justify left))
    )
    (property "Value" "220p" (id 1) (at 77.724 48.768 0)
      (effects (font (size 0.9906 0.9906)) (justify left))
    )
    (property "Footprint" "" (id 2) (at 74.93 53.086 0)
      (effects (font (size 0.9906 0.9906)) (justify right) hide)
    )
    (property "Datasheet" "" (id 3) (at 76.2 50.8 90)
      (effects (font (size 1.524 1.524)))
    )
    (property "Tolerance" "%" (id 4) (at 74.93 48.768 0)
      (effects (font (size 0.9906 0.9906)) (justify right) hide)
    )
    (property "Manufacturer" "M" (id 5) (at 77.724 45.847 0)
      (effects (font (size 0.889 0.889)) (justify left) hide)
    )
    (property "Partnumber" "P" (id 6) (at 77.724 47.244 0)
      (effects (font (size 0.889 0.889)) (justify left) hide)
    )
    (property "Supplier" "S" (id 7) (at 77.724 44.323 0)
      (effects (font (size 0.889 0.889)) (justify left) hide)
    )
    (property "Order No." "O.No." (id 8) (at 77.724 43.053 0)
      (effects (font (size 0.889 0.889)) (justify left) hide)
    )
    (pin "1" (uuid 6066d1a4-ca5b-4b79-b4a0-1851c7f79d8c))
    (pin "2" (uuid fc01521e-b197-4095-963b-a058d09a20da))
  )

  (symbol (lib_id "OSSI_standard_components:Capacitor") (at 97.79 33.02 0) (unit 1)
    (in_bom yes) (on_board yes)
    (uuid 00000000-0000-0000-0000-000058ddad82)
    (property "Reference" "C?" (id 0) (at 99.314 35.56 0)
      (effects (font (size 0.9906 0.9906)) (justify left))
    )
    (property "Value" "100n" (id 1) (at 99.314 30.988 0)
      (effects (font (size 0.9906 0.9906)) (justify left))
    )
    (property "Footprint" "" (id 2) (at 96.52 35.306 0)
      (effects (font (size 0.9906 0.9906)) (justify right) hide)
    )
    (property "Datasheet" "" (id 3) (at 97.79 33.02 90)
      (effects (font (size 1.524 1.524)))
    )
    (property "Tolerance" "%" (id 4) (at 96.52 30.988 0)
      (effects (font (size 0.9906 0.9906)) (justify right) hide)
    )
    (property "Manufacturer" "M" (id 5) (at 99.314 28.067 0)
      (effects (font (size 0.889 0.889)) (justify left) hide)
    )
    (property "Partnumber" "P" (id 6) (at 99.314 29.464 0)
      (effects (font (size 0.889 0.889)) (justify left) hide)
    )
    (property "Supplier" "S" (id 7) (at 99.314 26.543 0)
      (effects (font (size 0.889 0.889)) (justify left) hide)
    )
    (property "Order No." "O.No." (id 8) (at 99.314 25.273 0)
      (effects (font (size 0.889 0.889)) (justify left) hide)
    )
    (pin "1" (uuid f93d80b4-8cc6-45e4-ad77-372f746f5517))
    (pin "2" (uuid 666e9fa7-cb15-41a8-8d39-3a786e21d154))
  )

  (symbol (lib_id "OSSI_standard_components:Resistor") (at 105.41 44.45 0) (unit 1)
    (in_bom yes) (on_board yes)
    (uuid 00000000-0000-0000-0000-000058ddaea8)
    (property "Reference" "R?" (id 0) (at 105.41 46.482 0)
      (effects (font (size 0.9906 0.9906)))
    )
    (property "Value" "22k" (id 1) (at 105.41 44.45 0)
      (effects (font (size 0.9906 0.9906)))
    )
    (property "Footprint" "" (id 2) (at 105.41 42.672 0)
      (effects (font (size 0.889 0.889)))
    )
    (property "Datasheet" "" (id 3) (at 105.41 44.45 0)
      (effects (font (size 1.524 1.524)))
    )
    (property "Tolerance" "%" (id 4) (at 105.41 41.275 0)
      (effects (font (size 0.889 0.889)) hide)
    )
    (property "Manufacturer" "M" (id 5) (at 108.585 41.275 0)
      (effects (font (size 0.889 0.889)) (justify left) hide)
    )
    (property "Partnumber" "P" (id 6) (at 108.585 42.545 0)
      (effects (font (size 0.889 0.889)) (justify left) hide)
    )
    (property "Supplier" "S" (id 7) (at 108.585 40.005 0)
      (effects (font (size 0.889 0.889)) (justify left) hide)
    )
    (property "Order No." "O.No." (id 8) (at 108.585 38.735 0)
      (effects (font (size 0.889 0.889)) (justify left) hide)
    )
    (pin "1" (uuid 059fdb2f-c54e-401e-9830-a948569bb89c))
    (pin "2" (uuid eb7606d8-96e0-42cf-96f0-b92c8677ee43))
  )

  (symbol (lib_id "OSSI_standard_components:Resistor") (at 115.57 36.83 90) (mirror x) (unit 1)
    (in_bom yes) (on_board yes)
    (uuid 00000000-0000-0000-0000-000058ddb262)
    (property "Reference" "R?" (id 0) (at 117.602 36.83 0)
      (effects (font (size 0.9906 0.9906)))
    )
    (property "Value" "100k" (id 1) (at 115.57 36.83 0)
      (effects (font (size 0.9906 0.9906)))
    )
    (property "Footprint" "" (id 2) (at 113.792 36.83 0)
      (effects (font (size 0.889 0.889)))
    )
    (property "Datasheet" "" (id 3) (at 115.57 36.83 0)
      (effects (font (size 1.524 1.524)))
    )
    (property "Tolerance" "%" (id 4) (at 112.395 36.83 0)
      (effects (font (size 0.889 0.889)) hide)
    )
    (property "Manufacturer" "M" (id 5) (at 112.395 40.005 0)
      (effects (font (size 0.889 0.889)) (justify left) hide)
    )
    (property "Partnumber" "P" (id 6) (at 113.665 40.005 0)
      (effects (font (size 0.889 0.889)) (justify left) hide)
    )
    (property "Supplier" "S" (id 7) (at 111.125 40.005 0)
      (effects (font (size 0.889 0.889)) (justify left) hide)
    )
    (property "Order No." "O.No." (id 8) (at 109.855 40.005 0)
      (effects (font (size 0.889 0.889)) (justify left) hide)
    )
    (pin "1" (uuid 40458ab8-d0b8-476d-8f32-84f15c2ef758))
    (pin "2" (uuid 03d424da-dd0c-4bf2-9b85-5d23b28b3cad))
  )

  (symbol (lib_id "OSSI_standard_components:PNP") (at 125.73 31.75 90) (unit 1)
    (in_bom yes) (on_board yes)
    (uuid 00000000-0000-0000-0000-000058ddb2f2)
    (property "Reference" "Q?" (id 0) (at 128.27 35.56 90)
      (effects (font (size 0.9906 0.9906)) (justify right))
    )
    (property "Value" "BC857B" (id 1) (at 121.92 25.4 90)
      (effects (font (size 0.9906 0.9906)) (justify right))
    )
    (property "Footprint" "OSSI_standard_footprints:SOT23_BEC_R" (id 2) (at 133.35 34.29 0)
      (effects (font (size 1.524 1.524)) hide)
    )
    (property "Datasheet" "" (id 3) (at 130.81 31.75 0)
      (effects (font (size 1.524 1.524)))
    )
    (property "Manufacturer" "M" (id 4) (at 122.555 26.67 0)
      (effects (font (size 0.889 0.889)) (justify left) hide)
    )
    (property "Partnumber" "P" (id 5) (at 123.825 26.67 0)
      (effects (font (size 0.889 0.889)) (justify left) hide)
    )
    (property "Supplier" "S" (id 6) (at 121.285 26.67 0)
      (effects (font (size 0.889 0.889)) (justify left) hide)
    )
    (property "Order No." "O.No." (id 7) (at 120.015 26.67 0)
      (effects (font (size 0.889 0.889)) (justify left) hide)
    )
    (pin "B" (uuid 7bec8cc1-755c-424b-8ad9-24320ab1f452))
    (pin "C" (uuid 11f9064f-62e2-4913-9c9c-d403d3896cf0))
    (pin "E" (uuid 20404e94-d2b3-45b9-a593-a10153d53cf2))
  )

  (symbol (lib_id "OSSI_standard_components:DUAL_OPAMP") (at 88.9 44.45 0) (unit 1)
    (in_bom yes) (on_board yes)
    (uuid 00000000-0000-0000-0000-000058ddb6e0)
    (property "Reference" "U?" (id 0) (at 87.63 50.673 0)
      (effects (font (size 0.9906 0.9906)) (justify right))
    )
    (property "Value" "OPA2317" (id 1) (at 92.456 46.736 0)
      (effects (font (size 0.9906 0.9906)) (justify left))
    )
    (property "Footprint" "OSSI_standard_footprints:SOIC8" (id 2) (at 87.63 44.45 0)
      (effects (font (size 1.524 1.524)) hide)
    )
    (property "Datasheet" "" (id 3) (at 87.63 44.45 0)
      (effects (font (size 1.524 1.524)))
    )
    (property "Manufacturer" "M" (id 4) (at 93.345 40.386 0)
      (effects (font (size 0.889 0.889)) (justify left) hide)
    )
    (property "Partnumber" "P" (id 5) (at 93.345 41.91 0)
      (effects (font (size 0.889 0.889)) (justify left) hide)
    )
    (property "Supplier" "S" (id 6) (at 93.345 38.989 0)
      (effects (font (size 0.889 0.889)) (justify left) hide)
    )
    (property "Order No." "O.No." (id 7) (at 93.345 37.592 0)
      (effects (font (size 0.889 0.889)) (justify left) hide)
    )
    (pin "1" (uuid 1d4bced5-1c00-40b1-a6c0-a0c669e786ec))
    (pin "2" (uuid 6b08d342-d274-40f1-ba16-61ce9d0a4092))
    (pin "3" (uuid 340fd80a-e8f8-4a38-9ad1-9e5c12e928d7))
    (pin "4" (uuid 3e89d056-c9af-4c49-bd75-da2e05d474c8))
    (pin "8" (uuid dc353f85-8264-4dc7-9e33-57ebb1b91632))
    (pin "5" (uuid 1bb4727d-d90d-4d25-bcb5-3017d41dcb04))
    (pin "6" (uuid 8950679b-e93c-45fb-882a-166e936e9d36))
    (pin "7" (uuid d81fbf0c-af4a-452d-af66-322707c88c1f))
  )

  (symbol (lib_id "OSSI_standard_components:AGND") (at 97.79 36.83 0) (unit 1)
    (in_bom yes) (on_board yes)
    (uuid 00000000-0000-0000-0000-000058ddb8d1)
    (property "Reference" "#AGND0116" (id 0) (at 97.79 41.91 0)
      (effects (font (size 0.9906 0.9906)) hide)
    )
    (property "Value" "AGND" (id 1) (at 97.79 40.64 0)
      (effects (font (size 1.1938 1.1938) bold))
    )
    (property "Footprint" "" (id 2) (at 97.79 36.83 0)
      (effects (font (size 1.524 1.524)))
    )
    (property "Datasheet" "" (id 3) (at 97.79 36.83 0)
      (effects (font (size 1.524 1.524)))
    )
    (pin "1" (uuid 4ded6906-ae74-4df7-a7f8-afd7fde3e913))
  )

  (symbol (lib_id "OSSI_standard_components:AGND") (at 90.17 52.07 0) (unit 1)
    (in_bom yes) (on_board yes)
    (uuid 00000000-0000-0000-0000-000058ddb9d9)
    (property "Reference" "#AGND0117" (id 0) (at 90.17 57.15 0)
      (effects (font (size 0.9906 0.9906)) hide)
    )
    (property "Value" "AGND" (id 1) (at 90.17 55.88 0)
      (effects (font (size 1.1938 1.1938) bold))
    )
    (property "Footprint" "" (id 2) (at 90.17 52.07 0)
      (effects (font (size 1.524 1.524)))
    )
    (property "Datasheet" "" (id 3) (at 90.17 52.07 0)
      (effects (font (size 1.524 1.524)))
    )
    (pin "1" (uuid 48a2a6a8-b38d-4c22-9508-74fbdabdea97))
  )

  (symbol (lib_id "OSSI_standard_components:AGND") (at 76.2 54.61 0) (unit 1)
    (in_bom yes) (on_board yes)
    (uuid 00000000-0000-0000-0000-000058ddba23)
    (property "Reference" "#AGND0118" (id 0) (at 76.2 59.69 0)
      (effects (font (size 0.9906 0.9906)) hide)
    )
    (property "Value" "AGND" (id 1) (at 76.2 58.42 0)
      (effects (font (size 1.1938 1.1938) bold))
    )
    (property "Footprint" "" (id 2) (at 76.2 54.61 0)
      (effects (font (size 1.524 1.524)))
    )
    (property "Datasheet" "" (id 3) (at 76.2 54.61 0)
      (effects (font (size 1.524 1.524)))
    )
    (pin "1" (uuid 62b3d588-1970-4c99-942f-8fb67a1d5c65))
  )

  (symbol (lib_id "OSSI_standard_components:AGND") (at 66.04 76.2 0) (unit 1)
    (in_bom yes) (on_board yes)
    (uuid 00000000-0000-0000-0000-000058ddba6d)
    (property "Reference" "#AGND0119" (id 0) (at 66.04 81.28 0)
      (effects (font (size 0.9906 0.9906)) hide)
    )
    (property "Value" "AGND" (id 1) (at 66.04 80.01 0)
      (effects (font (size 1.1938 1.1938) bold))
    )
    (property "Footprint" "" (id 2) (at 66.04 76.2 0)
      (effects (font (size 1.524 1.524)))
    )
    (property "Datasheet" "" (id 3) (at 66.04 76.2 0)
      (effects (font (size 1.524 1.524)))
    )
    (pin "1" (uuid 7ca59290-3d17-42e0-a06d-51d965ac5b4e))
  )

  (symbol (lib_id "OSSI_standard_components:AGND") (at 48.26 52.07 0) (unit 1)
    (in_bom yes) (on_board yes)
    (uuid 00000000-0000-0000-0000-000058ddbab7)
    (property "Reference" "#AGND0120" (id 0) (at 48.26 57.15 0)
      (effects (font (size 0.9906 0.9906)) hide)
    )
    (property "Value" "AGND" (id 1) (at 48.26 55.88 0)
      (effects (font (size 1.1938 1.1938) bold))
    )
    (property "Footprint" "" (id 2) (at 48.26 52.07 0)
      (effects (font (size 1.524 1.524)))
    )
    (property "Datasheet" "" (id 3) (at 48.26 52.07 0)
      (effects (font (size 1.524 1.524)))
    )
    (pin "1" (uuid 088d53c3-c042-44e3-948f-5c3751bc700d))
  )

  (symbol (lib_id "acs722:ACS722") (at 88.9 104.14 0) (unit 1)
    (in_bom yes) (on_board yes)
    (uuid 00000000-0000-0000-0000-000058ddcb30)
    (property "Reference" "U?" (id 0) (at 88.9 113.03 0)
      (effects (font (size 0.9906 0.9906)))
    )
    (property "Value" "ACS722" (id 1) (at 88.9 95.25 0)
      (effects (font (size 0.9906 0.9906) bold))
    )
    (property "Footprint" "OSSI_standard_footprints:SOIC8_CurrentSensor" (id 2) (at 88.9 93.345 0)
      (effects (font (size 0.9906 0.9906)) hide)
    )
    (property "Datasheet" "" (id 3) (at 88.9 102.87 0)
      (effects (font (size 1.524 1.524)))
    )
    (property "Manufacturer" "M" (id 4) (at 97.155 94.615 0)
      (effects (font (size 0.889 0.889)) (justify left) hide)
    )
    (property "Partnumber" "P" (id 5) (at 97.155 93.345 0)
      (effects (font (size 0.889 0.889)) (justify left) hide)
    )
    (property "Supplier" "S" (id 6) (at 97.155 92.075 0)
      (effects (font (size 0.889 0.889)) (justify left) hide)
    )
    (property "Order No." "O.No." (id 7) (at 97.155 90.805 0)
      (effects (font (size 0.889 0.889)) (justify left) hide)
    )
    (pin "1" (uuid 5472cfcd-cf62-4ee8-b1c6-c3483c91212f))
    (pin "2" (uuid af414628-b1b5-4ccc-90c6-274944b37781))
    (pin "3" (uuid 197b0769-3d80-4113-a94a-c465ba045f15))
    (pin "4" (uuid 819b79dd-d179-432c-b8d4-175c07b1beda))
    (pin "5" (uuid 2f6bbeb6-14d7-4fa8-b154-95b0eb5d7e5a))
    (pin "6" (uuid 57a8f726-bfd0-49cc-80ab-e9e654ac53c3))
    (pin "7" (uuid 84326c73-aa77-4f27-bcb0-7fc9bb6565f4))
    (pin "8" (uuid 84141afc-668f-48a3-afe8-9f3263b9b92c))
  )

  (symbol (lib_id "OSSI_standard_components:Capacitor") (at 67.31 110.49 0) (unit 1)
    (in_bom yes) (on_board yes)
    (uuid 00000000-0000-0000-0000-000058ddd126)
    (property "Reference" "C?" (id 0) (at 68.834 113.03 0)
      (effects (font (size 0.9906 0.9906)) (justify left))
    )
    (property "Value" "100n" (id 1) (at 68.834 108.458 0)
      (effects (font (size 0.9906 0.9906)) (justify left))
    )
    (property "Footprint" "" (id 2) (at 66.04 112.776 0)
      (effects (font (size 0.9906 0.9906)) (justify right) hide)
    )
    (property "Datasheet" "" (id 3) (at 67.31 110.49 90)
      (effects (font (size 1.524 1.524)))
    )
    (property "Tolerance" "%" (id 4) (at 66.04 108.458 0)
      (effects (font (size 0.9906 0.9906)) (justify right) hide)
    )
    (property "Manufacturer" "M" (id 5) (at 68.834 105.537 0)
      (effects (font (size 0.889 0.889)) (justify left) hide)
    )
    (property "Partnumber" "P" (id 6) (at 68.834 106.934 0)
      (effects (font (size 0.889 0.889)) (justify left) hide)
    )
    (property "Supplier" "S" (id 7) (at 68.834 104.013 0)
      (effects (font (size 0.889 0.889)) (justify left) hide)
    )
    (property "Order No." "O.No." (id 8) (at 68.834 102.743 0)
      (effects (font (size 0.889 0.889)) (justify left) hide)
    )
    (pin "1" (uuid dbed94b3-c8d0-4165-a613-23efcce53973))
    (pin "2" (uuid 147aef39-94eb-49b5-b5bd-6c043aa16280))
  )

  (symbol (lib_id "OSSI_standard_components:Resistor") (at 96.52 116.84 0) (unit 1)
    (in_bom yes) (on_board yes)
    (uuid 00000000-0000-0000-0000-000058ddd4c7)
    (property "Reference" "R?" (id 0) (at 96.52 118.872 0)
      (effects (font (size 0.9906 0.9906)))
    )
    (property "Value" "0R0" (id 1) (at 96.52 116.84 0)
      (effects (font (size 0.9906 0.9906)))
    )
    (property "Footprint" "" (id 2) (at 96.52 115.062 0)
      (effects (font (size 0.889 0.889)))
    )
    (property "Datasheet" "" (id 3) (at 96.52 116.84 0)
      (effects (font (size 1.524 1.524)))
    )
    (property "Tolerance" "%" (id 4) (at 96.52 113.665 0)
      (effects (font (size 0.889 0.889)) hide)
    )
    (property "Manufacturer" "M" (id 5) (at 99.695 113.665 0)
      (effects (font (size 0.889 0.889)) (justify left) hide)
    )
    (property "Partnumber" "P" (id 6) (at 99.695 114.935 0)
      (effects (font (size 0.889 0.889)) (justify left) hide)
    )
    (property "Supplier" "S" (id 7) (at 99.695 112.395 0)
      (effects (font (size 0.889 0.889)) (justify left) hide)
    )
    (property "Order No." "O.No." (id 8) (at 99.695 111.125 0)
      (effects (font (size 0.889 0.889)) (justify left) hide)
    )
    (property "Comment" "Do not mount for low bandwidth" (id 9) (at 95.25 120.65 0)
      (effects (font (size 0.9906 0.9906)))
    )
    (pin "1" (uuid e6f2a5cd-58d9-4108-b6eb-84c4d109700b))
    (pin "2" (uuid 244ff2f0-d2dd-48e6-8b19-d8b4f73e7064))
  )

  (symbol (lib_id "OSSI_standard_components:Capacitor") (at 129.54 111.76 0) (unit 1)
    (in_bom yes) (on_board yes)
    (uuid 00000000-0000-0000-0000-000058dde168)
    (property "Reference" "C?" (id 0) (at 131.064 114.3 0)
      (effects (font (size 0.9906 0.9906)) (justify left))
    )
    (property "Value" "1n" (id 1) (at 131.064 109.728 0)
      (effects (font (size 0.9906 0.9906)) (justify left))
    )
    (property "Footprint" "" (id 2) (at 128.27 114.046 0)
      (effects (font (size 0.9906 0.9906)) (justify right) hide)
    )
    (property "Datasheet" "" (id 3) (at 129.54 111.76 90)
      (effects (font (size 1.524 1.524)))
    )
    (property "Tolerance" "%" (id 4) (at 128.27 109.728 0)
      (effects (font (size 0.9906 0.9906)) (justify right) hide)
    )
    (property "Manufacturer" "M" (id 5) (at 131.064 106.807 0)
      (effects (font (size 0.889 0.889)) (justify left) hide)
    )
    (property "Partnumber" "P" (id 6) (at 131.064 108.204 0)
      (effects (font (size 0.889 0.889)) (justify left) hide)
    )
    (property "Supplier" "S" (id 7) (at 131.064 105.283 0)
      (effects (font (size 0.889 0.889)) (justify left) hide)
    )
    (property "Order No." "O.No." (id 8) (at 131.064 104.013 0)
      (effects (font (size 0.889 0.889)) (justify left) hide)
    )
    (pin "1" (uuid b7245de8-7787-4d9c-b882-d7743573c04c))
    (pin "2" (uuid 54c3838d-cf3e-4a0e-b62b-e1eb7f93edee))
  )

  (symbol (lib_id "OSSI_standard_components:DUAL_OPAMP") (at 213.36 119.38 0) (unit 2)
    (in_bom yes) (on_board yes)
    (uuid 00000000-0000-0000-0000-000058dde44a)
    (property "Reference" "U?" (id 0) (at 212.09 125.603 0)
      (effects (font (size 0.9906 0.9906)) (justify right))
    )
    (property "Value" "OPA2317" (id 1) (at 216.916 121.666 0)
      (effects (font (size 0.9906 0.9906)) (justify left))
    )
    (property "Footprint" "OSSI_standard_footprints:SOIC8" (id 2) (at 212.09 119.38 0)
      (effects (font (size 1.524 1.524)) hide)
    )
    (property "Datasheet" "" (id 3) (at 212.09 119.38 0)
      (effects (font (size 1.524 1.524)))
    )
    (property "Manufacturer" "M" (id 4) (at 217.805 115.316 0)
      (effects (font (size 0.889 0.889)) (justify left) hide)
    )
    (property "Partnumber" "P" (id 5) (at 217.805 116.84 0)
      (effects (font (size 0.889 0.889)) (justify left) hide)
    )
    (property "Supplier" "S" (id 6) (at 217.805 113.919 0)
      (effects (font (size 0.889 0.889)) (justify left) hide)
    )
    (property "Order No." "O.No." (id 7) (at 217.805 112.522 0)
      (effects (font (size 0.889 0.889)) (justify left) hide)
    )
    (pin "1" (uuid 09181a4c-4d84-47c3-ae9b-8bd8b5f5a782))
    (pin "2" (uuid 46013f9f-b57b-4cd5-8086-866a77033f46))
    (pin "3" (uuid 5c17f088-e535-48cd-8d33-5ae6bf491de5))
    (pin "4" (uuid b9c975a8-4dc2-409f-b2c5-9c6d708373a2))
    (pin "8" (uuid d0b21604-3a32-4794-893f-8c54b1327bcf))
    (pin "5" (uuid 00b1c92b-1e2c-40c8-abbd-fdce1b21b3b6))
    (pin "6" (uuid fc6d2374-e054-42a1-ba4d-b98098af40ce))
    (pin "7" (uuid 8e85ad68-9195-4fbc-b64f-a5cc5af035d5))
  )

  (symbol (lib_id "OSSI_standard_components:Resistor") (at 233.68 119.38 0) (unit 1)
    (in_bom yes) (on_board yes)
    (uuid 00000000-0000-0000-0000-000058dde9ca)
    (property "Reference" "R?" (id 0) (at 233.68 121.412 0)
      (effects (font (size 0.9906 0.9906)))
    )
    (property "Value" "220" (id 1) (at 233.68 119.38 0)
      (effects (font (size 0.9906 0.9906)))
    )
    (property "Footprint" "" (id 2) (at 233.68 117.602 0)
      (effects (font (size 0.889 0.889)))
    )
    (property "Datasheet" "" (id 3) (at 233.68 119.38 0)
      (effects (font (size 1.524 1.524)))
    )
    (property "Tolerance" "%" (id 4) (at 233.68 116.205 0)
      (effects (font (size 0.889 0.889)) hide)
    )
    (property "Manufacturer" "M" (id 5) (at 236.855 116.205 0)
      (effects (font (size 0.889 0.889)) (justify left) hide)
    )
    (property "Partnumber" "P" (id 6) (at 236.855 117.475 0)
      (effects (font (size 0.889 0.889)) (justify left) hide)
    )
    (property "Supplier" "S" (id 7) (at 236.855 114.935 0)
      (effects (font (size 0.889 0.889)) (justify left) hide)
    )
    (property "Order No." "O.No." (id 8) (at 236.855 113.665 0)
      (effects (font (size 0.889 0.889)) (justify left) hide)
    )
    (pin "1" (uuid cf0bf540-6e4a-4c36-aca9-0b9e0eaf6590))
    (pin "2" (uuid 682e7334-2c83-4ed2-9337-9bc8000f045c))
  )

  (symbol (lib_id "OSSI_standard_components:Capacitor") (at 207.01 137.16 0) (unit 1)
    (in_bom yes) (on_board yes)
    (uuid 00000000-0000-0000-0000-000058ddeed6)
    (property "Reference" "C?" (id 0) (at 208.534 139.7 0)
      (effects (font (size 0.9906 0.9906)) (justify left))
    )
    (property "Value" "220p" (id 1) (at 208.534 135.128 0)
      (effects (font (size 0.9906 0.9906)) (justify left))
    )
    (property "Footprint" "" (id 2) (at 205.74 139.446 0)
      (effects (font (size 0.9906 0.9906)) (justify right) hide)
    )
    (property "Datasheet" "" (id 3) (at 207.01 137.16 90)
      (effects (font (size 1.524 1.524)))
    )
    (property "Tolerance" "%" (id 4) (at 205.74 135.128 0)
      (effects (font (size 0.9906 0.9906)) (justify right) hide)
    )
    (property "Manufacturer" "M" (id 5) (at 208.534 132.207 0)
      (effects (font (size 0.889 0.889)) (justify left) hide)
    )
    (property "Partnumber" "P" (id 6) (at 208.534 133.604 0)
      (effects (font (size 0.889 0.889)) (justify left) hide)
    )
    (property "Supplier" "S" (id 7) (at 208.534 130.683 0)
      (effects (font (size 0.889 0.889)) (justify left) hide)
    )
    (property "Order No." "O.No." (id 8) (at 208.534 129.413 0)
      (effects (font (size 0.889 0.889)) (justify left) hide)
    )
    (pin "1" (uuid e9369e5a-4b90-4bfe-8f1f-f3522279c473))
    (pin "2" (uuid 91547b81-45d6-4f03-8eee-e7fc63458489))
  )

  (symbol (lib_id "OSSI_standard_components:Resistor") (at 198.12 114.3 90) (mirror x) (unit 1)
    (in_bom yes) (on_board yes)
    (uuid 00000000-0000-0000-0000-000058ddf03f)
    (property "Reference" "R?" (id 0) (at 200.152 114.3 0)
      (effects (font (size 0.9906 0.9906)))
    )
    (property "Value" "953" (id 1) (at 198.12 114.3 0)
      (effects (font (size 0.9906 0.9906)))
    )
    (property "Footprint" "" (id 2) (at 196.342 114.3 0)
      (effects (font (size 0.889 0.889)))
    )
    (property "Datasheet" "" (id 3) (at 198.12 114.3 0)
      (effects (font (size 1.524 1.524)))
    )
    (property "Tolerance" "0.1%" (id 4) (at 194.945 114.3 0)
      (effects (font (size 0.889 0.889)))
    )
    (property "Manufacturer" "M" (id 5) (at 194.945 117.475 0)
      (effects (font (size 0.889 0.889)) (justify left) hide)
    )
    (property "Partnumber" "P" (id 6) (at 196.215 117.475 0)
      (effects (font (size 0.889 0.889)) (justify left) hide)
    )
    (property "Supplier" "S" (id 7) (at 193.675 117.475 0)
      (effects (font (size 0.889 0.889)) (justify left) hide)
    )
    (property "Order No." "O.No." (id 8) (at 192.405 117.475 0)
      (effects (font (size 0.889 0.889)) (justify left) hide)
    )
    (pin "1" (uuid acb16f2e-482e-473c-a559-de7b482f191a))
    (pin "2" (uuid 75c7e319-dbe1-476f-8575-f0e289113b59))
  )

  (symbol (lib_id "OSSI_standard_components:Resistor") (at 198.12 130.81 90) (mirror x) (unit 1)
    (in_bom yes) (on_board yes)
    (uuid 00000000-0000-0000-0000-000058ddf2eb)
    (property "Reference" "R?" (id 0) (at 200.152 130.81 0)
      (effects (font (size 0.9906 0.9906)))
    )
    (property "Value" "140" (id 1) (at 198.12 130.81 0)
      (effects (font (size 0.9906 0.9906)))
    )
    (property "Footprint" "" (id 2) (at 196.342 130.81 0)
      (effects (font (size 0.889 0.889)))
    )
    (property "Datasheet" "" (id 3) (at 198.12 130.81 0)
      (effects (font (size 1.524 1.524)))
    )
    (property "Tolerance" "0.1%" (id 4) (at 194.945 130.81 0)
      (effects (font (size 0.889 0.889)))
    )
    (property "Manufacturer" "M" (id 5) (at 194.945 133.985 0)
      (effects (font (size 0.889 0.889)) (justify left) hide)
    )
    (property "Partnumber" "P" (id 6) (at 196.215 133.985 0)
      (effects (font (size 0.889 0.889)) (justify left) hide)
    )
    (property "Supplier" "S" (id 7) (at 193.675 133.985 0)
      (effects (font (size 0.889 0.889)) (justify left) hide)
    )
    (property "Order No." "O.No." (id 8) (at 192.405 133.985 0)
      (effects (font (size 0.889 0.889)) (justify left) hide)
    )
    (pin "1" (uuid 5782c93e-d77a-42e5-8c86-fa5bb0b5e0ac))
    (pin "2" (uuid 19539191-59a6-432a-b4ea-02d54e4a8fe8))
  )

  (symbol (lib_id "OSSI_standard_components:Resistor") (at 198.12 144.78 90) (mirror x) (unit 1)
    (in_bom yes) (on_board yes)
    (uuid 00000000-0000-0000-0000-000058ddf389)
    (property "Reference" "R?" (id 0) (at 200.152 144.78 0)
      (effects (font (size 0.9906 0.9906)))
    )
    (property "Value" "3830" (id 1) (at 198.12 144.78 0)
      (effects (font (size 0.9906 0.9906)))
    )
    (property "Footprint" "" (id 2) (at 196.342 144.78 0)
      (effects (font (size 0.889 0.889)))
    )
    (property "Datasheet" "" (id 3) (at 198.12 144.78 0)
      (effects (font (size 1.524 1.524)))
    )
    (property "Tolerance" "0.1%" (id 4) (at 194.945 144.78 0)
      (effects (font (size 0.889 0.889)))
    )
    (property "Manufacturer" "M" (id 5) (at 194.945 147.955 0)
      (effects (font (size 0.889 0.889)) (justify left) hide)
    )
    (property "Partnumber" "P" (id 6) (at 196.215 147.955 0)
      (effects (font (size 0.889 0.889)) (justify left) hide)
    )
    (property "Supplier" "S" (id 7) (at 193.675 147.955 0)
      (effects (font (size 0.889 0.889)) (justify left) hide)
    )
    (property "Order No." "O.No." (id 8) (at 192.405 147.955 0)
      (effects (font (size 0.889 0.889)) (justify left) hide)
    )
    (pin "1" (uuid 57fe4af1-6459-4049-8ec9-e69ebc0e53ff))
    (pin "2" (uuid 061c0f87-d364-4992-9ceb-add59413ac6d))
  )

  (symbol (lib_id "OSSI_standard_components:+3V3") (at 90.17 27.94 0) (unit 1)
    (in_bom yes) (on_board yes)
    (uuid 00000000-0000-0000-0000-000058de0718)
    (property "Reference" "#+3V30101" (id 0) (at 90.17 20.955 0)
      (effects (font (size 1.524 1.524)) hide)
    )
    (property "Value" "+3V3" (id 1) (at 90.17 22.86 0)
      (effects (font (size 1.1938 1.1938) bold))
    )
    (property "Footprint" "" (id 2) (at 90.17 27.94 0)
      (effects (font (size 1.524 1.524)))
    )
    (property "Datasheet" "" (id 3) (at 90.17 27.94 0)
      (effects (font (size 1.524 1.524)))
    )
    (pin "1" (uuid 5d906f95-da30-4f96-8128-ada95994b6fb))
  )

  (symbol (lib_id "OSSI_standard_components:AGND") (at 73.66 118.11 0) (unit 1)
    (in_bom yes) (on_board yes)
    (uuid 00000000-0000-0000-0000-000058e34939)
    (property "Reference" "#AGND0121" (id 0) (at 73.66 123.19 0)
      (effects (font (size 0.9906 0.9906)) hide)
    )
    (property "Value" "AGND" (id 1) (at 73.66 121.92 0)
      (effects (font (size 1.1938 1.1938) bold))
    )
    (property "Footprint" "" (id 2) (at 73.66 118.11 0)
      (effects (font (size 1.524 1.524)))
    )
    (property "Datasheet" "" (id 3) (at 73.66 118.11 0)
      (effects (font (size 1.524 1.524)))
    )
    (pin "1" (uuid 66ded91f-07f7-4667-8d0a-0fb438e0d142))
  )

  (symbol (lib_id "OSSI_standard_components:AGND") (at 129.54 116.84 0) (unit 1)
    (in_bom yes) (on_board yes)
    (uuid 00000000-0000-0000-0000-000058e34983)
    (property "Reference" "#AGND0122" (id 0) (at 129.54 121.92 0)
      (effects (font (size 0.9906 0.9906)) hide)
    )
    (property "Value" "AGND" (id 1) (at 129.54 120.65 0)
      (effects (font (size 1.1938 1.1938) bold))
    )
    (property "Footprint" "" (id 2) (at 129.54 116.84 0)
      (effects (font (size 1.524 1.524)))
    )
    (property "Datasheet" "" (id 3) (at 129.54 116.84 0)
      (effects (font (size 1.524 1.524)))
    )
    (pin "1" (uuid 5a2464ac-4796-4556-95c8-954d6bc14ce5))
  )

  (symbol (lib_id "OSSI_standard_components:AGND") (at 198.12 153.67 0) (unit 1)
    (in_bom yes) (on_board yes)
    (uuid 00000000-0000-0000-0000-000058e349cd)
    (property "Reference" "#AGND0123" (id 0) (at 198.12 158.75 0)
      (effects (font (size 0.9906 0.9906)) hide)
    )
    (property "Value" "AGND" (id 1) (at 198.12 157.48 0)
      (effects (font (size 1.1938 1.1938) bold))
    )
    (property "Footprint" "" (id 2) (at 198.12 153.67 0)
      (effects (font (size 1.524 1.524)))
    )
    (property "Datasheet" "" (id 3) (at 198.12 153.67 0)
      (effects (font (size 1.524 1.524)))
    )
    (pin "1" (uuid f03e8f5d-c460-452b-9f95-dc620c2dc981))
  )
)
