(kicad_sch (version 20211123) (generator eeschema)

  (uuid 97fe9c60-586f-4895-8504-4d3729f5f81a)

  (paper "A4")

  (title_block
    (title "Analog2HDMI-Carrier Board")
    (date "2022-03-19")
    (rev "v20220319")
  )

  (lib_symbols
    (symbol "Analog2HDMI:Analog2HDMI" (pin_names (offset 1.016)) (in_bom yes) (on_board yes)
      (property "Reference" "U" (id 0) (at -3.81 17.78 0)
        (effects (font (size 1.27 1.27)))
      )
      (property "Value" "Analog2HDMI" (id 1) (at 6.35 -15.24 0)
        (effects (font (size 1.27 1.27)))
      )
      (property "Footprint" "" (id 2) (at 0 -2.54 0)
        (effects (font (size 1.27 1.27)) hide)
      )
      (property "Datasheet" "" (id 3) (at 0 -2.54 0)
        (effects (font (size 1.27 1.27)) hide)
      )
      (symbol "Analog2HDMI_0_0"
        (polyline
          (pts
            (xy -5.08 -8.89)
            (xy 12.7 -8.89)
          )
          (stroke (width 0) (type default) (color 0 0 0 0))
          (fill (type none))
        )
        (polyline
          (pts
            (xy 11.43 6.35)
            (xy 12.7 6.35)
          )
          (stroke (width 0) (type default) (color 0 0 0 0))
          (fill (type none))
        )
        (polyline
          (pts
            (xy -5.08 6.35)
            (xy 11.43 6.35)
            (xy 11.43 8.89)
            (xy -5.08 8.89)
          )
          (stroke (width 0) (type default) (color 0 0 0 0))
          (fill (type none))
        )
        (polyline
          (pts
            (xy 11.43 -8.89)
            (xy 11.43 -7.62)
            (xy 11.43 -6.35)
            (xy -5.08 -6.35)
          )
          (stroke (width 0) (type default) (color 0 0 0 0))
          (fill (type none))
        )
        (text "AUDIO" (at 8.89 15.24 0)
          (effects (font (size 1.27 1.27)))
        )
        (text "SUPPLY" (at 7.62 -10.16 0)
          (effects (font (size 1.27 1.27)))
        )
        (text "VIDEO" (at 8.89 5.08 0)
          (effects (font (size 1.27 1.27)))
        )
      )
      (symbol "Analog2HDMI_0_1"
        (rectangle (start -5.08 16.51) (end 12.7 -13.97)
          (stroke (width 0) (type default) (color 0 0 0 0))
          (fill (type none))
        )
      )
      (symbol "Analog2HDMI_1_1"
        (pin input line (at -7.62 15.24 0) (length 2.54)
          (name "SPDIF" (effects (font (size 1.27 1.27))))
          (number "1" (effects (font (size 1.27 1.27))))
        )
        (pin power_in line (at -7.62 -12.7 0) (length 2.54)
          (name "GND" (effects (font (size 1.27 1.27))))
          (number "10" (effects (font (size 1.27 1.27))))
        )
        (pin input line (at -7.62 7.62 0) (length 2.54)
          (name "DIGITAL|~{ANALOG}" (effects (font (size 1.27 1.27))))
          (number "11" (effects (font (size 1.27 1.27))))
        )
        (pin input line (at -7.62 -7.62 0) (length 2.54)
          (name "YPbPr|~{RGBHV}" (effects (font (size 1.27 1.27))))
          (number "12" (effects (font (size 1.27 1.27))))
        )
        (pin input line (at -7.62 12.7 0) (length 2.54)
          (name "R" (effects (font (size 1.27 1.27))))
          (number "2" (effects (font (size 1.27 1.27))))
        )
        (pin input line (at -7.62 10.16 0) (length 2.54)
          (name "L" (effects (font (size 1.27 1.27))))
          (number "3" (effects (font (size 1.27 1.27))))
        )
        (pin input line (at -7.62 5.08 0) (length 2.54)
          (name "HS" (effects (font (size 1.27 1.27))))
          (number "4" (effects (font (size 1.27 1.27))))
        )
        (pin input line (at -7.62 2.54 0) (length 2.54)
          (name "VS" (effects (font (size 1.27 1.27))))
          (number "5" (effects (font (size 1.27 1.27))))
        )
        (pin input line (at -7.62 0 0) (length 2.54)
          (name "B/Pb" (effects (font (size 1.27 1.27))))
          (number "6" (effects (font (size 1.27 1.27))))
        )
        (pin input line (at -7.62 -2.54 0) (length 2.54)
          (name "G/Y" (effects (font (size 1.27 1.27))))
          (number "7" (effects (font (size 1.27 1.27))))
        )
        (pin input line (at -7.62 -5.08 0) (length 2.54)
          (name "R/Pr" (effects (font (size 1.27 1.27))))
          (number "8" (effects (font (size 1.27 1.27))))
        )
        (pin power_in line (at -7.62 -10.16 0) (length 2.54)
          (name "5V" (effects (font (size 1.27 1.27))))
          (number "9" (effects (font (size 1.27 1.27))))
        )
      )
    )
    (symbol "Connector:Conn_Coaxial" (pin_names (offset 1.016) hide) (in_bom yes) (on_board yes)
      (property "Reference" "J" (id 0) (at 0.254 3.048 0)
        (effects (font (size 1.27 1.27)))
      )
      (property "Value" "Conn_Coaxial" (id 1) (at 2.921 0 90)
        (effects (font (size 1.27 1.27)))
      )
      (property "Footprint" "" (id 2) (at 0 0 0)
        (effects (font (size 1.27 1.27)) hide)
      )
      (property "Datasheet" " ~" (id 3) (at 0 0 0)
        (effects (font (size 1.27 1.27)) hide)
      )
      (property "ki_keywords" "BNC SMA SMB SMC LEMO coaxial connector CINCH RCA" (id 4) (at 0 0 0)
        (effects (font (size 1.27 1.27)) hide)
      )
      (property "ki_description" "coaxial connector (BNC, SMA, SMB, SMC, Cinch/RCA, LEMO, ...)" (id 5) (at 0 0 0)
        (effects (font (size 1.27 1.27)) hide)
      )
      (property "ki_fp_filters" "*BNC* *SMA* *SMB* *SMC* *Cinch* *LEMO*" (id 6) (at 0 0 0)
        (effects (font (size 1.27 1.27)) hide)
      )
      (symbol "Conn_Coaxial_0_1"
        (arc (start -1.778 -0.508) (mid 0.222 -1.808) (end 1.778 0)
          (stroke (width 0.254) (type default) (color 0 0 0 0))
          (fill (type none))
        )
        (polyline
          (pts
            (xy -2.54 0)
            (xy -0.508 0)
          )
          (stroke (width 0) (type default) (color 0 0 0 0))
          (fill (type none))
        )
        (polyline
          (pts
            (xy 0 -2.54)
            (xy 0 -1.778)
          )
          (stroke (width 0) (type default) (color 0 0 0 0))
          (fill (type none))
        )
        (circle (center 0 0) (radius 0.508)
          (stroke (width 0.2032) (type default) (color 0 0 0 0))
          (fill (type none))
        )
        (arc (start 1.778 0) (mid 0.222 1.8083) (end -1.778 0.508)
          (stroke (width 0.254) (type default) (color 0 0 0 0))
          (fill (type none))
        )
      )
      (symbol "Conn_Coaxial_1_1"
        (pin passive line (at -5.08 0 0) (length 2.54)
          (name "In" (effects (font (size 1.27 1.27))))
          (number "1" (effects (font (size 1.27 1.27))))
        )
        (pin passive line (at 0 -5.08 90) (length 2.54)
          (name "Ext" (effects (font (size 1.27 1.27))))
          (number "2" (effects (font (size 1.27 1.27))))
        )
      )
    )
    (symbol "Connector:DB15_Female_HighDensity_MountingHoles" (pin_names (offset 1.016) hide) (in_bom yes) (on_board yes)
      (property "Reference" "J" (id 0) (at 0 21.59 0)
        (effects (font (size 1.27 1.27)))
      )
      (property "Value" "DB15_Female_HighDensity_MountingHoles" (id 1) (at 0 19.05 0)
        (effects (font (size 1.27 1.27)))
      )
      (property "Footprint" "" (id 2) (at -24.13 10.16 0)
        (effects (font (size 1.27 1.27)) hide)
      )
      (property "Datasheet" " ~" (id 3) (at -24.13 10.16 0)
        (effects (font (size 1.27 1.27)) hide)
      )
      (property "ki_keywords" "connector db15 female D-SUB VGA" (id 4) (at 0 0 0)
        (effects (font (size 1.27 1.27)) hide)
      )
      (property "ki_description" "15-pin female D-SUB connector, High density (3 columns), Triple Row, Generic, VGA-connector, Mounting Hole" (id 5) (at 0 0 0)
        (effects (font (size 1.27 1.27)) hide)
      )
      (property "ki_fp_filters" "DSUB*Female*" (id 6) (at 0 0 0)
        (effects (font (size 1.27 1.27)) hide)
      )
      (symbol "DB15_Female_HighDensity_MountingHoles_0_1"
        (circle (center -1.905 -10.16) (radius 0.635)
          (stroke (width 0) (type default) (color 0 0 0 0))
          (fill (type none))
        )
        (circle (center -1.905 -5.08) (radius 0.635)
          (stroke (width 0) (type default) (color 0 0 0 0))
          (fill (type none))
        )
        (circle (center -1.905 0) (radius 0.635)
          (stroke (width 0) (type default) (color 0 0 0 0))
          (fill (type none))
        )
        (circle (center -1.905 5.08) (radius 0.635)
          (stroke (width 0) (type default) (color 0 0 0 0))
          (fill (type none))
        )
        (circle (center -1.905 10.16) (radius 0.635)
          (stroke (width 0) (type default) (color 0 0 0 0))
          (fill (type none))
        )
        (circle (center 0 -7.62) (radius 0.635)
          (stroke (width 0) (type default) (color 0 0 0 0))
          (fill (type none))
        )
        (circle (center 0 -2.54) (radius 0.635)
          (stroke (width 0) (type default) (color 0 0 0 0))
          (fill (type none))
        )
        (polyline
          (pts
            (xy -3.175 7.62)
            (xy -0.635 7.62)
          )
          (stroke (width 0) (type default) (color 0 0 0 0))
          (fill (type none))
        )
        (polyline
          (pts
            (xy -0.635 -7.62)
            (xy -3.175 -7.62)
          )
          (stroke (width 0) (type default) (color 0 0 0 0))
          (fill (type none))
        )
        (polyline
          (pts
            (xy -0.635 -2.54)
            (xy -3.175 -2.54)
          )
          (stroke (width 0) (type default) (color 0 0 0 0))
          (fill (type none))
        )
        (polyline
          (pts
            (xy -0.635 2.54)
            (xy -3.175 2.54)
          )
          (stroke (width 0) (type default) (color 0 0 0 0))
          (fill (type none))
        )
        (polyline
          (pts
            (xy -0.635 12.7)
            (xy -3.175 12.7)
          )
          (stroke (width 0) (type default) (color 0 0 0 0))
          (fill (type none))
        )
        (polyline
          (pts
            (xy -3.81 17.78)
            (xy -3.81 -15.24)
            (xy 3.81 -12.7)
            (xy 3.81 15.24)
            (xy -3.81 17.78)
          )
          (stroke (width 0.254) (type default) (color 0 0 0 0))
          (fill (type background))
        )
        (circle (center 0 2.54) (radius 0.635)
          (stroke (width 0) (type default) (color 0 0 0 0))
          (fill (type none))
        )
        (circle (center 0 7.62) (radius 0.635)
          (stroke (width 0) (type default) (color 0 0 0 0))
          (fill (type none))
        )
        (circle (center 0 12.7) (radius 0.635)
          (stroke (width 0) (type default) (color 0 0 0 0))
          (fill (type none))
        )
        (circle (center 1.905 -10.16) (radius 0.635)
          (stroke (width 0) (type default) (color 0 0 0 0))
          (fill (type none))
        )
        (circle (center 1.905 -5.08) (radius 0.635)
          (stroke (width 0) (type default) (color 0 0 0 0))
          (fill (type none))
        )
        (circle (center 1.905 0) (radius 0.635)
          (stroke (width 0) (type default) (color 0 0 0 0))
          (fill (type none))
        )
        (circle (center 1.905 5.08) (radius 0.635)
          (stroke (width 0) (type default) (color 0 0 0 0))
          (fill (type none))
        )
        (circle (center 1.905 10.16) (radius 0.635)
          (stroke (width 0) (type default) (color 0 0 0 0))
          (fill (type none))
        )
      )
      (symbol "DB15_Female_HighDensity_MountingHoles_1_1"
        (pin passive line (at 0 -17.78 90) (length 3.81)
          (name "~" (effects (font (size 1.27 1.27))))
          (number "0" (effects (font (size 1.27 1.27))))
        )
        (pin passive line (at -7.62 10.16 0) (length 5.08)
          (name "~" (effects (font (size 1.27 1.27))))
          (number "1" (effects (font (size 1.27 1.27))))
        )
        (pin passive line (at -7.62 -7.62 0) (length 5.08)
          (name "~" (effects (font (size 1.27 1.27))))
          (number "10" (effects (font (size 1.27 1.27))))
        )
        (pin passive line (at 7.62 10.16 180) (length 5.08)
          (name "~" (effects (font (size 1.27 1.27))))
          (number "11" (effects (font (size 1.27 1.27))))
        )
        (pin passive line (at 7.62 5.08 180) (length 5.08)
          (name "~" (effects (font (size 1.27 1.27))))
          (number "12" (effects (font (size 1.27 1.27))))
        )
        (pin passive line (at 7.62 0 180) (length 5.08)
          (name "~" (effects (font (size 1.27 1.27))))
          (number "13" (effects (font (size 1.27 1.27))))
        )
        (pin passive line (at 7.62 -5.08 180) (length 5.08)
          (name "~" (effects (font (size 1.27 1.27))))
          (number "14" (effects (font (size 1.27 1.27))))
        )
        (pin passive line (at 7.62 -10.16 180) (length 5.08)
          (name "~" (effects (font (size 1.27 1.27))))
          (number "15" (effects (font (size 1.27 1.27))))
        )
        (pin passive line (at -7.62 5.08 0) (length 5.08)
          (name "~" (effects (font (size 1.27 1.27))))
          (number "2" (effects (font (size 1.27 1.27))))
        )
        (pin passive line (at -7.62 0 0) (length 5.08)
          (name "~" (effects (font (size 1.27 1.27))))
          (number "3" (effects (font (size 1.27 1.27))))
        )
        (pin passive line (at -7.62 -5.08 0) (length 5.08)
          (name "~" (effects (font (size 1.27 1.27))))
          (number "4" (effects (font (size 1.27 1.27))))
        )
        (pin passive line (at -7.62 -10.16 0) (length 5.08)
          (name "~" (effects (font (size 1.27 1.27))))
          (number "5" (effects (font (size 1.27 1.27))))
        )
        (pin passive line (at -7.62 12.7 0) (length 5.08)
          (name "~" (effects (font (size 1.27 1.27))))
          (number "6" (effects (font (size 1.27 1.27))))
        )
        (pin passive line (at -7.62 7.62 0) (length 5.08)
          (name "~" (effects (font (size 1.27 1.27))))
          (number "7" (effects (font (size 1.27 1.27))))
        )
        (pin passive line (at -7.62 2.54 0) (length 5.08)
          (name "~" (effects (font (size 1.27 1.27))))
          (number "8" (effects (font (size 1.27 1.27))))
        )
        (pin passive line (at -7.62 -2.54 0) (length 5.08)
          (name "~" (effects (font (size 1.27 1.27))))
          (number "9" (effects (font (size 1.27 1.27))))
        )
      )
    )
    (symbol "Connector:USB_C_Receptacle_USB2.0" (pin_names (offset 1.016)) (in_bom yes) (on_board yes)
      (property "Reference" "J" (id 0) (at -10.16 19.05 0)
        (effects (font (size 1.27 1.27)) (justify left))
      )
      (property "Value" "USB_C_Receptacle_USB2.0" (id 1) (at 19.05 19.05 0)
        (effects (font (size 1.27 1.27)) (justify right))
      )
      (property "Footprint" "" (id 2) (at 3.81 0 0)
        (effects (font (size 1.27 1.27)) hide)
      )
      (property "Datasheet" "https://www.usb.org/sites/default/files/documents/usb_type-c.zip" (id 3) (at 3.81 0 0)
        (effects (font (size 1.27 1.27)) hide)
      )
      (property "ki_keywords" "usb universal serial bus type-C USB2.0" (id 4) (at 0 0 0)
        (effects (font (size 1.27 1.27)) hide)
      )
      (property "ki_description" "USB 2.0-only Type-C Receptacle connector" (id 5) (at 0 0 0)
        (effects (font (size 1.27 1.27)) hide)
      )
      (property "ki_fp_filters" "USB*C*Receptacle*" (id 6) (at 0 0 0)
        (effects (font (size 1.27 1.27)) hide)
      )
      (symbol "USB_C_Receptacle_USB2.0_0_0"
        (rectangle (start -0.254 -17.78) (end 0.254 -16.764)
          (stroke (width 0) (type default) (color 0 0 0 0))
          (fill (type none))
        )
        (rectangle (start 10.16 -14.986) (end 9.144 -15.494)
          (stroke (width 0) (type default) (color 0 0 0 0))
          (fill (type none))
        )
        (rectangle (start 10.16 -12.446) (end 9.144 -12.954)
          (stroke (width 0) (type default) (color 0 0 0 0))
          (fill (type none))
        )
        (rectangle (start 10.16 -4.826) (end 9.144 -5.334)
          (stroke (width 0) (type default) (color 0 0 0 0))
          (fill (type none))
        )
        (rectangle (start 10.16 -2.286) (end 9.144 -2.794)
          (stroke (width 0) (type default) (color 0 0 0 0))
          (fill (type none))
        )
        (rectangle (start 10.16 0.254) (end 9.144 -0.254)
          (stroke (width 0) (type default) (color 0 0 0 0))
          (fill (type none))
        )
        (rectangle (start 10.16 2.794) (end 9.144 2.286)
          (stroke (width 0) (type default) (color 0 0 0 0))
          (fill (type none))
        )
        (rectangle (start 10.16 7.874) (end 9.144 7.366)
          (stroke (width 0) (type default) (color 0 0 0 0))
          (fill (type none))
        )
        (rectangle (start 10.16 10.414) (end 9.144 9.906)
          (stroke (width 0) (type default) (color 0 0 0 0))
          (fill (type none))
        )
        (rectangle (start 10.16 15.494) (end 9.144 14.986)
          (stroke (width 0) (type default) (color 0 0 0 0))
          (fill (type none))
        )
      )
      (symbol "USB_C_Receptacle_USB2.0_0_1"
        (rectangle (start -10.16 17.78) (end 10.16 -17.78)
          (stroke (width 0.254) (type default) (color 0 0 0 0))
          (fill (type background))
        )
        (arc (start -8.89 -3.81) (mid -6.985 -5.715) (end -5.08 -3.81)
          (stroke (width 0.508) (type default) (color 0 0 0 0))
          (fill (type none))
        )
        (arc (start -7.62 -3.81) (mid -6.985 -4.445) (end -6.35 -3.81)
          (stroke (width 0.254) (type default) (color 0 0 0 0))
          (fill (type none))
        )
        (arc (start -7.62 -3.81) (mid -6.985 -4.445) (end -6.35 -3.81)
          (stroke (width 0.254) (type default) (color 0 0 0 0))
          (fill (type outline))
        )
        (rectangle (start -7.62 -3.81) (end -6.35 3.81)
          (stroke (width 0.254) (type default) (color 0 0 0 0))
          (fill (type outline))
        )
        (arc (start -6.35 3.81) (mid -6.985 4.445) (end -7.62 3.81)
          (stroke (width 0.254) (type default) (color 0 0 0 0))
          (fill (type none))
        )
        (arc (start -6.35 3.81) (mid -6.985 4.445) (end -7.62 3.81)
          (stroke (width 0.254) (type default) (color 0 0 0 0))
          (fill (type outline))
        )
        (arc (start -5.08 3.81) (mid -6.985 5.715) (end -8.89 3.81)
          (stroke (width 0.508) (type default) (color 0 0 0 0))
          (fill (type none))
        )
        (circle (center -2.54 1.143) (radius 0.635)
          (stroke (width 0.254) (type default) (color 0 0 0 0))
          (fill (type outline))
        )
        (circle (center 0 -5.842) (radius 1.27)
          (stroke (width 0) (type default) (color 0 0 0 0))
          (fill (type outline))
        )
        (polyline
          (pts
            (xy -8.89 -3.81)
            (xy -8.89 3.81)
          )
          (stroke (width 0.508) (type default) (color 0 0 0 0))
          (fill (type none))
        )
        (polyline
          (pts
            (xy -5.08 3.81)
            (xy -5.08 -3.81)
          )
          (stroke (width 0.508) (type default) (color 0 0 0 0))
          (fill (type none))
        )
        (polyline
          (pts
            (xy 0 -5.842)
            (xy 0 4.318)
          )
          (stroke (width 0.508) (type default) (color 0 0 0 0))
          (fill (type none))
        )
        (polyline
          (pts
            (xy 0 -3.302)
            (xy -2.54 -0.762)
            (xy -2.54 0.508)
          )
          (stroke (width 0.508) (type default) (color 0 0 0 0))
          (fill (type none))
        )
        (polyline
          (pts
            (xy 0 -2.032)
            (xy 2.54 0.508)
            (xy 2.54 1.778)
          )
          (stroke (width 0.508) (type default) (color 0 0 0 0))
          (fill (type none))
        )
        (polyline
          (pts
            (xy -1.27 4.318)
            (xy 0 6.858)
            (xy 1.27 4.318)
            (xy -1.27 4.318)
          )
          (stroke (width 0.254) (type default) (color 0 0 0 0))
          (fill (type outline))
        )
        (rectangle (start 1.905 1.778) (end 3.175 3.048)
          (stroke (width 0.254) (type default) (color 0 0 0 0))
          (fill (type outline))
        )
      )
      (symbol "USB_C_Receptacle_USB2.0_1_1"
        (pin passive line (at 0 -22.86 90) (length 5.08)
          (name "GND" (effects (font (size 1.27 1.27))))
          (number "A1" (effects (font (size 1.27 1.27))))
        )
        (pin passive line (at 0 -22.86 90) (length 5.08) hide
          (name "GND" (effects (font (size 1.27 1.27))))
          (number "A12" (effects (font (size 1.27 1.27))))
        )
        (pin passive line (at 15.24 15.24 180) (length 5.08)
          (name "VBUS" (effects (font (size 1.27 1.27))))
          (number "A4" (effects (font (size 1.27 1.27))))
        )
        (pin bidirectional line (at 15.24 10.16 180) (length 5.08)
          (name "CC1" (effects (font (size 1.27 1.27))))
          (number "A5" (effects (font (size 1.27 1.27))))
        )
        (pin bidirectional line (at 15.24 -2.54 180) (length 5.08)
          (name "D+" (effects (font (size 1.27 1.27))))
          (number "A6" (effects (font (size 1.27 1.27))))
        )
        (pin bidirectional line (at 15.24 2.54 180) (length 5.08)
          (name "D-" (effects (font (size 1.27 1.27))))
          (number "A7" (effects (font (size 1.27 1.27))))
        )
        (pin bidirectional line (at 15.24 -12.7 180) (length 5.08)
          (name "SBU1" (effects (font (size 1.27 1.27))))
          (number "A8" (effects (font (size 1.27 1.27))))
        )
        (pin passive line (at 15.24 15.24 180) (length 5.08) hide
          (name "VBUS" (effects (font (size 1.27 1.27))))
          (number "A9" (effects (font (size 1.27 1.27))))
        )
        (pin passive line (at 0 -22.86 90) (length 5.08) hide
          (name "GND" (effects (font (size 1.27 1.27))))
          (number "B1" (effects (font (size 1.27 1.27))))
        )
        (pin passive line (at 0 -22.86 90) (length 5.08) hide
          (name "GND" (effects (font (size 1.27 1.27))))
          (number "B12" (effects (font (size 1.27 1.27))))
        )
        (pin passive line (at 15.24 15.24 180) (length 5.08) hide
          (name "VBUS" (effects (font (size 1.27 1.27))))
          (number "B4" (effects (font (size 1.27 1.27))))
        )
        (pin bidirectional line (at 15.24 7.62 180) (length 5.08)
          (name "CC2" (effects (font (size 1.27 1.27))))
          (number "B5" (effects (font (size 1.27 1.27))))
        )
        (pin bidirectional line (at 15.24 -5.08 180) (length 5.08)
          (name "D+" (effects (font (size 1.27 1.27))))
          (number "B6" (effects (font (size 1.27 1.27))))
        )
        (pin bidirectional line (at 15.24 0 180) (length 5.08)
          (name "D-" (effects (font (size 1.27 1.27))))
          (number "B7" (effects (font (size 1.27 1.27))))
        )
        (pin bidirectional line (at 15.24 -15.24 180) (length 5.08)
          (name "SBU2" (effects (font (size 1.27 1.27))))
          (number "B8" (effects (font (size 1.27 1.27))))
        )
        (pin passive line (at 15.24 15.24 180) (length 5.08) hide
          (name "VBUS" (effects (font (size 1.27 1.27))))
          (number "B9" (effects (font (size 1.27 1.27))))
        )
        (pin passive line (at -7.62 -22.86 90) (length 5.08)
          (name "SHIELD" (effects (font (size 1.27 1.27))))
          (number "S1" (effects (font (size 1.27 1.27))))
        )
      )
    )
    (symbol "Connector_Generic:Conn_01x01" (pin_names (offset 1.016) hide) (in_bom yes) (on_board yes)
      (property "Reference" "J" (id 0) (at 0 2.54 0)
        (effects (font (size 1.27 1.27)))
      )
      (property "Value" "Conn_01x01" (id 1) (at 0 -2.54 0)
        (effects (font (size 1.27 1.27)))
      )
      (property "Footprint" "" (id 2) (at 0 0 0)
        (effects (font (size 1.27 1.27)) hide)
      )
      (property "Datasheet" "~" (id 3) (at 0 0 0)
        (effects (font (size 1.27 1.27)) hide)
      )
      (property "ki_keywords" "connector" (id 4) (at 0 0 0)
        (effects (font (size 1.27 1.27)) hide)
      )
      (property "ki_description" "Generic connector, single row, 01x01, script generated (kicad-library-utils/schlib/autogen/connector/)" (id 5) (at 0 0 0)
        (effects (font (size 1.27 1.27)) hide)
      )
      (property "ki_fp_filters" "Connector*:*_1x??_*" (id 6) (at 0 0 0)
        (effects (font (size 1.27 1.27)) hide)
      )
      (symbol "Conn_01x01_1_1"
        (rectangle (start -1.27 0.127) (end 0 -0.127)
          (stroke (width 0.1524) (type default) (color 0 0 0 0))
          (fill (type none))
        )
        (rectangle (start -1.27 1.27) (end 1.27 -1.27)
          (stroke (width 0.254) (type default) (color 0 0 0 0))
          (fill (type background))
        )
        (pin passive line (at -5.08 0 0) (length 3.81)
          (name "Pin_1" (effects (font (size 1.27 1.27))))
          (number "1" (effects (font (size 1.27 1.27))))
        )
      )
    )
    (symbol "Device:C" (pin_numbers hide) (pin_names (offset 0.254)) (in_bom yes) (on_board yes)
      (property "Reference" "C" (id 0) (at 0.635 2.54 0)
        (effects (font (size 1.27 1.27)) (justify left))
      )
      (property "Value" "C" (id 1) (at 0.635 -2.54 0)
        (effects (font (size 1.27 1.27)) (justify left))
      )
      (property "Footprint" "" (id 2) (at 0.9652 -3.81 0)
        (effects (font (size 1.27 1.27)) hide)
      )
      (property "Datasheet" "~" (id 3) (at 0 0 0)
        (effects (font (size 1.27 1.27)) hide)
      )
      (property "ki_keywords" "cap capacitor" (id 4) (at 0 0 0)
        (effects (font (size 1.27 1.27)) hide)
      )
      (property "ki_description" "Unpolarized capacitor" (id 5) (at 0 0 0)
        (effects (font (size 1.27 1.27)) hide)
      )
      (property "ki_fp_filters" "C_*" (id 6) (at 0 0 0)
        (effects (font (size 1.27 1.27)) hide)
      )
      (symbol "C_0_1"
        (polyline
          (pts
            (xy -2.032 -0.762)
            (xy 2.032 -0.762)
          )
          (stroke (width 0.508) (type default) (color 0 0 0 0))
          (fill (type none))
        )
        (polyline
          (pts
            (xy -2.032 0.762)
            (xy 2.032 0.762)
          )
          (stroke (width 0.508) (type default) (color 0 0 0 0))
          (fill (type none))
        )
      )
      (symbol "C_1_1"
        (pin passive line (at 0 3.81 270) (length 2.794)
          (name "~" (effects (font (size 1.27 1.27))))
          (number "1" (effects (font (size 1.27 1.27))))
        )
        (pin passive line (at 0 -3.81 90) (length 2.794)
          (name "~" (effects (font (size 1.27 1.27))))
          (number "2" (effects (font (size 1.27 1.27))))
        )
      )
    )
    (symbol "Device:C_Polarized" (pin_numbers hide) (pin_names (offset 0.254)) (in_bom yes) (on_board yes)
      (property "Reference" "C" (id 0) (at 0.635 2.54 0)
        (effects (font (size 1.27 1.27)) (justify left))
      )
      (property "Value" "C_Polarized" (id 1) (at 0.635 -2.54 0)
        (effects (font (size 1.27 1.27)) (justify left))
      )
      (property "Footprint" "" (id 2) (at 0.9652 -3.81 0)
        (effects (font (size 1.27 1.27)) hide)
      )
      (property "Datasheet" "~" (id 3) (at 0 0 0)
        (effects (font (size 1.27 1.27)) hide)
      )
      (property "ki_keywords" "cap capacitor" (id 4) (at 0 0 0)
        (effects (font (size 1.27 1.27)) hide)
      )
      (property "ki_description" "Polarized capacitor" (id 5) (at 0 0 0)
        (effects (font (size 1.27 1.27)) hide)
      )
      (property "ki_fp_filters" "CP_*" (id 6) (at 0 0 0)
        (effects (font (size 1.27 1.27)) hide)
      )
      (symbol "C_Polarized_0_1"
        (rectangle (start -2.286 0.508) (end 2.286 1.016)
          (stroke (width 0) (type default) (color 0 0 0 0))
          (fill (type none))
        )
        (polyline
          (pts
            (xy -1.778 2.286)
            (xy -0.762 2.286)
          )
          (stroke (width 0) (type default) (color 0 0 0 0))
          (fill (type none))
        )
        (polyline
          (pts
            (xy -1.27 2.794)
            (xy -1.27 1.778)
          )
          (stroke (width 0) (type default) (color 0 0 0 0))
          (fill (type none))
        )
        (rectangle (start 2.286 -0.508) (end -2.286 -1.016)
          (stroke (width 0) (type default) (color 0 0 0 0))
          (fill (type outline))
        )
      )
      (symbol "C_Polarized_1_1"
        (pin passive line (at 0 3.81 270) (length 2.794)
          (name "~" (effects (font (size 1.27 1.27))))
          (number "1" (effects (font (size 1.27 1.27))))
        )
        (pin passive line (at 0 -3.81 90) (length 2.794)
          (name "~" (effects (font (size 1.27 1.27))))
          (number "2" (effects (font (size 1.27 1.27))))
        )
      )
    )
    (symbol "Device:R" (pin_numbers hide) (pin_names (offset 0)) (in_bom yes) (on_board yes)
      (property "Reference" "R" (id 0) (at 2.032 0 90)
        (effects (font (size 1.27 1.27)))
      )
      (property "Value" "R" (id 1) (at 0 0 90)
        (effects (font (size 1.27 1.27)))
      )
      (property "Footprint" "" (id 2) (at -1.778 0 90)
        (effects (font (size 1.27 1.27)) hide)
      )
      (property "Datasheet" "~" (id 3) (at 0 0 0)
        (effects (font (size 1.27 1.27)) hide)
      )
      (property "ki_keywords" "R res resistor" (id 4) (at 0 0 0)
        (effects (font (size 1.27 1.27)) hide)
      )
      (property "ki_description" "Resistor" (id 5) (at 0 0 0)
        (effects (font (size 1.27 1.27)) hide)
      )
      (property "ki_fp_filters" "R_*" (id 6) (at 0 0 0)
        (effects (font (size 1.27 1.27)) hide)
      )
      (symbol "R_0_1"
        (rectangle (start -1.016 -2.54) (end 1.016 2.54)
          (stroke (width 0.254) (type default) (color 0 0 0 0))
          (fill (type none))
        )
      )
      (symbol "R_1_1"
        (pin passive line (at 0 3.81 270) (length 1.27)
          (name "~" (effects (font (size 1.27 1.27))))
          (number "1" (effects (font (size 1.27 1.27))))
        )
        (pin passive line (at 0 -3.81 90) (length 1.27)
          (name "~" (effects (font (size 1.27 1.27))))
          (number "2" (effects (font (size 1.27 1.27))))
        )
      )
    )
    (symbol "Mechanical:MountingHole" (pin_names (offset 1.016)) (in_bom yes) (on_board yes)
      (property "Reference" "H" (id 0) (at 0 5.08 0)
        (effects (font (size 1.27 1.27)))
      )
      (property "Value" "MountingHole" (id 1) (at 0 3.175 0)
        (effects (font (size 1.27 1.27)))
      )
      (property "Footprint" "" (id 2) (at 0 0 0)
        (effects (font (size 1.27 1.27)) hide)
      )
      (property "Datasheet" "~" (id 3) (at 0 0 0)
        (effects (font (size 1.27 1.27)) hide)
      )
      (property "ki_keywords" "mounting hole" (id 4) (at 0 0 0)
        (effects (font (size 1.27 1.27)) hide)
      )
      (property "ki_description" "Mounting Hole without connection" (id 5) (at 0 0 0)
        (effects (font (size 1.27 1.27)) hide)
      )
      (property "ki_fp_filters" "MountingHole*" (id 6) (at 0 0 0)
        (effects (font (size 1.27 1.27)) hide)
      )
      (symbol "MountingHole_0_1"
        (circle (center 0 0) (radius 1.27)
          (stroke (width 1.27) (type default) (color 0 0 0 0))
          (fill (type none))
        )
      )
    )
    (symbol "Switch:SW_Push_SPDT" (pin_names (offset 0) hide) (in_bom yes) (on_board yes)
      (property "Reference" "SW" (id 0) (at 0 4.318 0)
        (effects (font (size 1.27 1.27)))
      )
      (property "Value" "SW_Push_SPDT" (id 1) (at 0 -5.08 0)
        (effects (font (size 1.27 1.27)))
      )
      (property "Footprint" "" (id 2) (at 0 0 0)
        (effects (font (size 1.27 1.27)) hide)
      )
      (property "Datasheet" "~" (id 3) (at 0 0 0)
        (effects (font (size 1.27 1.27)) hide)
      )
      (property "ki_keywords" "switch single-pole double-throw spdt ON-ON" (id 4) (at 0 0 0)
        (effects (font (size 1.27 1.27)) hide)
      )
      (property "ki_description" "Momentary Switch, single pole double throw" (id 5) (at 0 0 0)
        (effects (font (size 1.27 1.27)) hide)
      )
      (symbol "SW_Push_SPDT_0_0"
        (circle (center -2.032 0) (radius 0.508)
          (stroke (width 0) (type default) (color 0 0 0 0))
          (fill (type none))
        )
        (polyline
          (pts
            (xy 0 1.016)
            (xy 0 3.048)
          )
          (stroke (width 0) (type default) (color 0 0 0 0))
          (fill (type none))
        )
        (circle (center 2.032 -2.54) (radius 0.508)
          (stroke (width 0) (type default) (color 0 0 0 0))
          (fill (type none))
        )
      )
      (symbol "SW_Push_SPDT_0_1"
        (polyline
          (pts
            (xy -1.524 0.254)
            (xy 2.54 2.032)
          )
          (stroke (width 0) (type default) (color 0 0 0 0))
          (fill (type none))
        )
        (circle (center 2.032 2.54) (radius 0.508)
          (stroke (width 0) (type default) (color 0 0 0 0))
          (fill (type none))
        )
      )
      (symbol "SW_Push_SPDT_1_1"
        (pin passive line (at 5.08 2.54 180) (length 2.54)
          (name "A" (effects (font (size 1.27 1.27))))
          (number "1" (effects (font (size 1.27 1.27))))
        )
        (pin passive line (at -5.08 0 0) (length 2.54)
          (name "B" (effects (font (size 1.27 1.27))))
          (number "2" (effects (font (size 1.27 1.27))))
        )
        (pin passive line (at 5.08 -2.54 180) (length 2.54)
          (name "C" (effects (font (size 1.27 1.27))))
          (number "3" (effects (font (size 1.27 1.27))))
        )
      )
    )
    (symbol "power:+5V" (power) (pin_names (offset 0)) (in_bom yes) (on_board yes)
      (property "Reference" "#PWR" (id 0) (at 0 -3.81 0)
        (effects (font (size 1.27 1.27)) hide)
      )
      (property "Value" "+5V" (id 1) (at 0 3.556 0)
        (effects (font (size 1.27 1.27)))
      )
      (property "Footprint" "" (id 2) (at 0 0 0)
        (effects (font (size 1.27 1.27)) hide)
      )
      (property "Datasheet" "" (id 3) (at 0 0 0)
        (effects (font (size 1.27 1.27)) hide)
      )
      (property "ki_keywords" "power-flag" (id 4) (at 0 0 0)
        (effects (font (size 1.27 1.27)) hide)
      )
      (property "ki_description" "Power symbol creates a global label with name \"+5V\"" (id 5) (at 0 0 0)
        (effects (font (size 1.27 1.27)) hide)
      )
      (symbol "+5V_0_1"
        (polyline
          (pts
            (xy -0.762 1.27)
            (xy 0 2.54)
          )
          (stroke (width 0) (type default) (color 0 0 0 0))
          (fill (type none))
        )
        (polyline
          (pts
            (xy 0 0)
            (xy 0 2.54)
          )
          (stroke (width 0) (type default) (color 0 0 0 0))
          (fill (type none))
        )
        (polyline
          (pts
            (xy 0 2.54)
            (xy 0.762 1.27)
          )
          (stroke (width 0) (type default) (color 0 0 0 0))
          (fill (type none))
        )
      )
      (symbol "+5V_1_1"
        (pin power_in line (at 0 0 90) (length 0) hide
          (name "+5V" (effects (font (size 1.27 1.27))))
          (number "1" (effects (font (size 1.27 1.27))))
        )
      )
    )
    (symbol "power:GND" (power) (pin_names (offset 0)) (in_bom yes) (on_board yes)
      (property "Reference" "#PWR" (id 0) (at 0 -6.35 0)
        (effects (font (size 1.27 1.27)) hide)
      )
      (property "Value" "GND" (id 1) (at 0 -3.81 0)
        (effects (font (size 1.27 1.27)))
      )
      (property "Footprint" "" (id 2) (at 0 0 0)
        (effects (font (size 1.27 1.27)) hide)
      )
      (property "Datasheet" "" (id 3) (at 0 0 0)
        (effects (font (size 1.27 1.27)) hide)
      )
      (property "ki_keywords" "power-flag" (id 4) (at 0 0 0)
        (effects (font (size 1.27 1.27)) hide)
      )
      (property "ki_description" "Power symbol creates a global label with name \"GND\" , ground" (id 5) (at 0 0 0)
        (effects (font (size 1.27 1.27)) hide)
      )
      (symbol "GND_0_1"
        (polyline
          (pts
            (xy 0 0)
            (xy 0 -1.27)
            (xy 1.27 -1.27)
            (xy 0 -2.54)
            (xy -1.27 -1.27)
            (xy 0 -1.27)
          )
          (stroke (width 0) (type default) (color 0 0 0 0))
          (fill (type none))
        )
      )
      (symbol "GND_1_1"
        (pin power_in line (at 0 0 270) (length 0) hide
          (name "GND" (effects (font (size 1.27 1.27))))
          (number "1" (effects (font (size 1.27 1.27))))
        )
      )
    )
  )

  (junction (at 137.16 34.29) (diameter 0) (color 0 0 0 0)
    (uuid 5886e575-b80c-446f-a435-0b4c9526c94e)
  )
  (junction (at 215.9 78.74) (diameter 0) (color 0 0 0 0)
    (uuid aca4de92-9c41-4c2b-9afa-540d02dafa1c)
  )
  (junction (at 137.16 24.13) (diameter 0) (color 0 0 0 0)
    (uuid b15b4c62-4d02-4ab5-9eab-6c9fa7164c4e)
  )
  (junction (at 215.9 85.09) (diameter 0) (color 0 0 0 0)
    (uuid c830e3bc-dc64-4f65-8f47-3b106bae2807)
  )
  (junction (at 82.55 109.22) (diameter 0) (color 0 0 0 0)
    (uuid d26c0188-a8c0-40f8-947a-e0efe65dd5bd)
  )
  (junction (at 215.9 62.23) (diameter 0) (color 0 0 0 0)
    (uuid df68c26a-03b5-4466-aecf-ba34b7dce6b7)
  )
  (junction (at 215.9 68.58) (diameter 0) (color 0 0 0 0)
    (uuid e8c50f1b-c316-4110-9cce-5c24c65a1eaa)
  )
  (junction (at 151.13 110.49) (diameter 0) (color 0 0 0 0)
    (uuid f3628265-0155-43e2-a467-c40ff783e265)
  )

  (wire (pts (xy 60.96 54.61) (xy 59.69 54.61))
    (stroke (width 0) (type default) (color 0 0 0 0))
    (uuid 0351df45-d042-41d4-ba35-88092c7be2fc)
  )
  (wire (pts (xy 132.08 62.23) (xy 140.97 62.23))
    (stroke (width 0) (type default) (color 0 0 0 0))
    (uuid 03caada9-9e22-4e2d-9035-b15433dfbb17)
  )
  (wire (pts (xy 151.13 110.49) (xy 151.13 113.03))
    (stroke (width 0) (type default) (color 0 0 0 0))
    (uuid 0c3dceba-7c95-4b3d-b590-0eb581444beb)
  )
  (wire (pts (xy 55.88 140.97) (xy 55.88 139.7))
    (stroke (width 0) (type default) (color 0 0 0 0))
    (uuid 0ce8d3ab-2662-4158-8a2a-18b782908fc5)
  )
  (wire (pts (xy 144.78 34.29) (xy 137.16 34.29))
    (stroke (width 0) (type default) (color 0 0 0 0))
    (uuid 0f659bd2-aada-46fb-8f2b-6d45cea3ad46)
  )
  (wire (pts (xy 140.97 67.31) (xy 132.08 67.31))
    (stroke (width 0) (type default) (color 0 0 0 0))
    (uuid 0ff508fd-18da-4ab7-9844-3c8a28c2587e)
  )
  (wire (pts (xy 140.97 74.93) (xy 132.08 74.93))
    (stroke (width 0) (type default) (color 0 0 0 0))
    (uuid 13c0ff76-ed71-4cd9-abb0-92c376825d5d)
  )
  (wire (pts (xy 57.15 64.77) (xy 60.96 64.77))
    (stroke (width 0) (type default) (color 0 0 0 0))
    (uuid 14769dc5-8525-4984-8b15-a734ee247efa)
  )
  (wire (pts (xy 140.97 64.77) (xy 132.08 64.77))
    (stroke (width 0) (type default) (color 0 0 0 0))
    (uuid 1f3003e6-dce5-420f-906b-3f1e92b67249)
  )
  (wire (pts (xy 71.12 106.68) (xy 73.66 106.68))
    (stroke (width 0) (type default) (color 0 0 0 0))
    (uuid 20c315f4-1e4f-49aa-8d61-778a7389df7e)
  )
  (wire (pts (xy 137.16 22.86) (xy 137.16 24.13))
    (stroke (width 0) (type default) (color 0 0 0 0))
    (uuid 228b0234-756d-4366-b699-8505b960fd56)
  )
  (wire (pts (xy 60.96 59.69) (xy 59.69 59.69))
    (stroke (width 0) (type default) (color 0 0 0 0))
    (uuid 240e5dac-6242-47a5-bbef-f76d11c715c0)
  )
  (wire (pts (xy 53.34 57.15) (xy 60.96 57.15))
    (stroke (width 0) (type default) (color 0 0 0 0))
    (uuid 275aa44a-b61f-489f-9e2a-819a0fe0d1eb)
  )
  (wire (pts (xy 48.26 140.97) (xy 48.26 139.7))
    (stroke (width 0) (type default) (color 0 0 0 0))
    (uuid 29e058a7-50a3-43e5-81c3-bfee53da08be)
  )
  (wire (pts (xy 137.16 24.13) (xy 144.78 24.13))
    (stroke (width 0) (type default) (color 0 0 0 0))
    (uuid 309057e7-e13b-45a1-b290-1ded827b1828)
  )
  (wire (pts (xy 82.55 106.68) (xy 82.55 109.22))
    (stroke (width 0) (type default) (color 0 0 0 0))
    (uuid 309b3bff-19c8-41ec-a84d-63399c649f46)
  )
  (wire (pts (xy 59.69 69.85) (xy 60.96 69.85))
    (stroke (width 0) (type default) (color 0 0 0 0))
    (uuid 34a74736-156e-4bf3-9200-cd137cfa59da)
  )
  (wire (pts (xy 140.97 69.85) (xy 132.08 69.85))
    (stroke (width 0) (type default) (color 0 0 0 0))
    (uuid 378af8b4-af3d-46e7-89ae-deff12ca9067)
  )
  (wire (pts (xy 59.69 72.39) (xy 60.96 72.39))
    (stroke (width 0) (type default) (color 0 0 0 0))
    (uuid 3a52f112-cb97-43db-aaeb-20afe27664d7)
  )
  (wire (pts (xy 210.82 50.8) (xy 201.93 50.8))
    (stroke (width 0) (type default) (color 0 0 0 0))
    (uuid 40976bf0-19de-460f-ad64-224d4f51e16b)
  )
  (wire (pts (xy 215.9 62.23) (xy 215.9 68.58))
    (stroke (width 0) (type default) (color 0 0 0 0))
    (uuid 4780a290-d25c-4459-9579-eba3f7678762)
  )
  (wire (pts (xy 82.55 67.31) (xy 76.2 67.31))
    (stroke (width 0) (type default) (color 0 0 0 0))
    (uuid 57c0c267-8bf9-4cc7-b734-d71a239ac313)
  )
  (wire (pts (xy 215.9 107.95) (xy 215.9 106.68))
    (stroke (width 0) (type default) (color 0 0 0 0))
    (uuid 5b34a16c-5a14-4291-8242-ea6d6ac54372)
  )
  (wire (pts (xy 60.96 62.23) (xy 53.34 62.23))
    (stroke (width 0) (type default) (color 0 0 0 0))
    (uuid 5ca4be1c-537e-4a4a-b344-d0c8ffde8546)
  )
  (wire (pts (xy 140.97 57.15) (xy 132.08 57.15))
    (stroke (width 0) (type default) (color 0 0 0 0))
    (uuid 639c0e59-e95c-4114-bccd-2e7277505454)
  )
  (wire (pts (xy 53.34 52.07) (xy 60.96 52.07))
    (stroke (width 0) (type default) (color 0 0 0 0))
    (uuid 6c67e4f6-9d04-4539-b356-b76e915ce848)
  )
  (wire (pts (xy 81.28 109.22) (xy 82.55 109.22))
    (stroke (width 0) (type default) (color 0 0 0 0))
    (uuid 711e8266-1663-4d18-8cd6-839cb071c47e)
  )
  (wire (pts (xy 144.78 24.13) (xy 144.78 25.4))
    (stroke (width 0) (type default) (color 0 0 0 0))
    (uuid 71c9110a-8064-4b4a-acc0-542534ea4901)
  )
  (wire (pts (xy 139.7 107.95) (xy 132.08 107.95))
    (stroke (width 0) (type default) (color 0 0 0 0))
    (uuid 730b670c-9bcf-4dcd-9a8d-fcaa61fb0955)
  )
  (wire (pts (xy 132.08 95.25) (xy 139.7 95.25))
    (stroke (width 0) (type default) (color 0 0 0 0))
    (uuid 7d928d56-093a-4ca8-aed1-414b7e703b45)
  )
  (wire (pts (xy 215.9 55.88) (xy 215.9 62.23))
    (stroke (width 0) (type default) (color 0 0 0 0))
    (uuid 7e023245-2c2b-4e2b-bfb9-5d35176e88f2)
  )
  (wire (pts (xy 76.2 101.6) (xy 76.2 96.52))
    (stroke (width 0) (type default) (color 0 0 0 0))
    (uuid 82be7aae-5d06-4178-8c3e-98760c41b054)
  )
  (wire (pts (xy 210.82 73.66) (xy 201.93 73.66))
    (stroke (width 0) (type default) (color 0 0 0 0))
    (uuid 8412992d-8754-44de-9e08-115cec1a3eff)
  )
  (wire (pts (xy 82.55 62.23) (xy 76.2 62.23))
    (stroke (width 0) (type default) (color 0 0 0 0))
    (uuid 853ee787-6e2c-4f32-bc75-6c17337dd3d5)
  )
  (wire (pts (xy 140.97 59.69) (xy 132.08 59.69))
    (stroke (width 0) (type default) (color 0 0 0 0))
    (uuid 8ca3e20d-bcc7-4c5e-9deb-562dfed9fecb)
  )
  (wire (pts (xy 149.86 97.79) (xy 151.13 97.79))
    (stroke (width 0) (type default) (color 0 0 0 0))
    (uuid 965308c8-e014-459a-b9db-b8493a601c62)
  )
  (wire (pts (xy 140.97 52.07) (xy 132.08 52.07))
    (stroke (width 0) (type default) (color 0 0 0 0))
    (uuid a15a7506-eae4-4933-84da-9ad754258706)
  )
  (wire (pts (xy 140.97 72.39) (xy 132.08 72.39))
    (stroke (width 0) (type default) (color 0 0 0 0))
    (uuid a27eb049-c992-4f11-a026-1e6a8d9d0160)
  )
  (wire (pts (xy 210.82 101.6) (xy 201.93 101.6))
    (stroke (width 0) (type default) (color 0 0 0 0))
    (uuid a8447faf-e0a0-4c4a-ae53-4d4b28669151)
  )
  (wire (pts (xy 149.86 110.49) (xy 151.13 110.49))
    (stroke (width 0) (type default) (color 0 0 0 0))
    (uuid abe07c9a-17c3-43b5-b7a6-ae867ac27ea7)
  )
  (wire (pts (xy 151.13 97.79) (xy 151.13 110.49))
    (stroke (width 0) (type default) (color 0 0 0 0))
    (uuid b1c649b1-f44d-46c7-9dea-818e75a1b87e)
  )
  (wire (pts (xy 137.16 34.29) (xy 137.16 35.56))
    (stroke (width 0) (type default) (color 0 0 0 0))
    (uuid b2b23386-d0d5-4278-8953-0c9c0e5e73f7)
  )
  (wire (pts (xy 215.9 68.58) (xy 215.9 78.74))
    (stroke (width 0) (type default) (color 0 0 0 0))
    (uuid babeabf2-f3b0-4ed5-8d9e-0215947e6cf3)
  )
  (wire (pts (xy 81.28 106.68) (xy 82.55 106.68))
    (stroke (width 0) (type default) (color 0 0 0 0))
    (uuid bd9595a1-04f3-4fda-8f1b-e65ad874edd3)
  )
  (wire (pts (xy 137.16 24.13) (xy 137.16 25.4))
    (stroke (width 0) (type default) (color 0 0 0 0))
    (uuid c1f99f07-6617-4c12-adc8-995bb24186f8)
  )
  (wire (pts (xy 215.9 85.09) (xy 215.9 87.63))
    (stroke (width 0) (type default) (color 0 0 0 0))
    (uuid c43663ee-9a0d-4f27-a292-89ba89964065)
  )
  (wire (pts (xy 140.97 80.01) (xy 138.43 80.01))
    (stroke (width 0) (type default) (color 0 0 0 0))
    (uuid c5eb1e4c-ce83-470e-8f32-e20ff1f886a3)
  )
  (wire (pts (xy 210.82 63.5) (xy 201.93 63.5))
    (stroke (width 0) (type default) (color 0 0 0 0))
    (uuid c8c79177-94d4-43e2-a654-f0a5554fbb68)
  )
  (wire (pts (xy 144.78 33.02) (xy 144.78 34.29))
    (stroke (width 0) (type default) (color 0 0 0 0))
    (uuid d0f43e46-61b2-4a94-a748-d1bc9ef9b75b)
  )
  (wire (pts (xy 140.97 54.61) (xy 132.08 54.61))
    (stroke (width 0) (type default) (color 0 0 0 0))
    (uuid d3c11c8f-a73d-4211-934b-a6da255728ad)
  )
  (wire (pts (xy 137.16 33.02) (xy 137.16 34.29))
    (stroke (width 0) (type default) (color 0 0 0 0))
    (uuid d3e8089b-b03d-4f16-8641-6cc133dfa486)
  )
  (wire (pts (xy 71.12 109.22) (xy 73.66 109.22))
    (stroke (width 0) (type default) (color 0 0 0 0))
    (uuid d6fb27cf-362d-4568-967c-a5bf49d5931b)
  )
  (wire (pts (xy 215.9 78.74) (xy 215.9 85.09))
    (stroke (width 0) (type default) (color 0 0 0 0))
    (uuid d7269d2a-b8c0-422d-8f25-f79ea31bf75e)
  )
  (wire (pts (xy 210.82 80.01) (xy 201.93 80.01))
    (stroke (width 0) (type default) (color 0 0 0 0))
    (uuid df32840e-2912-4088-b54c-9a85f64c0265)
  )
  (wire (pts (xy 210.82 57.15) (xy 201.93 57.15))
    (stroke (width 0) (type default) (color 0 0 0 0))
    (uuid e21aa84b-970e-47cf-b64f-3b55ee0e1b51)
  )
  (wire (pts (xy 59.69 49.53) (xy 60.96 49.53))
    (stroke (width 0) (type default) (color 0 0 0 0))
    (uuid e472dac4-5b65-4920-b8b2-6065d140a69d)
  )
  (wire (pts (xy 71.12 101.6) (xy 76.2 101.6))
    (stroke (width 0) (type default) (color 0 0 0 0))
    (uuid e65b62be-e01b-4688-a999-1d1be370c4ae)
  )
  (wire (pts (xy 82.55 109.22) (xy 82.55 111.76))
    (stroke (width 0) (type default) (color 0 0 0 0))
    (uuid ee2b5b55-18f1-44b0-8eb7-645cdcfe2722)
  )
  (wire (pts (xy 140.97 77.47) (xy 138.43 77.47))
    (stroke (width 0) (type default) (color 0 0 0 0))
    (uuid ffd175d1-912a-4224-be1e-a8198680f46b)
  )

  (label "R|Pr" (at 53.34 52.07 0)
    (effects (font (size 1.27 1.27)) (justify left bottom))
    (uuid 19c56563-5fe3-442a-885b-418dbc2421eb)
  )
  (label "G|Y" (at 53.34 57.15 0)
    (effects (font (size 1.27 1.27)) (justify left bottom))
    (uuid 21ae9c3a-7138-444e-be38-56a4842ab594)
  )
  (label "SPDIF" (at 201.93 101.6 0)
    (effects (font (size 1.27 1.27)) (justify left bottom))
    (uuid 35a9f71f-ba35-47f6-814e-4106ac36c51e)
  )
  (label "AUDIO_R" (at 132.08 54.61 0)
    (effects (font (size 1.27 1.27)) (justify left bottom))
    (uuid 68877d35-b796-44db-9124-b8e744e7412e)
  )
  (label "VS" (at 132.08 64.77 0)
    (effects (font (size 1.27 1.27)) (justify left bottom))
    (uuid 6d26d68f-1ca7-4ff3-b058-272f1c399047)
  )
  (label "G|Y" (at 132.08 69.85 0)
    (effects (font (size 1.27 1.27)) (justify left bottom))
    (uuid 70e15522-1572-4451-9c0d-6d36ac70d8c6)
  )
  (label "~{RGBHV}" (at 132.08 74.93 0)
    (effects (font (size 1.27 1.27)) (justify left bottom))
    (uuid 7599133e-c681-4202-85d9-c20dac196c64)
  )
  (label "AUDIO_L" (at 201.93 80.01 0)
    (effects (font (size 1.27 1.27)) (justify left bottom))
    (uuid 789ca812-3e0c-4a3f-97bc-a916dd9bce80)
  )
  (label "HS" (at 82.55 62.23 180)
    (effects (font (size 1.27 1.27)) (justify right bottom))
    (uuid 7cee474b-af8f-4832-b07a-c43c1ab0b464)
  )
  (label "~{ANALOG}" (at 132.08 107.95 0)
    (effects (font (size 1.27 1.27)) (justify left bottom))
    (uuid 8a650ebf-3f78-4ca4-a26b-a5028693e36d)
  )
  (label "HS" (at 132.08 62.23 0)
    (effects (font (size 1.27 1.27)) (justify left bottom))
    (uuid 911bdcbe-493f-4e21-a506-7cbc636e2c17)
  )
  (label "VS" (at 82.55 67.31 180)
    (effects (font (size 1.27 1.27)) (justify right bottom))
    (uuid 9cb12cc8-7f1a-4a01-9256-c119f11a8a02)
  )
  (label "~{ANALOG}" (at 132.08 59.69 0)
    (effects (font (size 1.27 1.27)) (justify left bottom))
    (uuid 9f8381e9-3077-4453-a480-a01ad9c1a940)
  )
  (label "G|Y" (at 201.93 50.8 0)
    (effects (font (size 1.27 1.27)) (justify left bottom))
    (uuid a17904b9-135e-4dae-ae20-401c7787de72)
  )
  (label "AUDIO_L" (at 132.08 57.15 0)
    (effects (font (size 1.27 1.27)) (justify left bottom))
    (uuid b96fe6ac-3535-4455-ab88-ed77f5e46d6e)
  )
  (label "SPDIF" (at 132.08 52.07 0)
    (effects (font (size 1.27 1.27)) (justify left bottom))
    (uuid c332fa55-4168-4f55-88a5-f82c7c21040b)
  )
  (label "B|Pb" (at 53.34 62.23 0)
    (effects (font (size 1.27 1.27)) (justify left bottom))
    (uuid c7e7067c-5f5e-48d8-ab59-df26f9b35863)
  )
  (label "~{RGBHV}" (at 132.08 95.25 0)
    (effects (font (size 1.27 1.27)) (justify left bottom))
    (uuid ca87f11b-5f48-4b57-8535-68d3ec2fe5a9)
  )
  (label "R|Pr" (at 201.93 63.5 0)
    (effects (font (size 1.27 1.27)) (justify left bottom))
    (uuid cdfb07af-801b-44ba-8c30-d021a6ad3039)
  )
  (label "B|Pb" (at 132.08 67.31 0)
    (effects (font (size 1.27 1.27)) (justify left bottom))
    (uuid d3d7e298-1d39-4294-a3ab-c84cc0dc5e5a)
  )
  (label "R|Pr" (at 132.08 72.39 0)
    (effects (font (size 1.27 1.27)) (justify left bottom))
    (uuid dde51ae5-b215-445e-92bb-4a12ec410531)
  )
  (label "AUDIO_R" (at 201.93 73.66 0)
    (effects (font (size 1.27 1.27)) (justify left bottom))
    (uuid e4c6fdbb-fdc7-4ad4-a516-240d84cdc120)
  )
  (label "B|Pb" (at 201.93 57.15 0)
    (effects (font (size 1.27 1.27)) (justify left bottom))
    (uuid e6b860cc-cb76-4220-acfb-68f1eb348bfa)
  )

  (symbol (lib_id "Analog2HDMI:Analog2HDMI") (at 148.59 67.31 0) (unit 1)
    (in_bom yes) (on_board yes)
    (uuid 00000000-0000-0000-0000-000061b67e9c)
    (property "Reference" "U1" (id 0) (at 164.3126 64.7446 0)
      (effects (font (size 1.27 1.27)) (justify left))
    )
    (property "Value" "Analog2HDMI" (id 1) (at 164.3126 67.056 0)
      (effects (font (size 1.27 1.27)) (justify left))
    )
    (property "Footprint" "Analog2HDMI:Analog2HDMI" (id 2) (at 148.59 69.85 0)
      (effects (font (size 1.27 1.27)) hide)
    )
    (property "Datasheet" "" (id 3) (at 148.59 69.85 0)
      (effects (font (size 1.27 1.27)) hide)
    )
    (pin "1" (uuid d46c2d73-379f-42b5-81a1-576937a46f8f))
    (pin "10" (uuid dc47f62c-5bd1-44db-8ac8-e0f50622a023))
    (pin "11" (uuid 0bd6e4dd-76a0-49a6-8f64-4fb6a1a0c386))
    (pin "12" (uuid 5f1027e2-dcb9-4d76-84e8-d6b28c31d1ed))
    (pin "2" (uuid c94e69f2-1d55-476b-9dfd-1af7964d9d89))
    (pin "3" (uuid 5a38a857-4984-4b5e-8f28-122bf78b50b4))
    (pin "4" (uuid 8a5b8da5-ba5a-458c-8beb-21616d5def2c))
    (pin "5" (uuid d40fbf7f-5ec5-4518-809d-d92cf32ab6e7))
    (pin "6" (uuid 08d8f225-a494-4bf9-8e5c-96c44c531b40))
    (pin "7" (uuid ea1799a6-8f53-43ed-851c-2cf6ed98ed06))
    (pin "8" (uuid 93d80040-ef84-421f-bfe5-b70c610edc74))
    (pin "9" (uuid 4e5a6ff5-28ac-48d2-b9bc-229008faeebe))
  )

  (symbol (lib_id "Switch:SW_Push_SPDT") (at 144.78 95.25 0) (unit 1)
    (in_bom yes) (on_board yes)
    (uuid 00000000-0000-0000-0000-000061b69874)
    (property "Reference" "SW1" (id 0) (at 144.78 88.011 0))
    (property "Value" "SW_Push_SPDT" (id 1) (at 144.78 90.3224 0))
    (property "Footprint" "Button_Switch_THT:SW_CuK_OS102011MA1QN1_SPDT_Angled" (id 2) (at 144.78 95.25 0)
      (effects (font (size 1.27 1.27)) hide)
    )
    (property "Datasheet" "~" (id 3) (at 144.78 95.25 0)
      (effects (font (size 1.27 1.27)) hide)
    )
    (pin "1" (uuid 4312b8f2-d9cf-4c40-a4bf-bceda98222db))
    (pin "2" (uuid 18b04aa6-a03f-44e0-ac75-62eaac3ef795))
    (pin "3" (uuid e339683b-813c-4d40-af00-468cd2808e70))
  )

  (symbol (lib_id "Switch:SW_Push_SPDT") (at 144.78 107.95 0) (unit 1)
    (in_bom yes) (on_board yes)
    (uuid 00000000-0000-0000-0000-000061b6a696)
    (property "Reference" "SW2" (id 0) (at 144.78 100.711 0))
    (property "Value" "SW_Push_SPDT" (id 1) (at 144.78 103.0224 0))
    (property "Footprint" "Button_Switch_THT:SW_CuK_OS102011MA1QN1_SPDT_Angled" (id 2) (at 144.78 107.95 0)
      (effects (font (size 1.27 1.27)) hide)
    )
    (property "Datasheet" "~" (id 3) (at 144.78 107.95 0)
      (effects (font (size 1.27 1.27)) hide)
    )
    (pin "1" (uuid 8db0e266-05a5-40ee-9c59-ba8876177dc4))
    (pin "2" (uuid 59b769a2-11ff-47ac-ab14-6ab002bc58dc))
    (pin "3" (uuid 4764682f-6d51-43b7-8ae1-fe61ff2ca722))
  )

  (symbol (lib_id "Connector:Conn_Coaxial") (at 215.9 50.8 0) (unit 1)
    (in_bom yes) (on_board yes)
    (uuid 00000000-0000-0000-0000-000061b6ab79)
    (property "Reference" "J3" (id 0) (at 218.44 51.435 0)
      (effects (font (size 1.27 1.27)) (justify left))
    )
    (property "Value" "Conn_Coaxial" (id 1) (at 218.44 53.7464 0)
      (effects (font (size 1.27 1.27)) (justify left))
    )
    (property "Footprint" "Connector_Coaxial:AV-8.4-9" (id 2) (at 215.9 50.8 0)
      (effects (font (size 1.27 1.27)) hide)
    )
    (property "Datasheet" " ~" (id 3) (at 215.9 50.8 0)
      (effects (font (size 1.27 1.27)) hide)
    )
    (pin "1" (uuid 90aa9e49-8236-43df-972a-f9f2a3eb1b9b))
    (pin "2" (uuid 31e769c2-62b0-4539-9404-48e372d58b93))
  )

  (symbol (lib_id "Connector:Conn_Coaxial") (at 215.9 57.15 0) (unit 1)
    (in_bom yes) (on_board yes)
    (uuid 00000000-0000-0000-0000-000061b6bac2)
    (property "Reference" "J4" (id 0) (at 218.44 57.785 0)
      (effects (font (size 1.27 1.27)) (justify left))
    )
    (property "Value" "Conn_Coaxial" (id 1) (at 218.44 60.0964 0)
      (effects (font (size 1.27 1.27)) (justify left))
    )
    (property "Footprint" "Connector_Coaxial:AV-8.4-9" (id 2) (at 215.9 57.15 0)
      (effects (font (size 1.27 1.27)) hide)
    )
    (property "Datasheet" " ~" (id 3) (at 215.9 57.15 0)
      (effects (font (size 1.27 1.27)) hide)
    )
    (pin "1" (uuid 20783823-fff8-4088-925b-f3af8c308ecf))
    (pin "2" (uuid 1501a31e-d351-40fc-9455-4b6209c268b3))
  )

  (symbol (lib_id "Connector:Conn_Coaxial") (at 215.9 63.5 0) (unit 1)
    (in_bom yes) (on_board yes)
    (uuid 00000000-0000-0000-0000-000061b6c766)
    (property "Reference" "J5" (id 0) (at 218.44 64.135 0)
      (effects (font (size 1.27 1.27)) (justify left))
    )
    (property "Value" "Conn_Coaxial" (id 1) (at 218.44 66.4464 0)
      (effects (font (size 1.27 1.27)) (justify left))
    )
    (property "Footprint" "Connector_Coaxial:AV-8.4-9" (id 2) (at 215.9 63.5 0)
      (effects (font (size 1.27 1.27)) hide)
    )
    (property "Datasheet" " ~" (id 3) (at 215.9 63.5 0)
      (effects (font (size 1.27 1.27)) hide)
    )
    (pin "1" (uuid dfbc7c3e-8798-4173-b814-11f6d53e2808))
    (pin "2" (uuid 609219b8-edbe-4081-b6b9-c182ed83acd4))
  )

  (symbol (lib_id "Connector:Conn_Coaxial") (at 215.9 73.66 0) (unit 1)
    (in_bom yes) (on_board yes)
    (uuid 00000000-0000-0000-0000-000061b6d2d5)
    (property "Reference" "J6" (id 0) (at 218.44 74.295 0)
      (effects (font (size 1.27 1.27)) (justify left))
    )
    (property "Value" "Conn_Coaxial" (id 1) (at 218.44 76.6064 0)
      (effects (font (size 1.27 1.27)) (justify left))
    )
    (property "Footprint" "Connector_Coaxial:AV-8.4-9" (id 2) (at 215.9 73.66 0)
      (effects (font (size 1.27 1.27)) hide)
    )
    (property "Datasheet" " ~" (id 3) (at 215.9 73.66 0)
      (effects (font (size 1.27 1.27)) hide)
    )
    (pin "1" (uuid 2d4f6423-91a6-4649-933b-b75770cad269))
    (pin "2" (uuid cec20b0d-acc5-4fac-9edb-aa31383211b0))
  )

  (symbol (lib_id "Connector:Conn_Coaxial") (at 215.9 80.01 0) (unit 1)
    (in_bom yes) (on_board yes)
    (uuid 00000000-0000-0000-0000-000061b6de4c)
    (property "Reference" "J7" (id 0) (at 218.44 80.645 0)
      (effects (font (size 1.27 1.27)) (justify left))
    )
    (property "Value" "Conn_Coaxial" (id 1) (at 218.44 82.9564 0)
      (effects (font (size 1.27 1.27)) (justify left))
    )
    (property "Footprint" "Connector_Coaxial:AV-8.4-9" (id 2) (at 215.9 80.01 0)
      (effects (font (size 1.27 1.27)) hide)
    )
    (property "Datasheet" " ~" (id 3) (at 215.9 80.01 0)
      (effects (font (size 1.27 1.27)) hide)
    )
    (pin "1" (uuid 95614941-57f2-4988-9306-a3a2d1d68fab))
    (pin "2" (uuid e5062f1a-583d-4ded-9c89-c38ce0a4f9ab))
  )

  (symbol (lib_id "power:GND") (at 215.9 87.63 0) (unit 1)
    (in_bom yes) (on_board yes)
    (uuid 00000000-0000-0000-0000-000061b6eb98)
    (property "Reference" "#PWR0101" (id 0) (at 215.9 93.98 0)
      (effects (font (size 1.27 1.27)) hide)
    )
    (property "Value" "GND" (id 1) (at 216.027 92.0242 0))
    (property "Footprint" "" (id 2) (at 215.9 87.63 0)
      (effects (font (size 1.27 1.27)) hide)
    )
    (property "Datasheet" "" (id 3) (at 215.9 87.63 0)
      (effects (font (size 1.27 1.27)) hide)
    )
    (pin "1" (uuid c1969b61-b245-4815-b4d3-68200068d7f6))
  )

  (symbol (lib_id "power:+5V") (at 138.43 77.47 90) (unit 1)
    (in_bom yes) (on_board yes)
    (uuid 00000000-0000-0000-0000-000061b724ce)
    (property "Reference" "#PWR0102" (id 0) (at 142.24 77.47 0)
      (effects (font (size 1.27 1.27)) hide)
    )
    (property "Value" "+5V" (id 1) (at 135.1788 77.089 90)
      (effects (font (size 1.27 1.27)) (justify left))
    )
    (property "Footprint" "" (id 2) (at 138.43 77.47 0)
      (effects (font (size 1.27 1.27)) hide)
    )
    (property "Datasheet" "" (id 3) (at 138.43 77.47 0)
      (effects (font (size 1.27 1.27)) hide)
    )
    (pin "1" (uuid 5a522532-c099-4876-a60e-0f1006686a2e))
  )

  (symbol (lib_id "power:GND") (at 138.43 80.01 270) (unit 1)
    (in_bom yes) (on_board yes)
    (uuid 00000000-0000-0000-0000-000061b72c16)
    (property "Reference" "#PWR0103" (id 0) (at 132.08 80.01 0)
      (effects (font (size 1.27 1.27)) hide)
    )
    (property "Value" "GND" (id 1) (at 135.1788 80.137 90)
      (effects (font (size 1.27 1.27)) (justify right))
    )
    (property "Footprint" "" (id 2) (at 138.43 80.01 0)
      (effects (font (size 1.27 1.27)) hide)
    )
    (property "Datasheet" "" (id 3) (at 138.43 80.01 0)
      (effects (font (size 1.27 1.27)) hide)
    )
    (pin "1" (uuid 9f4f3253-0c82-469b-b8df-d3a639d1e412))
  )

  (symbol (lib_id "power:GND") (at 151.13 113.03 0) (unit 1)
    (in_bom yes) (on_board yes)
    (uuid 00000000-0000-0000-0000-000061b75377)
    (property "Reference" "#PWR0104" (id 0) (at 151.13 119.38 0)
      (effects (font (size 1.27 1.27)) hide)
    )
    (property "Value" "GND" (id 1) (at 151.257 117.4242 0))
    (property "Footprint" "" (id 2) (at 151.13 113.03 0)
      (effects (font (size 1.27 1.27)) hide)
    )
    (property "Datasheet" "" (id 3) (at 151.13 113.03 0)
      (effects (font (size 1.27 1.27)) hide)
    )
    (pin "1" (uuid 47040ab8-79eb-465d-90a7-1bd96a23c7f6))
  )

  (symbol (lib_id "Connector:DB15_Female_HighDensity_MountingHoles") (at 68.58 62.23 0) (unit 1)
    (in_bom yes) (on_board yes)
    (uuid 00000000-0000-0000-0000-000061b7714c)
    (property "Reference" "J2" (id 0) (at 68.58 40.2082 0))
    (property "Value" "DB15_Female_HighDensity_MountingHoles" (id 1) (at 68.58 42.5196 0))
    (property "Footprint" "Connector_Dsub:DSUB-15-HD_Female_Horizontal_P2.29x1.98mm_EdgePinOffset3.03mm_Housed_MountingHolesOffset4.94mm" (id 2) (at 44.45 52.07 0)
      (effects (font (size 1.27 1.27)) hide)
    )
    (property "Datasheet" " ~" (id 3) (at 44.45 52.07 0)
      (effects (font (size 1.27 1.27)) hide)
    )
    (pin "0" (uuid d906cd8c-9a05-4219-8970-0f2bf9d1a196))
    (pin "1" (uuid 4247befd-0d16-4ebd-a92f-3444732c9704))
    (pin "10" (uuid 2dc3e3f9-4b13-4051-a201-8af13b42920c))
    (pin "11" (uuid 6830b686-8f65-40d0-b5bd-b76565b8812f))
    (pin "12" (uuid 408d34fb-0560-46fe-a97d-fa2907e19b44))
    (pin "13" (uuid 7b7c1f99-4966-4117-978f-9bb940477fff))
    (pin "14" (uuid 45a260b8-a248-4ed9-815b-5c58324a0924))
    (pin "15" (uuid 2e586188-20da-44b2-8162-f49779759fcb))
    (pin "2" (uuid 671c75fc-acdd-4b69-81e4-5724da1b91ee))
    (pin "3" (uuid d155ad49-6117-48b3-b161-d4830d152e09))
    (pin "4" (uuid 190fdb79-a330-4937-a7b9-527e44f21ecf))
    (pin "5" (uuid 28116a65-8136-49d2-b890-3748c3d7a184))
    (pin "6" (uuid 40742026-ea4c-43e3-8e94-6eac2f43017c))
    (pin "7" (uuid fef70a5f-33ea-4d87-9da3-13500f089d74))
    (pin "8" (uuid 9ddb09c5-a620-46bb-9020-13a3ef34e86b))
    (pin "9" (uuid 24359795-3db5-4027-9776-7ceb6e002fe7))
  )

  (symbol (lib_id "power:+5V") (at 57.15 64.77 90) (unit 1)
    (in_bom yes) (on_board yes)
    (uuid 00000000-0000-0000-0000-000061b7aa81)
    (property "Reference" "#PWR0105" (id 0) (at 60.96 64.77 0)
      (effects (font (size 1.27 1.27)) hide)
    )
    (property "Value" "+5V" (id 1) (at 53.8988 64.389 90)
      (effects (font (size 1.27 1.27)) (justify left))
    )
    (property "Footprint" "" (id 2) (at 57.15 64.77 0)
      (effects (font (size 1.27 1.27)) hide)
    )
    (property "Datasheet" "" (id 3) (at 57.15 64.77 0)
      (effects (font (size 1.27 1.27)) hide)
    )
    (pin "1" (uuid b425c13b-b80b-4bd7-84ce-091feba82959))
  )

  (symbol (lib_id "power:GND") (at 59.69 49.53 270) (unit 1)
    (in_bom yes) (on_board yes)
    (uuid 00000000-0000-0000-0000-000061b7e1b0)
    (property "Reference" "#PWR0106" (id 0) (at 53.34 49.53 0)
      (effects (font (size 1.27 1.27)) hide)
    )
    (property "Value" "GND" (id 1) (at 56.4388 49.657 90)
      (effects (font (size 1.27 1.27)) (justify right))
    )
    (property "Footprint" "" (id 2) (at 59.69 49.53 0)
      (effects (font (size 1.27 1.27)) hide)
    )
    (property "Datasheet" "" (id 3) (at 59.69 49.53 0)
      (effects (font (size 1.27 1.27)) hide)
    )
    (pin "1" (uuid 4bdebde4-70c5-4275-be6c-6a0928e938ce))
  )

  (symbol (lib_id "power:GND") (at 59.69 54.61 270) (unit 1)
    (in_bom yes) (on_board yes)
    (uuid 00000000-0000-0000-0000-000061b804a7)
    (property "Reference" "#PWR0107" (id 0) (at 53.34 54.61 0)
      (effects (font (size 1.27 1.27)) hide)
    )
    (property "Value" "GND" (id 1) (at 56.4388 54.737 90)
      (effects (font (size 1.27 1.27)) (justify right))
    )
    (property "Footprint" "" (id 2) (at 59.69 54.61 0)
      (effects (font (size 1.27 1.27)) hide)
    )
    (property "Datasheet" "" (id 3) (at 59.69 54.61 0)
      (effects (font (size 1.27 1.27)) hide)
    )
    (pin "1" (uuid 7038fc68-f09a-4bbf-9f36-6094cae9ad99))
  )

  (symbol (lib_id "power:GND") (at 59.69 59.69 270) (unit 1)
    (in_bom yes) (on_board yes)
    (uuid 00000000-0000-0000-0000-000061b806a3)
    (property "Reference" "#PWR0108" (id 0) (at 53.34 59.69 0)
      (effects (font (size 1.27 1.27)) hide)
    )
    (property "Value" "GND" (id 1) (at 56.4388 59.817 90)
      (effects (font (size 1.27 1.27)) (justify right))
    )
    (property "Footprint" "" (id 2) (at 59.69 59.69 0)
      (effects (font (size 1.27 1.27)) hide)
    )
    (property "Datasheet" "" (id 3) (at 59.69 59.69 0)
      (effects (font (size 1.27 1.27)) hide)
    )
    (pin "1" (uuid c7fd7ec8-17fd-4cdf-8b68-f78b5a14cac0))
  )

  (symbol (lib_id "power:GND") (at 59.69 69.85 270) (unit 1)
    (in_bom yes) (on_board yes)
    (uuid 00000000-0000-0000-0000-000061b80878)
    (property "Reference" "#PWR0109" (id 0) (at 53.34 69.85 0)
      (effects (font (size 1.27 1.27)) hide)
    )
    (property "Value" "GND" (id 1) (at 56.4388 69.977 90)
      (effects (font (size 1.27 1.27)) (justify right))
    )
    (property "Footprint" "" (id 2) (at 59.69 69.85 0)
      (effects (font (size 1.27 1.27)) hide)
    )
    (property "Datasheet" "" (id 3) (at 59.69 69.85 0)
      (effects (font (size 1.27 1.27)) hide)
    )
    (pin "1" (uuid c2a97261-f509-4885-97cb-5b6d148e1c64))
  )

  (symbol (lib_id "power:GND") (at 59.69 72.39 270) (unit 1)
    (in_bom yes) (on_board yes)
    (uuid 00000000-0000-0000-0000-000061b81927)
    (property "Reference" "#PWR0110" (id 0) (at 53.34 72.39 0)
      (effects (font (size 1.27 1.27)) hide)
    )
    (property "Value" "GND" (id 1) (at 56.4388 72.517 90)
      (effects (font (size 1.27 1.27)) (justify right))
    )
    (property "Footprint" "" (id 2) (at 59.69 72.39 0)
      (effects (font (size 1.27 1.27)) hide)
    )
    (property "Datasheet" "" (id 3) (at 59.69 72.39 0)
      (effects (font (size 1.27 1.27)) hide)
    )
    (pin "1" (uuid 5c92880d-75cd-45c8-8f01-b5de017c1137))
  )

  (symbol (lib_id "Connector:Conn_Coaxial") (at 215.9 101.6 0) (unit 1)
    (in_bom yes) (on_board yes)
    (uuid 00000000-0000-0000-0000-000061b82cf8)
    (property "Reference" "J8" (id 0) (at 218.44 102.235 0)
      (effects (font (size 1.27 1.27)) (justify left))
    )
    (property "Value" "Conn_Coaxial" (id 1) (at 218.44 104.5464 0)
      (effects (font (size 1.27 1.27)) (justify left))
    )
    (property "Footprint" "Connector_Coaxial:AV-8.4-9" (id 2) (at 215.9 101.6 0)
      (effects (font (size 1.27 1.27)) hide)
    )
    (property "Datasheet" " ~" (id 3) (at 215.9 101.6 0)
      (effects (font (size 1.27 1.27)) hide)
    )
    (pin "1" (uuid f1683fbc-2215-44dd-8b84-1cfece608311))
    (pin "2" (uuid a95c9cf3-e7f6-4e55-af82-e835c376a250))
  )

  (symbol (lib_id "power:GND") (at 215.9 107.95 0) (unit 1)
    (in_bom yes) (on_board yes)
    (uuid 00000000-0000-0000-0000-000061b8415c)
    (property "Reference" "#PWR0111" (id 0) (at 215.9 114.3 0)
      (effects (font (size 1.27 1.27)) hide)
    )
    (property "Value" "GND" (id 1) (at 216.027 112.3442 0))
    (property "Footprint" "" (id 2) (at 215.9 107.95 0)
      (effects (font (size 1.27 1.27)) hide)
    )
    (property "Datasheet" "" (id 3) (at 215.9 107.95 0)
      (effects (font (size 1.27 1.27)) hide)
    )
    (pin "1" (uuid f2eab007-30a1-4c27-81e0-305dd9402cb8))
  )

  (symbol (lib_id "Connector:USB_C_Receptacle_USB2.0") (at 55.88 116.84 0) (unit 1)
    (in_bom yes) (on_board yes)
    (uuid 00000000-0000-0000-0000-000061b85fa9)
    (property "Reference" "J1" (id 0) (at 58.5978 94.8182 0))
    (property "Value" "USB_C_Receptacle_USB2.0" (id 1) (at 58.5978 97.1296 0))
    (property "Footprint" "Connector_USB:USB_C_Receptacle_HRO_TYPE-C-31-M-12" (id 2) (at 59.69 116.84 0)
      (effects (font (size 1.27 1.27)) hide)
    )
    (property "Datasheet" "https://www.usb.org/sites/default/files/documents/usb_type-c.zip" (id 3) (at 59.69 116.84 0)
      (effects (font (size 1.27 1.27)) hide)
    )
    (pin "A1" (uuid e0076102-0524-4582-9e8f-06be458e242b))
    (pin "A12" (uuid fc5f30c0-eb37-4e12-adf2-96b06c9ae2b0))
    (pin "A4" (uuid 5b870291-967e-4c9e-8b0f-1f856af9254b))
    (pin "A5" (uuid 6267cf9e-2bb7-41cf-b797-a3723b70bd4e))
    (pin "A6" (uuid 16ea58e6-9828-4c93-b5c9-7fd50a8b4c8b))
    (pin "A7" (uuid a756a93b-d67c-4865-ac49-bf164ddfaadd))
    (pin "A8" (uuid 6ef917ad-e7a7-44d4-960e-0a695a22a56a))
    (pin "A9" (uuid c1cbd75f-bf62-4ede-ba0f-7879558c5066))
    (pin "B1" (uuid 65f0d96e-065d-480a-a525-df42800bfad7))
    (pin "B12" (uuid b258ce5c-af84-4168-93e6-9c5979735585))
    (pin "B4" (uuid 20e66317-21b1-45ec-8da8-aabec739d38c))
    (pin "B5" (uuid 0b7f5f29-b481-4a67-96e9-365200a7abd4))
    (pin "B6" (uuid 9548552b-9f61-4952-9af2-3aaf42b407dc))
    (pin "B7" (uuid 41bca582-eb59-4799-bbdc-84ce308dfda2))
    (pin "B8" (uuid 55974a80-eb08-4939-b8d4-c9ea5275a5e6))
    (pin "B9" (uuid e5465c0c-e39e-4be8-b29c-96f9d6a956d6))
    (pin "S1" (uuid a38d9982-19ca-4909-9b02-9ea45980958a))
  )

  (symbol (lib_id "power:+5V") (at 76.2 96.52 0) (unit 1)
    (in_bom yes) (on_board yes)
    (uuid 00000000-0000-0000-0000-000061b8b387)
    (property "Reference" "#PWR0112" (id 0) (at 76.2 100.33 0)
      (effects (font (size 1.27 1.27)) hide)
    )
    (property "Value" "+5V" (id 1) (at 76.581 92.1258 0))
    (property "Footprint" "" (id 2) (at 76.2 96.52 0)
      (effects (font (size 1.27 1.27)) hide)
    )
    (property "Datasheet" "" (id 3) (at 76.2 96.52 0)
      (effects (font (size 1.27 1.27)) hide)
    )
    (pin "1" (uuid 06140a8e-ccbb-44fa-a8d8-4709cf1ae528))
  )

  (symbol (lib_id "power:GND") (at 48.26 140.97 0) (unit 1)
    (in_bom yes) (on_board yes)
    (uuid 00000000-0000-0000-0000-000061b8cc17)
    (property "Reference" "#PWR0113" (id 0) (at 48.26 147.32 0)
      (effects (font (size 1.27 1.27)) hide)
    )
    (property "Value" "GND" (id 1) (at 48.387 145.3642 0))
    (property "Footprint" "" (id 2) (at 48.26 140.97 0)
      (effects (font (size 1.27 1.27)) hide)
    )
    (property "Datasheet" "" (id 3) (at 48.26 140.97 0)
      (effects (font (size 1.27 1.27)) hide)
    )
    (pin "1" (uuid 3f018236-bbe6-4d72-a1d3-86d2c5888254))
  )

  (symbol (lib_id "power:GND") (at 55.88 140.97 0) (unit 1)
    (in_bom yes) (on_board yes)
    (uuid 00000000-0000-0000-0000-000061b8e00c)
    (property "Reference" "#PWR0114" (id 0) (at 55.88 147.32 0)
      (effects (font (size 1.27 1.27)) hide)
    )
    (property "Value" "GND" (id 1) (at 56.007 145.3642 0))
    (property "Footprint" "" (id 2) (at 55.88 140.97 0)
      (effects (font (size 1.27 1.27)) hide)
    )
    (property "Datasheet" "" (id 3) (at 55.88 140.97 0)
      (effects (font (size 1.27 1.27)) hide)
    )
    (pin "1" (uuid f2da1a7b-d890-422b-8e3f-9c8a059cd113))
  )

  (symbol (lib_id "Device:R") (at 77.47 106.68 270) (unit 1)
    (in_bom yes) (on_board yes)
    (uuid 00000000-0000-0000-0000-000061b8f2c6)
    (property "Reference" "R1" (id 0) (at 76.2 104.14 90))
    (property "Value" "5k1" (id 1) (at 77.47 106.68 90))
    (property "Footprint" "Resistor_SMD:R_1206_3216Metric" (id 2) (at 77.47 104.902 90)
      (effects (font (size 1.27 1.27)) hide)
    )
    (property "Datasheet" "~" (id 3) (at 77.47 106.68 0)
      (effects (font (size 1.27 1.27)) hide)
    )
    (pin "1" (uuid fa4821db-3cce-429f-a912-f672bf624ff8))
    (pin "2" (uuid 02c204a9-09fd-4295-94c6-a37c915310ed))
  )

  (symbol (lib_id "power:GND") (at 82.55 111.76 0) (unit 1)
    (in_bom yes) (on_board yes)
    (uuid 00000000-0000-0000-0000-000061b93ecf)
    (property "Reference" "#PWR0115" (id 0) (at 82.55 118.11 0)
      (effects (font (size 1.27 1.27)) hide)
    )
    (property "Value" "GND" (id 1) (at 82.677 116.1542 0))
    (property "Footprint" "" (id 2) (at 82.55 111.76 0)
      (effects (font (size 1.27 1.27)) hide)
    )
    (property "Datasheet" "" (id 3) (at 82.55 111.76 0)
      (effects (font (size 1.27 1.27)) hide)
    )
    (pin "1" (uuid d2beb1a2-a592-4d64-94a7-615b20227469))
  )

  (symbol (lib_id "Mechanical:MountingHole") (at 242.57 139.7 180) (unit 1)
    (in_bom yes) (on_board yes)
    (uuid 00000000-0000-0000-0000-000061b9f7d4)
    (property "Reference" "H1" (id 0) (at 245.11 138.5316 0)
      (effects (font (size 1.27 1.27)) (justify right))
    )
    (property "Value" "MountingHole" (id 1) (at 245.11 140.843 0)
      (effects (font (size 1.27 1.27)) (justify right))
    )
    (property "Footprint" "MountingHole:MountingHole_2.1mm" (id 2) (at 242.57 139.7 0)
      (effects (font (size 1.27 1.27)) hide)
    )
    (property "Datasheet" "~" (id 3) (at 242.57 139.7 0)
      (effects (font (size 1.27 1.27)) hide)
    )
  )

  (symbol (lib_id "Mechanical:MountingHole") (at 242.57 144.78 180) (unit 1)
    (in_bom yes) (on_board yes)
    (uuid 00000000-0000-0000-0000-000061ba2bc2)
    (property "Reference" "H2" (id 0) (at 245.11 143.6116 0)
      (effects (font (size 1.27 1.27)) (justify right))
    )
    (property "Value" "MountingHole" (id 1) (at 245.11 145.923 0)
      (effects (font (size 1.27 1.27)) (justify right))
    )
    (property "Footprint" "MountingHole:MountingHole_2.1mm" (id 2) (at 242.57 144.78 0)
      (effects (font (size 1.27 1.27)) hide)
    )
    (property "Datasheet" "~" (id 3) (at 242.57 144.78 0)
      (effects (font (size 1.27 1.27)) hide)
    )
  )

  (symbol (lib_id "Mechanical:MountingHole") (at 242.57 149.86 180) (unit 1)
    (in_bom yes) (on_board yes)
    (uuid 00000000-0000-0000-0000-000061ba2c47)
    (property "Reference" "H3" (id 0) (at 245.11 148.6916 0)
      (effects (font (size 1.27 1.27)) (justify right))
    )
    (property "Value" "MountingHole" (id 1) (at 245.11 151.003 0)
      (effects (font (size 1.27 1.27)) (justify right))
    )
    (property "Footprint" "MountingHole:MountingHole_2.1mm" (id 2) (at 242.57 149.86 0)
      (effects (font (size 1.27 1.27)) hide)
    )
    (property "Datasheet" "~" (id 3) (at 242.57 149.86 0)
      (effects (font (size 1.27 1.27)) hide)
    )
  )

  (symbol (lib_id "Mechanical:MountingHole") (at 242.57 154.94 180) (unit 1)
    (in_bom yes) (on_board yes)
    (uuid 00000000-0000-0000-0000-000061ba2ccc)
    (property "Reference" "H4" (id 0) (at 245.11 153.7716 0)
      (effects (font (size 1.27 1.27)) (justify right))
    )
    (property "Value" "MountingHole" (id 1) (at 245.11 156.083 0)
      (effects (font (size 1.27 1.27)) (justify right))
    )
    (property "Footprint" "MountingHole:MountingHole_2.1mm" (id 2) (at 242.57 154.94 0)
      (effects (font (size 1.27 1.27)) hide)
    )
    (property "Datasheet" "~" (id 3) (at 242.57 154.94 0)
      (effects (font (size 1.27 1.27)) hide)
    )
  )

  (symbol (lib_id "Connector_Generic:Conn_01x01") (at 127 95.25 180) (unit 1)
    (in_bom yes) (on_board yes)
    (uuid 00000000-0000-0000-0000-000061be8edb)
    (property "Reference" "J9" (id 0) (at 129.0828 89.535 0))
    (property "Value" "Conn_01x01" (id 1) (at 129.0828 91.8464 0))
    (property "Footprint" "TestPoint:TestPoint_Pad_1.5x1.5mm" (id 2) (at 127 95.25 0)
      (effects (font (size 1.27 1.27)) hide)
    )
    (property "Datasheet" "~" (id 3) (at 127 95.25 0)
      (effects (font (size 1.27 1.27)) hide)
    )
    (pin "1" (uuid a58b021d-f7f1-469a-b14f-2ccb7b1c63b4))
  )

  (symbol (lib_id "Connector_Generic:Conn_01x01") (at 127 107.95 180) (unit 1)
    (in_bom yes) (on_board yes)
    (uuid 00000000-0000-0000-0000-000061be99e4)
    (property "Reference" "J10" (id 0) (at 129.0828 102.235 0))
    (property "Value" "Conn_01x01" (id 1) (at 129.0828 104.5464 0))
    (property "Footprint" "TestPoint:TestPoint_Pad_1.5x1.5mm" (id 2) (at 127 107.95 0)
      (effects (font (size 1.27 1.27)) hide)
    )
    (property "Datasheet" "~" (id 3) (at 127 107.95 0)
      (effects (font (size 1.27 1.27)) hide)
    )
    (pin "1" (uuid 39fef770-0271-4b9d-b377-eca0ec10c9f0))
  )

  (symbol (lib_id "Device:C_Polarized") (at 144.78 29.21 0) (unit 1)
    (in_bom yes) (on_board yes) (fields_autoplaced)
    (uuid 145b7d46-7bd4-4ee4-8136-50beb81c7f77)
    (property "Reference" "C2" (id 0) (at 147.701 27.4125 0)
      (effects (font (size 1.27 1.27)) (justify left))
    )
    (property "Value" "C_Polarized" (id 1) (at 147.701 30.1876 0)
      (effects (font (size 1.27 1.27)) (justify left))
    )
    (property "Footprint" "Capacitor_SMD:CP_Elec_6.3x7.7" (id 2) (at 145.7452 33.02 0)
      (effects (font (size 1.27 1.27)) hide)
    )
    (property "Datasheet" "~" (id 3) (at 144.78 29.21 0)
      (effects (font (size 1.27 1.27)) hide)
    )
    (pin "1" (uuid 1b03311f-6d16-4213-808a-96597816d097))
    (pin "2" (uuid 3e85f78b-004a-4a21-9691-8920952aaa64))
  )

  (symbol (lib_id "power:GND") (at 137.16 35.56 0) (unit 1)
    (in_bom yes) (on_board yes)
    (uuid 548bca60-d5c9-4bdc-aaa5-7debd2939eac)
    (property "Reference" "#PWR0116" (id 0) (at 137.16 41.91 0)
      (effects (font (size 1.27 1.27)) hide)
    )
    (property "Value" "GND" (id 1) (at 137.287 39.9542 0))
    (property "Footprint" "" (id 2) (at 137.16 35.56 0)
      (effects (font (size 1.27 1.27)) hide)
    )
    (property "Datasheet" "" (id 3) (at 137.16 35.56 0)
      (effects (font (size 1.27 1.27)) hide)
    )
    (pin "1" (uuid 07bf9ba0-bd26-4829-bd7d-7c82c8614802))
  )

  (symbol (lib_id "Device:C") (at 137.16 29.21 0) (unit 1)
    (in_bom yes) (on_board yes) (fields_autoplaced)
    (uuid 99c0b885-9395-4eaa-a204-8d7dea094883)
    (property "Reference" "C1" (id 0) (at 140.081 28.3015 0)
      (effects (font (size 1.27 1.27)) (justify left))
    )
    (property "Value" "220u" (id 1) (at 140.081 31.0766 0)
      (effects (font (size 1.27 1.27)) (justify left))
    )
    (property "Footprint" "Capacitor_SMD:C_1206_3216Metric_Pad1.33x1.80mm_HandSolder" (id 2) (at 138.1252 33.02 0)
      (effects (font (size 1.27 1.27)) hide)
    )
    (property "Datasheet" "~" (id 3) (at 137.16 29.21 0)
      (effects (font (size 1.27 1.27)) hide)
    )
    (pin "1" (uuid 3742a313-c63e-4807-a7bf-be5a0ae2c781))
    (pin "2" (uuid ed76cb21-0b5e-4ca2-8075-7e28e38e7199))
  )

  (symbol (lib_id "power:+5V") (at 137.16 22.86 0) (unit 1)
    (in_bom yes) (on_board yes)
    (uuid b0981524-dfa9-4069-82dc-c3fd37572497)
    (property "Reference" "#PWR0117" (id 0) (at 137.16 26.67 0)
      (effects (font (size 1.27 1.27)) hide)
    )
    (property "Value" "+5V" (id 1) (at 137.541 18.4658 0))
    (property "Footprint" "" (id 2) (at 137.16 22.86 0)
      (effects (font (size 1.27 1.27)) hide)
    )
    (property "Datasheet" "" (id 3) (at 137.16 22.86 0)
      (effects (font (size 1.27 1.27)) hide)
    )
    (pin "1" (uuid 3fca4fca-dd7e-4195-a285-ed2ccbc41971))
  )

  (symbol (lib_id "Device:R") (at 77.47 109.22 270) (unit 1)
    (in_bom yes) (on_board yes)
    (uuid e0795232-a4f5-40af-bd8a-4a69f1a39aa6)
    (property "Reference" "R2" (id 0) (at 76.2 111.76 90))
    (property "Value" "5k1" (id 1) (at 77.47 109.22 90))
    (property "Footprint" "Resistor_SMD:R_1206_3216Metric" (id 2) (at 77.47 107.442 90)
      (effects (font (size 1.27 1.27)) hide)
    )
    (property "Datasheet" "~" (id 3) (at 77.47 109.22 0)
      (effects (font (size 1.27 1.27)) hide)
    )
    (pin "1" (uuid 7966563c-e279-4a7c-bf41-af45d42c4a74))
    (pin "2" (uuid 33193802-955d-4a94-98cf-a3ed27526865))
  )

  (sheet_instances
    (path "/" (page "1"))
  )

  (symbol_instances
    (path "/00000000-0000-0000-0000-000061b6eb98"
      (reference "#PWR0101") (unit 1) (value "GND") (footprint "")
    )
    (path "/00000000-0000-0000-0000-000061b724ce"
      (reference "#PWR0102") (unit 1) (value "+5V") (footprint "")
    )
    (path "/00000000-0000-0000-0000-000061b72c16"
      (reference "#PWR0103") (unit 1) (value "GND") (footprint "")
    )
    (path "/00000000-0000-0000-0000-000061b75377"
      (reference "#PWR0104") (unit 1) (value "GND") (footprint "")
    )
    (path "/00000000-0000-0000-0000-000061b7aa81"
      (reference "#PWR0105") (unit 1) (value "+5V") (footprint "")
    )
    (path "/00000000-0000-0000-0000-000061b7e1b0"
      (reference "#PWR0106") (unit 1) (value "GND") (footprint "")
    )
    (path "/00000000-0000-0000-0000-000061b804a7"
      (reference "#PWR0107") (unit 1) (value "GND") (footprint "")
    )
    (path "/00000000-0000-0000-0000-000061b806a3"
      (reference "#PWR0108") (unit 1) (value "GND") (footprint "")
    )
    (path "/00000000-0000-0000-0000-000061b80878"
      (reference "#PWR0109") (unit 1) (value "GND") (footprint "")
    )
    (path "/00000000-0000-0000-0000-000061b81927"
      (reference "#PWR0110") (unit 1) (value "GND") (footprint "")
    )
    (path "/00000000-0000-0000-0000-000061b8415c"
      (reference "#PWR0111") (unit 1) (value "GND") (footprint "")
    )
    (path "/00000000-0000-0000-0000-000061b8b387"
      (reference "#PWR0112") (unit 1) (value "+5V") (footprint "")
    )
    (path "/00000000-0000-0000-0000-000061b8cc17"
      (reference "#PWR0113") (unit 1) (value "GND") (footprint "")
    )
    (path "/00000000-0000-0000-0000-000061b8e00c"
      (reference "#PWR0114") (unit 1) (value "GND") (footprint "")
    )
    (path "/00000000-0000-0000-0000-000061b93ecf"
      (reference "#PWR0115") (unit 1) (value "GND") (footprint "")
    )
    (path "/548bca60-d5c9-4bdc-aaa5-7debd2939eac"
      (reference "#PWR0116") (unit 1) (value "GND") (footprint "")
    )
    (path "/b0981524-dfa9-4069-82dc-c3fd37572497"
      (reference "#PWR0117") (unit 1) (value "+5V") (footprint "")
    )
    (path "/99c0b885-9395-4eaa-a204-8d7dea094883"
      (reference "C1") (unit 1) (value "220u") (footprint "Capacitor_SMD:C_1206_3216Metric_Pad1.33x1.80mm_HandSolder")
    )
    (path "/145b7d46-7bd4-4ee4-8136-50beb81c7f77"
      (reference "C2") (unit 1) (value "C_Polarized") (footprint "Capacitor_SMD:CP_Elec_6.3x7.7")
    )
    (path "/00000000-0000-0000-0000-000061b9f7d4"
      (reference "H1") (unit 1) (value "MountingHole") (footprint "MountingHole:MountingHole_2.1mm")
    )
    (path "/00000000-0000-0000-0000-000061ba2bc2"
      (reference "H2") (unit 1) (value "MountingHole") (footprint "MountingHole:MountingHole_2.1mm")
    )
    (path "/00000000-0000-0000-0000-000061ba2c47"
      (reference "H3") (unit 1) (value "MountingHole") (footprint "MountingHole:MountingHole_2.1mm")
    )
    (path "/00000000-0000-0000-0000-000061ba2ccc"
      (reference "H4") (unit 1) (value "MountingHole") (footprint "MountingHole:MountingHole_2.1mm")
    )
    (path "/00000000-0000-0000-0000-000061b85fa9"
      (reference "J1") (unit 1) (value "USB_C_Receptacle_USB2.0") (footprint "Connector_USB:USB_C_Receptacle_HRO_TYPE-C-31-M-12")
    )
    (path "/00000000-0000-0000-0000-000061b7714c"
      (reference "J2") (unit 1) (value "DB15_Female_HighDensity_MountingHoles") (footprint "Connector_Dsub:DSUB-15-HD_Female_Horizontal_P2.29x1.98mm_EdgePinOffset3.03mm_Housed_MountingHolesOffset4.94mm")
    )
    (path "/00000000-0000-0000-0000-000061b6ab79"
      (reference "J3") (unit 1) (value "Conn_Coaxial") (footprint "Connector_Coaxial:AV-8.4-9")
    )
    (path "/00000000-0000-0000-0000-000061b6bac2"
      (reference "J4") (unit 1) (value "Conn_Coaxial") (footprint "Connector_Coaxial:AV-8.4-9")
    )
    (path "/00000000-0000-0000-0000-000061b6c766"
      (reference "J5") (unit 1) (value "Conn_Coaxial") (footprint "Connector_Coaxial:AV-8.4-9")
    )
    (path "/00000000-0000-0000-0000-000061b6d2d5"
      (reference "J6") (unit 1) (value "Conn_Coaxial") (footprint "Connector_Coaxial:AV-8.4-9")
    )
    (path "/00000000-0000-0000-0000-000061b6de4c"
      (reference "J7") (unit 1) (value "Conn_Coaxial") (footprint "Connector_Coaxial:AV-8.4-9")
    )
    (path "/00000000-0000-0000-0000-000061b82cf8"
      (reference "J8") (unit 1) (value "Conn_Coaxial") (footprint "Connector_Coaxial:AV-8.4-9")
    )
    (path "/00000000-0000-0000-0000-000061be8edb"
      (reference "J9") (unit 1) (value "Conn_01x01") (footprint "TestPoint:TestPoint_Pad_1.5x1.5mm")
    )
    (path "/00000000-0000-0000-0000-000061be99e4"
      (reference "J10") (unit 1) (value "Conn_01x01") (footprint "TestPoint:TestPoint_Pad_1.5x1.5mm")
    )
    (path "/00000000-0000-0000-0000-000061b8f2c6"
      (reference "R1") (unit 1) (value "5k1") (footprint "Resistor_SMD:R_1206_3216Metric")
    )
    (path "/e0795232-a4f5-40af-bd8a-4a69f1a39aa6"
      (reference "R2") (unit 1) (value "5k1") (footprint "Resistor_SMD:R_1206_3216Metric")
    )
    (path "/00000000-0000-0000-0000-000061b69874"
      (reference "SW1") (unit 1) (value "SW_Push_SPDT") (footprint "Button_Switch_THT:SW_CuK_OS102011MA1QN1_SPDT_Angled")
    )
    (path "/00000000-0000-0000-0000-000061b6a696"
      (reference "SW2") (unit 1) (value "SW_Push_SPDT") (footprint "Button_Switch_THT:SW_CuK_OS102011MA1QN1_SPDT_Angled")
    )
    (path "/00000000-0000-0000-0000-000061b67e9c"
      (reference "U1") (unit 1) (value "Analog2HDMI") (footprint "Analog2HDMI:Analog2HDMI")
    )
  )
)
